{
  "type": "service_account",
  "project_id": "gwt-streetco",
  "private_key_id": "2c47ff0ada737945e5c8a12d7b6a0827c5fb1fea",
  "private_key": "-----BEGIN PRIVATE KEY-----\nMIIEvgIBADANBgkqhkiG9w0BAQEFAASCBKgwggSkAgEAAoIBAQCrSis9VgVVPlba\nfs2JLBmQpt3MtyY5T6u1d/9oZ2WAukscRnQBAO145oo6t1REHhdHYWtzPvw0UNn0\nSMGtHN3/qEo7KQDQysHs6TZe4blb9kZ3rXCTeYwIpBk/1J6NApKjX+VnEE9YvivZ\nA9QATIBysD0EMh9an6OLAdSDctb/19ym0NZ0TGLAcPo246lnvD2WW5/FwDi6L+vX\nuPftOAt0lfjegihXWtbZl/+MKnJdLcKTEI9SlGsvSgG7kME52NZ+rNvURhPwhJ5V\nLgKXopT3nFn7Xuhiz5UY2e6U6Y0Pw4KlOMvObsKwUTBnENCll1jjGPheRwgNBaLi\n6qZcoTqnAgMBAAECggEBAKlqbmH4FsY9JkJtcHTf/Vko8e9spo3A0yBlU2S7/5TW\nrTuGI25qsHYH72grs1i8OmILZO9TuLc10Jzg6U6DYr9egC0LXRcls7DS6UfnEiJ2\n7zOng9UZPvu88oxDi54EkWytiIPric9IKK44LxMsl07YKUFhIcnMY0E1yi9JAoWA\nIPYV83g/6Ma2i93MAxPKktAZDG6soWxRZfUc0u4+CR/aF2lnidtYbXZG2tyxosMH\nLx/I16sX7cbc0S3jd0ZY0+DAnXiI9HIpCHzzsI8/FFJf6IJOYLPFlbn/O2BytmQo\nKnyCF9MT0Z374PiHz5+jI2IWWKFzZ9SAnp2k8ezwZsECgYEA/3oloLClG4pjcNJn\nABi60i7L6KTvO2kP1PSaoJ45n66b5Vy1hA5E47dcQnv6RCZy/7BHPYATV5XTNzRr\nj905S3BdD14GkknYqsX07nK2KqrfPT0k2KdW4I7Lsm3KFDWdEt4ifmua7Hzwo64A\nSxvdHAwt0f3NsZ9rGpRLWm72BokCgYEAq6Ppz0raCCME+uGOlpLNY0YmaA/0xUt9\ngePhsaSU1RakeNGpDXxvSC1inKX6oPsN6Us9f03GQDNqyOfnKrg7qXnP+Ljjdz5y\n+Y4Bfy1YVI54upmEgO3rhCckoWqqSkT+tgbkLNqrYFfxUq5Rr6QJDkNs5o4tH/1w\nX0WWd6ob668CgYEA8VOdxav3WwufoYxu1Y2GtFKWNX3Pqkw1M1GX2w97mVZkVwX7\nRPIBqyWi1f6sysGTMep/cR3Rp5OUwHoY/P3ZSGSs035bMMbnD3INS006vRVJ6Vwf\nuTRhgaAB1NuW3v5CEPeal9bnsmrXGZadGlYIyJzMj6dzLU1M6/+XKqbUahkCgYBU\nr0/53dWLdDPN0KH4er/pfkAO0eiTu3ZWMug1LJ3eMQi/L7q4E7AYLYRdA6uP565q\nb5wNBoONQ5EpRPoSYsnVCWvqLNbWC7LQnBby952AQrcgYgQ1VK4CCwoQtj8E29vM\nVcQYuV8a7uj7QVS+UzHAntXJP1bWVMYvy3a83epeswKBgEcPmqPhm9/lq/NKhtiG\ngMBNNPdF58T9qyi7/1K0euOamCyMrE4/j6/tOczzuffrlbvLq9EDE9Nw0dSeGXIv\nli0iqazrPWDeUd2VHIESzcUGMi2turOz+idJrPnPVgRUFi/HwIeajwrmQWrr0cBy\nsoUQVF89OjG7hRQo8Ji5XO54\n-----END PRIVATE KEY-----\n",
  "client_email": "gwt-530@gwt-streetco.iam.gserviceaccount.com",
  "client_id": "102053386203254592069",
  "auth_uri": "https://accounts.google.com/o/oauth2/auth",
  "token_uri": "https://accounts.google.com/o/oauth2/token",
  "auth_provider_x509_cert_url": "https://www.googleapis.com/oauth2/v1/certs",
  "client_x509_cert_url": "https://www.googleapis.com/robot/v1/metadata/x509/gwt-530%40gwt-streetco.iam.gserviceaccount.com"
}
