"brno del zou";5;0.11904761904762;42;2.3095238095238;4;0.11111111111111;36;2.3055555555556;1;0.16666666666667;6;2.3333333333333
"jean faucheur";4;0.26666666666667;15;3.1333333333333;4;0.30769230769231;13;3.1538461538462;0;0;2;3
"ren hang prints";3;0.10344827586207;29;6;1;0.0625;16;6;2;0.28571428571429;7;6;0;0;6;6
artigasplanas;3;0.75;4;2;3;0.75;4;2
"damir polic";2;0.5;4;5;1;0.33333333333333;3;3.6666666666667;1;1;1;9
"ayline olukman";2;0.22222222222222;9;5;1;0.14285714285714;7;5;1;0.5;2;5
"benjamin carbonne";2;0.33333333333333;6;4.3333333333333;2;0.4;5;4.4;0;0;1;4
"peintre di rosa";2;0.66666666666667;3;2;2;0.66666666666667;3;2
"edouard buzon";2;0.4;5;5;0;0;2;5;2;0.66666666666667;3;5
"didier triglia";2;0.13333333333333;15;3.6666666666667;2;0.4;5;4.2;0;0;8;3.375;0;0;2;3.5
"agamograph for sale";1;1;1;9;1;1;1;9
"léa chauvel-lévy";1;1;1;2;1;1;1;2
"jack otway art";1;1;1;7;1;1;1;7
"luca di filippo";1;0.014925373134328;67;7.7611940298507;1;0.025641025641026;39;7.1538461538462;0;0;24;8.5;0;0;4;9.25
"lou ros";1;0.5;2;18.5;1;0.5;2;18.5
"yasemin senel";1;0.14285714285714;7;9.7142857142857;1;1;1;8;0;0;6;10
"etienne viard";1;0.5;2;10;1;0.5;2;10
"shahabuddin ahmed paintings for sale";1;0.5;2;18;1;0.5;2;18
"carles valverde";1;1;1;20;1;1;1;20
"nathan chantob";1;1;1;1;1;1;1;1
"catherine seher";1;1;1;8;1;1;1;8
"alexandre devals";1;1;1;3;1;1;1;3
"nils udo";1;0.035714285714286;28;7.75;1;0.043478260869565;23;7.3913043478261;0;0;4;9.75;0;0;1;8
"jace artist";1;0.5;2;10;1;0.5;2;10
zokatos;1;0.16666666666667;6;1.6666666666667;1;0.25;4;1.75;0;0;1;2;0;0;1;1
"monika nowak art";1;0.5;2;2;1;0.5;2;2
"romain cadilhon";1;0.2;5;1.2;1;0.2;5;1.2
"feminin nude";1;1;1;11;1;1;1;11
"gastineau massamba";1;0.5;2;7;0;0;1;9;1;1;1;5
"mel ramos art for sale";1;0.2;5;5;1;0.5;2;5;0;0;3;5
"valerie french sculptor";1;0.5;2;14;1;0.5;2;14
"nola wilson";1;1;1;34;1;1;1;34
"bruno catalano prices";1;0.33333333333333;3;4.6666666666667;1;1;1;4;0;0;1;4;0;0;1;6
"foot fetish";1;1;1;89;1;1;1;89
"kate barry artist";1;0.25;4;7.25;0;0;1;8;1;0.33333333333333;3;7
"caroline yates";1;0.25;4;10;1;0.25;4;10
"brno del zou information";1;1;1;4;1;1;1;4
"panda jiji";1;0.25;4;2;1;0.25;4;2
"bard artist";1;1;1;10;1;1;1;10
"rowan newton art for sale";1;1;1;12;1;1;1;12
"maggie matthews artist";1;1;1;10;1;1;1;10
"alma haser biography";1;0.33333333333333;3;2;1;0.33333333333333;3;2
"giorgio ciam";1;1;1;12;1;1;1;12
"sarah hinckley artist";1;1;1;15;1;1;1;15
"nils udo artwork";1;1;1;7;1;1;1;7
"david brayne artist";1;1;1;17;1;1;1;17
"mel ramos wonder woman";1;0.5;2;10;1;0.5;2;10
"valerie hadida";1;0.076923076923077;13;5.3846153846154;1;0.1;10;4.9;0;0;3;7
"fabio coruzzi";1;0.2;5;9.6;0;0;2;12;0;0;1;8;1;0.5;2;8
"sun hyuk kim";1;0.5;2;1.5;1;1;1;2;0;0;1;1
"petros chrisostomou";1;0.25;4;13.25;1;0.25;4;13.25
"anna bjerger paintings";1;1;1;5;1;1;1;5
"ody saban";1;0.5;2;13;1;0.5;2;13
artsper;1;0.021739130434783;46;1;0;0;39;1;1;0.25;4;1;0;0;3;1
"aris messinis photographer";1;0.5;2;12;1;0.5;2;12
jisbar;1;0.33333333333333;3;4.6666666666667;1;0.33333333333333;3;4.6666666666667
"berrocal miguel";1;1;1;27;1;1;1;27
"tanc artist";1;0.5;2;3;1;0.5;2;3
"jacque villegle";1;0.5;2;10;1;0.5;2;10
"kolaj work";1;0.33333333333333;3;12;1;1;1;18;0;0;2;9
"peter lippmann";1;0.041666666666667;24;7.8333333333333;1;0.05;20;7.95;0;0;3;7.3333333333333;0;0;1;7
"mira maodus";1;0.5;2;5;1;0.5;2;5
"herve telemaque artist";1;1;1;7;1;1;1;7
"claude closky artist";1;1;1;6;1;1;1;6
"kiki picasso";1;0.125;8;5;0;0;4;4.5;1;0.33333333333333;3;4.6666666666667;0;0;1;8
"jean faucheur artist";1;0.33333333333333;3;2;1;0.33333333333333;3;2
"rudolf hausner";0;0;3;10;0;0;3;10
"loving colors";0;0;1;30;0;0;1;30
"crystal wagner";0;0;2;42;0;0;2;42
"artist arman";0;0;1;40;0;0;1;40
"black and white photography for sale";0;0;1;343;0;0;1;343
"modern gallery art fort lauderdale fl";0;0;2;440.5;0;0;1;439;0;0;1;442
"antoni clavé";0;0;2;97;0;0;2;97
"grand hotel de la reine meurthe et moselle";0;0;1;59;0;0;1;59
"art kellerman";0;0;1;27;0;0;1;27
chanoir;0;0;10;6.4;0;0;4;6.5;0;0;1;8;0;0;5;6
"irina ionesco photo";0;0;1;30;0;0;1;30
dubailand;0;0;3;182.33333333333;0;0;1;179;0;0;1;188;0;0;1;180
"sunny ives";0;0;1;176
"arkiv vilmansa";0;0;3;8.3333333333333
"tundra rocks";0;0;1;39;0;0;1;39
"hervé di rosa";0;0;5;4.6;0;0;3;4
"eugene begarat art";0;0;1;2;0;0;1;2
"helmut newton for sale";0;0;1;40
"artistic figure photography";0;0;1;426;0;0;1;426
"simon von barloewen";0;0;1;2;0;0;1;2
"takashi murakami print";0;0;1;50;0;0;1;50
marieanne;0;0;1;344;0;0;1;344
jonvelle;0;0;1;17;0;0;1;17
"art contemporary photography";0;0;1;324;0;0;1;324
kokian;0;0;1;10;0;0;1;10
"jonone art";0;0;2;9;0;0;2;9
"john crash";0;0;5;8.8;0;0;4;8.5;0;0;1;10
"maxime fardeau";0;0;2;10;0;0;2;10
"sculpture for sale";0;0;1;305;0;0;1;305
bruguiere;0;0;2;39;0;0;2;39
"helmut newton prints for sale";0;0;1;32;0;0;1;32
"françois morellet";0;0;2;34;0;0;1;53;0;0;1;15
"francois bard artist";0;0;5;6.8;0;0;2;8;0;0;3;6
"heini klopfer schanze";0;0;1;27;0;0;1;27
"argent 1er titre";0;0;1;20;0;0;1;20
"jasper johns mixed media";0;0;1;33;0;0;1;33
"art & language";0;0;2;82.5;0;0;2;82.5
"yiqiang wu";0;0;1;9;0;0;1;9
"martin kudlek";0;0;2;77.5;0;0;2;77.5
"murakami dob";0;0;1;41;0;0;1;41
"ruta jusionyte";0;0;2;9;0;0;2;9
"fernando garcía ponce";0;0;2;16;0;0;2;16
"tom wesselmann art";0;0;1;41;0;0;1;41
"richard di rosa";0;0;7;11;0;0;7;11
"marko veselinovic";0;0;1;11;0;0;1;11
"miro foundation barcelona";0;0;1;316;0;0;1;316
"jeff koons flower puppy for sale";0;0;2;4.5;0;0;2;4.5
"creepy art for sale";0;0;1;9;0;0;1;9
"ivan messac";0;0;2;5;0;0;2;5
"fabrizio corneli";0;0;7;7.7142857142857;0;0;7;7.7142857142857
"jean michel berts";0;0;2;24;0;0;2;24
balthazar;0;0;1;9;0;0;1;9
"anne brunet";0;0;1;19;0;0;1;19
"branding and logos";0;0;1;418;0;0;1;418
"loader pictures";0;0;1;205;0;0;1;205
watin;0;0;1;71;0;0;1;71
"erro gudmundur";0;0;1;29;0;0;1;29
"galerie vevais";0;0;1;8;0;0;1;8
"envie d'art";0;0;4;8.75;0;0;2;7.5;0;0;2;10
"elisabeth lecourt";0;0;2;10.5;0;0;2;10.5
dooze;0;0;3;39.666666666667;0;0;3;39.666666666667
"blue night";0;0;1;195;0;0;1;195
"jonas “sun7” bournat";0;0;2;3.5;0;0;2;3.5
"berlin gardens poly furniture buffalo ny";0;0;1;98;0;0;1;98
"galerie argentic";0;0;1;10;0;0;1;10
"jean helion";0;0;3;35.666666666667;0;0;3;35.666666666667
"os gemeos print";0;0;1;40;0;0;1;40
"balloon dog sculpture for sale";0;0;1;43;0;0;1;43
"paris hilton";0;0;1;189;0;0;1;189
"dira t on";0;0;1;22;0;0;1;22
"jean georges inca";0;0;2;1;0;0;2;1
paybox;0;0;1;39
"nobuyoshi araki artwork";0;0;1;19;0;0;1;19
"antoine correia";0;0;4;4.75;0;0;2;5.5;0;0;2;4
"rafiy okefolahan";0;0;2;1;0;0;2;1
"charlotte lelong";0;0;1;9;0;0;1;9
"la cascade";0;0;1;179;0;0;1;179
"mark mawson";0;0;2;50.5;0;0;2;50.5
"philippe pasqua";0;0;19;9.3157894736842;0;0;10;9.8;0;0;9;8.7777777777778
"nature morte vivante";0;0;9;17.555555555556;0;0;9;17.555555555556
"hideka tonomura";0;0;3;5;0;0;2;7;0;0;1;1
"alain clement";0;0;1;6;0;0;1;6
"anthony hopkins artwork for sale";0;0;1;18;0;0;1;18
"vincent peters";0;0;2;33.5;0;0;2;33.5
"li wey";0;0;1;11;0;0;1;11
begarat;0;0;7;3;0;0;2;3;0;0;5;3
"miguel vallinas prieto";0;0;1;8;0;0;1;8
"anya spielman";0;0;1;5;0;0;1;5
"carlos tite";0;0;1;29;0;0;1;29
"francois bard";0;0;8;7.625;0;0;8;7.625
"route du paradis";0;0;1;26;0;0;1;26
http://www.basementizid.com/;0;0;2;168;0;0;2;168
"claire fanjul";0;0;4;2.5;0;0;4;2.5
"harold munoz";0;0;1;12;0;0;1;12
"لي ""contact"" ~عورتا";0;0;2;56.5;0;0;2;56.5
"dicho y hecho translation";0;0;1;45;0;0;1;45
"vito hannibal acconci";0;0;2;74.5;0;0;2;74.5
"ren hang wikipedia";0;0;1;6;0;0;1;6
"art works";0;0;1;325;0;0;1;325
tattu;0;0;1;42;0;0;1;42
"guy denning artist";0;0;5;8.4;0;0;4;8;0;0;1;10
"alvaro petritoli";0;0;1;8;0;0;1;8
"jose heerkens";0;0;1;9;0;0;1;9
"envie dart";0;0;2;8;0;0;2;8
"alexis gorodine";0;0;1;2;0;0;1;2
"tomas vu";0;0;3;10.333333333333;0;0;1;9;0;0;2;11
"hiro ando artist";0;0;1;2;0;0;1;2
"sam szafran";0;0;2;22.5;0;0;2;22.5
"hans christian schink";0;0;2;34;0;0;2;34
"gazelli gallery";0;0;1;5;0;0;1;5
"francois houtin";0;0;2;6;0;0;2;6
"tobias putrih";0;0;2;50;0;0;2;50
"simon liddiment";0;0;1;7;0;0;1;7
"georges poncet";0;0;1;8;0;0;1;8
"du zhenjun";0;0;2;41.5;0;0;2;41.5
nidzgorski;0;0;1;27;0;0;1;27
gluska;0;0;1;29;0;0;1;29
"karuna panumes";0;0;37;8;0;0;37;8
silvestri;0;0;1;335;0;0;1;335
"fuck you art lovers";0;0;1;41;0;0;1;41
"ellen grey";0;0;1;10;0;0;1;10
"marie anne thieffry";0;0;12;2.5833333333333;0;0;11;2.4545454545455;0;0;1;4
"rive gauche paris";0;0;1;184;0;0;1;184
"bill bate";0;0;1;29;0;0;1;29
"david ratcliff";0;0;2;34;0;0;2;34
"fela kuti artwork";0;0;1;10;0;0;1;10
"didier artist";0;0;1;43;0;0;1;43
"young jim morrison";0;0;1;23;0;0;1;23
"tom wesselmann";0;0;11;27.545454545455;0;0;9;31.222222222222;0;0;2;11
bretesche;0;0;1;55;0;0;1;55
"guy dennings art";0;0;2;8;0;0;2;8
"dino valls";0;0;1;31;0;0;1;31
"eric chanel";0;0;1;41;0;0;1;41
"raymond hains";0;0;21;7.9047619047619;0;0;16;7.9375;0;0;2;8;0;0;3;7.6666666666667
cony;0;0;1;170;0;0;1;170
"anna bjerger";0;0;11;7;0;0;10;7;0;0;1;7
takala;0;0;1;1;0;0;1;1
"asgar/ gabriel";0;0;2;8.5;0;0;2;8.5
"yan pei ming";0;0;2;55;0;0;2;55
"piccadilly circus";0;0;1;177;0;0;1;177
"vincent hawkins";0;0;9;9.7777777777778;0;0;6;9.6666666666667;0;0;3;10
"gz store";0;0;1;2;0;0;1;2
"art photography galleries";0;0;1;540;0;0;1;540
"crash street art";0;0;1;7;0;0;1;7
"nils udo artist";0;0;1;8;0;0;1;8
"gabriel paris";0;0;1;29;0;0;1;29
"home alone artwork";0;0;4;3.5;0;0;1;4;0;0;1;4;0;0;2;3
"bob verschueren artist";0;0;1;10;0;0;1;10
"roger shall";0;0;1;1;0;0;1;1
"patrick cornillet";0;0;3;3;0;0;3;3
"guillaume bourquin";0;0;1;3;0;0;1;3
"guy boyer";0;0;1;10;0;0;1;10
"katy martin";0;0;2;35.5;0;0;1;38;0;0;1;33
"inception artwork";0;0;1;8;0;0;1;8
kartonn;0;0;2;6.5;0;0;1;7;0;0;1;6
"nani champy schott";0;0;1;3;0;0;1;3
"ren hang";0;0;11;26.363636363636;0;0;11;26.363636363636
"taki 183";0;0;1;39;0;0;1;39
"grand soleil";0;0;1;238;0;0;1;238
"tic tac toe new york";0;0;1;318;0;0;1;318
muckensturm;0;0;1;51;0;0;1;51
"oliver dorfer";0;0;1;26;0;0;1;26
"huang yan";0;0;2;82.5;0;0;2;82.5
"liu xiaofang";0;0;2;22;0;0;2;22
"marcelli france";0;0;3;6.3333333333333;0;0;2;7;0;0;1;5
nowart;0;0;5;6;0;0;4;6.75;0;0;1;3
"cara artist";0;0;1;2;0;0;1;2
wangshu;0;0;1;236;0;0;1;236
"mixed media france";0;0;1;348;0;0;1;348
"martine ehmer";0;0;2;8;0;0;2;8
"liquid i.v.";0;0;1;68;0;0;1;68
"christian bonnefoi";0;0;2;19.5;0;0;2;19.5
"gerard schlosser artist";0;0;1;6;0;0;1;6
jadikan;0;0;3;6.3333333333333;0;0;1;5;0;0;2;7
"paul maze paintings for sale";0;0;1;28;0;0;1;28
"sous bock";0;0;1;46;0;0;1;46
"henri lamy";0;0;6;6.1666666666667;0;0;5;5.8;0;0;1;8
"markowicz fine art";0;0;2;43.5;0;0;2;43.5
"agnes baudet";0;0;4;9.75;0;0;3;10;0;0;1;9
"chet baker stencil";0;0;1;9;0;0;1;9
"new york urban photography";0;0;1;312;0;0;1;312
"sebastien layral";0;0;2;6;0;0;2;6
"christophe catelain";0;0;1;1;0;0;1;1
"cécile desserle";0;0;1;8;0;0;1;8
"eckart hahn";0;0;1;49;0;0;1;49
"matthew cheetham";0;0;1;335;0;0;1;335
"rob van hoek art";0;0;1;8;0;0;1;8
"artist van hove";0;0;1;10;0;0;1;10
"marion colomer";0;0;2;5;0;0;2;5
"banksy virgin mary";0;0;4;9.25;0;0;3;9;0;0;1;10
"baldwin 600";0;0;1;406;0;0;1;406
"jean claude deutsch";0;0;3;6.3333333333333;0;0;1;5;0;0;2;7
"lucky strike keith haring";0;0;2;1;0;0;2;1
cochereau;0;0;1;43;0;0;1;43
"what is history now";0;0;1;335;0;0;1;335
"jean pierre attal";0;0;3;2.3333333333333;0;0;3;2.3333333333333
"kenny hunter";0;0;2;46;0;0;2;46
"olivier widmaier picasso";0;0;6;10.5;0;0;5;10.4;0;0;1;11
"jamie hewlett kid";0;0;1;12;0;0;1;12
"leroy winter";0;0;1;29;0;0;1;29
konichiwa;0;0;1;320;0;0;1;320
keza;0;0;1;10;0;0;1;10
"jpg4 nude";0;0;4;35.5;0;0;4;35.5
"mor charpentier";0;0;2;54.5;0;0;2;54.5
"oleg dou";0;0;3;32.333333333333;0;0;2;44.5;0;0;1;8
"bosquet de la colonnade";0;0;1;25;0;0;1;25
"ferry for sale";0;0;1;201;0;0;1;201
novellis;0;0;1;37;0;0;1;37
catté;0;0;1;5;0;0;1;5
"aviva photography";0;0;1;327;0;0;1;327
"wally wood disney poster";0;0;1;91;0;0;1;91
"antoine geiger";0;0;1;10;0;0;1;10
"barter paris art club";0;0;2;8;0;0;2;8
"george hughes artist";0;0;1;31
"claude champy";0;0;1;10;0;0;1;10
"hus galerie";0;0;1;5;0;0;1;5
"rodney place";0;0;2;10
"jak espi";0;0;1;8;0;0;1;8
"alex kizu";0;0;1;1;0;0;1;1
grisor;0;0;2;7.5;0;0;1;10;0;0;1;5
"herve all";0;0;3;9;0;0;3;9
"jana france";0;0;1;39;0;0;1;39
"kristian von hornsleth";0;0;2;8;0;0;2;8
"ren hang art";0;0;2;7;0;0;2;7
"françois harray";0;0;1;2;0;0;1;2
"basquiat inspired art";0;0;2;9;0;0;2;9
"nature photography adventures";0;0;1;334;0;0;1;334
pookky;0;0;1;7;0;0;1;7
"evelyne postic";0;0;1;8;0;0;1;8
"alain clément";0;0;1;5;0;0;1;5
"herve di rosa";0;0;4;7.25;0;0;1;5;0;0;1;8;0;0;2;8
"urban art for sale";0;0;2;59;0;0;2;59
"denis walter";0;0;1;38;0;0;1;38
"eugene begarat";0;0;4;6;0;0;2;4;0;0;2;8
"philippe berry sculpteur";0;0;1;4;0;0;1;4
"raymond hains artwork";0;0;1;3;0;0;1;3
"the red square sculpture";0;0;1;27;0;0;1;27
virnaburger;0;0;4;6.5;0;0;3;8.3333333333333;0;0;1;1
"kilian glasner";0;0;2;9;0;0;2;9
piechaud;0;0;1;8;0;0;1;8
"alma haser";0;0;1;27;0;0;1;27
"gomez barros";0;0;1;9;0;0;1;9
"jean philippe berger";0;0;1;5;0;0;1;5
"arnaud liard";0;0;2;3;0;0;1;1;0;0;1;5
"david lachapelle philip lachapelle";0;0;1;10;0;0;1;10
"peter doffine internet service";0;0;1;155;0;0;1;155
"galerie w";0;0;1;16;0;0;1;16
"manu perez peintre";0;0;1;5;0;0;1;5
"ivan alifan";0;0;3;29;0;0;3;29
"leobardo perez jimenez";0;0;1;6;0;0;1;6
"artful photography";0;0;1;322;0;0;1;322
"vincent fillon";0;0;1;2;0;0;1;2
"italianlady 2";0;0;1;4;0;0;1;4
"sharon drew artist";0;0;1;10;0;0;1;10
"annette messager art";0;0;1;10;0;0;1;10
"contemporary art gallery";0;0;1;411;0;0;1;411
"vincent godeau";0;0;1;8;0;0;1;8
"jacques villegle art";0;0;1;5;0;0;1;5
capricorne;0;0;1;180;0;0;1;180
"bicha gallery";0;0;2;97.5;0;0;2;97.5
"hanna herrera";0;0;1;2;0;0;1;2
"je s'aime";0;0;1;10;0;0;1;10
"fredrik raddum";0;0;2;9;0;0;2;9
"jan saudek gallery";0;0;14;48.428571428571;0;0;14;48.428571428571
"bold photography";0;0;1;311;0;0;1;311
"john matos crash";0;0;3;7;0;0;3;7
"artists using photography";0;0;1;406;0;0;1;406
"karl lagasse";0;0;5;3.4;0;0;3;3;0;0;2;4
"jon one";0;0;1;6;0;0;1;6
"david harber";0;0;1;18;0;0;1;18
"miro svolik";0;0;2;7;0;0;2;7
"juliet ferguson";0;0;1;16;0;0;1;16
"punk rose";0;0;2;48.5;0;0;2;48.5
"andrea martin";0;0;2;183;0;0;1;187;0;0;1;179
"interior design inspiration";0;0;1;200;0;0;1;200
"pablito zago";0;0;1;6;0;0;1;6
gammacurta;0;0;2;23;0;0;2;23
"florence d'elle";0;0;8;6.5;0;0;3;6.3333333333333;0;0;4;6.75;0;0;1;6
"quentin shih dior";0;0;1;12;0;0;1;12
"matthew attard";0;0;2;9;0;0;1;9;0;0;1;9
"architecture photography lens";0;0;1;433;0;0;1;433
"gerard schlosser";0;0;2;11.5;0;0;2;11.5
"arnaud pieton";0;0;1;14;0;0;1;14
"bernard pras anamorphose";0;0;1;9;0;0;1;9
"jeff koons red balloon dog plate";0;0;2;2;0;0;2;2
"ralph gibson";0;0;1;129;0;0;1;129
"crash graffiti";0;0;1;10;0;0;1;10
"peter wüthrich";0;0;2;49.5;0;0;2;49.5
"julie navarro";0;0;1;10;0;0;1;10
"whitespace gallery";0;0;2;54;0;0;2;54
"chu teh chun";0;0;2;50;0;0;2;50
bjerger;0;0;1;10;0;0;1;10
"arthur tress";0;0;3;60.333333333333;0;0;3;60.333333333333
"tom wesselmen";0;0;1;11;0;0;1;11
"lady gaga hello kitty";0;0;1;42;0;0;1;42
"adrien belgrand";0;0;1;7;0;0;1;7
"marius dufour";0;0;1;20;0;0;1;20
"spray can artwork";0;0;1;68;0;0;1;68
"gyula sagi";0;0;2;5.5;0;0;2;5.5
"so the theory goes";0;0;1;10;0;0;1;10
stoul;0;0;19;4;0;0;18;4;0;0;1;4
"patrick villas";0;0;1;10;0;0;1;10
"eva maude tardif champoux";0;0;1;10;0;0;1;10
eillen;0;0;1;58;0;0;1;58
"jimmy de bock";0;0;1;7;0;0;1;7
zenoy;0;0;6;2.6666666666667;0;0;6;2.6666666666667
"alain bertrand";0;0;1;17;0;0;1;17
"yann houri";0;0;6;6.5;0;0;6;6.5
meetic;0;0;1;206;0;0;1;206
"skate obey";0;0;1;48;0;0;1;48
"black & white photography for sale";0;0;1;337;0;0;1;337
"chris morin";0;0;5;3.2;0;0;5;3.2
"adam binder";0;0;1;45;0;0;1;45
"ivan plusch";0;0;4;5.5;0;0;4;5.5
"raymond hains facts";0;0;1;7;0;0;1;7
"nicolette jelen";0;0;1;10;0;0;1;10
jonone;0;0;14;10.071428571429;0;0;11;10.909090909091;0;0;3;7
"drop the mambo";0;0;1;1;0;0;1;1
"glacier photography";0;0;1;414;0;0;1;414
poligrafa;0;0;1;41;0;0;1;41
"dominic harris";0;0;2;57.5;0;0;2;57.5
"kate knight art";0;0;3;6;0;0;3;6
"jaja mode";0;0;1;10;0;0;1;10
"eugenio carmi";0;0;3;10;0;0;3;10
"jean-francois rauzier";0;0;2;23.5;0;0;2;23.5
"flower delivery bilbao";0;0;1;62;0;0;1;62
"martine feipel & jean bechameil";0;0;2;52;0;0;2;52
"jm robert street art";0;0;1;4;0;0;1;4
"unique gallery dubai";0;0;2;7;0;0;2;7
"wesselman tom";0;0;1;33;0;0;1;33
"stanley donwood artist";0;0;1;40;0;0;1;40
"esther de bont";0;0;4;8.5;0;0;4;8.5
"pascal jacquot";0;0;6;3.3333333333333;0;0;4;3.5;0;0;2;3
"valerie vaubourg";0;0;1;2;0;0;1;2
"xavier prieur";0;0;5;9.4;0;0;5;9.4
"alfred hitchcock artwork";0;0;1;27;0;0;1;27
"eduardo kac";0;0;1;93;0;0;1;93
"kevin warhol and andy mcallister";0;0;1;8;0;0;1;8
plouvier;0;0;1;42;0;0;1;42
"kiddy citny";0;0;1;28;0;0;1;28
"alva bernadine";0;0;7;10.285714285714;0;0;6;8.5;0;0;1;21
"cédric arnold";0;0;1;2;0;0;1;2
onemizer;0;0;8;7.5;0;0;7;7.4285714285714;0;0;1;8
"lola cola";0;0;25;1.8;0;0;15;2.3333333333333;0;0;10;1
"david harber artist";0;0;1;10;0;0;1;10
"duster ua";0;0;1;10;0;0;1;10
"antonio asis";0;0;1;17;0;0;1;17
"herb ritz photography";0;0;1;220;0;0;1;220
"jock sturges photo gallery";0;0;1;38;0;0;1;38
"capital culture gallery";0;0;2;3.5;0;0;1;3;0;0;1;4
"neo art photography";0;0;1;406;0;0;1;406
"gérard alary";0;0;1;5;0;0;1;5
"charcoal paper";0;0;1;427;0;0;1;427
"jim dine artwork";0;0;2;54;0;0;1;51;0;0;1;57
"wadi finan";0;0;6;7.1666666666667;0;0;4;7;0;0;2;7.5
"nils udo biography";0;0;1;4;0;0;1;4
"xavier blondeau";0;0;1;9;0;0;1;9
moz;0;0;1;119;0;0;1;119
comprit;0;0;1;49;0;0;1;49
"natalia rak";0;0;2;27;0;0;2;27
"dok art";0;0;1;31;0;0;1;31
"emily marjot";0;0;1;7;0;0;1;7
"thomas jorion";0;0;1;7;0;0;1;7
"mimi the clown";0;0;1;35;0;0;1;35
"liquid iv";0;0;1;68;0;0;1;68
"galerie capazza";0;0;1;9;0;0;1;9
"yves krief";0;0;1;10;0;0;1;10
"big star";0;0;1;339;0;0;1;339
zeimert;0;0;2;3;0;0;2;3
"grigori dor";0;0;1;10;0;0;1;10
ultrarouge;0;0;1;31;0;0;1;31
"marc asnin";0;0;2;51.5;0;0;2;51.5
"norman rockwell sports paintings";0;0;2;41.5;0;0;2;41.5
mrsex.fr;0;0;1;19;0;0;1;19
hanekroot;0;0;1;27;0;0;1;27
"anne lacouture";0;0;4;4.5;0;0;1;6;0;0;2;4;0;0;1;4
"florian marco";0;0;1;10;0;0;1;10
+jock+sturges;0;0;1;101;0;0;1;101
wajnberg;0;0;1;29;0;0;1;29
horsleth;0;0;1;34;0;0;1;34
anachronisme;0;0;1;48;0;0;1;48
"stéphanie nava";0;0;2;9;0;0;2;9
"jerome lagarrigue";0;0;11;8.9090909090909;0;0;5;6.6;0;0;5;11;0;0;1;10
"jean faucheur photography";0;0;1;2;0;0;1;2
"bastien cuenot";0;0;1;3;0;0;1;3
"graham dolphin";0;0;4;7.75;0;0;2;8.5;0;0;2;7
"saudek gallery";0;0;1;39;0;0;1;39
"time square";0;0;1;198;0;0;1;198
bardeau;0;0;1;41;0;0;1;41
"ernest pignon ernest";0;0;2;24.5;0;0;1;41;0;0;1;8
"heiner meyer";0;0;1;10;0;0;1;10
"miguel chevalier";0;0;3;32.666666666667;0;0;2;35;0;0;1;28
"leila amat ortega";0;0;4;8.5;0;0;4;8.5
"large sculptures for sale";0;0;1;326;0;0;1;326
"irina ionesco";0;0;11;44.181818181818;0;0;11;44.181818181818
"kristina kostadinova";0;0;2;5.5;0;0;1;3;0;0;1;8
"luis gordillo";0;0;2;40;0;0;2;40
"pierre schneider";0;0;1;31;0;0;1;31
"mel ramos";0;0;95;7.6736842105263;0;0;57;12.122807017544;0;0;26;1;0;0;12;1
"vanity of vanities";0;0;1;6;0;0;1;6
"julia mangold artist";0;0;1;10;0;0;1;10
"fabrice hyber";0;0;5;11.2;0;0;3;12.333333333333;0;0;1;10;0;0;1;9
"young pink lips";0;0;1;7;0;0;1;7
tanc;0;0;3;57.666666666667;0;0;3;57.666666666667
"paulette tavormina";0;0;1;31;0;0;1;31
"beatles photography";0;0;1;339;0;0;1;339
"oksana yambykh";0;0;1;7;0;0;1;7
brantt;0;0;1;34;0;0;1;34
"mist artist";0;0;3;4.6666666666667;0;0;2;3.5;0;0;1;7
"saint cyr";0;0;1;178;0;0;1;178
vagabondage;0;0;11;8.4545454545455;0;0;10;8.4;0;0;1;9
lembransas;0;0;1;10;0;0;1;10
"keith haring crack down";0;0;10;5.6;0;0;6;6.1666666666667;0;0;4;4.75
"rafael gomez barros";0;0;1;9;0;0;1;9
sun7;0;0;1;46;0;0;1;46
"david gouny";0;0;1;3;0;0;1;3
"fabien verschaere";0;0;9;4.1111111111111;0;0;3;3.3333333333333;0;0;1;2;0;0;5;5
"charles thiefaine";0;0;2;2;0;0;2;2
"fausto marci";0;0;2;4;0;0;2;4
"shirley jaffe";0;0;4;18.5;0;0;4;18.5
"store street gallery";0;0;1;42;0;0;1;42
rauzier;0;0;1;26;0;0;1;26
"beijing jianguo";0;0;1;190;0;0;1;190
"art & fun";0;0;1;46;0;0;1;46
"olivier legan";0;0;1;16;0;0;1;16
"april gornik";0;0;1;65;0;0;1;65
"vincent peters biography";0;0;1;6;0;0;1;6
"michael alford paintings";0;0;5;9;0;0;5;9
jungfleisch;0;0;1;45;0;0;1;45
"jeanne lorioz";0;0;11;8.2727272727273;0;0;8;8.375;0;0;3;8
"jeanne lorioz gallery";0;0;1;9;0;0;1;9
"sun hyuk";0;0;2;5;0;0;2;5
"yayoi kusama soft sculpture";0;0;1;9;0;0;1;9
"didier avril";0;0;1;2;0;0;1;2
ayline;0;0;1;10;0;0;1;10
"galerie jacqueline lemoine";0;0;1;30;0;0;1;30
demure;0;0;1;312;0;0;1;312
coliding;0;0;1;448;0;0;1;448
"luca d filippo";0;0;1;5;0;0;1;5
"jean marie marion mannequin";0;0;3;7.6666666666667;0;0;2;8;0;0;1;7
"renaud painter";0;0;1;31;0;0;1;31
ohrel;0;0;1;33;0;0;1;33
"john kacere";0;0;3;32;0;0;3;32
"artworks cali";0;0;1;10;0;0;1;10
markus&koala;0;0;2;24;0;0;2;24
"jérôme mesnager";0;0;1;8;0;0;1;8
fubiz;0;0;1;32;0;0;1;32
"jonone artist";0;0;2;12;0;0;2;12
"melanie peduzzi";0;0;2;1;0;0;2;1
boubouh;0;0;2;14;0;0;2;14
"artistic male nude photography";0;0;1;128;0;0;1;128
"catherine lambermont";0;0;1;3
"henri matisse";0;0;4;191;0;0;2;192;0;0;2;190
"bram bogart";0;0;2;34.5;0;0;2;34.5
"مائة ""contact"" ~أنغى";0;0;1;441;0;0;1;441
"micky clement";0;0;1;3;0;0;1;3
"jacques villegle artwork";0;0;1;7;0;0;1;7
nonsicle;0;0;5;7.8;0;0;3;8;0;0;2;7.5
"jesper just";0;0;2;100;0;0;2;100
hideka;0;0;4;5.75;0;0;3;5.6666666666667;0;0;1;6
"alice lebredonchel";0;0;1;10;0;0;1;10
"claude closky";0;0;2;20.5;0;0;2;20.5
yutao;0;0;1;5;0;0;1;5
"art paris";0;0;1;166;0;0;1;166
"lamy art";0;0;1;12;0;0;1;12
"guy de rougemont";0;0;2;8.5;0;0;2;8.5
"olivier debré";0;0;2;53;0;0;2;53
"guy denning painting";0;0;7;6.7142857142857;0;0;7;6.7142857142857
"martin miguel";0;0;1;42;0;0;1;42
"kenneth noland";0;0;4;86.25;0;0;4;86.25
zaru;0;0;1;114;0;0;1;114
"anna bocek art";0;0;1;8;0;0;1;8
"je vous attendais";0;0;1;6;0;0;1;6
"paul carey kent";0;0;5;6.6;0;0;1;6
"mixed puzzle";0;0;1;236;0;0;1;236
"""paolo pellegrin""";0;0;3;8.3333333333333;0;0;3;8.3333333333333
"oleg dou art";0;0;1;21;0;0;1;21
"peter klasen";0;0;10;12;0;0;9;12.444444444444;0;0;1;8
"anne und patrick poirier";0;0;4;9.5;0;0;2;10;0;0;2;9
"g w bot";0;0;1;8;0;0;1;8
"1930 europe map";0;0;1;33;0;0;1;33
"ando yuki";0;0;1;19;0;0;1;19
"pierre-marie brisson";0;0;2;36;0;0;2;36
design+and+decoration;0;0;1;241;0;0;1;241
"pauline dufour";0;0;1;9;0;0;1;9
"paul newman pop art";0;0;1;17;0;0;1;17
"la tour eiffel";0;0;1;172;0;0;1;172
"maison dauphine";0;0;3;7.3333333333333;0;0;3;7.3333333333333
"yanko tihov";0;0;1;11;0;0;1;11
"howard birchmore";0;0;1;15;0;0;1;15
lassaâd;0;0;1;7;0;0;1;7
"michel gueranger";0;0;1;9;0;0;1;9
"roberto greco";0;0;1;18;0;0;1;18
"crash street artist";0;0;3;6;0;0;1;6;0;0;2;6
liquidiv;0;0;1;46;0;0;1;46
"jm robert art";0;0;1;4;0;0;1;4
"audrey hepburn photography";0;0;1;314;0;0;1;314
"gérard schlosser";0;0;2;11;0;0;2;11
marat;0;0;1;288;0;0;1;288
colomina;0;0;2;4.5;0;0;2;4.5
"ren hang gallery";0;0;2;8;0;0;2;8
"jan saudek gallery prague";0;0;1;25;0;0;1;25
"julie de waroquier";0;0;1;28;0;0;1;28
"hervé télémaque";0;0;1;9
"jacqueline roberts";0;0;2;18;0;0;2;18
"mark demsteader biography";0;0;1;12;0;0;1;12
"art nue";0;0;3;5.3333333333333;0;0;2;6
"hoteles en biarritz";0;0;1;245;0;0;1;245
"claire dorsett";0;0;4;8.25;0;0;1;9;0;0;3;8
"hiro ando";0;0;5;6.4
oneeightone;0;0;2;3.5;0;0;2;3.5
"aharon gluska";0;0;2;2;0;0;2;2
"duong le thai";0;0;1;8;0;0;1;8
"yoel benharrouche";0;0;4;8.75;0;0;2;9.5
bertelli;0;0;1;175;0;0;1;175
"jacques deret";0;0;2;3
"aegle greek mythology";0;0;1;75;0;0;1;75
"alinka echeverria";0;0;2;17.5;0;0;2;17.5
"frank horvat";0;0;4;38;0;0;4;38
"li weisi";0;0;1;11;0;0;1;11
"homo photography";0;0;1;306;0;0;1;306
"lance letscher";0;0;2;23;0;0;2;23
"nasty artist";0;0;1;5;0;0;1;5
"nicolas nicolini";0;0;2;6;0;0;2;6
"elizabeth gourlay";0;0;2;17;0;0;2;17
li-wei;0;0;3;11;0;0;3;11
"david gerstein art";0;0;1;22;0;0;1;22
"victori contemporary";0;0;2;54;0;0;2;54
"beatriz guzman";0;0;1;44;0;0;1;44
"aris messinis photography";0;0;1;7;0;0;1;7
"georges braque";0;0;2;166.5;0;0;1;160;0;0;1;173
"richard caldicott";0;0;2;38.5;0;0;2;38.5
combas;0;0;1;21;0;0;1;21
www.beninca.com;0;0;1;86;0;0;1;86
"blow up photography";0;0;1;410;0;0;1;410
"ama benjamin";0;0;1;11;0;0;1;11
"movement photography artists";0;0;1;417;0;0;1;417
sen2;0;0;1;8;0;0;1;8
"david ferreira";0;0;1;24;0;0;1;24
"miss germany 2006";0;0;1;201;0;0;1;201
"baudoin lebon";0;0;5;7.6;0;0;5;7.6
"les dunes";0;0;1;152;0;0;1;152
"sigune hamann";0;0;1;7;0;0;1;7
"joel rea wikipedia";0;0;2;10;0;0;1;10;0;0;1;10
"guy denning work";0;0;1;8;0;0;1;8
"george platt lynes";0;0;2;57.5;0;0;2;57.5
"les baigneurs";0;0;1;196;0;0;1;196
"romero britto";0;0;2;42;0;0;2;42
"ren hang photography";0;0;3;9;0;0;1;7;0;0;1;10;0;0;1;10
"cecile durand";0;0;1;10;0;0;1;10
"le maxime yonne";0;0;1;182;0;0;1;182
"gerti schiele in a plaid garment";0;0;1;1;0;0;1;1
"gérard escougnou";0;0;1;4;0;0;1;4
awena;0;0;7;37.142857142857;0;0;7;37.142857142857
"danilo di nenno";0;0;1;10;0;0;1;10
jingdong;0;0;1;96;0;0;1;96
"laurent troude";0;0;1;7;0;0;1;7
"lionel sourisseau";0;0;2;1;0;0;2;1
"ted starkowski";0;0;5;4.4;0;0;4;4.75;0;0;1;3
ｓｅｎｚ;0;0;1;89;0;0;1;89
"eva navarro";0;0;7;7.4285714285714;0;0;6;7.5;0;0;1;7
"nobuyoshi araki biography";0;0;1;36;0;0;1;36
"antoine josse";0;0;1;10;0;0;1;10
"bill blast";0;0;1;16;0;0;1;16
"tanc street art";0;0;1;5;0;0;1;5
"richard bonan";0;0;7;3;0;0;7;3
belgrand;0;0;1;63;0;0;1;63
"izabeau jousse";0;0;1;4;0;0;1;4
"nature and human photography";0;0;1;540;0;0;1;540
mansé;0;0;1;2;0;0;1;2
"alina and jeff bliumis";0;0;3;10;0;0;3;10
"jeanne lorioz art";0;0;2;8.5;0;0;2;8.5
"isabelle levistre";0;0;2;5.5;0;0;2;5.5
"ilse verstraete";0;0;1;1;0;0;1;1
"arthur tress photography";0;0;1;43;0;0;1;43
vittoretti;0;0;1;10;0;0;1;10
"florian rosier";0;0;3;6.6666666666667;0;0;3;6.6666666666667
"jan saudek galerie";0;0;1;37;0;0;1;37
"jock sturges";0;0;3;82;0;0;2;92.5;0;0;1;61
"jean pierre nadau";0;0;3;2;0;0;2;2;0;0;1;2
"ele pack paintings";0;0;1;12;0;0;1;12
"bola fish";0;0;1;40;0;0;1;40
"arno artist";0;0;1;8;0;0;1;8
"annette messager artwork";0;0;1;9;0;0;1;9
+nitsch+hermann;0;0;1;137;0;0;1;137
jaja;0;0;1;133;0;0;1;133
"nue gallery";0;0;1;1;0;0;1;1
"nicolas maureau";0;0;1;8;0;0;1;8
drakkar;0;0;1;308;0;0;1;308
looch;0;0;1;146;0;0;1;146
"florence d'elle paintings";0;0;2;6;0;0;2;6
"bernard buffet artist";0;0;1;45;0;0;1;45
"von hornsleth";0;0;3;21;0;0;1;43;0;0;2;10
"elwin buchel";0;0;2;11.5;0;0;2;11.5
"michel four";0;0;2;5;0;0;2;5
"galerie marie";0;0;1;10;0;0;1;10
kyliss;0;0;5;1.4;0;0;5;1.4
kouka;0;0;1;48;0;0;1;48
"jacques renoir";0;0;6;8.3333333333333;0;0;4;7.75;0;0;2;9.5
latlas;0;0;2;62;0;0;2;62
"mirror fair nyc";0;0;1;336;0;0;1;336
"bruno catalano sculpture prices";0;0;1;4;0;0;1;4
"pierre & gilles";0;0;2;33;0;0;2;33
"david paul kay";0;0;2;10;0;0;2;10
"how to exhibit your photography";0;0;1;604;0;0;1;604
"fred.giampietro gallery";0;0;1;95;0;0;1;95
"cecile colombo";0;0;1;5;0;0;1;5
"atila biro";0;0;1;8;0;0;1;8
"no galerie";0;0;2;4.5;0;0;2;4.5
"ricardo leon";0;0;1;39;0;0;1;39
"marie maertens";0;0;2;7;0;0;2;7
"jm robert";0;0;3;1;0;0;2;1;0;0;1;1
"christian von sydow";0;0;1;9;0;0;1;9
"henrietta dubrey";0;0;10;9.5;0;0;8;11.25;0;0;2;2.5
"fieroza doorsen";0;0;2;9;0;0;2;9
"jean cocteau art";0;0;2;50;0;0;2;50
"cara delevingne artwork";0;0;4;1;0;0;3;1;0;0;1;1
"joel rea art for sale";0;0;1;29;0;0;1;29
"ralf peters";0;0;2;85.5;0;0;2;85.5
"bossard france";0;0;1;62;0;0;1;62
"philippe berger";0;0;1;1;0;0;1;1
"biro artist";0;0;1;35;0;0;1;35
keymi;0;0;2;10;0;0;2;10
"nude lolita galleries";0;0;1;26;0;0;1;26
"nicolas rubinstein";0;0;1;29;0;0;1;29
"miro svolik photography";0;0;1;7;0;0;1;7
jorion;0;0;3;39;0;0;3;39
"villeglé jacques";0;0;1;6;0;0;1;6
"jo lynch artist information";0;0;1;10;0;0;1;10
"zed artwork";0;0;1;33;0;0;1;33
"yan pei-ming";0;0;2;55;0;0;2;55
"thierry carrier";0;0;2;7;0;0;2;7
"maxime ansiau";0;0;2;11;0;0;2;11
"guy denning";0;0;121;9.7355371900826;0;0;85;9.5058823529412;0;0;29;10.206896551724;0;0;7;10.571428571429
"edwin apps";0;0;6;5.6666666666667;0;0;2;5;0;0;4;6
"dominique mulhem";0;0;1;6;0;0;1;6
"renaud delorme";0;0;2;5;0;0;2;5
"jeff koons puppy vase for sale";0;0;1;47;0;0;1;47
"charlize theron vincent peters";0;0;1;10;0;0;1;10
"pete doherty art";0;0;1;26;0;0;1;26
"christian zeimert";0;0;2;3;0;0;2;3
"victoria klotz";0;0;9;2;0;0;6;2;0;0;3;2
"horizon lines in photography";0;0;1;541;0;0;1;541
"lamborghini artwork";0;0;1;15;0;0;1;15
"batista artist";0;0;2;6.5;0;0;1;5;0;0;1;8
"francois bard painter";0;0;1;6;0;0;1;6
"jacques brel la valse a mille temps";0;0;1;38;0;0;1;38
"reservoir dogs artwork";0;0;1;8;0;0;1;8
"jean gabriel";0;0;1;152;0;0;1;152
"thierry dussac";0;0;1;4;0;0;1;4
"muhanna durra";0;0;3;7;0;0;3;7
"cara de bambi";0;0;1;1;0;0;1;1
"guitare sale";0;0;1;16;0;0;1;16
"michael chien";0;0;1;202;0;0;1;202
"wolfgang krell";0;0;3;20.666666666667;0;0;3;20.666666666667
"hedva ser";0;0;3;6;0;0;2;6;0;0;1;6
"arman artist";0;0;2;29.5;0;0;2;29.5
"alain godon";0;0;1;5;0;0;1;5
"givenchy hat";0;0;1;42;0;0;1;42
"mateus bailon";0;0;1;3;0;0;1;3
denovellis;0;0;1;37;0;0;1;37
"bob carlos clarke";0;0;1;48;0;0;1;48
"barbara edwards contemporary";0;0;1;98;0;0;1;98
"allegro for sale";0;0;1;157;0;0;1;157
"hanna sidorowicz";0;0;1;11;0;0;1;11
"timur noviko";0;0;129;7.4573643410853;0;0;104;9.0096153846154;0;0;23;1;0;0;2;1
"ii ta'";0;0;1;155;0;0;1;155
femmejambes;0;0;3;9;0;0;3;9
"galerie bruno massa";0;0;1;9;0;0;1;9
samarine;0;0;1;21;0;0;1;21
"anna bocek prices";0;0;1;10;0;0;1;10
"steven gagnon";0;0;2;46.5;0;0;2;46.5
"alex guofeng cao";0;0;2;14.5;0;0;2;14.5
"ken spooner artist";0;0;1;3;0;0;1;3
"blandine bardeau";0;0;1;11;0;0;1;11
"top 10 graphic designers";0;0;2;409;0;0;2;409
"masha ukraine";0;0;1;56;0;0;1;56
"eric ville";0;0;1;2;0;0;1;2
"griffin londres";0;0;1;96;0;0;1;96
"el glaoui";0;0;1;31;0;0;1;31
olukman;0;0;1;5;0;0;1;5
"roger schall";0;0;7;2.5714285714286;0;0;7;2.5714285714286
trovic;0;0;1;7;0;0;1;7
compoint;0;0;1;46;0;0;1;46
"bordeaux lafite";0;0;2;352;0;0;2;352
"guy dening";0;0;2;7.5;0;0;2;7.5
"mathieu nozieres";0;0;1;6;0;0;1;6
"didier art";0;0;1;23;0;0;1;23
"rossella rossi";0;0;1;10;0;0;1;10
"hervé di rosa oeuvres";0;0;1;1;0;0;1;1
"galerie roy sfeir";0;0;1;5;0;0;1;5
"romero britto black and white";0;0;1;87;0;0;1;87
"valerio adami";0;0;2;49;0;0;2;49
"ahmad nejad";0;0;1;10;0;0;1;10
"vincent richeux";0;0;1;10;0;0;1;10
"sabine danzé";0;0;2;2.5;0;0;2;2.5
hutte;0;0;1;347;0;0;1;347
"hervé dirosa";0;0;1;11;0;0;1;11
jospins;0;0;1;28;0;0;1;28
"la palette";0;0;1;192;0;0;1;192
"norr11 london";0;0;1;7;0;0;1;7
"galerie charron";0;0;1;5;0;0;1;5
"les poiriers artistes";0;0;1;10;0;0;1;10
"painting in bronx";0;0;1;314;0;0;1;314
"tom wesselmann lulu";0;0;1;1;0;0;1;1
"bordeaux chateau lafite";0;0;1;244;0;0;1;244
"valérie hadida";0;0;2;3.5;0;0;2;3.5
"torrick ablack";0;0;1;10;0;0;1;10
"cello for sale";0;0;1;240;0;0;1;240
"pop art summer";0;0;1;21;0;0;1;21
"beetles and huxley";0;0;1;7;0;0;1;7
"lea dominot";0;0;1;10;0;0;1;10
"galerie polysémie";0;0;1;3;0;0;1;3
"no name gallery";0;0;1;10;0;0;1;10
"anna borowy";0;0;1;25;0;0;1;25
"speedy graffito";0;0;1;8;0;0;1;8
"bella twin";0;0;1;146;0;0;1;146
"annette messager";0;0;3;59.333333333333;0;0;3;59.333333333333
"duane michals artist";0;0;1;29;0;0;1;29
"bahareh navabi";0;0;2;7;0;0;1;8;0;0;1;6
dan23;0;0;1;16;0;0;1;16
"sarah hardacre";0;0;2;26;0;0;2;26
"bert stern photography";0;0;1;302;0;0;1;302
zooportrait;0;0;10;2;0;0;10;2
"mirage iiicj";0;0;1;204;0;0;1;204
"peter falk art for sale";0;0;1;13;0;0;1;13
pradino;0;0;1;8;0;0;1;8
"ernest pignon-ernest";0;0;1;19;0;0;1;19
"aris messinis";0;0;1;9;0;0;1;9
"hopkins painting";0;0;2;8;0;0;2;8
"clément denis";0;0;1;7;0;0;1;7
"emilio scanavino";0;0;1;53;0;0;1;53
"money art fort lauderdale fl";0;0;6;343;0;0;3;344.66666666667;0;0;3;341.33333333333
"natures photography";0;0;1;411;0;0;1;411
"jieun park";0;0;1;33;0;0;1;33
"mr dob";0;0;2;6;0;0;2;6
"william eggleston artwork";0;0;2;4.5;0;0;1;5;0;0;1;4
elia;0;0;1;339;0;0;1;339
"tao zuo";0;0;1;8;0;0;1;8
"fred calmets";0;0;4;5;0;0;4;5
"sinyoung park";0;0;1;27;0;0;1;27
"charlelie couture gallery new york";0;0;1;6;0;0;1;6
"clarisse rebotier";0;0;1;7;0;0;1;7
"jacques mahé de la villeglé";0;0;1;5;0;0;1;5
"jieun park artist";0;0;1;10;0;0;1;10
"francesca pompei";0;0;1;17;0;0;1;17
"dreamlike artwork";0;0;1;36;0;0;1;36
"ian mastin artist";0;0;3;10;0;0;3;10
zimmerling;0;0;1;48;0;0;1;48
"art for sale";0;0;1;319;0;0;1;319
"yona friedman";0;0;2;85;0;0;2;85
"tatyana plotnikova";0;0;1;71;0;0;1;71
"guillemette schlumberger";0;0;4;4;0;0;4;4
valencin;0;0;1;16;0;0;1;16
"isabel espinoza";0;0;3;7;0;0;1;7;0;0;2;7
"inventaire 53 dali";0;0;1;4;0;0;1;4
"janet lynch artist";0;0;1;10;0;0;1;10
"max czertok";0;0;3;5.3333333333333;0;0;2;3;0;0;1;10
"marine cattaneo";0;0;2;9;0;0;2;9
"sweet dreams artwork";0;0;1;26;0;0;1;26
"charles fazzino";0;0;2;51;0;0;2;51
"denis rouvre";0;0;2;49;0;0;2;49
"nielly francoise";0;0;1;46;0;0;1;46
"kong rouge";0;0;1;5;0;0;1;5
"mobilis card paris";0;0;1;245;0;0;1;245
misslove;0;0;1;112;0;0;1;112
"charlotte champion";0;0;2;2;0;0;2;2
bodnariu;0;0;14;14.428571428571;0;0;5;16.2;0;0;6;15.333333333333;0;0;3;9.6666666666667
"gerstein art";0;0;3;35.333333333333;0;0;3;35.333333333333
"facto france";0;0;1;31;0;0;1;31
"pascale robert";0;0;1;11;0;0;1;11
"ekkehard altenburger";0;0;2;13.5;0;0;2;13.5
"galerie fluegel-roncak";0;0;2;15.5;0;0;2;15.5
"luzia simons";0;0;3;33;0;0;3;33
"herve telemaque";0;0;1;8;0;0;1;8
"rayon gamma";0;0;1;35;0;0;1;35
"wave artwork";0;0;1;177;0;0;1;177
"joan artigas";0;0;2;11;0;0;2;11
curval;0;0;1;23;0;0;1;23
"arthur tress biography";0;0;1;9;0;0;1;9
"italian artwork for sale";0;0;1;39;0;0;1;39
"alexander in his tent";0;0;1;6;0;0;1;6
"prince & princess art gallery";0;0;1;6;0;0;1;6
"sabrina van den heuvel";0;0;1;7;0;0;1;7
"robert zandvliet artist";0;0;1;11;0;0;1;11
"julie hauer";0;0;1;5;0;0;1;5
"claire trotignon";0;0;2;7.5;0;0;1;6;0;0;1;9
"jeff koons split rocker vase";0;0;1;28;0;0;1;28
"xavier veilhan";0;0;1;59;0;0;1;59
"albert chubac";0;0;3;6;0;0;2;6.5;0;0;1;5
"antoine schneck";0;0;1;10;0;0;1;10
"jonone street art";0;0;2;13;0;0;2;13
"keymi artist";0;0;1;1;0;0;1;1
"polly ngale";0;0;2;32;0;0;2;32
"gabriel bodnariu";0;0;2;7;0;0;2;7
"françoise nielly for sale";0;0;1;10;0;0;1;10
"tag de taki 183";0;0;1;6;0;0;1;6
"kim sun-hyuk";0;0;1;2;0;0;1;2
"léo caillard";0;0;2;33;0;0;2;33
"christopher schulz";0;0;2;86.5;0;0;2;86.5
"belgian artists";0;0;1;48;0;0;1;48
+hans+hartung;0;0;1;131;0;0;1;131
"mb factory";0;0;1;33;0;0;1;33
miss.tic;0;0;1;11;0;0;1;11
"bernard buffet paintings for sale";0;0;1;39;0;0;1;39
"zao wou ki";0;0;2;89;0;0;2;89
"nature photography gallery";0;0;1;502;0;0;1;502
"dominique rayou";0;0;1;10;0;0;1;10
"obey vote";0;0;1;1;0;0;1;1
"nicole wendel";0;0;4;1;0;0;4;1
"tom wesselmann pop art";0;0;2;29.5;0;0;2;29.5
"peter klasen artist";0;0;1;7;0;0;1;7
"art louis photography";0;0;1;236;0;0;1;236
"guy dennig";0;0;1;10;0;0;1;10
"judy rifka";0;0;3;21;0;0;3;21
"ivan mikhailov";0;0;1;9;0;0;1;9
fotofever;0;0;2;5;0;0;2;5
"mark demsteader art";0;0;1;16;0;0;1;16
"pin up las vegas";0;0;1;171;0;0;1;171
"marc petit";0;0;1;50;0;0;1;50
"garrett pruter";0;0;1;19;0;0;1;19
"lucien murat artiste";0;0;1;4;0;0;1;4
"alexey klimov";0;0;2;13;0;0;2;13
"peter downsbrough";0;0;2;81;0;0;2;81
"erik salin";0;0;5;8.4;0;0;4;8;0;0;1;10
"dan carabas";0;0;3;2;0;0;3;2
"michael bevilacqua";0;0;2;56;0;0;2;56
"george bru";0;0;2;3.5;0;0;2;3.5
"alex folla";0;0;1;13;0;0;1;13
"galerie bayart";0;0;6;6.1666666666667;0;0;6;6.1666666666667
"crash artist";0;0;2;8.5;0;0;1;9;0;0;1;8
"philippe hiquily";0;0;2;15;0;0;2;15
"obey peace dove";0;0;1;1;0;0;1;1
"artistic photography gallery";0;0;1;540;0;0;1;540
"armando rearte";0;0;2;44.5;0;0;2;44.5
"sun mi ahn";0;0;3;2.6666666666667;0;0;3;2.6666666666667
"be gallery";0;0;1;10;0;0;1;10
"jean hélion";0;0;3;42;0;0;2;43;0;0;1;40
"jean-pierre nadau";0;0;1;2;0;0;1;2
misstic;0;0;1;20;0;0;1;20
"pasqua artist";0;0;1;7;0;0;1;7
plusch;0;0;1;36;0;0;1;36
"hotel la villa bayona";0;0;1;194;0;0;1;194
"makiko furuichi";0;0;2;10;0;0;2;10
"art diffusion";0;0;1;10;0;0;1;10
"frédéric prat";0;0;2;8;0;0;2;8
"eric peyret";0;0;1;1;0;0;1;1
"sean cheetham";0;0;1;33;0;0;1;33
"helmut newton photography for sale";0;0;1;65;0;0;1;65
nils-udo;0;0;8;7.5;0;0;8;7.5
"hank china";0;0;2;4.5;0;0;2;4.5
dogai;0;0;1;37;0;0;1;37
"ثم ""contact"" ~عورتا";0;0;1;355;0;0;1;355
"carlos betancourt";0;0;2;38.5;0;0;2;38.5
+robert+combas;0;0;1;16;0;0;1;16
"pierre fontaine";0;0;1;47;0;0;1;47
"yi qiang";0;0;1;34;0;0;1;34
"moulin rouge photography";0;0;1;116;0;0;1;116
"what is white magic";0;0;1;253;0;0;1;253
"hus gallery";0;0;2;81;0;0;2;81
"francine van hove";0;0;1;8;0;0;1;8
"joan pere viladecans";0;0;1;10;0;0;1;10
"jean-philippe berger";0;0;2;8.5;0;0;2;8.5
"jim morrisson";0;0;2;46;0;0;2;46
"leonardo ulian";0;0;3;30.333333333333;0;0;3;30.333333333333
"cool artwork for sale";0;0;2;48.5;0;0;2;48.5
"monsieur chat";0;0;2;7;0;0;2;7
"mise en plis";0;0;1;117;0;0;1;117
"alain bonnefoit";0;0;1;11;0;0;1;11
"stephane gautier";0;0;3;3;0;0;3;3
"marina cavazza";0;0;1;9;0;0;1;9
"jean-michel basquiat paintings for sale";0;0;1;29;0;0;1;29
r-o-ch3;0;0;1;9;0;0;1;9
"rafael canogar";0;0;2;49;0;0;2;49
"galerie hus";0;0;3;3.3333333333333;0;0;3;3.3333333333333
"galerie rx";0;0;1;3;0;0;1;3
yiling;0;0;1;125;0;0;1;125
cyclobes;0;0;2;9;0;0;1;9;0;0;1;9
"neron bancel";0;0;1;41;0;0;1;41
"andy pioneer galleries";0;0;1;93;0;0;1;93
"pedro correa";0;0;1;137;0;0;1;137
"monica denevan photography";0;0;1;30;0;0;1;30
"arman sculpture";0;0;2;45;0;0;2;45
"helmut newton fashion photography";0;0;1;203;0;0;1;203
"keith tyson";0;0;2;82.5;0;0;2;82.5
bories;0;0;1;193;0;0;1;193
moyoshi;0;0;2;1.5;0;0;2;1.5
"jan pruski";0;0;1;21;0;0;1;21
"is mariah carey black";0;0;2;26.5;0;0;2;26.5
"zhou hongbin";0;0;1;7;0;0;1;7
kijno;0;0;4;6.75;0;0;4;6.75
"denis darzacq";0;0;2;65;0;0;2;65
"le cerf";0;0;1;164;0;0;1;164
"sarah hinckley";0;0;2;21;0;0;2;21
"michel le belhomme";0;0;18;8.3333333333333;0;0;15;8.4666666666667;0;0;1;8;0;0;2;7.5
"petra wunderlich";0;0;5;6.6;0;0;4;7.5;0;0;1;3
"artist shazz switzerland";0;0;1;40;0;0;1;40
"etienne buraud";0;0;2;3;0;0;2;3
fessée;0;0;1;174;0;0;1;174
namasta;0;0;1;35;0;0;1;35
"eric pottier";0;0;1;9;0;0;1;9
"richard orlinski";0;0;17;9.1764705882353;0;0;14;9.1428571428571;0;0;3;9.3333333333333
"arnaud rabier";0;0;2;74;0;0;2;74
"amandine levy";0;0;1;1;0;0;1;1
"grant palmer photography";0;0;1;347;0;0;1;347
"nous irons plus au bois";0;0;1;40;0;0;1;40
"james ostrer";0;0;1;28;0;0;1;28
+li+wei;0;0;1;143;0;0;1;143
cgu;0;0;1;315;0;0;1;315
"britto heart";0;0;1;39;0;0;1;39
"stephane jacob";0;0;1;5;0;0;1;5
"jean-claude deutsch";0;0;1;4;0;0;1;4
metarmophosis;0;0;1;10;0;0;1;10
"james wigger";0;0;1;15;0;0;1;15
"jonathan huxley";0;0;8;6.375;0;0;4;6.75;0;0;3;6;0;0;1;6
"inception gallery";0;0;2;4.5;0;0;2;4.5
"lolita nude art";0;0;1;42;0;0;1;42
"alter ego artwork";0;0;1;28;0;0;1;28
"muge photography";0;0;1;20;0;0;1;20
"david lynch art for sale";0;0;1;41;0;0;1;41
"le saffre";0;0;1;136;0;0;1;136
"unique gallery";0;0;2;10.5;0;0;1;10;0;0;1;11
"philippe parreno";0;0;2;91.5;0;0;2;91.5
"takashi murakami prints for sale";0;0;1;18;0;0;1;18
mitz.at;0;0;2;29;0;0;2;29
"erin cone";0;0;1;21;0;0;1;21
akiza;0;0;2;50;0;0;2;50
"clinton friedman";0;0;2;27.5;0;0;2;27.5
"liliane lijn";0;0;3;5;0;0;3;5
"peter hoffer";0;0;2;15;0;0;2;15
"corcia france";0;0;1;9;0;0;1;9
"biro artists";0;0;1;48;0;0;1;48
"thomas müller artist";0;0;1;5;0;0;1;5
"robert bradford";0;0;1;107;0;0;1;107
"carlos cruz diez";0;0;2;73
"benjamin spark";0;0;1;7
"mariah carey gold";0;0;1;1
"baldaccini cesar";0;0;1;10
"eric kellerman";0;0;1;39
"jose manuel fors";0;0;7;9.5714285714286;0;0;1;9
guayasamin;0;0;1;69
"willy ronis";0;0;12;34.583333333333
micky;0;0;1;308
"roberto battistini";0;0;2;2.5
"alain huet";0;0;1;6
"pete doherty";0;0;2;99
"angelique artist";0;0;1;9
"alain séchas";0;0;2;63.5
couettes;0;0;1;220
"stephen forbes artist";0;0;3;7;0;0;1;7
"twin towers";0;0;1;316
"claire louria";0;0;1;7
"di rosa";0;0;11;10.545454545455;0;0;1;1
"di rosa peintre";0;0;2;2;0;0;2;2
"john isaac artist";0;0;1;4
"bez photography";0;0;1;308
"shen jingdong";0;0;1;10
"joan saló";0;0;4;13
"mariah carey black";0;0;3;37.666666666667
"madeleine dietz";0;0;2;16
"asian art photography";0;0;1;320
"peter liversidge";0;0;2;57
"kenzo sale";0;0;1;133
"emerge gallery";0;0;1;9
"paris concorde";0;0;1;198
calmets;0;0;1;7;0;0;1;8
"قوي ""contact"" ~أنغى";0;0;1;105
renoma;0;0;1;75
"bernard rancillac";0;0;3;9.3333333333333;0;0;1;9
"elsa guillaume";0;0;3;2
yilduz;0;0;1;8
féraud;0;0;1;47
"rob van hoek";0;0;1;6;0;0;2;6
"miniprint belfast";0;0;1;126
"dana gordon artist";0;0;1;7
"michele maurin";0;0;1;4
"kool koor";0;0;2;2;0;0;2;5.5
"oui fm";0;0;1;48
"bengt lindström";0;0;1;72
"schoony artist";0;0;1;19
"bard artwork";0;0;2;5
"patrick van der elst";0;0;1;5;0;0;1;6
"keith jarrett koln concert";0;0;1;129
"juliette clovis";0;0;1;5
carlos+cruz-diez;0;0;1;103
"sonia aniceto";0;0;2;2.5
"françois bard";0;0;2;8.5;0;0;1;7
"jack otway";0;0;1;10;0;0;1;10
"richard hearns";0;0;1;20
"chu teh-chun";0;0;2;50.5
"claude charlier";0;0;1;9
gallinacean;0;0;1;23
"figurative art for sale";0;0;1;60
"gerard rancinan";0;0;6;11.333333333333;0;0;1;9
"keith haring lucky strike";0;0;10;1;0;0;1;2
"art photography for sale";0;0;1;433
"jacques de villegle";0;0;1;6
"beyonce photography";0;0;1;347
"best florist dorval";0;0;1;84
"laurent maes";0;0;3;7.3333333333333;0;0;1;5
"art sculptures for sale";0;0;1;221
"hiroshima mon amour";0;0;1;347
hankson;0;0;2;4
doolon;0;0;1;8;0;0;1;4
"rero artist";0;0;2;18
"anca cernoschi";0;0;2;21
"toxic graffiti artist";0;0;2;9
"annie berthet";0;0;1;2
"moretti artist";0;0;1;26
"sen2 figueroa";0;0;2;2;0;0;1;2
"manuel geerinck";0;0;4;15.5
"allan mccollum";0;0;2;72.5
"françois houtin";0;0;3;11
"casey reas";0;0;1;80
bona;0;0;1;179
"mikael lafontan";0;0;3;8.3333333333333
"tite street for sale";0;0;2;47
"jean-pierre schneider";0;0;1;5
"nurcan giz";0;0;2;3
"christine muller";0;0;1;8
"li baoxun";0;0;1;1;0;0;1;1
"بين ""contact"" ~أنغى";0;0;1;425
lazarew;0;0;3;7
tihov;0;0;1;6
"mel ramos pop art";0;0;1;34
sawtelle;0;0;1;176
"dan hays artist";0;0;1;19
"niclas castello fire extinguisher";0;0;2;3
"albane de saint remy";0;0;1;8
"jerome bost";0;0;4;4.75
"contemporary art gallery paris";0;0;1;105
"no curves";0;0;2;25
"artist crash";0;0;1;8
"galerie vidal st phalle";0;0;3;4.6666666666667
"onur dinc";0;0;2;6.5;0;0;1;8;0;0;3;7
"mehdi \lemoduledezeer\";0;0;2;11
"galerie tschudi";0;0;1;94
"olivia de bona";0;0;3;3
"beetles & huxley";0;0;1;11
"louis blanc";0;0;2;94
"pellegrin marseille";0;0;1;24
schechle;0;0;1;9
dysform;0;0;1;5
"holly watt";0;0;2;22
kleiber;0;0;1;172
"lauryn hill";0;0;1;188
"self portrait photographers york";0;0;1;127
"ren hang artist";0;0;5;10;0;0;1;10
"gijsbert hanekroot";0;0;3;1
"branding logos";0;0;1;431;0;0;1;421
"john short artist";0;0;1;13;0;0;1;8
"francoise nielly prints";0;0;1;22
"greg carlin";0;0;2;22
"hans-christian schink";0;0;3;49.666666666667
"17th century paintings for sale";0;0;2;40.5
"horvat frank";0;0;1;39
"agnes crepin";0;0;1;6
"art photography artists";0;0;1;339
"frank hovart";0;0;1;38
"aix en provence amsterdam";0;0;1;76
"bundesausstellungshalle bonn";0;0;1;84
"eva jospin";0;0;6;9;0;0;1;14
+william+sweetlove+prijzen;0;0;1;43
"de la tour eiffel";0;0;1;151
"cesar baldaccini";0;0;3;8.6666666666667
"philippe weisbecker";0;0;6;7.6666666666667
"emeric chantier";0;0;3;1
"bordeaux lafite rothschild";0;0;1;240
"paris choice";0;0;1;25
"hugo art";0;0;1;135
"alain louiset";0;0;1;4
"jonathan callan";0;0;2;38
fulcrand;0;0;1;10
mintjulep;0;0;1;429
"antoine stevens";0;0;10;8.2;0;0;6;7.3333333333333;0;0;2;9
ballesta;0;0;1;85
"gerry cranham";0;0;1;6
"etam cru sketch";0;0;3;9
"bernard buffet 55";0;0;1;39
"gohar dashti";0;0;2;36.5
"ville du soleil";0;0;1;32
"etiye dimma poulsen";0;0;1;13
"philippe berry";0;0;3;4.3333333333333;0;0;3;8.3333333333333
"guy denning bio";0;0;2;4.5
"lori field";0;0;2;27;0;0;1;14
"caroline fraser";0;0;2;49
"raphael thebault";0;0;2;5
"hrafnhildur arnardóttir";0;0;1;20
"jacek hazuka";0;0;1;16
"nue in france";0;0;1;8
"lucien murat";0;0;2;3
"gordon hopkins";0;0;3;4;0;0;1;4
"jacques verdier";0;0;1;9
"daniel lucien durand";0;0;1;41
"tairou bodian";0;0;1;4
"rafael navarro";0;0;5;2.2;0;0;1;3
"kumi sugai";0;0;1;11
"ronald dupont";0;0;1;7
"miss tic";0;0;1;12;0;0;1;8
"half face half skull artists";0;0;1;26
"galerie nicolas hugo";0;0;1;6
"paula martine";0;0;1;10
"keith haring montreux";0;0;2;2
"sarah graham artist";0;0;1;1
"antonie stevens";0;0;1;8
"pakpoom silaphan";0;0;1;9
"thomas bossard";0;0;1;4;0;0;1;9
"ronda haberer facebook";0;0;3;18
"murakami art for sale";0;0;1;18
"sun-hyuk kim";0;0;1;1
leyto;0;0;8;3.125
"in caelo et in terra";0;0;2;5.5
"li lihong";0;0;1;6;0;0;2;1
"philippe heurtaux";0;0;1;5
"korosh ghazimorad";0;0;1;8
"etienne rey";0;0;5;9.8;0;0;1;10
"myriam baudin";0;0;1;3
"montreux jazz festival 1986";0;0;1;1
"phillipe pasqua";0;0;2;9
"jacques villegle";0;0;1;11;0;0;3;6.3333333333333
"li wei";0;0;11;1.5454545454545;0;0;4;2.25
"joan miro";0;0;1;193
"badri lomsianidze";0;0;2;4
"galerie keza";0;0;1;6
"emma levine artist";0;0;1;10
"liu xiaofang artist";0;0;1;9
"chombart de lauwe";0;0;1;27
"octave pixel";0;0;5;1.8;0;0;1;1
"sergio moscona";0;0;1;4;0;0;1;6
"babajide olatunji";0;0;4;7
"patrick moya artist";0;0;2;8
"ren hang wiki";0;0;1;7
"josi paula x";0;0;2;7
"mick jagger";0;0;1;159
"abc gallery";0;0;1;10
"santander bewertungen in waldkraiburg";0;0;2;36
"aleksey gromov";0;0;2;4
"etienne cail";0;0;1;1
"le déjeuner sur l'herbe";0;0;1;1
"cecile plaisance";0;0;2;8
"lauryn hill artwork";0;0;1;10
"the flat massimo carasi";0;0;1;11
houtin;0;0;1;6
baldaccini;0;0;2;35.5
"timur novikov";0;0;5;1
"graffiti artist crash";0;0;2;9
"john crash matos artwork";0;0;1;8
"john bulmer";0;0;1;3
smael;0;0;1;13
orlinski;0;0;1;10
"philippe pasqua skull";0;0;4;7
"philippe pasqua art";0;0;1;9
dtone;0;0;4;8.25;0;0;1;2
"vincent chenut";0;0;1;1
"daan oude elferink";0;0;1;10;0;0;1;8
"suling wang";0;0;2;11
"anne berry";0;0;1;71
"galerie olivier waltman";0;0;1;6
bbtoon;0;0;1;9
"kolaj painting art";0;0;1;9
"murakami flower cushion";0;0;2;9
durix;0;0;3;4.6666666666667;0;0;1;1
"david lachapelle diesel";0;0;1;1
iemza;0;0;1;7
"jean baptiste dumont";0;0;1;1
"troy henriksen";0;0;2;4;0;0;2;3.5
"mahjoub ben bella";0;0;2;3
"arman venus";0;0;2;3
"gilles capton";0;0;1;4
"pavel brat";0;0;1;9
chubac;0;0;3;7;0;0;1;4
skunkdog;0;0;1;2
"guy denning artwork";0;0;3;8.3333333333333;0;0;7;9
tubehome;0;0;1;62
"wifredo lam";0;0;1;186
"gz gallery";0;0;1;6
"cara delevingne stencil";0;0;1;1
"mist art";0;0;1;4
"planete serie";0;0;1;9
"le dejeuner sur l'herbe";0;0;1;1
"le duong";0;0;1;43
"mischa keijser";0;0;1;3
"peter wüthrich artist";0;0;1;1
"zhang wei artist";0;0;1;9
"tran viet ha";0;0;2;6
"cricket fine art gallery";0;0;1;8
"kamasutra artwork";0;0;1;13
"stephane joannes artist";0;0;1;7
"moby artwork";0;0;1;21
"john crash matos";0;0;2;9
"vikram kushwah";0;0;1;1
"the linda blackstone gallery";0;0;1;6
"etienne gros";0;0;2;5
"wang yan cheng";0;0;1;1
"timothee talard";0;0;1;4
"luz severino";0;0;2;8
godon;0;0;1;4
"fanny ferry bailly";0;0;2;4
"marc ferrero";0;0;1;10
petrmayr;0;0;1;20
"kyungwoo chun";0;0;1;10
"josi paula";0;0;2;29.5
koolkoor;0;0;1;5
"claire bianchi";0;0;1;10
"hom nguyen";0;0;2;13
rednudes;0;0;1;15
"kilmany jo liversage";0;0;2;9;0;0;1;7
villegle;0;0;1;8
"passport map europe";0;0;1;10
uriginal;0;0;1;7
"gabriela bodin";0;0;1;10
talard;0;0;2;11
"reservoir dogs stormtroopers";0;0;2;9
roch3;0;0;1;5;0;0;1;4
"john matos";0;0;2;7
"ki to la gloire";0;0;1;7
"bossa talents";0;0;1;5;0;0;1;5
"ahn sun mi";0;0;2;7
"laure krug";0;0;1;1
"joan miro oeuvres";0;0;1;1
"by the dude";0;0;1;7
"jan lisman";0;0;1;16
"caroline yates artist";0;0;1;8
"joel rea paintings for sale";0;0;1;16
"lou ros artist";0;0;1;9
"leah beggs";0;0;1;11
"edmond van dooren";0;0;1;8
"takashi murakami flower pillow";0;0;1;18
"valerie hadida sculpture";0;0;1;6
"cola lola";0;0;1;1
"yoel benharrouche prices";0;0;2;10
"monika nowak";0;0;1;12
"inca pagny marie-pascale giunta";0;0;1;9
"galerie rivière faiveley";0;0;1;7
"richard orlinski panthere";0;0;1;5
"alexandre durand";0;0;1;10
"guy denning paintings";0;0;2;7
"gordon hopkins artist";0;0;1;3
"david lynch artwork";0;0;1;56
"aldo cannes";0;0;1;158
"speedy graphito";0;0;1;8
"big ben";0;0;1;200
"gordon hopkins art";0;0;2;4
"petra wunderlich facebook";0;0;1;9
bernadinism;0;0;1;15
"anna bocek";0;0;1;10
"katrin bremermann";0;0;1;8
olanier;0;0;1;8
