"herve di rosa";1;0.5;2;8;1;0.5;2;8
"valérie hadida";1;1;1;5;1;1;1;5
"claisse geneviève";1;0.5;2;7;1;0.5;2;7
"charlotte champion";1;0.5;2;6.5;0;0;1;6;1;1;1;7
"lou ros artist";1;0.5;2;9.5;1;1;1;10;0;0;1;9
"tony frank photographer";1;1;1;4;1;1;1;4
"gordon hopkins painter";1;0.33333333333333;3;4.6666666666667;1;0.33333333333333;3;4.6666666666667
"dominique régnier";1;0.33333333333333;3;9;1;0.33333333333333;3;9
"david crismon";1;0.5;2;10;1;0.5;2;10
bodnariu;1;0.066666666666667;15;19.066666666667;1;0.16666666666667;6;20.666666666667;0;0;9;18
"kilmany jo liversage";1;0.25;4;8.5;0;0;2;9.5;1;0.5;2;7.5
"banksy krakow";1;0.5;2;16;1;0.5;2;16
"jacques borker";1;0.33333333333333;3;6;1;0.33333333333333;3;6
"maya hayuk art for sale";1;1;1;14;1;1;1;14
"jeremy annear";1;1;1;9;1;1;1;9
"kennis chan";1;0.25;4;9;1;0.33333333333333;3;9;0;0;1;9
"guillaume piechaud";1;0.5;2;3;1;0.5;2;3
"jeanne lorioz prints";1;0.5;2;7;1;0.5;2;7
"aki kuroda artist";1;0.33333333333333;3;4.6666666666667;1;1;1;6;0;0;2;4
"pauline ohrel";1;1;1;9;1;1;1;9
"jose manuel fors";1;0.25;4;9.25;1;0.25;4;9.25
"jon one";1;0.5;2;5;1;0.5;2;5
"keith haring crack down";1;0.5;2;4;1;0.5;2;4
"valerie hadida";1;0.090909090909091;11;4.7272727272727;0;0;8;5.25;0;0;1;4;1;0.5;2;3
"gilchrist mandolin for sale";0;0;1;33;0;0;1;33
"jimmy lawlor art sale";0;0;1;8;0;0;1;8
smash137;0;0;1;50;0;0;1;50
"sarah hardacre artist";0;0;1;17;0;0;1;17
"tracey emin print";0;0;2;40;0;0;2;40
"buy george braque";0;0;1;26;0;0;1;26
"gerard boudon";0;0;1;1;0;0;1;1
"vidal saint phalle";0;0;1;7;0;0;1;7
plantationboys;0;0;1;15;0;0;1;15
"self portrait photographers york";0;0;1;102;0;0;1;102
"contemporary art club";0;0;1;3;0;0;1;3
"hengki koentjoro";0;0;1;48;0;0;1;48
"x von sydow";0;0;1;31;0;0;1;31
"peter doig bio";0;0;1;21;0;0;1;21
"colin guillemet";0;0;1;6;0;0;1;6
"duong le thai";0;0;1;7;0;0;1;7
"pensa est";0;0;1;231;0;0;1;231
"nicole wendel";0;0;3;10;0;0;3;10
"kai schäfer";0;0;1;26;0;0;1;26
fugam;0;0;1;38;0;0;1;38
"holiday resort lithuania -";0;0;1;272;0;0;1;272
"mwenze kibwanga";0;0;1;3;0;0;1;3
"vincent peters biography";0;0;1;3;0;0;1;3
"montreux art gallery";0;0;1;12;0;0;1;12
"buy tracey emin";0;0;1;69;0;0;1;69
"florence d’elle";0;0;1;6;0;0;1;6
"marina cavazza";0;0;1;13;0;0;1;13
pinkylove;0;0;2;40;0;0;2;40
"ayana v jackson";0;0;1;33;0;0;1;33
"chambre noire";0;0;1;306;0;0;1;306
coruzzi;0;0;1;43;0;0;1;43
"nature morte vivante";0;0;2;19.5;0;0;1;19;0;0;1;20
paxal;0;0;1;17;0;0;1;17
"tom wesselmann art";0;0;1;34;0;0;1;34
"sun hyuk";0;0;1;4;0;0;1;4
"cattaneo electric";0;0;1;38;0;0;1;38
"headshot artwork";0;0;1;10;0;0;1;10
"eric dormoy";0;0;1;50;0;0;1;50
"tracey emin cv";0;0;1;31;0;0;1;31
"gerry cranham";0;0;1;4;0;0;1;4
"jacques pellegrin";0;0;1;4;0;0;1;4
"is pharrell williams asian";0;0;1;37;0;0;1;37
"vasarely riegel";0;0;1;34;0;0;1;34
"bella easton";0;0;1;17;0;0;1;17
"christian renonciat";0;0;1;10;0;0;1;10
"blek le rat graffiti";0;0;1;41;0;0;1;41
"jonone art for sale";0;0;1;4;0;0;1;4
"charles quillin";0;0;1;14;0;0;1;14
"the black gallery";0;0;1;4;0;0;1;4
"jimmy ruf";0;0;2;2;0;0;1;2;0;0;1;2
"chapelier fou";0;0;1;242;0;0;1;242
"nathan chantob";0;0;1;1;0;0;1;1
chevrons;0;0;1;342;0;0;1;342
"artworks by amy";0;0;1;32;0;0;1;32
"onur artist";0;0;1;10;0;0;1;10
"jean-marie marion";0;0;1;1;0;0;1;1
"au nom du fils";0;0;3;30.666666666667;0;0;3;30.666666666667
croq;0;0;1;62;0;0;1;62
"amandine levy";0;0;1;1;0;0;1;1
"paolo cavinato";0;0;1;36;0;0;1;36
"petra wunderlich facebook";0;0;1;10;0;0;1;10
hiquily;0;0;2;39;0;0;2;39
"mel ramos art";0;0;1;62;0;0;1;62
"rero art";0;0;2;38.5;0;0;2;38.5
"pure evil artist";0;0;1;85;0;0;1;85
"john short artist";0;0;1;3;0;0;1;3
"martin bez";0;0;1;20;0;0;1;20
"clinton friedman";0;0;2;45.5;0;0;1;45;0;0;1;46
"dibond signage in lagos";0;0;1;46;0;0;1;46
"robert indiana prints";0;0;1;94;0;0;1;94
"francine van hove";0;0;4;17.5;0;0;4;17.5
"mambo paintings";0;0;1;10;0;0;1;10
"richard orlinski";0;0;6;9.5;0;0;5;9.6;0;0;1;9
"john isaac photographer";0;0;1;42;0;0;1;42
"allegro fortissimo";0;0;1;22;0;0;1;22
jonone;0;0;3;25.333333333333;0;0;3;25.333333333333
"antoine correia";0;0;1;5;0;0;1;5
baigneuse;0;0;1;211;0;0;1;211
"apple werbung ray charles";0;0;1;44;0;0;1;44
"gérard rancinan";0;0;1;12;0;0;1;12
"a profane";0;0;1;128;0;0;1;128
"am hochrhein southern black forest";0;0;1;175;0;0;1;175
"zelt sale";0;0;1;26;0;0;1;26
"bank autria";0;0;1;413;0;0;1;413
"renoma street";0;0;1;6;0;0;1;6
"art bona";0;0;1;111;0;0;1;111
"agam for sale";0;0;1;39;0;0;1;39
"li wei";0;0;30;4.3;0;0;18;4.5;0;0;11;3.9090909090909;0;0;1;5
"yasemin senel";0;0;5;9.8;0;0;1;11;0;0;4;9.5
"takashi murakami for sale";0;0;1;20;0;0;1;20
"pablito zago";0;0;1;9;0;0;1;9
"coq rooster";0;0;1;19;0;0;1;19
"dawn's awakening";0;0;1;7;0;0;1;7
"vincent richeux";0;0;1;6;0;0;1;6
"guion 	landscaper";0;0;1;163;0;0;1;163
"jacques de la villegle";0;0;1;10;0;0;1;10
"courty neon art";0;0;1;95;0;0;1;95
"art collector";0;0;1;217;0;0;1;217
"martine poppe";0;0;1;15;0;0;1;15
"egor bogachev";0;0;1;11;0;0;1;11
"francois morellet art";0;0;1;9;0;0;1;9
"omega house ii";0;0;1;350;0;0;1;350
"toxic artist";0;0;1;5;0;0;1;5
xaipe;0;0;3;30.333333333333;0;0;2;32;0;0;1;27
"anne decup";0;0;2;2;0;0;2;2
"antoine stevens";0;0;3;7.3333333333333;0;0;1;8;0;0;2;7
"speedy graphito for sale";0;0;2;6;0;0;2;6
"rimbaud painting";0;0;1;24;0;0;1;24
goldnadel;0;0;1;26;0;0;1;26
"mikael lafontan";0;0;2;9;0;0;2;9
"elisabeth taylor";0;0;1;127;0;0;1;127
guydenning;0;0;1;10;0;0;1;10
"george braque prints";0;0;1;94;0;0;1;94
"david gerstein artist";0;0;2;33;0;0;2;33
"buy keith haring";0;0;1;51;0;0;1;51
bambous;0;0;1;228;0;0;1;228
"griffin londres";0;0;1;98;0;0;1;98
"ciril jazbec";0;0;1;37;0;0;1;37
fullmäne;0;0;7;4.2857142857143;0;0;7;4.2857142857143
"bargholz auction";0;0;1;48;0;0;1;48
"sabine danzé";0;0;1;4;0;0;1;4
"bruno catalano sculpture for sale";0;0;1;8;0;0;1;8
"nathalie daoust";0;0;1;25;0;0;1;25
"huston ripley";0;0;1;9;0;0;1;9
"titre serie";0;0;1;8;0;0;1;8
"filippo minelli";0;0;1;36
"summer haze";0;0;1;216;0;0;1;216
"bat yam";0;0;1;244;0;0;1;244
georgik;0;0;1;9;0;0;1;9
gregos;0;0;1;7;0;0;1;7
nidzgorski;0;0;1;4;0;0;1;4
"catalan painter";0;0;1;245;0;0;1;245
jadikan;0;0;2;7;0;0;2;7
"dupont art";0;0;1;208;0;0;1;208
"joseph beuys";0;0;1;221;0;0;1;221
"helmut middendorf";0;0;1;32;0;0;1;32
hermapadite;0;0;1;228;0;0;1;228
"mathieu nozieres";0;0;4;8;0;0;4;8
akajimmyc;0;0;1;21;0;0;1;21
"thomas muller drawings";0;0;1;3;0;0;1;3
"patrick fleurion";0;0;1;6;0;0;1;6
"tracey emin biography";0;0;1;20;0;0;1;20
"etienne gross";0;0;1;4;0;0;1;4
"jacques lacroix";0;0;1;9;0;0;1;9
"laurent martinez";0;0;1;9;0;0;1;9
"azoulay artist";0;0;1;45;0;0;1;45
kleiber;0;0;1;170;0;0;1;170
"reyna martin";0;0;1;45;0;0;1;45
"louis nicolas darbon";0;0;1;10;0;0;1;10
vagabondage;0;0;2;9;0;0;2;9
"keith coventry";0;0;1;33;0;0;1;33
pradino;0;0;2;6;0;0;1;7;0;0;1;5
"henk van kalken";0;0;2;7;0;0;2;7
"gen atem";0;0;1;13;0;0;1;13
"ivan tzonev";0;0;2;2;0;0;2;2
"astro stone";0;0;1;49;0;0;1;49
"alexis x";0;0;3;19.666666666667;0;0;3;19.666666666667
"rougemont paris";0;0;1;95;0;0;1;95
"esso oil can";0;0;1;28;0;0;1;28
lortiwa;0;0;1;10;0;0;1;10
"francine van hove artist";0;0;1;10;0;0;1;10
"police line do not cross";0;0;1;62;0;0;1;62
"pretty portal";0;0;3;8;0;0;2;8;0;0;1;8
"peter doig print";0;0;1;60;0;0;1;60
"vikram kushwah";0;0;2;1.5;0;0;2;1.5
"game girl advance";0;0;1;21;0;0;1;21
lassaâd;0;0;1;15;0;0;1;15
"toshimitsu imai";0;0;1;20;0;0;1;20
jaunery;0;0;1;7;0;0;1;7
"miranda noury timmermans";0;0;1;8;0;0;1;8
"lamborghini fire extinguisher";0;0;1;20;0;0;1;20
gzstore;0;0;1;4;0;0;1;4
couffignal;0;0;1;34;0;0;1;34
"bambi artist";0;0;4;3.75;0;0;1;7;0;0;1;1;0;0;2;3.5
"christy lee biography";0;0;1;5;0;0;1;5
"άρης μεσσήνης";0;0;1;16;0;0;1;16
"art for sale";0;0;1;403;0;0;1;403
"beirut art fair";0;0;1;34;0;0;1;34
"paul bogaers";0;0;4;83.5;0;0;4;83.5
"paris bouge";0;0;1;18;0;0;1;18
"lyle carbajal";0;0;1;6;0;0;1;6
"as i opened fire print";0;0;2;2;0;0;2;2
"jean marie oger";0;0;2;8;0;0;2;8
"bannenberg rowell";0;0;1;246;0;0;1;246
"roger edgar gillet";0;0;2;8;0;0;2;8
"la butte";0;0;1;172;0;0;1;172
"chu teh";0;0;1;41;0;0;1;41
"creepy art";0;0;1;26;0;0;1;26
"alliance ethio francaise";0;0;1;36;0;0;1;36
"sculptural couturier";0;0;11;61.454545454545;0;0;11;61.454545454545
"lion skull for sale";0;0;2;35.5;0;0;2;35.5
"cary grant";0;0;1;208;0;0;1;208
planas;0;0;1;196;0;0;1;196
"cara delevingne artwork";0;0;2;1;0;0;2;1
"christian courrèges";0;0;1;2;0;0;1;2
"moi ideal";0;0;1;45;0;0;1;45
"pilar ortega";0;0;1;10;0;0;1;10
"bruno catalano prices";0;0;5;6.4;0;0;2;8;0;0;3;5.3333333333333
"texas street busan prostitutes";0;0;1;77;0;0;1;77
"gold griot";0;0;2;9;0;0;2;9
"anderson and low";0;0;1;39;0;0;1;39
"buy nick walker";0;0;1;37;0;0;1;37
"emeric chantier";0;0;1;10;0;0;1;10
"murakami mushroom";0;0;1;16;0;0;1;16
"david kassan";0;0;1;48;0;0;1;48
"snoopy ski";0;0;1;12;0;0;1;12
"frank fischer artist";0;0;1;7;0;0;1;7
"cornette saint cyr auctions";0;0;1;10;0;0;1;10
"arthur tress dream collector";0;0;1;27;0;0;1;27
"bordeaux chateau lafite";0;0;1;236;0;0;1;236
"damien hirst studio";0;0;1;27;0;0;1;27
"venezuelan artists";0;0;2;25.5;0;0;2;25.5
"hin chua";0;0;2;30;0;0;2;30
"paris photo li wei";0;0;1;27;0;0;1;27
"cynthia wheeler";0;0;1;44;0;0;1;44
oeuvrette;0;0;1;9;0;0;1;9
"ben french artist";0;0;1;9;0;0;1;9
"shirley jaffe";0;0;1;33;0;0;1;33
"alain shoes";0;0;1;40;0;0;1;40
"bruno catalano";0;0;1;25;0;0;1;25
pookky;0;0;4;6;0;0;4;6
"octave pixel";0;0;10;8.5;0;0;1;8;0;0;6;9.3333333333333;0;0;3;7
"takashi murakami prints";0;0;1;57;0;0;1;57
"yona friedman";0;0;1;62;0;0;1;62
"jean-michel berts photography";0;0;1;41;0;0;1;41
"bettina von arnim";0;0;2;36;0;0;2;36
peyret;0;0;2;62;0;0;2;62
closky;0;0;2;17.5;0;0;1;25;0;0;1;10
"pakpoom silaphan";0;0;8;6;0;0;8;6
"nyne factory";0;0;1;5;0;0;1;5
"hotel ristorante camene";0;0;1;33;0;0;1;33
babuchka;0;0;1;8;0;0;1;8
"la palette";0;0;1;181;0;0;1;181
"kim sun hyuk";0;0;1;7;0;0;1;7
"andy warhol flowers for sale";0;0;1;41;0;0;1;41
"zhao bandi";0;0;2;7;0;0;2;7
"murakami cushion";0;0;1;10;0;0;1;10
"maria torp";0;0;1;8;0;0;1;8
"li wein";0;0;16;3;0;0;16;3
"gerry cranham photography";0;0;1;6;0;0;1;6
"les dunes";0;0;1;158;0;0;1;158
"david lachapelle philip lachapelle";0;0;3;10.333333333333;0;0;1;10;0;0;2;10.5
"le déjeuner sur l'herbe";0;0;1;1;0;0;1;1
"les baigneurs";0;0;1;108;0;0;1;108
"favela painting";0;0;1;9;0;0;1;9
"matthew tyson";0;0;1;26;0;0;1;26
"yago partal";0;0;1;53;0;0;1;53
"woman in white painting";0;0;1;39;0;0;1;39
"alberto reguera artist";0;0;2;10;0;0;2;10
"kollektiv plus zwei";0;0;1;5;0;0;1;5
"vincent hawkins";0;0;5;8.6;0;0;4;8.5;0;0;1;9
"cuevas y ii";0;0;1;82;0;0;1;82
"genevieve claisse";0;0;1;7;0;0;1;7
"la petite sirène";0;0;1;100;0;0;1;100
"timur novikov";0;0;5;10.6;0;0;3;11;0;0;2;10
"gilles verneret";0;0;1;5;0;0;1;5
"anna bocek artist";0;0;1;11;0;0;1;11
"julien sinzogan";0;0;1;21;0;0;1;21
"philippe huart";0;0;2;9;0;0;2;9
"anya spielman";0;0;1;3;0;0;1;3
"olivier widmaier picasso";0;0;2;10;0;0;2;10
"creez meaning";0;0;1;41;0;0;1;41
"hotel ristorante le camene";0;0;1;91;0;0;1;91
"duster ua graffiti";0;0;1;10;0;0;1;10
mercky;0;0;1;5;0;0;1;5
"sebastien micke";0;0;1;13;0;0;1;13
"etienne cail";0;0;9;1.2222222222222;0;0;4;1.25;0;0;4;1;0;0;1;2
"fanny touron nude";0;0;1;25;0;0;1;25
nils-udo;0;0;1;6;0;0;1;6
"dr lewitt greensboro nc";0;0;1;35;0;0;1;35
"elysées paris";0;0;1;159;0;0;1;159
"baptiste fompeyrine";0;0;1;1;0;0;1;1
"sergio ferro";0;0;1;29;0;0;1;29
"aldo cannes";0;0;1;151;0;0;1;151
"speedy graphito";0;0;3;39.333333333333;0;0;3;39.333333333333
"moona lisa nick walker";0;0;1;17;0;0;1;17
"arty gallery";0;0;1;9;0;0;1;9
boncompain;0;0;1;31;0;0;1;31
khawater;0;0;1;99;0;0;1;99
"takashi murakami dob";0;0;1;37;0;0;1;37
"bordeaux lafite rothschild";0;0;1;234;0;0;1;234
"bad santa artwork";0;0;1;7;0;0;1;7
sauterie;0;0;1;38;0;0;1;38
babs;0;0;1;317;0;0;1;317
"nicole lacombe";0;0;1;36;0;0;1;36
"paul van hoeydonck";0;0;1;37;0;0;1;37
beargalerie;0;0;1;7;0;0;1;7
"christophe charbonnel";0;0;3;5.6666666666667;0;0;3;5.6666666666667
"norman rockwell boy";0;0;1;33;0;0;1;33
"mahe boissel";0;0;1;2;0;0;1;2
"robert rauschenberg";0;0;1;302;0;0;1;302
"anna bocek";0;0;1;7;0;0;1;7
baillon;0;0;1;238;0;0;1;238
misstic;0;0;3;12;0;0;1;18;0;0;2;9
"j bosch artist";0;0;1;29;0;0;1;29
"puzzle pulp fiction";0;0;1;1;0;0;1;1
vevais;0;0;3;38.333333333333;0;0;3;38.333333333333
derrier;0;0;3;9;0;0;3;9
"joan mitchell paintings for sale";0;0;1;47;0;0;1;47
"hicks gallery";0;0;2;15;0;0;1;16;0;0;1;14
"audoin desforges";0;0;1;8;0;0;1;8
vittoretti;0;0;1;6;0;0;1;6
"panda artwork";0;0;1;224;0;0;1;224
kuuji;0;0;1;7;0;0;1;7
"crash john matos";0;0;1;7;0;0;1;7
"edwin apps actor";0;0;1;5;0;0;1;5
chanoir;0;0;3;7.3333333333333;0;0;2;7.5;0;0;1;7
"nieves mingueza";0;0;1;8;0;0;1;8
silaphan;0;0;1;7;0;0;1;7
"eugenio carmi";0;0;1;6;0;0;1;6
"alina and jeff bliumis";0;0;1;10;0;0;1;10
"maurizio nannucci";0;0;1;44;0;0;1;44
"wifredo lam";0;0;1;200;0;0;1;200
"takashi murakami flower";0;0;1;19;0;0;1;19
"x bolin";0;0;1;345;0;0;1;345
cochonou;0;0;2;47;0;0;2;47
baudet;0;0;1;137;0;0;1;137
"cerulean discover card";0;0;1;126;0;0;1;126
morisse;0;0;6;344.33333333333;0;0;6;344.33333333333
"sell tom wesselmann";0;0;1;58;0;0;1;58
"ella prien nackt";0;0;1;16;0;0;1;16
"laszlo mail";0;0;1;18;0;0;1;18
"claude venard paintings";0;0;1;21;0;0;1;21
"jago artist";0;0;1;17;0;0;1;17
dansho;0;0;1;33;0;0;1;33
"jean-michel berts photographer";0;0;1;29;0;0;1;29
"ryan hewett artist";0;0;1;23;0;0;1;23
renoma;0;0;2;62;0;0;2;62
"lorioz art";0;0;1;9;0;0;1;9
"soly cissé";0;0;1;26;0;0;1;26
"baudoin lebon galerie";0;0;1;17;0;0;1;17
charro;0;0;1;214;0;0;1;214
"jean marie marion mannequin";0;0;2;6;0;0;1;6;0;0;1;6
"markus & koala";0;0;3;1.3333333333333;0;0;3;1.3333333333333
"herve perdriel";0;0;2;2;0;0;2;2
"jean hélion";0;0;1;40;0;0;1;40
"jack otway art";0;0;1;7;0;0;1;7
balint;0;0;1;322;0;0;1;322
"galerie hegoa";0;0;1;5;0;0;1;5
"cathedrals in my heart";0;0;1;10;0;0;1;10
"jean michel berts";0;0;1;26;0;0;1;26
"anna zuber";0;0;1;10;0;0;1;10
"alain clement artist";0;0;1;5;0;0;1;5
compoint;0;0;1;43;0;0;1;43
"philipe berry";0;0;1;10;0;0;1;10
"amy judd prints";0;0;1;27;0;0;1;27
artista;0;0;2;293;0;0;2;293
"anne barrault";0;0;1;236;0;0;1;236
"jean faucheur";0;0;1;3;0;0;1;3
"thijs nel";0;0;1;7;0;0;1;7
senel;0;0;1;143;0;0;1;143
"derrick santini photographer";0;0;1;16;0;0;1;16
"pinocchio jim dine";0;0;1;41;0;0;1;41
"la maja desnuda";0;0;2;56;0;0;2;56
"sylvain dress code";0;0;1;5;0;0;1;5
"annette messager artist";0;0;1;26;0;0;1;26
"fela kunti";0;0;1;237;0;0;1;237
parisot;0;0;1;152;0;0;1;152
"monika nowak";0;0;1;8;0;0;1;8
"ele pack";0;0;1;23;0;0;1;23
"marc petit";0;0;2;49;0;0;2;49
"anna bocek paintings";0;0;1;19;0;0;1;19
"mayank shyam";0;0;1;6;0;0;1;6
"lola cola";0;0;7;1.2857142857143;0;0;5;1.4;0;0;2;1
quir;0;0;1;45;0;0;1;45
"art of war 3 java";0;0;1;223;0;0;1;223
valérie;0;0;1;326;0;0;1;326
"galerie depypere";0;0;1;27;0;0;1;27
nelee;0;0;1;41;0;0;1;41
"buy jeff koons";0;0;1;30;0;0;1;30
"henri lamy";0;0;1;6;0;0;1;6
"chris morin";0;0;2;3;0;0;2;3
"louis blanc";0;0;1;109;0;0;1;109
"polly ngale";0;0;2;33;0;0;2;33
dan23;0;0;1;18;0;0;1;18
"fkdl street art";0;0;1;8;0;0;1;8
"king kong artwork";0;0;1;44;0;0;1;44
barques;0;0;1;314;0;0;1;314
"ralph gibson biography";0;0;1;28;0;0;1;28
"raymond hains";0;0;2;7.5;0;0;2;7.5
"casus clay";0;0;1;222;0;0;1;222
"art dog london";0;0;1;7;0;0;1;7
"papa johns lewisburg pa";0;0;1;222;0;0;1;222
"aslan pin";0;0;1;41;0;0;1;41
"urban art for sale";0;0;1;45;0;0;1;45
"no galerie";0;0;2;9.5;0;0;1;9;0;0;1;10
"jerome legrand";0;0;2;10;0;0;2;10
"jacques villeglé";0;0;1;8;0;0;1;8
"rudolf hausner";0;0;1;16;0;0;1;16
"carmen art";0;0;1;401;0;0;1;401
"bram van velde";0;0;2;27;0;0;2;27
"batista artist";0;0;1;22;0;0;1;22
"bahareh navabi";0;0;2;1;0;0;2;1
watin;0;0;2;70.5;0;0;1;64;0;0;1;77
"see hg mpv";0;0;1;27;0;0;1;27
"el greco hotel bucharest";0;0;1;198;0;0;1;198
influsso;0;0;1;105;0;0;1;105
"miguel angel sanchez";0;0;1;37;0;0;1;37
"reda abdel rahman";0;0;1;9;0;0;1;9
"żan milo";0;0;2;9;0;0;2;9
"gabriel paris";0;0;1;21;0;0;1;21
"plage x";0;0;1;308;0;0;1;308
"durix julien";0;0;1;3;0;0;1;3
"silke seybold";0;0;1;10;0;0;1;10
"l'envol paris";0;0;1;180;0;0;1;180
"st giles londres";0;0;1;159;0;0;1;159
"louin landscaper";0;0;1;189;0;0;1;189
"justine smith artist";0;0;1;20;0;0;1;20
"nils udo";0;0;14;8;0;0;8;7.25;0;0;6;9
caresse;0;0;1;325;0;0;1;325
"nicolas hugo";0;0;1;9;0;0;1;9
"miss van art";0;0;1;45;0;0;1;45
staubfinger;0;0;2;66.5;0;0;2;66.5
"jean-michel berts";0;0;1;28;0;0;1;28
"kim westcott";0;0;1;35;0;0;1;35
"alex cao";0;0;1;43;0;0;1;43
"damien hirst biography";0;0;1;41;0;0;1;41
"pierre loti";0;0;1;193;0;0;1;193
"santander bewertungen in waldkraiburg";0;0;3;35.666666666667;0;0;1;36;0;0;2;35.5
carlos+cruz-diez;0;0;1;104;0;0;1;104
"oui f";0;0;1;46;0;0;1;46
"bugs bunny artwork";0;0;1;38;0;0;1;38
"miss van";0;0;1;57;0;0;1;57
"antoine josse";0;0;2;10;0;0;2;10
"ursula krauss";0;0;1;25;0;0;1;25
"lenoir artist";0;0;1;8;0;0;1;8
"rob van hoek";0;0;1;7;0;0;1;7
"emerge gallery";0;0;1;14;0;0;1;14
"ren hang wikipedia";0;0;2;3;0;0;2;3
"philippe pasqua";0;0;2;13;0;0;1;16;0;0;1;10
"nicolette holman";0;0;1;45;0;0;1;45
"takashi murakami prints for sale";0;0;1;20;0;0;1;20
"panoply france";0;0;1;306;0;0;1;306
"stéphane gautier";0;0;1;5;0;0;1;5
"alison wilding";0;0;1;37;0;0;1;37
"galleri gkm";0;0;1;6;0;0;1;6
"le moulin de rudelle";0;0;1;100;0;0;1;100
"grand soleil";0;0;1;234;0;0;1;234
"robert barry";0;0;1;10;0;0;1;10
"galerie nue";0;0;2;19;0;0;2;19
"basquiat art for sale";0;0;1;28;0;0;1;28
liquidiv;0;0;1;43;0;0;1;43
"jean georges inca";0;0;2;2;0;0;2;2
"sienna on the coast";0;0;1;160;0;0;1;160
"rob hay";0;0;1;15;0;0;1;15
"keith haring artwork for sale";0;0;1;45;0;0;1;45
"sandro giordano";0;0;1;9;0;0;1;9
"prisoners movie";0;0;1;163;0;0;1;163
"nick walker art";0;0;1;98;0;0;1;98
"patti smith artwork";0;0;1;44;0;0;1;44
corcia;0;0;1;39;0;0;1;39
"isabelle chapuis";0;0;2;24.5;0;0;2;24.5
"sabine danze";0;0;6;1.3333333333333;0;0;1;1;0;0;5;1.4
"darth vader kaws";0;0;1;1;0;0;1;1
"""momentary articulation""";0;0;1;22;0;0;1;22
chapaize;0;0;1;219;0;0;1;219
"ripolles artist";0;0;1;37;0;0;1;37
lescalier;0;0;1;181;0;0;1;181
"helmut newton art";0;0;1;40;0;0;1;40
"misskiss_ nude";0;0;1;19;0;0;1;19
"alain delorme";0;0;2;45;0;0;2;45
"manolo chretien";0;0;1;5;0;0;1;5
"richard heeps";0;0;1;28;0;0;1;28
"maxime fardeau";0;0;1;10;0;0;1;10
"anouk grinberg";0;0;2;31.5;0;0;2;31.5
"antigone painting";0;0;1;10;0;0;1;10
"louis blanc photography";0;0;1;2;0;0;1;2
allbyl;0;0;1;10;0;0;1;10
ballesta;0;0;2;98.5;0;0;2;98.5
"ville du soleil";0;0;1;39;0;0;1;39
"james ostrer";0;0;1;24;0;0;1;24
festosa;0;0;2;73.5;0;0;2;73.5
"pasqua artist";0;0;1;9;0;0;1;9
"jacques villegle";0;0;5;9.2;0;0;2;9.5;0;0;2;9;0;0;1;9
"banksy stop and search";0;0;2;1;0;0;1;1;0;0;1;1
vaubourg;0;0;1;8;0;0;1;8
"miss tic";0;0;3;8.3333333333333;0;0;1;6;0;0;1;8;0;0;1;11
"julian opie biography";0;0;1;44;0;0;1;44
chaînette;0;0;1;202;0;0;1;202
vivienne;0;0;5;258.8;0;0;5;258.8
"vinyl pop art";0;0;1;6;0;0;1;6
"jerell willis";0;0;1;18;0;0;1;18
"ayline olukman";0;0;2;5;0;0;1;5;0;0;1;5
"pierre francois grimaldi";0;0;5;3.8;0;0;1;3;0;0;4;4
"baudoin lebon";0;0;1;7;0;0;1;7
"doinel gallery";0;0;2;11.5;0;0;2;11.5
"blek le rat gallery";0;0;1;21;0;0;1;21
"john timberlake";0;0;1;37;0;0;1;37
"jef aerosol";0;0;1;8;0;0;1;8
bacqueville;0;0;1;35;0;0;1;35
hadida;0;0;3;58;0;0;3;58
"belgian contemporary artists";0;0;1;25;0;0;1;25
"peter keizer";0;0;1;9;0;0;1;9
"artbar71 berlin";0;0;1;60;0;0;1;60
"sell mel ramos";0;0;1;56;0;0;1;56
uburen;0;0;1;50;0;0;1;50
lemilo;0;0;1;10;0;0;1;10
"jean bondage";0;0;1;18;0;0;1;18
"bruno de milano shoes";0;0;1;49;0;0;1;49
balou;0;0;1;302;0;0;1;302
"enrique mestre jaime";0;0;2;5;0;0;2;5
"dan rawlings";0;0;1;32;0;0;1;32
"li wei art";0;0;1;21;0;0;1;21
"bubble shooter";0;0;2;172.5;0;0;1;176;0;0;1;169
"david ferreira";0;0;2;9;0;0;2;9
"juanita cruz";0;0;1;36;0;0;1;36
design+and+decoration;0;0;1;242;0;0;1;242
"pierre attal";0;0;1;4;0;0;1;4
"lea chauvel levy";0;0;1;3;0;0;1;3
"miss van prints for sale";0;0;1;29;0;0;1;29
"hek graffiti";0;0;1;15;0;0;1;15
"robert combas";0;0;4;19;0;0;4;19
"palazzo bembo venise";0;0;1;176;0;0;1;176
"duster ua";0;0;1;17;0;0;1;17
"gz gallery";0;0;2;7;0;0;1;8;0;0;1;6
levalet;0;0;2;8;0;0;2;8
"razvan radu";0;0;2;39.5;0;0;2;39.5
hamey;0;0;1;45;0;0;1;45
"car gia";0;0;1;39;0;0;1;39
"jazz wall sculpture";0;0;1;31;0;0;1;31
revon;0;0;1;40;0;0;1;40
"sape aude";0;0;1;10;0;0;1;10
"voka art for sale";0;0;1;27;0;0;1;27
shup;0;0;1;44;0;0;1;44
sotill;0;0;1;3;0;0;1;3
"mel ramos vintage peekaboo";0;0;1;45;0;0;1;45
"les terrasses de cécile";0;0;1;43;0;0;1;43
"bob nugent";0;0;1;44;0;0;1;44
gammacurta;0;0;1;12;0;0;1;12
"mist art";0;0;1;5;0;0;1;5
"pascal jacquot";0;0;3;4.3333333333333;0;0;2;3;0;0;1;7
"suspension adjustment pacific beach";0;0;1;250;0;0;1;250
"barbara krakow";0;0;1;223;0;0;1;223
"sell takashi murakami";0;0;1;70;0;0;1;70
"paul lubliner";0;0;1;13;0;0;1;13
"centre d'affaires casablanca";0;0;1;245;0;0;1;245
"face masks";0;0;1;303;0;0;1;303
"suling wang";0;0;2;12;0;0;2;12
"damian tirado";0;0;3;2;0;0;3;2
"hey joe tim rose";0;0;1;33;0;0;1;33
"conrad marca relli";0;0;1;47;0;0;1;47
"benjamin carbonne";0;0;3;1;0;0;1;1;0;0;2;1
namasta;0;0;1;31;0;0;1;31
"reinhard artist";0;0;1;38;0;0;1;38
"federico fellini drawings";0;0;1;32;0;0;1;32
baldaccini;0;0;5;39.4;0;0;3;37;0;0;2;43
"gres emaille";0;0;3;33.666666666667;0;0;3;33.666666666667
"john crash matos";0;0;2;7;0;0;2;7
"tom dale artist";0;0;2;24;0;0;2;24
"sumo helmut newton";0;0;3;43;0;0;3;43
houtin;0;0;3;5.3333333333333;0;0;2;7;0;0;1;2
intra01;0;0;1;8;0;0;1;8
"cara artist";0;0;1;4;0;0;1;4
"etienne gros";0;0;7;5.4285714285714;0;0;4;5.25;0;0;2;5.5;0;0;1;6
"sell shepard fairey / obey";0;0;1;48;0;0;1;48
"mariah carey black";0;0;3;33.333333333333;0;0;3;33.333333333333
"christophe dugied";0;0;2;1;0;0;2;1
"norman rockwell football paintings";0;0;1;204;0;0;1;204
"peter klasen";0;0;3;3;0;0;3;3
"unique artwork";0;0;1;43;0;0;1;43
"pinkylove nude";0;0;1;29;0;0;1;29
"jochem hendricks";0;0;1;16;0;0;1;16
"cécile decorniquet";0;0;1;1;0;0;1;1
"bruno catalano sculpture prices";0;0;2;7;0;0;2;7
"basquiat warhol";0;0;1;201;0;0;1;201
"mariza biography";0;0;1;31;0;0;1;31
"lichtenstein girl with ball";0;0;1;37;0;0;1;37
"buy david lachapelle";0;0;1;44;0;0;1;44
"beluga whale";0;0;1;302;0;0;1;302
"bram bogart";0;0;1;28;0;0;1;28
"ellen priest";0;0;1;27;0;0;1;27
"janet lynch";0;0;1;31;0;0;1;31
"pierre fontaine";0;0;1;39;0;0;1;39
"gerard schlosser artist";0;0;1;10;0;0;1;10
"ivan alifan artist";0;0;1;20;0;0;1;20
"nue dans le jardin";0;0;1;30;0;0;1;30
"kristian von hornsleth";0;0;1;10;0;0;1;10
"hervé di rosa";0;0;2;11;0;0;2;11
"brian nissen";0;0;1;30;0;0;1;30
"richard hudson sculptor";0;0;1;7;0;0;1;7
"yvonne coomber paintings";0;0;1;23;0;0;1;23
"hero ando";0;0;1;4;0;0;1;4
"griffin gallery";0;0;1;48;0;0;1;48
"molly sims";0;0;2;221.5;0;0;2;221.5
"mel ramos coco";0;0;2;1;0;0;2;1
"portrait of gerti schiele";0;0;1;21;0;0;1;21
"kuroda artist";0;0;1;11;0;0;1;11
"dope gallery";0;0;1;8;0;0;1;8
"painting chesterfield";0;0;1;205;0;0;1;205
"florence d'elle photographs";0;0;1;7;0;0;1;7
"henri matisse";0;0;4;187;0;0;2;185.5;0;0;2;188.5
"carole benichou";0;0;1;9;0;0;1;9
"sandra beccarelli";0;0;2;6;0;0;2;6
"le glacier";0;0;1;174;0;0;1;174
"fantasy art for sale";0;0;1;32;0;0;1;32
"ouie fm";0;0;1;44;0;0;1;44
izabeau;0;0;1;1;0;0;1;1
"anna bocek prices";0;0;1;11;0;0;1;11
"alex guofeng cao";0;0;1;15;0;0;1;15
"sam hodge artist";0;0;1;10;0;0;1;10
"bert prins";0;0;1;9;0;0;1;9
"jo lynch artist";0;0;1;9;0;0;1;9
baudoin;0;0;1;110;0;0;1;110
chevelier;0;0;1;333;0;0;1;333
vignal;0;0;1;69;0;0;1;69
"jak espi";0;0;1;7;0;0;1;7
"pete doherty art for sale";0;0;1;19;0;0;1;19
"renaud delorme";0;0;5;5.8;0;0;1;9;0;0;3;5.3333333333333;0;0;1;4
"guy de rougemont";0;0;1;9;0;0;1;9
"bear galerie";0;0;2;4;0;0;2;4
"artdog london";0;0;1;5;0;0;1;5
"fashion photographer santa monica";0;0;1;184;0;0;1;184
"golden beach for sale";0;0;1;183;0;0;1;183
"gilchrist mandolin";0;0;1;46;0;0;1;46
"brokeback mountain 2";0;0;2;49;0;0;2;49
"gabriel bodnariu";0;0;3;6;0;0;2;5;0;0;1;8
"thomas gromas";0;0;1;8;0;0;1;8
"florence d'elle art";0;0;1;6;0;0;1;6
mesnager;0;0;2;8;0;0;2;8
"tony ellwood";0;0;2;28.5;0;0;2;28.5
"francoise nielly buy";0;0;1;10;0;0;1;10
"andy warhol galeria";0;0;1;43;0;0;1;43
"attache moi";0;0;1;47;0;0;1;47
"badri lomsianidze";0;0;1;3;0;0;1;3
цедки;0;0;2;2;0;0;1;2;0;0;1;2
"ceruleum road";0;0;1;105;0;0;1;105
"catarina bravo";0;0;1;4;0;0;1;4
"elodie lachaud";0;0;1;2;0;0;1;2
"disco tonight";0;0;1;65;0;0;1;65
poppe;0;0;1;309;0;0;1;309
"cedric teisseire";0;0;1;8;0;0;1;8
"afsoon artist";0;0;1;7;0;0;1;7
"clarisse rebotier";0;0;2;9;0;0;2;9
"caroline crimson";0;0;1;209;0;0;1;209
"pentecost artwork";0;0;1;41;0;0;1;41
"chris macauley";0;0;1;7;0;0;1;7
"foujita artist";0;0;1;47;0;0;1;47
dbcg;0;0;1;56;0;0;1;56
"hotel infanta elena madrid";0;0;1;167;0;0;1;167
"melanie peduzzi";0;0;1;9;0;0;1;9
"conde duque bilbao";0;0;1;191;0;0;1;191
"hotel bobo";0;0;1;77;0;0;1;77
"sex painting";0;0;1;82;0;0;1;82
"annette messager";0;0;3;52.333333333333;0;0;2;58.5;0;0;1;40
uriginal;0;0;1;10;0;0;1;10
"alva bernadine";0;0;2;1.5;0;0;1;2;0;0;1;1
"eric neveu";0;0;1;11;0;0;1;11
"be beep";0;0;1;417;0;0;1;417
"dato lynette le mercier";0;0;1;20;0;0;1;20
"jean le breton";0;0;1;38;0;0;1;38
"francisco sepulveda";0;0;1;31;0;0;1;31
"gérard schlosser peintre";0;0;1;5;0;0;1;5
"denis nona";0;0;1;39;0;0;1;39
"maquettes for sale";0;0;2;16;0;0;2;16
"david lachapelle art";0;0;1;68;0;0;1;68
"chateau lafite bordeaux";0;0;1;233;0;0;1;233
"gerstein art";0;0;1;21;0;0;1;21
catapulte;0;0;1;213;0;0;1;213
"elsa guillaume";0;0;1;2;0;0;1;2
"el pradino";0;0;1;3;0;0;1;3
"blek le rat artwork";0;0;1;23;0;0;1;23
silverfame;0;0;1;9;0;0;1;9
"larry rivers pop art";0;0;1;39;0;0;1;39
"peter hoffer artist";0;0;1;9;0;0;1;9
"valerio adami prints";0;0;1;44;0;0;1;44
bartman;0;0;1;202;0;0;1;202
"india leire";0;0;1;10;0;0;1;10
"jian guo";0;0;1;199;0;0;1;199
"li wei photography";0;0;1;20;0;0;1;20
"hsbc photography prize";0;0;1;47;0;0;1;47
trovic;0;0;2;11.5;0;0;2;11.5
"deruyter landscaper";0;0;1;166;0;0;1;166
"jacques villegle artwork";0;0;1;9;0;0;1;9
"taki 183";0;0;2;50;0;0;2;50
"galerie fluegel-roncak";0;0;1;15;0;0;1;15
"bernard pras";0;0;3;15.333333333333;0;0;2;18;0;0;1;10
"emilio tadini";0;0;1;49;0;0;1;49
onemizer;0;0;4;7.75;0;0;2;8;0;0;2;7.5
"pas de bras pas de chocolat";0;0;1;35;0;0;1;35
"henri matisse cirque";0;0;1;1;0;0;1;1
"andrey tarkovsky";0;0;1;31;0;0;1;31
"tom caldwell gallery";0;0;1;40;0;0;1;40
"thomas jorion";0;0;1;4;0;0;1;4
demiak;0;0;1;8;0;0;1;8
hankson;0;0;1;1;0;0;1;1
"julian schnabel prints";0;0;1;50;0;0;1;50
"jean gabriel";0;0;1;166;0;0;1;166
"frank horvat biography";0;0;1;10;0;0;1;10
"stephane gautier";0;0;1;6;0;0;1;6
"sell jim dine";0;0;1;59;0;0;1;59
flugo;0;0;1;46;0;0;1;46
"dominique regnier sculpteur";0;0;1;8;0;0;1;8
catabase;0;0;1;45;0;0;1;45
assalit;0;0;2;3;0;0;2;3
"maurice renoma";0;0;1;3;0;0;1;3
"vanity fair art";0;0;1;40;0;0;1;40
"claude rodriguez";0;0;1;10;0;0;1;10
"nicolas dhervillers";0;0;3;6.6666666666667;0;0;2;6;0;0;1;8
"xin art";0;0;2;8;0;0;2;8
"gerard rancinan prints";0;0;3;10;0;0;3;10
carlin;0;0;1;326;0;0;1;326
"florence d'elle paintings";0;0;1;6;0;0;1;6
"murakami prints for sale";0;0;1;26;0;0;1;26
"guy denning street art";0;0;1;7;0;0;1;7
"natalia kuznetsova";0;0;1;19;0;0;1;19
nowart;0;0;2;7;0;0;1;9;0;0;1;5
"clint eastwood artwork";0;0;1;18;0;0;1;18
crocq;0;0;1;33;0;0;1;33
"peter doig edinburgh";0;0;1;37;0;0;1;37
btoy;0;0;1;37;0;0;1;37
baubourg;0;0;1;325;0;0;1;325
"italianlady 2";0;0;1;3;0;0;1;3
"quai voltaire";0;0;1;208;0;0;1;208
"yves krief";0;0;1;6;0;0;1;6
"leon guillemin";0;0;1;10;0;0;1;10
"jean claude deutsch";0;0;4;6;0;0;1;3;0;0;2;8;0;0;1;5
"buy andy warhol";0;0;1;83;0;0;1;83
"dollar dollar bill yo";0;0;1;27;0;0;1;27
nonsicle;0;0;2;6;0;0;2;6
"panorama 88.9";0;0;1;229;0;0;1;229
"caiger contemporary";0;0;1;3;0;0;1;3
hyber;0;0;1;32;0;0;1;32
villegle;0;0;1;9;0;0;1;9
"valentin caro";0;0;1;9;0;0;1;9
gz-store;0;0;3;2.6666666666667;0;0;1;4;0;0;2;2
"bastien cuenot";0;0;2;3;0;0;1;3;0;0;1;3
"raymond voinquel";0;0;3;6.6666666666667;0;0;3;6.6666666666667
dubailand;0;0;3;192.33333333333;0;0;1;192;0;0;1;192;0;0;1;193
vray;0;0;6;99.333333333333;0;0;6;99.333333333333
"julian schnabel";0;0;1;324;0;0;1;324
"buy adek";0;0;3;6.6666666666667;0;0;3;6.6666666666667
"wilfred artist";0;0;1;32;0;0;1;32
ref102;0;0;1;55;0;0;1;55
"gwenael billaud";0;0;1;2;0;0;1;2
"bossard france";0;0;1;63;0;0;1;63
"aykaz arzumanyan";0;0;1;2;0;0;1;2
"leopold rabus";0;0;1;31;0;0;1;31
"blek le rat art";0;0;2;47;0;0;2;47
"klasen peter";0;0;1;1;0;0;1;1
"envie d art";0;0;1;6;0;0;1;6
"allan mccollum artist";0;0;1;46;0;0;1;46
"georges braque";0;0;2;172;0;0;1;166;0;0;1;178
"david gerstein art";0;0;2;30;0;0;2;30
"art elysées";0;0;1;25;0;0;1;25
"kate barry";0;0;2;46;0;0;2;46
"antonio asis";0;0;2;17.5;0;0;2;17.5
merle;0;0;1;295;0;0;1;295
"voyeur x";0;0;1;177;0;0;1;177
"philippe weisbecker";0;0;7;5.2857142857143;0;0;3;5;0;0;2;6;0;0;2;5
"tau artwork";0;0;1;35;0;0;1;35
matriarche;0;0;1;48;0;0;1;48
carbonne;0;0;1;18;0;0;1;18
"artists france";0;0;1;14;0;0;1;14
"vis a vis serie";0;0;1;48;0;0;1;48
"markowicz fine art";0;0;2;46.5;0;0;2;46.5
"sandra zeenni";0;0;1;2;0;0;1;2
belove;0;0;1;223;0;0;1;223
"hans hartung prints";0;0;1;45;0;0;1;45
"boccara gallery";0;0;1;6;0;0;1;6
tuxon;0;0;1;45;0;0;1;45
"jan saudek gallery";0;0;1;38;0;0;1;38
aborigene;0;0;1;190;0;0;1;190
"irina starkova";0;0;1;10;0;0;1;10
"gerard mortier artist";0;0;1;4;0;0;1;4
cavin;0;0;1;247;0;0;1;247
"gerhard doehler";0;0;1;1;0;0;1;1
"babajide olatunji";0;0;3;5;0;0;3;5
"patrick dumas";0;0;2;10;0;0;2;10
"givenchy hat";0;0;1;37;0;0;1;37
hako;0;0;1;152;0;0;1;152
"absolut art gallery";0;0;1;10;0;0;1;10
"roland topor drawings";0;0;1;38;0;0;1;38
"buy tom wesselmann";0;0;1;26;0;0;1;26
"art dok";0;0;1;36;0;0;1;36
hirschfuß;0;0;1;35;0;0;1;35
"michael kenna mont st michel";0;0;2;4;0;0;2;4
labegorre;0;0;2;9;0;0;2;9
"francois mendras";0;0;1;5;0;0;1;5
"saudi arabia football players";0;0;1;223;0;0;1;223
"buy helene jousse photography";0;0;1;46;0;0;1;46
"maria callas painting";0;0;1;8;0;0;1;8
"romero britto biography";0;0;1;42;0;0;1;42
"fadi daoud";0;0;1;10;0;0;1;10
"bernard buffet paintings for sale";0;0;1;45;0;0;1;45
"contemporary african art";0;0;2;372;0;0;2;372
"anna bocex";0;0;1;8;0;0;1;8
"jacques poli";0;0;1;2;0;0;1;2
"scottish terrier";0;0;1;215;0;0;1;215
"slick fair";0;0;1;2;0;0;1;2
stormvi;0;0;1;10;0;0;1;10
"david hinchliffe";0;0;1;19;0;0;1;19
"david harber";0;0;3;18;0;0;3;18
"pierre boncompain";0;0;2;37.5;0;0;2;37.5
"isabelle france";0;0;1;275;0;0;1;275
"erin cone";0;0;1;10;0;0;1;10
"saint giles londres";0;0;1;164;0;0;1;164
"disney orgy";0;0;1;31;0;0;1;31
arbellot;0;0;3;9.3333333333333;0;0;1;10;0;0;2;9
"benjamin carbonne marseille";0;0;1;7;0;0;1;7
"baby ruth candy";0;0;1;213;0;0;1;213
"silaphan paper";0;0;1;10;0;0;1;10
"carlos gardel stencil";0;0;1;6;0;0;1;6
morpions;0;0;1;19;0;0;1;19
"artiste ouvrier";0;0;1;13;0;0;1;13
artigasplanas;0;0;2;2;0;0;2;2
"roland topor art";0;0;1;7;0;0;1;7
"sophia micova nude";0;0;2;8.5;0;0;2;8.5
chardons;0;0;1;302;0;0;1;302
"simon gaon";0;0;1;12;0;0;1;12
"jacek hazuka artist";0;0;1;11;0;0;1;11
"laurent chabot";0;0;1;11;0;0;1;11
"post internet artists";0;0;1;33;0;0;1;33
"sell nick walker";0;0;1;82;0;0;1;82
jpunk;0;0;1;33;0;0;1;33
"vivienne maun";0;0;1;8;0;0;1;8
"frank de mulder nudes";0;0;1;9;0;0;1;9
"banksy flag";0;0;1;36;0;0;1;36
"carmi landscaper";0;0;1;158;0;0;1;158
"roberto battistini";0;0;1;24;0;0;1;24
"mel ramos vintage";0;0;1;92;0;0;1;92
"creutzberg van dun";0;0;1;5;0;0;1;5
"painting in chesterfield";0;0;1;243;0;0;1;243
"catherine seher peintre";0;0;1;7;0;0;1;7
"jean michel basquiat paintings price";0;0;1;41;0;0;1;41
"sam phillips match 3";0;0;1;4;0;0;1;4
"mafia wars";0;0;1;118;0;0;1;118
"yazid oulab";0;0;1;8;0;0;1;8
"gudny rosa ingimarsdottir";0;0;2;7;0;0;2;7
"1000 kisses";0;0;2;8;0;0;2;8
"jehan b";0;0;1;31;0;0;1;31
callan;0;0;1;391;0;0;1;391
sezam;0;0;2;49.5;0;0;2;49.5
bacteries;0;0;1;229;0;0;1;229
"marc ferrero";0;0;1;10;0;0;1;10
"eva jospin artist";0;0;1;8;0;0;1;8
"buy takashi murakami";0;0;2;7;0;0;2;7
takala;0;0;12;4.1666666666667;0;0;2;4.5;0;0;9;4.1111111111111;0;0;1;4
hornsleth;0;0;3;91.333333333333;0;0;3;91.333333333333
"blind impression";0;0;1;34;0;0;1;34
"flower delivery bilbao";0;0;1;60;0;0;1;60
"chamizo didier";0;0;1;25;0;0;1;25
"abie loy kemarre";0;0;1;22;0;0;1;22
"rafael navarro";0;0;5;2.8;0;0;3;3.3333333333333;0;0;1;2;0;0;1;2
"buy mel ramos";0;0;1;26;0;0;1;26
"aki kuroda";0;0;2;6;0;0;1;5;0;0;1;7
chantier;0;0;1;326;0;0;1;326
"guy denning biography";0;0;1;5;0;0;1;5
"unique gallery";0;0;1;8;0;0;1;8
"cervezas alhambra";0;0;1;348;0;0;1;348
"francois bard";0;0;13;9;0;0;3;9;0;0;6;9;0;0;4;9
himba;0;0;1;241;0;0;1;241
"marek piasecki";0;0;3;16.666666666667;0;0;3;16.666666666667
"antanas sutkus";0;0;1;36;0;0;1;36
"france fannon";0;0;1;249;0;0;1;249
ceccarini;0;0;1;226;0;0;1;226
"herve lewis";0;0;3;12;0;0;3;12
"fake 10 pound note";0;0;1;36;0;0;1;36
"alex cao photography";0;0;1;33;0;0;1;33
"georgianna robertson";0;0;3;36.333333333333;0;0;3;36.333333333333
hannaka;0;0;1;10;0;0;1;10
"ted nomad";0;0;3;3;0;0;3;3
moyoshi;0;0;1;2;0;0;1;2
"heiner meyer";0;0;2;10.5;0;0;2;10.5
"majhoub ben bella";0;0;1;2;0;0;1;2
"murano lamper";0;0;1;31;0;0;1;31
cumbone;0;0;1;5;0;0;1;5
"jam session";0;0;1;7;0;0;1;7
"jean-michel berts paris exhibition";0;0;1;8;0;0;1;8
"william mackrell";0;0;1;32;0;0;1;32
"philippe vasseur";0;0;2;7.5;0;0;2;7.5
"pierre alex";0;0;2;2.5;0;0;1;2;0;0;1;3
"cara delevingne stencil";0;0;1;1;0;0;1;1
"richard orlinski prices";0;0;2;5;0;0;2;5
yutao;0;0;1;8;0;0;1;8
"eva jospin";0;0;1;10;0;0;1;10
artofobia.nl;0;0;1;44;0;0;1;44
"adrian buba";0;0;2;5;0;0;2;5
"matt attard";0;0;1;10;0;0;1;10
"petit palais";0;0;1;220;0;0;1;220
"aleix plademunt";0;0;1;39;0;0;1;39
"guy denning painting";0;0;1;6;0;0;1;6
"philippe berry";0;0;6;5;0;0;1;4;0;0;4;5.25;0;0;1;5
"benjamin deroche";0;0;2;8.5;0;0;1;9;0;0;1;8
"gordon hopkins";0;0;3;4.6666666666667;0;0;2;5;0;0;1;4
"june lee artist";0;0;1;5;0;0;1;5
"anatoly rudakov";0;0;2;8;0;0;2;8
melloul;0;0;1;5;0;0;1;5
"fifty dots";0;0;2;5;0;0;1;3;0;0;1;7
durix;0;0;4;8.25;0;0;4;8.25
liwei;0;0;2;7;0;0;2;7
"kiki picasso";0;0;6;5.6666666666667;0;0;3;5;0;0;1;7;0;0;2;6
"roger schall";0;0;2;1.5;0;0;1;2;0;0;1;1
"crash graffiti";0;0;1;10;0;0;1;10
cellier;0;0;1;303;0;0;1;303
"galerie perahia";0;0;1;7;0;0;1;7
"annalisa johnson nude";0;0;1;20;0;0;1;20
"scott gruppe";0;0;1;3;0;0;1;3
"martin andrea";0;0;1;335;0;0;1;335
"gérard schlosser";0;0;3;10;0;0;3;10
"gifts dorval";0;0;1;188;0;0;1;188
"cesar baldaccini artworks";0;0;2;6.5;0;0;2;6.5
"antoine desailly";0;0;2;7;0;0;2;7
"miguel ortiz berrocal";0;0;1;50;0;0;1;50
"smoking photography";0;0;1;149;0;0;1;149
"robert indiana art";0;0;1;93;0;0;1;93
"éva jospin";0;0;1;9;0;0;1;9
"art cube gallery";0;0;1;44;0;0;1;44
"original blek le rat";0;0;1;97;0;0;1;97
dooze;0;0;1;36;0;0;1;36
"morellet francois";0;0;1;10;0;0;1;10
"bernhard prinz";0;0;1;13;0;0;1;13
"buy dface";0;0;1;80;0;0;1;80
"veronique attia";0;0;2;7;0;0;2;7
"philippe hiquily";0;0;1;16;0;0;1;16
"damir polic";0;0;3;4;0;0;3;4
dtone;0;0;14;7.6428571428571;0;0;3;2.6666666666667;0;0;11;9
"mel ramos prints";0;0;1;50;0;0;1;50
brantt;0;0;1;29;0;0;1;29
supercordes;0;0;1;67;0;0;1;67
"buy blek le rat";0;0;1;17;0;0;1;17
"john bulmer";0;0;1;42;0;0;1;42
"vanitu fair";0;0;1;20;0;0;1;20
sawtelle;0;0;1;170;0;0;1;170
"john matos";0;0;2;6.5;0;0;1;6;0;0;1;7
godon;0;0;5;2.2;0;0;4;2.5;0;0;1;1
dellarosa;0;0;1;170;0;0;1;170
"mel ramos lola cola";0;0;1;36;0;0;1;36
cyclobes;0;0;2;11;0;0;2;11
"anita austwick";0;0;1;40;0;0;1;40
"abstract art savannah ga";0;0;2;316;0;0;2;316
"friedhelm hütte";0;0;1;17;0;0;1;17
"andre cottavoz";0;0;1;5;0;0;1;5
"bagno vignoni";0;0;1;341;0;0;1;341
"dare alla luce";0;0;1;3;0;0;1;3
"jerome lagarrigue";0;0;3;9;0;0;1;11;0;0;2;8
"robert bradford";0;0;1;9;0;0;1;9
"art paris";0;0;1;193;0;0;1;193
couettes;0;0;1;217;0;0;1;217
"navabi sale";0;0;2;49.5;0;0;2;49.5
"sell os gemeos";0;0;1;50;0;0;1;50
bosh;0;0;2;360;0;0;2;360
"aone graffiti";0;0;1;6;0;0;1;6
denovellis;0;0;1;11;0;0;1;11
"david gery";0;0;1;7;0;0;1;7
"jim kazanjian";0;0;1;26;0;0;1;26
"tower bridge dimensions";0;0;1;346;0;0;1;346
decup;0;0;1;11;0;0;1;11
"philippe bonan";0;0;1;4;0;0;1;4
"frederic de goldschmidt";0;0;1;21;0;0;1;21
"beijing jianguo";0;0;1;180;0;0;1;180
ballets;0;0;1;423;0;0;1;423
"artwork for offices";0;0;1;437;0;0;1;437
"arden quin";0;0;1;29;0;0;1;29
"michele mikesell";0;0;1;15;0;0;1;15
deplus;0;0;1;29;0;0;1;29
"stephen forbes artist";0;0;1;9;0;0;1;9
"hannah nitsch";0;0;1;4;0;0;1;4
"e gallery french";0;0;5;5.6;0;0;1;8;0;0;2;3;0;0;2;7
chubac;0;0;13;6.4615384615385;0;0;12;6.4166666666667;0;0;1;7
begarat;0;0;2;2.5;0;0;1;3;0;0;1;2
saudek;0;0;1;62;0;0;1;62
stoul;0;0;2;3;0;0;2;3
"en croix";0;0;1;124;0;0;1;124
margue;0;0;1;44;0;0;1;44
"αρης μεσσήνης";0;0;2;19;0;0;1;21;0;0;1;17
"tom wesselmann";0;0;3;30;0;0;3;30
"ray charles davidoff";0;0;1;48;0;0;1;48
http://www.basementizid.com/;0;0;2;169;0;0;2;169
"claude closky";0;0;2;7;0;0;1;7;0;0;1;7
"monsieur artist";0;0;1;33;0;0;1;33
"esther de bont";0;0;6;12;0;0;5;12;0;0;1;12
"sell joan miro";0;0;1;89;0;0;1;89
kikayou;0;0;1;7;0;0;1;7
arietti;0;0;2;16.5;0;0;1;17;0;0;1;16
"claude azoulay";0;0;1;7;0;0;1;7
"jean francois jonvelle photographe";0;0;1;9;0;0;1;9
"banksy mary";0;0;1;9
buffe;0;0;2;158
"caroline poulet";0;0;3;2
bertelli;0;0;1;185
"matthew attard";0;0;1;8
"contemporary portrait photography";0;0;1;435
"galerie hus";0;0;2;3.5
"gerard rancinan";0;0;3;10.666666666667;0;0;2;11
gerti;0;0;1;208
bucephale;0;0;1;41
"david gerstein";0;0;6;49
"ren hang";0;0;2;30.5;0;0;5;26.6
"flor de suiza";0;0;1;27
"jeremy annear artist";0;0;1;14
"plattsburgh west landscape";0;0;1;188
"adonis flores";0;0;1;37
"romero britto nyc";0;0;1;30
"fabio coruzzi";0;0;1;7
"jan matejko biography";0;0;1;47
velver;0;0;1;10
"tom wesselmann nature morte";0;0;1;25
"keith haring montreux";0;0;2;1
"marcin bialas";0;0;2;10;0;0;1;33
morellet;0;0;1;19
splach;0;0;1;64
emoticons;0;0;1;184
"helmut newton ""sumo""";0;0;1;40
djalouz;0;0;1;8;0;0;1;9
"metro artwork";0;0;1;341
"fabienne arietti";0;0;1;6;0;0;1;5
"ruta jusionyte";0;0;1;6
emmanuella;0;0;1;223
"vincent peters";0;0;1;73
"fred astair";0;0;1;37
meetic;0;0;1;203
"banksy tenner";0;0;1;23
"murakami flower cushion";0;0;2;8.5
basquiat;0;0;1;328
"atila biro";0;0;3;10
"wesselmann paintings";0;0;1;46
"guy denning for sale";0;0;1;1
ceccarelli;0;0;1;237
"thomas bossard";0;0;2;5;0;0;3;5
"jean-michel berts exhibition";0;0;1;10
"blackstone gallery";0;0;1;29;0;0;1;10
"thomas duval";0;0;2;17
"professional painter";0;0;1;426
"mario kolaric";0;0;1;11
"massimo vitali for sale";0;0;2;37
"gérard nicollet";0;0;1;4
"luigi visconti photography";0;0;1;8
chancay;0;0;1;213
"oleg dou";0;0;2;29.5
"marc le mené";0;0;1;1
"francesco falciani";0;0;1;27
"vincent descotils";0;0;1;6
graphito;0;0;1;34
"ceramist bio";0;0;1;527
"meyer works";0;0;1;165
"charlotte lelong";0;0;1;9
"yuriko takagi";0;0;1;16
josse;0;0;1;198
"thomas müller artist";0;0;1;2
"carole benzaken";0;0;2;16.5;0;0;1;10
bbtoon;0;0;1;9;0;0;1;7
"arno elias";0;0;1;27
"shane couch";0;0;1;25
"buy os gemeos";0;0;1;38
"self portrait photographer york";0;0;1;131
moriette;0;0;1;10
"claas gutsche";0;0;1;22
"beau rivage nice";0;0;1;157
"aris messinis";0;0;1;21
"une grimace";0;0;1;30
"onur painting";0;0;1;6;0;0;1;8
"jean marie drouet";0;0;1;6;0;0;1;5;0;0;2;4
"buy joan miro";0;0;1;81
"catherine klein";0;0;2;32.5;0;0;1;27
"antonio de felipe";0;0;1;21
"guy oberson";0;0;1;10
"natalia rak";0;0;1;14
"absolut official";0;0;1;38
kijno;0;0;9;6.7777777777778;0;0;1;5
"buy shepard fairey / obey";0;0;1;48
"serge mendjisky";0;0;2;17
flipo;0;0;1;41
"david lachapelle original";0;0;1;93
"charles fazzino art for sale";0;0;1;38
"ren hang wiki";0;0;1;6;0;0;1;7
"gagnon oil";0;0;1;38
"absolut art";0;0;1;53
"raphaël denis";0;0;1;4
"razvan hotel bucharest";0;0;1;84
berthille;0;0;1;10
"whaam painting";0;0;1;23
"florence d'elle";0;0;2;7.5;0;0;9;6.4444444444444;0;0;2;6
corno;0;0;1;490
"cristinerosa nude";0;0;1;49
"ivan jdanov";0;0;1;30
"petros chrisostomou";0;0;3;15;0;0;1;9
"michael bastow";0;0;1;7;0;0;1;10
"alain clement";0;0;2;10
"jonone artist";0;0;2;17
autorretrato;0;0;2;228.5
"lou ros";0;0;1;13
"daan oude elferink";0;0;1;10
awena;0;0;4;38.25
denot;0;0;1;44
"richard avedon album";0;0;1;41
ceccotti;0;0;1;129
"shaka artist";0;0;2;10
"sorrow painting";0;0;1;43
belgrand;0;0;1;61
d-tone;0;0;1;37
"paris artist";0;0;2;51
"cayeux france";0;0;1;231
"charlélie couture";0;0;1;40
"tof vanmarque";0;0;5;5
"lafite rothschild bordeaux";0;0;1;250
chantrieri;0;0;1;133
"jeanne lorioz";0;0;3;7.6666666666667;0;0;3;8;0;0;2;5
"guy denning paintings";0;0;1;8
"rive gauche paris";0;0;1;178
"francois morellet paintings";0;0;1;6
"gabriela bodin";0;0;1;1
"willy ronis";0;0;1;29;0;0;1;29
"hiro ando";0;0;2;3
"mark mackinnon";0;0;1;36
"guy denning";0;0;12;8.4166666666667;0;0;3;9.6666666666667;0;0;4;9.75
"rudolf hausner paintings";0;0;1;6
"biography apps";0;0;1;35;0;0;1;32
carlatta;0;0;1;347
"muhanna durra";0;0;1;10
bories;0;0;1;195
"jean pierre attal";0;0;1;1
"jean michel basquiat skull";0;0;1;28
"encre photography";0;0;2;43.5
"hiquily philippe";0;0;1;20
"art for your home";0;0;1;336
"louis audibert";0;0;2;9
"jeff koons biography";0;0;1;30
"roman klonek";0;0;1;26
"sculpture for sale";0;0;1;335
"p-38 lightning for sale";0;0;1;64
"invest in art";0;0;1;83
"tingting wang";0;0;1;27
"katrin bremermann";0;0;3;1.6666666666667;0;0;1;2
"irina ionesco";0;0;1;40
"modern gallery art fort lauderdale fl";0;0;3;437;0;0;3;434.66666666667
pascalito;0;0;1;31
fuger;0;0;1;326
"clairefontaine notebooks nyc";0;0;1;50
"charwoman перевод";0;0;1;241
"yanko tihov";0;0;6;10
"ilka meschke";0;0;1;10
"linda blackstone";0;0;1;12
"bard artwork";0;0;1;5
bahiense;0;0;1;231
"kate moss artwork";0;0;1;43
isack;0;0;2;43.5
"monsieur chat";0;0;2;6.5;0;0;1;7
"bronze sculpture for sale";0;0;1;231
"barley sugar";0;0;1;105
"margaret egan";0;0;1;43
"mel ramos";0;0;18;14.333333333333;0;0;13;1.1538461538462;0;0;8;1
"galerie ariel sibony";0;0;1;9
"fabrizio corneli";0;0;4;7.25
"lady gaga hello kitty";0;0;1;37
"peter falk artwork";0;0;1;25
cammal;0;0;3;9
"cerj lalonde";0;0;1;13
"jonone art";0;0;2;12.5
"alexis bruno";0;0;1;20
"lucie bennett";0;0;1;14
"valerie hadida sculptures";0;0;1;5
"eva navarro";0;0;1;6;0;0;2;7
"hedva ser";0;0;2;7.5
"marilyn minter";0;0;1;104
trapeziste;0;0;1;45
artisaway;0;0;3;3.6666666666667;0;0;1;3
"thomas jorion photography";0;0;1;7;0;0;1;6
"jpg4 nude";0;0;1;25
"valerie hadida sculpture";0;0;1;7
"john williams waterhouse paintings";0;0;1;49
cony;0;0;2;180
"au nom du pere";0;0;1;27
"jacques renoir";0;0;1;6
hutte;0;0;1;348
"jonone street art";0;0;2;18
"mats bäcker";0;0;1;68
"nguyen the dung";0;0;2;11.5
"le cerf";0;0;1;163
"blad gave";0;0;1;239
"michael meyersfeld";0;0;1;15
verschaere;0;0;1;4
"lolita galleries";0;0;1;39
"wilfred lang";0;0;1;14
guayasamin;0;0;1;46
"nils-udo art";0;0;1;10
"ki to la gloire";0;0;1;6;0;0;5;6
espira;0;0;1;407
"jacqueline roberts";0;0;3;25.333333333333
"andrew mcattee";0;0;2;40.5
"alexander tente";0;0;3;4.3333333333333
"thierry michelet";0;0;1;10
"galerie roy sfeir";0;0;1;6;0;0;1;5
keymi;0;0;1;10
"philippe heurtaux artist";0;0;3;5
"yann houri";0;0;3;7
"jardin loeffler";0;0;1;9
catelain;0;0;1;6
"disney orgy poster";0;0;1;44
"antoine schneck";0;0;2;9
clelo;0;0;1;29
"gz store";0;0;1;2
paradolia;0;0;1;9
"alvaro petritoli";0;0;1;12
"delphine lebourgeois artist";0;0;1;10
"elisabeth lecourt";0;0;1;8
zenoy;0;0;1;4
"peikwen cheng";0;0;2;8
charbonnel;0;0;1;49
"greg guillemin biography";0;0;2;3
"galerie lazarew";0;0;1;9
"anna bjerger paintings";0;0;1;5
"thomas bossard artist";0;0;1;4
artsper;0;0;3;1;0;0;2;1
"keith haring montreux jazz festival 1983";0;0;1;1
"patrick braoudé";0;0;3;11
"pignon ernest";0;0;1;8
leyto;0;0;9;2.2222222222222;0;0;5;2
"jaja mode";0;0;4;10
"gg wild";0;0;1;48
gotheil;0;0;1;17
rafiy;0;0;2;1
uqulele;0;0;1;6
"richard orlinski sculpteur";0;0;2;8
"guy boyer";0;0;2;10
"peter lippmann photography";0;0;1;7
moscovino;0;0;1;1
"joan salo";0;0;1;7
"xin tao";0;0;1;8
"mel ramos art for sale";0;0;1;3
"julian page";0;0;1;26
"luca di filippo";0;0;1;9
"marie cecile thijs";0;0;1;11
"zoo portraits koala";0;0;2;1;0;0;1;1
"yoel benharrouche";0;0;1;10
"jonathan huxley";0;0;2;6
"françois bard";0;0;1;9
simafra;0;0;1;18
"galerie w";0;0;1;7
"en plis";0;0;1;19
"galerie duret";0;0;1;8
bb34;0;0;1;61
"alain godon";0;0;1;5
"john isaac artist";0;0;1;3
bambel;0;0;3;10
"rudi pillen";0;0;2;6
"fieroza doorsen";0;0;1;8
"ruxandra papa";0;0;1;27
"isabel espinoza";0;0;2;10
"camara gueye";0;0;1;6
"anna bjerger";0;0;2;5
"ren hang prints";0;0;1;6
"yoel benharrouche prices";0;0;1;9
quik;0;0;2;10.5;0;0;1;10
ayline;0;0;1;29
"hd gallery bruxelles";0;0;1;8
"ama benjamin";0;0;2;12
"ferdinand springer";0;0;1;10
amordesign;0;0;1;24
"edwin apps";0;0;2;6.5
"yvonne coomber facebook";0;0;1;26
"raymond hains artwork";0;0;1;3
"agafia polynchuk";0;0;2;10
"john matos crash";0;0;1;6
"paul carey kent";0;0;1;10
"ahn sun mi";0;0;2;8
"kumi sugai";0;0;1;10
"niclas castello fire extinguisher";0;0;2;3
gargasson;0;0;1;18
"oeuvre de joan miro";0;0;1;1
