"bernard pras";4;0.21052631578947;19;11.736842105263;3;0.1875;16;12;1;0.33333333333333;3;10.333333333333
"brno del zou";3;0.27272727272727;11;2;2;0.25;8;2;0;0;1;2;1;0.5;2;2
"guy denning";2;0.071428571428571;28;9.9285714285714;0;0;18;9.2222222222222;1;0.125;8;9.875;1;0.5;2;16.5
"morgan paslier";2;0.28571428571429;7;3.4285714285714;2;0.28571428571429;7;3.4285714285714
"guy denning for sale";2;0.66666666666667;3;3.6666666666667;1;0.5;2;4;1;1;1;3
"peter lippmann";2;0.054054054054054;37;8.4324324324324;2;0.0625;32;8.59375;0;0;5;7.4
"anna bjerger";2;0.090909090909091;22;7.3181818181818;2;0.25;8;7
"kiki picasso";2;0.25;8;4.75;1;0.14285714285714;7;5.2857142857143;1;1;1;1
zenoy;2;0.22222222222222;9;3.2222222222222;1;0.33333333333333;3;3;1;0.2;5;3.8;0;0;1;1
uriginal;1;1;1;14;1;1;1;14
"oswaldo guayasamin sculpture";1;0.5;2;9;1;0.5;2;9
"jm robert";1;0.16666666666667;6;1;0;0;3;1;1;1;1;1
"galerie vevais";1;0.16666666666667;6;7.8333333333333;0;0;2;7;0;0;1;6;1;0.33333333333333;3;9
"sun mi ahn";1;0.33333333333333;3;4;1;0.33333333333333;3;4
"hiro ando";1;0.2;5;8.4;1;0.5;2;9.5;0;0;3;7.6666666666667
"nils udo biography";1;0.33333333333333;3;4;1;0.33333333333333;3;4
"clément denis";1;0.33333333333333;3;7;1;0.33333333333333;3;7
"jacques mahé de la villeglé";1;0.14285714285714;7;7.5714285714286;1;0.16666666666667;6;7.6666666666667;0;0;1;7
"benjamin spark";1;1;1;9;1;1;1;9
"jerome mesnager";1;1;1;4;1;1;1;4
"άρης μεσσήνης";1;1;1;14;1;1;1;14
jisbar;1;0.5;2;3;1;0.5;2;3
misstic;1;0.33333333333333;3;14.666666666667;1;0.33333333333333;3;14.666666666667
"chantal porras";1;0.33333333333333;3;2;1;0.33333333333333;3;2
"joan mitchell prints";1;1;1;55;1;1;1;55
"ernest breleur";1;1;1;6;1;1;1;6
"peinture jeanne lorioz";1;1;1;10;1;1;1;10
"rock n roll icons";1;1;1;30;1;1;1;30
"thomas bossard";1;0.25;4;7.5;1;0.33333333333333;3;8.3333333333333;0;0;1;5
"ayse kucuk";1;0.5;2;17.5;1;0.5;2;17.5
"sarah hinckley";1;1;1;9;1;1;1;9
"troy henriksen";1;0.33333333333333;3;3;1;0.33333333333333;3;3
"arthur tress";1;0.25;4;59;1;0.25;4;59
"patrick delaunay";1;1;1;2;1;1;1;2
"mathieu nozieres";1;1;1;2;1;1;1;2
"gerard mortier artist";1;1;1;3;1;1;1;3
"patrick letovsky";1;0.33333333333333;3;2.3333333333333;1;1;1;2;0;0;2;2.5
"jean faucheur";1;0.2;5;3.4;1;0.33333333333333;3;3.6666666666667;0;0;2;3
"artworks by poitou";1;0.33333333333333;3;2;1;0.33333333333333;3;2
"nue art";1;0.5;2;7;1;0.5;2;7
"fanny dubois";1;0.5;2;7;1;0.5;2;7
"nyne factory";1;1;1;7;1;1;1;7
"benjamin carbonne";1;0.25;4;1;1;0.5;2;1;0;0;1;1;0;0;1;1
"troy henriksen art";1;1;1;4;1;1;1;4
"magdalena lamri";1;0.1;10;3.9;0;0;9;3.8888888888889;1;1;1;4
"raymond hains artwork";1;0.5;2;3.5;0;0;1;3;1;1;1;4
"jean paul moscovino";1;0.5;2;1;1;1;1;1;0;0;1;1
"jethro buck";1;1;1;3;1;1;1;3
artsper;1;0.04;25;1;1;0.5;2;1;0;0;1;1
"antoine stevens artist";1;1;1;6;1;1;1;6
"clara ramirez katz";1;0.090909090909091;11;4.9090909090909;1;0.11111111111111;9;4.8888888888889;0;0;2;5
"emeric chantier";1;0.5;2;7;1;0.5;2;7
"petra wunderlich";1;0.066666666666667;15;8.5333333333333;1;0.083333333333333;12;8.8333333333333;0;0;1;10;0;0;2;6
"michel graff";1;0.5;2;8.5;1;1;1;8;0;0;1;9
"francois bard";1;0.125;8;7.5;1;0.125;8;7.5
"keith haring lucky strike";1;0.5;2;1;1;0.5;2;1
"fabienne arietti";1;0.33333333333333;3;6.3333333333333;1;0.33333333333333;3;6.3333333333333
"john matos crash";1;0.25;4;3;1;0.25;4;3
"gerard schlosser";1;0.25;4;9.75;1;0.25;4;9.75
"nolwenn samson";0;0;1;7;0;0;1;7
"jerome zonder";0;0;1;24;0;0;1;24
"artist geiger";0;0;1;20;0;0;1;20
"17th century paintings for sale";0;0;1;38;0;0;1;38
"cara artist";0;0;1;2;0;0;1;2
+jock+sturges;0;0;1;101;0;0;1;101
"cécile desserle";0;0;3;6.6666666666667;0;0;1;9;0;0;2;5.5
intra01;0;0;1;6;0;0;1;6
"gallery under construction";0;0;1;9;0;0;1;9
"bob carlos clarke masked blonde";0;0;1;1;0;0;1;1
"bruno catalano sculpture prices";0;0;4;9.25;0;0;1;10;0;0;3;9
"andy hope 1930";0;0;1;98;0;0;1;98
"flipo artist";0;0;1;10;0;0;1;10
kartonn;0;0;2;3.5;0;0;1;3;0;0;1;4
"gerard schlosser artist";0;0;2;4
"naive love";0;0;1;144;0;0;1;144
"jonas “sun7” bournat";0;0;1;4;0;0;1;4
"jef aérosol";0;0;1;8;0;0;1;8
"johanne 8 facebook";0;0;1;7;0;0;1;7
"edwin apps actor";0;0;1;5;0;0;1;5
"gael charbeau";0;0;1;14;0;0;1;14
"carlos cruz diez sculpture";0;0;1;8;0;0;1;8
"madeleine dietz";0;0;2;28;0;0;2;28
jadikan;0;0;1;10;0;0;1;10
m-city;0;0;1;87;0;0;1;87
"duong le thai";0;0;3;6;0;0;3;6
"iii bor";0;0;1;57;0;0;1;57
"mambo art for sale";0;0;1;8;0;0;1;8
kleiber;0;0;1;221;0;0;1;221
"liu xiaofang";0;0;2;18;0;0;2;18
"by johanne";0;0;2;29;0;0;2;29
"jean michel basquiat paintings for sale";0;0;1;27;0;0;1;27
aliberg;0;0;2;11.5;0;0;2;11.5
"marcus egli";0;0;1;8;0;0;1;8
elysion;0;0;1;175;0;0;1;175
"reinhard gorner";0;0;3;11.333333333333;0;0;3;11.333333333333
"michele destarac";0;0;3;1;0;0;3;1
"aris messinis photographer";0;0;1;10;0;0;1;10
"yoann merienne";0;0;1;2;0;0;1;2
"martine feipel & jean bechameil";0;0;1;51;0;0;1;51
"louis stettner";0;0;1;30;0;0;1;30
"thomas jorion";0;0;8;2;0;0;3;2;0;0;3;2;0;0;2;2
"topor artist";0;0;2;7;0;0;1;6;0;0;1;8
"pretty portal";0;0;1;6;0;0;1;6
"chenaux gallery";0;0;1;6;0;0;1;6
"contemporary middle eastern art";0;0;2;394;0;0;2;394
"jace artist";0;0;1;10;0;0;1;10
"marine cattaneo";0;0;1;7;0;0;1;7
"italian lady 2";0;0;1;7;0;0;1;7
samarine;0;0;1;40;0;0;1;40
"hugo laruelle";0;0;1;8;0;0;1;8
hako;0;0;1;159;0;0;1;159
"alain clement artist";0;0;1;4;0;0;1;4
"nous paris";0;0;1;36;0;0;1;36
artphotoby;0;0;1;6;0;0;1;6
"aboudia abdoulaye diarrassouba";0;0;1;26;0;0;1;26
"envie d art";0;0;1;10;0;0;1;10
"1000 kisses";0;0;6;6.5;0;0;6;6.5
"takashi murakami for sale";0;0;2;9.5;0;0;2;9.5
"emilio scanavino";0;0;1;69;0;0;1;69
"scottish terrier";0;0;3;320;0;0;3;320
"ivan plusch";0;0;2;3.5;0;0;1;5;0;0;1;2
"yan pei ming";0;0;1;48;0;0;1;48
"damir polić";0;0;3;10;0;0;2;10;0;0;1;10
"abc gallery";0;0;2;7.5;0;0;2;7.5
"peter doffine internet";0;0;1;154;0;0;1;154
"kollektiv plus zwei";0;0;1;2;0;0;1;2
"mikael lafontan";0;0;1;8;0;0;1;8
"pierre fava";0;0;2;7.5;0;0;1;10;0;0;1;5
"darco graffiti artist";0;0;1;10;0;0;1;10
aliot;0;0;1;92;0;0;1;92
"galerie loft paris";0;0;3;6;0;0;3;6
"deep my heart";0;0;1;238;0;0;1;238
"fantasy females are impossible to satisfy";0;0;1;5;0;0;1;5
"maarten stuer";0;0;1;6;0;0;1;6
"pauline dufour";0;0;1;8;0;0;1;8
"martin kudlek";0;0;1;96;0;0;1;96
"stiliana alexieva";0;0;2;8.5;0;0;1;8
"mehdi \lemoduledezeer\";0;0;1;12
"anne guillon peintre";0;0;1;2;0;0;1;2
paumelle;0;0;1;44;0;0;1;44
"olivier long";0;0;1;22;0;0;1;22
"du beffroi calais";0;0;1;75;0;0;1;75
doudou;0;0;1;218;0;0;1;218
"corno artist";0;0;1;16;0;0;1;16
"cecile plaisance";0;0;1;15;0;0;1;15
"anya gallaccio";0;0;1;79;0;0;1;79
"renaud delorme";0;0;6;6;0;0;4;5.75;0;0;2;6.5
"subject matter art";0;0;1;87;0;0;1;87
"eva maria kupfer";0;0;1;1;0;0;1;1
dagada;0;0;1;4;0;0;1;4
"dominique clerc";0;0;2;7.5;0;0;1;7;0;0;1;8
"chris macauley";0;0;1;4;0;0;1;4
"gazelli art house";0;0;1;37;0;0;1;37
"roland topor";0;0;4;43;0;0;4;43
"viveca koh";0;0;1;22;0;0;1;22
"annette messager";0;0;1;93;0;0;1;93
"alain clément";0;0;2;10;0;0;2;10
"albert chubac";0;0;1;6;0;0;1;6
"tim rose hey joe";0;0;1;31;0;0;1;31
"dan carabas";0;0;1;2;0;0;1;2
"takashi murakami pillow";0;0;1;14;0;0;1;14
"pierre & gilles";0;0;1;40;0;0;1;40
"peter hoffer artist";0;0;2;10;0;0;2;10
renoma;0;0;1;90;0;0;1;90
"michel gueranger";0;0;6;3;0;0;6;3
vray;0;0;3;175;0;0;3;175
bouro;0;0;1;17;0;0;1;17
"kenny hunter";0;0;1;50;0;0;1;50
"stephane gautier";0;0;5;2.8;0;0;5;2.8
"sylvie guilleme";0;0;1;5;0;0;1;5
"len jessome";0;0;1;2;0;0;1;2
"jean pierre comes mail art";0;0;1;47;0;0;1;47
nowart;0;0;4;12.25;0;0;1;29;0;0;3;6.6666666666667
"jan saudek gallery";0;0;6;45.833333333333;0;0;6;45.833333333333
latlas;0;0;1;90;0;0;1;90
"geometric wallpapers";0;0;2;50;0;0;2;50
"jean claude deutsch";0;0;2;6;0;0;2;6
"fresh to death";0;0;2;157.5;0;0;1;161;0;0;1;154
"kenny john";0;0;1;1;0;0;1;1
"chris morin";0;0;4;2.75;0;0;1;1;0;0;3;3.3333333333333
"julian schnabel";0;0;1;340;0;0;1;340
"le galet";0;0;1;163;0;0;1;163
agamograph;0;0;1;31;0;0;1;31
nebay;0;0;1;25;0;0;1;25
"esprit de sale";0;0;1;87;0;0;1;87
"john matos";0;0;4;8.25;0;0;2;7;0;0;2;9.5
"monika nowak";0;0;1;10;0;0;1;10
"gérard rancinan";0;0;1;17;0;0;1;17
"batista art";0;0;1;8;0;0;1;8
"clinton friedman";0;0;2;22.5;0;0;2;22.5
"gérard clisson";0;0;4;1.5;0;0;4;1.5
"kilmany jo liversage";0;0;3;9;0;0;3;9
widin;0;0;1;46;0;0;1;46
rue45;0;0;1;10;0;0;1;10
"antoine rose prints";0;0;1;13;0;0;1;13
lagase;0;0;1;149;0;0;1;149
"isabelle durand";0;0;3;29.333333333333;0;0;2;29.5;0;0;1;29
"trimborn benoit";0;0;1;8;0;0;1;8
"paul bogaers";0;0;13;28.230769230769;0;0;13;28.230769230769
"peter liversidge";0;0;1;58;0;0;1;58
"gunter damisch";0;0;5;44.8;0;0;5;44.8
"tadini emilio";0;0;1;50;0;0;1;50
"annina roescheisen";0;0;1;19;0;0;1;19
"georges inca";0;0;1;2;0;0;1;2
"bruno catalano biography";0;0;4;5.5;0;0;2;5;0;0;2;6
"mark mawson";0;0;1;54;0;0;1;54
"huit sale";0;0;2;49;0;0;1;49;0;0;1;49
"taki artist";0;0;1;6;0;0;1;6
"tom muller artist";0;0;4;7;0;0;4;7
"charles fazzino";0;0;1;45;0;0;1;45
"bambi artist";0;0;1;6;0;0;1;6
"ılgın seymen";0;0;2;15;0;0;1;15;0;0;1;15
"self portrait photographer york";0;0;1;144;0;0;1;144
"shirley jaffe";0;0;1;35;0;0;1;35
"mystique artwork";0;0;1;9;0;0;1;9
"sunny ives";0;0;1;53;0;0;1;53
"corine pagny";0;0;4;5.25;0;0;3;5;0;0;1;6
"etienne rey";0;0;2;9;0;0;2;9
"miss van art";0;0;1;25;0;0;1;25
"henrietta dubrey";0;0;7;10.285714285714;0;0;6;11.5;0;0;1;3
"rudolf hausner";0;0;3;28;0;0;3;28
"bernard pras art";0;0;361;9.0083102493075;0;0;361;9.0083102493075
"inception gallery";0;0;3;4.3333333333333;0;0;3;4.3333333333333
"batista artist";0;0;1;10;0;0;1;10
"nicolas touron";0;0;1;15;0;0;1;15
"eric kellerman";0;0;1;22;0;0;1;22
"marc ferrero";0;0;1;6;0;0;1;6
"sandro giordano photographer";0;0;1;13;0;0;1;13
"why invest in art";0;0;11;45.454545454545;0;0;11;45.454545454545
"guy denning painting";0;0;3;9.6666666666667;0;0;3;9.6666666666667
"benjamin deroche";0;0;1;2;0;0;1;2
"le petit parisien willy ronis";0;0;3;1;0;0;3;1
"jean fautrier";0;0;1;41;0;0;1;41
posticles;0;0;1;3;0;0;1;3
"li wei";0;0;88;7.8522727272727;0;0;71;9.1971830985915;0;0;14;2.2857142857143;0;0;3;2
"creepy art";0;0;1;17;0;0;1;17
"tim flach biography";0;0;2;12;0;0;2;12
"frank fischer artist";0;0;1;3;0;0;1;3
"yasemin senel";0;0;1;20;0;0;1;20
"hervé télémaque";0;0;2;9;0;0;2;9
"damir polic";0;0;2;5;0;0;2;5
"pierre marie brisson";0;0;2;1.5;0;0;2;1.5
"jan davidz de heen";0;0;1;4;0;0;1;4
"smiley artwork";0;0;1;42;0;0;1;42
"adrian fernandez artist";0;0;1;10;0;0;1;10
"henrik simonsen";0;0;1;176;0;0;1;176
liquidiv;0;0;1;51;0;0;1;51
sawtelle;0;0;1;165;0;0;1;165
"gastineau massamba";0;0;1;8;0;0;1;8
"philippe charpentier";0;0;1;1;0;0;1;1
"crash street artist";0;0;1;6;0;0;1;6
"mel ramos vintage peekaboo";0;0;1;55;0;0;1;55
gammacurta;0;0;2;23.5;0;0;2;23.5
laetitia;0;0;1;297;0;0;1;297
levalet;0;0;1;6;0;0;1;6
"garrett pruter";0;0;1;19;0;0;1;19
"griffin gallery";0;0;1;185;0;0;1;185
"dimitri tolstoi";0;0;1;7;0;0;1;7
"keith tyson";0;0;1;85;0;0;1;85
"thomas verny";0;0;1;26;0;0;1;26
"antoine rose";0;0;1;71;0;0;1;71
markus&koala;0;0;2;31;0;0;2;31
"clotilde ancarani";0;0;1;10;0;0;1;10
"genevieve claisse";0;0;1;3;0;0;1;3
"pedro font alba";0;0;2;10;0;0;2;10
"hiro x ando";0;0;1;8;0;0;1;8
+bram+bogart;0;0;1;32;0;0;1;32
saint-cyr;0;0;1;195;0;0;1;195
"ellen priest";0;0;1;27;0;0;1;27
"stephane dauthuille";0;0;1;7;0;0;1;7
"bernard chauchet contemporary art";0;0;1;9;0;0;1;9
"tom wesselman";0;0;1;38;0;0;1;38
"laundromats in austin texas";0;0;1;302;0;0;1;302
"galerie urbaine";0;0;1;5;0;0;1;5
"toxic graffiti artist";0;0;1;10;0;0;1;10
"zao wou-ki";0;0;1;100;0;0;1;100
"arman venus";0;0;1;4;0;0;1;4
"concorde paris";0;0;1;185;0;0;1;185
"""moscona""";0;0;1;44
nils-udo;0;0;3;9
"christophe fischer";0;0;1;9;0;0;1;9
"pierre chazelat";0;0;2;10;0;0;2;10
"di rosa herve";0;0;1;8;0;0;1;8
"elysées paris";0;0;1;174;0;0;1;174
"pierre david";0;0;1;35;0;0;1;35
"tim flach prints";0;0;1;30;0;0;1;30
"jose heerkens";0;0;3;11.333333333333;0;0;1;14;0;0;2;10
"hero ando";0;0;1;7;0;0;1;7
"branding logos";0;0;2;436.5;0;0;1;427;0;0;1;446
"simao a mao";0;0;1;4;0;0;1;4
"sandra beccarelli";0;0;4;9.25;0;0;1;10;0;0;3;9
"dope gallery";0;0;2;7;0;0;2;7
"nathalie grall";0;0;1;14;0;0;1;14
"huston ripley";0;0;2;10.5;0;0;2;10.5
"guy de rougemont";0;0;2;9.5;0;0;2;9.5
nookia;0;0;1;42;0;0;1;42
"kamasutra 1";0;0;2;25;0;0;2;25
"david lachapelle diesel";0;0;1;1;0;0;1;1
"bill blast";0;0;1;10;0;0;1;10
"bear galerie";0;0;1;6;0;0;1;6
"eric pottier";0;0;2;18;0;0;2;18
"jan saudek";0;0;8;45;0;0;7;45.142857142857;0;0;1;44
"twilight sara";0;0;1;350;0;0;1;350
"lime gallery nottingham";0;0;1;104;0;0;1;104
"guy denning artwork";0;0;1;6;0;0;1;6
"philippe soussan";0;0;2;4.5;0;0;2;4.5
"kim sun hyuk artist";0;0;3;7.3333333333333;0;0;3;7.3333333333333
"arthur dorval";0;0;1;2;0;0;1;2
"viet ha tran";0;0;1;9;0;0;1;9
"maggie matthews";0;0;1;33;0;0;1;33
"g w bot";0;0;1;9;0;0;1;9
"cellai hotel florence";0;0;1;153;0;0;1;153
"germain plouvier";0;0;5;2.8;0;0;1;5;0;0;4;2.25
"kavachnina contemporary";0;0;1;70;0;0;1;70
"jane emberson";0;0;1;9;0;0;1;9
captons;0;0;2;10;0;0;2;10
"françois houtin";0;0;3;11;0;0;3;11
chanoir;0;0;6;6.5;0;0;5;6;0;0;1;9
"herve lewis photography";0;0;1;1;0;0;1;1
"crash matos";0;0;1;5;0;0;1;5
"cyril paglino";0;0;1;21;0;0;1;21
"alfred manessier";0;0;2;26.5;0;0;2;26.5
"alfie goodrich";0;0;1;23;0;0;1;23
"hervé lewis";0;0;2;1.5;0;0;2;1.5
"nathalie harvey";0;0;1;8;0;0;1;8
"peter hoffer";0;0;1;17;0;0;1;17
"cony theis";0;0;1;24;0;0;1;24
"thomas muller drawings";0;0;2;6;0;0;2;6
"philippe weisbecker";0;0;4;9.75;0;0;3;9.6666666666667;0;0;1;10
"wifredo lam";0;0;2;196.5;0;0;1;197;0;0;1;196
"berlin gardens poly furniture buffalo ny";0;0;1;100;0;0;1;100
tanc;0;0;2;40;0;0;2;40
"jean-charles millepied";0;0;1;7;0;0;1;7
"mwenze kibwanga";0;0;1;1;0;0;1;1
"kolaj art";0;0;1;18;0;0;1;18
"narcose serie";0;0;1;10;0;0;1;10
gluska;0;0;1;43;0;0;1;43
"taki 183";0;0;2;8.5;0;0;2;8.5
villegle;0;0;2;9;0;0;2;9
"mel ramos virnaburger";0;0;1;11;0;0;1;11
"jock sturges vanessa";0;0;1;86;0;0;1;86
"galerie nivet-carzon";0;0;1;9;0;0;1;9
"steven gagnon";0;0;1;54;0;0;1;54
"romain semeteys";0;0;1;5;0;0;1;5
"george platt";0;0;1;127;0;0;1;127
grateau;0;0;1;14;0;0;1;14
"john caroll";0;0;1;9;0;0;1;9
gomezbarros;0;0;1;10;0;0;1;10
"alex beninca";0;0;1;45;0;0;1;45
"octavian florescu";0;0;1;15;0;0;1;15
"john short artist";0;0;1;8;0;0;1;8
"jean paul lubliner";0;0;31;5.3548387096774;0;0;30;5.1666666666667;0;0;1;11
"polly ngale";0;0;2;34.5;0;0;2;34.5
"philippe parreno";0;0;1;98;0;0;1;98
"art taipei 2015";0;0;1;145;0;0;1;145
"yves krief";0;0;2;9;0;0;1;9;0;0;1;9
seaty;0;0;1;19;0;0;1;19
"pop art tom wesselmann";0;0;1;33;0;0;1;33
"irina starkova";0;0;1;10;0;0;1;10
"florence d’elle";0;0;1;8;0;0;1;8
"miguel angel sanchez";0;0;1;24;0;0;1;24
"george platt lynes";0;0;1;60;0;0;1;60
"tony bevan";0;0;1;55;0;0;1;55
"dani olivier";0;0;2;8;0;0;2;8
aboudia;0;0;1;34;0;0;1;34
"caroline fraser";0;0;1;58;0;0;1;58
"chu teh chun";0;0;1;52;0;0;1;52
"peter scanavino lisha bai";0;0;1;49;0;0;1;49
"eric liot";0;0;1;9;0;0;1;9
"christophe charbonnel sculpture";0;0;3;10;0;0;3;10
+robert+combas;0;0;1;12;0;0;1;12
"roman opalka";0;0;1;83;0;0;1;83
"gordon hopkins artwork";0;0;1;2;0;0;1;2
"benharrouche yoel";0;0;1;9;0;0;1;9
"antoine correia";0;0;1;5;0;0;1;5
"rutger brandt gallery";0;0;1;6;0;0;1;6
"obey artwork for sale";0;0;1;17;0;0;1;17
nannucci;0;0;1;41;0;0;1;41
"vogue la galere";0;0;1;308;0;0;1;308
"joan saló";0;0;2;24;0;0;2;24
"ran hwang";0;0;2;42.5;0;0;2;42.5
"flamboyant nürnberg";0;0;1;90;0;0;1;90
"mb factory";0;0;1;39;0;0;1;39
"unique gallery dubai";0;0;1;8;0;0;1;8
takala;0;0;1;1;0;0;1;1
"portraits de femmes";0;0;1;112;0;0;1;112
"bush medicine leaves";0;0;1;47;0;0;1;47
"sunday b morning prints";0;0;1;43;0;0;1;43
mitrofanoff;0;0;1;78;0;0;1;78
"henri lamy";0;0;3;6.6666666666667;0;0;2;6.5;0;0;1;7
"miguel vallinas";0;0;5;36;0;0;5;36
"buffet artist";0;0;1;86;0;0;1;86
"jean-pierre schneider";0;0;1;1;0;0;1;1
"miro svolik";0;0;2;8.5;0;0;1;8;0;0;1;9
"m chat street art";0;0;1;9;0;0;1;9
"richard orlinski";0;0;3;13.666666666667;0;0;3;13.666666666667
"zelt sale";0;0;1;97;0;0;1;97
"wadi finan art gallery";0;0;1;8;0;0;1;8
"patrizio di renzo";0;0;1;31;0;0;1;31
"alinka echeverria";0;0;2;32.5;0;0;2;32.5
"isabelle levistre";0;0;1;7;0;0;1;7
"usa for africa artists in order";0;0;1;10;0;0;1;10
"bruno catalano for sale";0;0;1;3;0;0;1;3
"liu xiaofang artist";0;0;1;10;0;0;1;10
"vuk vidor";0;0;1;9;0;0;1;9
"philippe pasqua artist";0;0;1;9;0;0;1;9
"peter downsbrough";0;0;1;88;0;0;1;88
"jan saudek portrait";0;0;2;5;0;0;2;5
"kilian glasner";0;0;1;8;0;0;1;8
"yvonne coomber";0;0;1;53;0;0;1;53
"colorfield gallery";0;0;1;5;0;0;1;5
"cara delevigne stencil";0;0;1;1;0;0;1;1
"pierre cornette";0;0;1;10;0;0;1;10
vrayla;0;0;3;2;0;0;3;2
"georgianna robertson";0;0;2;48.5;0;0;1;50;0;0;1;47
"quik graffiti artist";0;0;2;7;0;0;2;7
"nick walker artist";0;0;1;43;0;0;1;43
"sigune hamann";0;0;1;7;0;0;1;7
"antoni tapies original prints worcester";0;0;1;50;0;0;1;50
capocci;0;0;1;62;0;0;1;62
"limagerie gallery";0;0;1;304;0;0;1;304
"alberto reguera";0;0;1;81;0;0;1;81
"eva jospin";0;0;7;4.4285714285714;0;0;4;5;0;0;3;3.6666666666667
hornsleth;0;0;2;135;0;0;2;135
"golden rings";0;0;1;318;0;0;1;318
"yang yongliang";0;0;23;10.565217391304;0;0;22;11;0;0;1;1
"yago partal biography";0;0;1;12;0;0;1;12
"kathleen petyarre";0;0;1;37;0;0;1;37
"quantum contemporary art";0;0;2;33.5;0;0;2;33.5
"map of europe for sale";0;0;1;73;0;0;1;73
"galerie perahia";0;0;1;6;0;0;1;6
"nils udo";0;0;24;10.958333333333;0;0;22;11.045454545455;0;0;2;10
"jesper just";0;0;1;94;0;0;1;94
"herve lewis";0;0;7;3.2857142857143;0;0;6;3.5;0;0;1;2
"david a rodriguez";0;0;1;338;0;0;1;338
"contemporary spanish artists";0;0;1;57;0;0;1;57
"ekkehard altenburger";0;0;2;17;0;0;2;17
"tour bruxelles";0;0;1;2;0;0;1;2
"public love affair";0;0;1;7;0;0;1;7
"shi gong";0;0;1;23;0;0;1;23
"esso oil can";0;0;1;28;0;0;1;28
"serie narcose";0;0;1;10;0;0;1;10
"mel ramos lola cola";0;0;2;17.5;0;0;2;17.5
"cara delevingne stencil";0;0;5;1;0;0;5;1
"pilar ortega";0;0;2;19;0;0;2;19
"john bulmer";0;0;12;11;0;0;12;11
"richard avedon portrait photography";0;0;1;146;0;0;1;146
"miss van";0;0;1;82;0;0;1;82
"bruno catalano prices";0;0;5;5.6;0;0;3;5;0;0;1;5;0;0;1;8
"friedhelm hütte";0;0;1;15;0;0;1;15
"philippe berry";0;0;3;4.6666666666667;0;0;3;4.6666666666667
"rob adams artist";0;0;1;28;0;0;1;28
"biondi sans";0;0;1;27;0;0;1;27
"charlotte champion";0;0;3;5.3333333333333;0;0;1;6;0;0;2;5
"jerome lagarrigue";0;0;3;10;0;0;3;10
"victor lope arte contemporaneo";0;0;1;84;0;0;1;84
"gold griot";0;0;1;20;0;0;1;20
"asgar gabriel";0;0;3;9.3333333333333;0;0;3;9.3333333333333
"raymond hains artist";0;0;3;5.3333333333333;0;0;2;5;0;0;1;6
"barter paris";0;0;1;15;0;0;1;15
"jin bo grand";0;0;1;194;0;0;1;194
"jim morrison painting";0;0;1;75;0;0;1;75
"leo mordac";0;0;1;6;0;0;1;6
"roger schall";0;0;21;1.5238095238095;0;0;19;1.5263157894737;0;0;2;1.5
"henri matisse original prints worcester";0;0;1;25;0;0;1;25
nostyl;0;0;1;7;0;0;1;7
"miguel chevalier";0;0;1;59;0;0;1;59
"toxic artist";0;0;3;1.3333333333333;0;0;2;1;0;0;1;2
"jef aerosol";0;0;2;11;0;0;2;11
"aism mauritius";0;0;1;8;0;0;1;8
"paul treasure artist";0;0;1;10;0;0;1;10
"antoine desailly";0;0;2;1;0;0;2;1
"anne lemaitre";0;0;2;12.5;0;0;2;12.5
muckensturm;0;0;1;25;0;0;1;25
"harald kröner";0;0;1;6;0;0;1;6
"herve all";0;0;1;9;0;0;1;9
"sam phillips artist";0;0;1;31;0;0;1;31
begarat;0;0;3;7.6666666666667;0;0;2;8;0;0;1;7
"homère est morte";0;0;1;8;0;0;1;8
"hideka tonomura";0;0;1;8;0;0;1;8
"gabriela tolomei";0;0;1;2;0;0;1;2
"anthony clark artist";0;0;2;9;0;0;2;9
"the artful project";0;0;3;7;0;0;2;7;0;0;1;7
lemilo;0;0;1;7;0;0;1;7
"jacques villegle";0;0;14;7.2142857142857;0;0;12;7.0833333333333;0;0;1;9;0;0;1;7
"pixart priting";0;0;1;47;0;0;1;47
jmrobert;0;0;1;3;0;0;1;3
"nani champy schott";0;0;1;16;0;0;1;16
"michael bevilacqua";0;0;1;60;0;0;1;60
"claire dorsett";0;0;1;10;0;0;1;10
"jean georges inca";0;0;1;1;0;0;1;1
"christophe dugied";0;0;1;1;0;0;1;1
godon;0;0;18;2.2777777777778;0;0;16;2.1875;0;0;2;3
"pierre-françois grimaldi";0;0;1;1;0;0;1;1
"antoine geiger";0;0;4;6;0;0;4;6
"tom wesselmann";0;0;13;35.538461538462;0;0;13;35.538461538462
"elvis presley artwork";0;0;1;49;0;0;1;49
"octave pixel";0;0;1;5;0;0;1;5
"florian rosier";0;0;2;8;0;0;2;8
"marie-pierre fontaine";0;0;1;5;0;0;1;5
"yaacov agam";0;0;1;92;0;0;1;92
"tim flach prints for sale";0;0;2;13;0;0;2;13
jonvelle;0;0;1;14;0;0;1;14
"zhang lin";0;0;1;50;0;0;1;50
"philippe jarrigeon";0;0;1;10;0;0;1;10
"zhao bandi";0;0;1;11;0;0;1;11
"antoine stevens";0;0;23;6.0869565217391;0;0;13;6.1538461538462;0;0;8;6;0;0;2;6
"speedy graphito for sale";0;0;2;5.5;0;0;2;5.5
"filip mirazovic";0;0;2;9;0;0;2;9
"robert combas";0;0;3;9.3333333333333;0;0;3;9.3333333333333
"yago partal";0;0;1;42;0;0;1;42
"mise en plis";0;0;1;46;0;0;1;46
"tom wesselmann still life";0;0;1;86;0;0;1;86
"zhuo qi";0;0;1;8;0;0;1;8
"cecile desserle";0;0;4;8;0;0;1;8;0;0;3;8
"miss tic street art";0;0;1;6;0;0;1;6
"antoine mercusot";0;0;1;3;0;0;1;3
"vincent hawkins";0;0;2;10;0;0;2;10
"perino & vele";0;0;3;3.6666666666667;0;0;3;3.6666666666667
"alberto rosselli";0;0;2;44;0;0;2;44
"jose manuel fors";0;0;7;8.1428571428571;0;0;7;8.1428571428571
"art photography for sale";0;0;1;435;0;0;1;435
"cedric lollia";0;0;3;10;0;0;3;10
"galerie l'oeil du prince";0;0;1;6;0;0;1;6
"andré borderie";0;0;1;81;0;0;1;81
"alex guofeng cao";0;0;2;13.5;0;0;2;13.5
"les terrasses de cécile";0;0;1;47;0;0;1;47
"suling wang";0;0;5;9.6;0;0;4;9.25;0;0;1;11
"francois glineur";0;0;1;10;0;0;1;10
"kenneth noland";0;0;1;76;0;0;1;76
"abstract art savannah ga";0;0;2;330;0;0;2;330
"jacques de la villeglé";0;0;3;8.6666666666667;0;0;1;9;0;0;2;8.5
"rero art";0;0;2;26.5;0;0;2;26.5
"anna bocek artist";0;0;1;8;0;0;1;8
"martín reyna";0;0;1;22;0;0;1;22
"jacques pellegrin";0;0;3;9;0;0;3;9
"sebastien micke";0;0;1;3;0;0;1;3
"jim morrisson";0;0;1;46;0;0;1;46
kikayou;0;0;3;6.6666666666667;0;0;2;6.5;0;0;1;7
"patti smith artwork";0;0;1;44;0;0;1;44
"philippe huart";0;0;3;12.333333333333;0;0;1;17;0;0;2;10
kyliss;0;0;2;1;0;0;1;1;0;0;1;1
"jacqueline roberts photography";0;0;3;9.3333333333333;0;0;3;9.3333333333333
"jean pierre schneider";0;0;1;1;0;0;1;1
"paul stolper gallery";0;0;1;33;0;0;1;33
"etienne gros";0;0;10;5.4;0;0;4;6.25;0;0;4;4.25;0;0;2;6
houtin;0;0;4;3;0;0;1;1;0;0;2;4;0;0;1;3
"olivier widmaier picasso";0;0;2;17;0;0;2;17
"philippe heurtaux";0;0;1;3;0;0;1;3
"claude charlier";0;0;1;9;0;0;1;9
"veronique rischard";0;0;1;4;0;0;1;4
"robert zandvliet";0;0;1;26;0;0;1;26
"fantasy art for sale";0;0;2;29
"linda blackstone gallery";0;0;1;7;0;0;1;7
"geneviève claisse";0;0;3;5;0;0;3;5
"kerry eggleton";0;0;1;3;0;0;1;3
"joseph beuys";0;0;1;240
"candle in the wind";0;0;2;175;0;0;1;178
"bilal bahir";0;0;1;2;0;0;1;2
"etienne cail";0;0;10;1.2;0;0;9;1.2222222222222;0;0;1;1
"vito hannibal acconci";0;0;1;84;0;0;1;84
"bram bogart";0;0;1;33
"pierre fontaine";0;0;1;40;0;0;1;40
"roy lichtenstein as i opened fire";0;0;1;32
"thomas muller art";0;0;1;5;0;0;1;5
"self portrait photographers york";0;0;1;131;0;0;1;131
"ye xing qian";0;0;1;2;0;0;1;2
"jacques mahe de la villegle";0;0;3;6.6666666666667;0;0;1;10;0;0;2;5
"spectacled owl";0;0;1;160;0;0;1;160
"yayoi kusama biography";0;0;1;67;0;0;1;67
fantasme;0;0;1;201;0;0;1;201
"hans hartung bilder";0;0;1;43;0;0;1;43
"aris messinis photography";0;0;2;8.5;0;0;1;7;0;0;1;10
"hervé di rosa";0;0;4;7.75;0;0;1;6;0;0;2;8;0;0;1;9
"musikmuseum barcelona";0;0;3;152;0;0;3;152
"richard hudson sculptor";0;0;1;12;0;0;1;12
"nathan chantob";0;0;1;3;0;0;1;3
"sergio ferro";0;0;3;7;0;0;3;7
"grenville davey";0;0;2;20;0;0;2;20
"christian renonciat";0;0;1;9;0;0;1;9
"carlos cruz diez";0;0;1;68;0;0;1;68
"speedy graphito";0;0;6;10.333333333333;0;0;6;10.333333333333
"painting chesterfield";0;0;1;303;0;0;1;303
"la garrigue";0;0;1;153;0;0;1;153
"crystal wagner";0;0;1;42;0;0;1;42
"gilles aillaud";0;0;1;8;0;0;1;8
"korosh ghazimorad";0;0;1;8;0;0;1;8
johanne8;0;0;1;1;0;0;1;1
"jack otway";0;0;1;6;0;0;1;6
"le glacier";0;0;1;163;0;0;1;163
"joel mpah dooh";0;0;1;26;0;0;1;26
"sumi-e portrait";0;0;2;1;0;0;2;1
"hotel bobo";0;0;1;86;0;0;1;86
motron;0;0;3;45;0;0;2;46.5;0;0;1;42
"christophe charbonnel";0;0;11;8.3636363636364;0;0;11;8.3636363636364
"david gerstein wall sculptures for sale";0;0;1;3;0;0;1;3
"jungle vip";0;0;1;72
"filippo minelli";0;0;1;27;0;0;1;27
"stephane jacob";0;0;3;5.3333333333333;0;0;2;5;0;0;1;6
"colin guillemet";0;0;1;7;0;0;1;7
"gerstein art";0;0;1;23;0;0;1;23
"toxic street artist";0;0;3;8;0;0;3;8
"anna bocek";0;0;22;9;0;0;17;8.9411764705882;0;0;4;9.25;0;0;1;9
colomina;0;0;1;3;0;0;1;3
onemizer;0;0;2;8;0;0;1;9;0;0;1;7
"olivier waltman";0;0;1;13;0;0;1;13
"badri lomsianidze";0;0;2;4;0;0;2;4
nkechi;0;0;1;44;0;0;1;44
"takashi murakami flower pillow";0;0;3;6;0;0;2;6;0;0;1;6
"claire corcia";0;0;1;11;0;0;1;11
"dawn artwork";0;0;1;338;0;0;1;338
"ilgin seymen";0;0;1;10;0;0;1;10
"luzia simons";0;0;2;29.5;0;0;2;29.5
gregos;0;0;1;7;0;0;1;7
desailly;0;0;1;94;0;0;1;94
"branding and logos";0;0;2;434.5;0;0;1;434;0;0;1;435
"oil painting for sale";0;0;1;330;0;0;1;330
mesnager;0;0;4;7.25;0;0;3;8.3333333333333;0;0;1;4
"blek le rat";0;0;1;71;0;0;1;71
"joe winter artist";0;0;1;10;0;0;1;10
"ilona kiss";0;0;1;36;0;0;1;36
"jonatan maldonado";0;0;1;4;0;0;1;4
"keith coventry";0;0;1;43;0;0;1;43
romanesko;0;0;1;54;0;0;1;54
"hanna sidorowicz";0;0;2;8;0;0;1;9;0;0;1;7
doia;0;0;1;58;0;0;1;58
"les abattoirs toulouse exposition";0;0;1;110;0;0;1;110
"renoir's garden";0;0;1;43;0;0;1;43
"alain josseau";0;0;1;6;0;0;1;6
"linea capital";0;0;1;405;0;0;1;405
"conrad marca relli";0;0;1;42;0;0;1;42
"vito acconci biography";0;0;1;37;0;0;1;37
"jonny green artist";0;0;1;8;0;0;1;8
"nicole wendel";0;0;2;1.5;0;0;1;1;0;0;1;2
"lucy & jorge orta";0;0;1;51;0;0;1;51
"amongst the trees";0;0;1;231;0;0;1;231
"irina ionesco nue";0;0;1;4;0;0;1;4
"open your maind";0;0;3;2.3333333333333;0;0;3;2.3333333333333
"nieves mingueza";0;0;2;7.5;0;0;2;7.5
"open you mind";0;0;3;2.6666666666667;0;0;3;2.6666666666667
"umberto toselli";0;0;2;9;0;0;2;9
"elsa guillaume";0;0;1;8;0;0;1;8
tapies;0;0;1;18;0;0;1;18
"guy denning bio";0;0;2;6;0;0;1;6;0;0;1;6
"anca cernoschi";0;0;1;21;0;0;1;21
"shepard fairey peace dove";0;0;1;1;0;0;1;1
trovic;0;0;2;8.5;0;0;1;8;0;0;1;9
"cool artwork for sale";0;0;2;43;0;0;2;43
"natalia kuznetsova";0;0;1;37;0;0;1;37
"chu teh-chun";0;0;1;53;0;0;1;53
"laurent martinez";0;0;3;7.6666666666667;0;0;3;7.6666666666667
"nathalie miquel";0;0;2;10;0;0;2;10
parisot;0;0;1;166;0;0;1;166
"sergio moscona";0;0;2;4;0;0;2;4
"кристина костадинова";0;0;1;6;0;0;1;6
"kristina kostadinova";0;0;3;2.6666666666667;0;0;3;2.6666666666667
"leila amat ortega";0;0;2;9;0;0;1;9;0;0;1;9
"jean louis audibert";0;0;2;5;0;0;2;5
"karl lagasse";0;0;1;3;0;0;1;3
couettes;0;0;1;219;0;0;1;219
"karen ay";0;0;3;5.6666666666667;0;0;2;5;0;0;1;7
"emmanuel barcilon";0;0;1;13;0;0;1;13
"galerie nicolas hugo";0;0;1;5;0;0;1;5
"alain buyse";0;0;1;8;0;0;1;8
layral;0;0;1;6;0;0;1;6
"eastpak sale";0;0;1;92;0;0;1;92
artiane;0;0;2;8.5;0;0;2;8.5
"this life loader";0;0;6;30.166666666667;0;0;6;30.166666666667
"max czertok";0;0;1;3;0;0;1;3
"mira maodus";0;0;1;1;0;0;1;1
"herve lewis photo";0;0;1;1;0;0;1;1
"arnaud paillard";0;0;1;8;0;0;1;8
"blue headed wagtail";0;0;1;38;0;0;1;38
"bernard quentin";0;0;2;10;0;0;1;10;0;0;1;10
"jean hélion";0;0;1;47;0;0;1;47
morisse;0;0;1;39;0;0;1;39
"message in a bottle for sale";0;0;1;77;0;0;1;77
"jacques lacroix";0;0;1;10;0;0;1;10
"jeanne susplugas";0;0;2;8.5;0;0;2;8.5
"max charvolen";0;0;1;3;0;0;1;3
"thomas canto";0;0;3;11.666666666667;0;0;3;11.666666666667
"adeline spengler";0;0;1;5;0;0;1;5
"raymond voinquel";0;0;2;11;0;0;2;11
"christopher schulz";0;0;1;67;0;0;1;67
"chateau rothschild bordeaux";0;0;2;359;0;0;2;359
"jean gabriel";0;0;1;166;0;0;1;166
"liu bolin usa";0;0;1;41;0;0;1;41
"bicha gallery";0;0;1;36;0;0;1;36
"la maja desnuda";0;0;2;75;0;0;2;75
"reyna martin";0;0;1;42;0;0;1;42
"nigel cox";0;0;1;45;0;0;1;45
"rutger brandt";0;0;1;10;0;0;1;10
"daniela huerta";0;0;1;10;0;0;1;10
"obey shepard";0;0;1;43;0;0;1;43
"guy dennings";0;0;1;8;0;0;1;8
"galerie bettina";0;0;1;8;0;0;1;8
"alexandre joly";0;0;3;16;0;0;3;16
"sara sammakia";0;0;1;13;0;0;1;13
"angel duarte";0;0;15;3.3333333333333;0;0;15;3.3333333333333
"jean marie marion mannequin";0;0;1;9;0;0;1;9
"liu tingting";0;0;1;14;0;0;1;14
"laurence dreyfus art advisor";0;0;1;10;0;0;1;10
"aboriginal artists";0;0;1;409;0;0;1;409
"le paradis est ici";0;0;1;7;0;0;1;7
"david eason";0;0;1;54;0;0;1;54
"kamel artist";0;0;1;9;0;0;1;9
"david guiraud";0;0;1;9;0;0;1;9
"etiyé dimma poulsen";0;0;1;16;0;0;1;16
"du zhenjun";0;0;1;32;0;0;1;32
"françois millo";0;0;2;10;0;0;2;10
"markowicz fine art";0;0;3;32.333333333333;0;0;3;32.333333333333
hang's;0;0;1;3;0;0;1;3
"anderson & low";0;0;1;39;0;0;1;39
"ginger rogers artwork";0;0;1;23;0;0;1;23
"side x side for sale monroe la";0;0;1;93;0;0;1;93
"jean michel berts";0;0;1;52;0;0;1;52
"gz galerie";0;0;2;8;0;0;1;6;0;0;1;10
"juan ripolles sculptures";0;0;1;9;0;0;1;9
"graham dolphin";0;0;2;8.5;0;0;2;8.5
"cam en";0;0;1;49;0;0;1;49
"rudolf hausner paintings";0;0;1;8;0;0;1;8
"batman art for sale";0;0;1;54;0;0;1;54
"richard heeps";0;0;1;8;0;0;1;8
"galerie oneiro";0;0;1;7;0;0;1;7
"dibond signage in lagos";0;0;1;42;0;0;1;42
"x art angelica";0;0;1;83;0;0;1;83
"francois houtin";0;0;1;6;0;0;1;6
"conrad marca-relli";0;0;2;40;0;0;2;40
"jean-pierre attal";0;0;2;8;0;0;2;8
"melanie bonajo";0;0;1;54;0;0;1;54
"takashi murakami art for sale";0;0;3;5.6666666666667;0;0;2;5.5;0;0;1;6
"tatiana kourochkina contemporary art project";0;0;2;78;0;0;2;78
"guillaume guerin photographe";0;0;1;8;0;0;1;8
"four wise monkeys";0;0;1;51;0;0;1;51
"li lihong";0;0;8;3.375;0;0;8;3.375
"bastien cuenot";0;0;2;3;0;0;2;3
"babydollsxxx capture";0;0;1;50;0;0;1;50
"aurelie nemours";0;0;1;54;0;0;1;54
"al held";0;0;1;54;0;0;1;54
"by jm";0;0;1;18;0;0;1;18
"wilfred artist";0;0;1;1;0;0;1;1
"aki kuroda";0;0;3;2.3333333333333;0;0;3;2.3333333333333
"toma l";0;0;3;5.3333333333333;0;0;3;5.3333333333333
"open ur mind";0;0;1;1;0;0;1;1
"benoit trimborn";0;0;1;5;0;0;1;5
"cécile colombo";0;0;1;4;0;0;1;4
"louise balaam";0;0;1;23;0;0;1;23
"ernest pignon-ernest";0;0;1;22;0;0;1;22
"sun-hyuk kim";0;0;1;7;0;0;1;7
"georges braque";0;0;2;174;0;0;1;163;0;0;1;185
"raymond hains";0;0;28;7.8214285714286;0;0;22;7.6363636363636;0;0;6;8.5
"arthur tress biography";0;0;1;10;0;0;1;10
"lamborghini fire extinguisher";0;0;2;32;0;0;2;32
"antonio asis";0;0;1;65;0;0;1;65
"daan elferink";0;0;1;14;0;0;1;14
"lindsay lohan perez hilton";0;0;1;348;0;0;1;348
"guayasamin prints";0;0;1;41;0;0;1;41
"noé two";0;0;2;1.5;0;0;2;1.5
"jacques villeglé";0;0;4;11;0;0;4;11
"christiane klatt";0;0;1;201;0;0;1;201
"gerard mortier";0;0;2;46;0;0;2;46
"jacque villegle";0;0;1;8;0;0;1;8
"vincent breed";0;0;2;7;0;0;2;7
"dope! gallery";0;0;2;8;0;0;2;8
"the linda blackstone gallery";0;0;1;8;0;0;1;8
"anne-laure chamboissier";0;0;1;10;0;0;1;10
raigon;0;0;2;24;0;0;2;24
"marc petit";0;0;1;59;0;0;1;59
jonone;0;0;6;15.666666666667;0;0;5;16.6;0;0;1;11
"sandra zeenni";0;0;1;10;0;0;1;10
mr.dob;0;0;1;41;0;0;1;41
"julia mangold";0;0;1;9;0;0;1;9
"philippe pasqua";0;0;6;10.5;0;0;6;10.5
hirschfuß;0;0;1;45;0;0;1;45
"freudianism ""peeler""";0;0;2;481.5;0;0;2;481.5
"jack otway artist";0;0;1;5;0;0;1;5
"no galerie";0;0;2;5;0;0;2;5
"onur dinc";0;0;3;15.666666666667;0;0;3;15.666666666667
"claire trotignon";0;0;4;7.5;0;0;2;7.5;0;0;1;9;0;0;1;6
"punky pink";0;0;1;32;0;0;1;32
"alberto sanchez art";0;0;1;8;0;0;1;8
"olivier masmonteil";0;0;1;30;0;0;1;30
"daniel lucien durand";0;0;1;40;0;0;1;40
"pez artist";0;0;1;21;0;0;1;21
"compression cesar";0;0;1;9;0;0;1;9
"raymond hains art";0;0;1;8;0;0;1;8
+li+wei;0;0;1;144;0;0;1;144
"gas gallery";0;0;1;12;0;0;1;12
"peter keizer";0;0;1;8;0;0;1;8
"lindsay artist";0;0;1;441;0;0;1;441
"fernando garcía ponce";0;0;2;23;0;0;2;23
vanitas6;0;0;1;27;0;0;1;27
"miss coco";0;0;1;72;0;0;1;72
"frank horvat";0;0;3;40.333333333333;0;0;3;40.333333333333
"guy denning crow";0;0;1;6;0;0;1;6
"cha fan";0;0;1;40;0;0;1;40
"antoine josse art";0;0;1;10;0;0;1;10
"greg carlin";0;0;1;20;0;0;1;20
"pius fox";0;0;1;26;0;0;1;26
doolon;0;0;1;5;0;0;1;5
sun7;0;0;1;55;0;0;1;55
"guy weladji";0;0;2;5;0;0;2;5
"folla x";0;0;1;8;0;0;1;8
"eva jospin artist";0;0;3;3.6666666666667;0;0;2;4;0;0;1;3
"la lagune";0;0;1;162;0;0;1;162
"davide galbiati";0;0;1;4;0;0;1;4
fkdl;0;0;3;10;0;0;1;7;0;0;2;11.5
"creepy art for sale";0;0;2;7.5;0;0;1;8;0;0;1;7
"tom wesselmann pop art";0;0;1;24;0;0;1;24
"tectonic force";0;0;1;112;0;0;1;112
"le pelletier";0;0;1;45;0;0;1;45
"philippe brosse";0;0;1;6;0;0;1;6
"anna marrow";0;0;1;19;0;0;1;19
"alex factory pas de calais";0;0;1;159;0;0;1;159
"lolita gallery";0;0;1;163;0;0;1;163
"hotel vuk";0;0;1;173;0;0;1;173
"francesco libassi";0;0;1;9;0;0;1;9
"hans-christian schink";0;0;1;49;0;0;1;49
"guy denning biography";0;0;3;5;0;0;3;5
babgalerie;0;0;1;7;0;0;1;7
+al+held;0;0;1;106;0;0;1;106
"jean-claude deutsch";0;0;1;4;0;0;1;4
"francoise neilly";0;0;1;48;0;0;1;48
"carlos boix";0;0;1;7;0;0;1;7
"hanns peter krafft";0;0;1;1;0;0;1;1
"elephant artwork for sale";0;0;1;40;0;0;1;40
"herve telemaque";0;0;4;9.25;0;0;4;9.25
"mor charpentier";0;0;1;64;0;0;1;64
"yona friedman";0;0;1;74;0;0;1;74
"planete serie";0;0;8;3.125;0;0;8;3.125
"obey tiger";0;0;1;29;0;0;1;29
"mathieu mercier";0;0;1;85;0;0;1;85
"rero artist";0;0;3;16.333333333333;0;0;3;16.333333333333
"envie d'art";0;0;1;6;0;0;1;6
"murano lamper";0;0;1;38;0;0;1;38
"valérie hadida";0;0;1;6;0;0;1;6
"ling artist";0;0;1;20;0;0;1;20
"bram van velde";0;0;1;60;0;0;1;60
"baudoin lebon";0;0;1;7;0;0;1;7
kupferking;0;0;2;9;0;0;2;9
"heiner meyer";0;0;2;35;0;0;2;35
"allan mccollum";0;0;1;72;0;0;1;72
"richard orlinski prices";0;0;1;9;0;0;1;9
"andoche praudel";0;0;1;5;0;0;1;5
"dominique regnier";0;0;3;8.3333333333333;0;0;3;8.3333333333333
"phillipe weisbecker";0;0;1;10;0;0;1;10
"emmanuel flipo";0;0;3;4;0;0;3;4
"gohar dashti";0;0;1;34;0;0;1;34
"ye xing";0;0;1;4;0;0;1;4
"gabriel paris";0;0;1;45;0;0;1;45
"cara delevingne artwork";0;0;3;1;0;0;3;1
"edouard buzon";0;0;1;2;0;0;1;2
"antoine josse";0;0;1;17;0;0;1;17
"darco artist";0;0;7;9.4285714285714;0;0;6;9.1666666666667;0;0;1;11
"tomas vu artist";0;0;1;10;0;0;1;10
"flower delivery bilbao";0;0;1;67;0;0;1;67
"antoine stevens art";0;0;3;7.6666666666667;0;0;3;7.6666666666667
"david gerstein price";0;0;1;13;0;0;1;13
"alexis gorodine";0;0;1;2;0;0;1;2
"martina falk";0;0;1;28;0;0;1;28
"caroline maurel";0;0;1;6;0;0;1;6
"william sweetlove artist";0;0;1;10;0;0;1;10
"genevieve sawtelle";0;0;2;11;0;0;2;11
"unique gallery";0;0;1;10;0;0;1;10
"kloster unserer lieben frauen magdeburg";0;0;1;329;0;0;1;329
"uche okpa iroha";0;0;4;10.25;0;0;2;12;0;0;1;10;0;0;1;7
"onur art";0;0;1;5;0;0;1;5
"duane michals artwork";0;0;1;6;0;0;1;6
"marek piasecki";0;0;2;22;0;0;2;22
"tieri trademark";0;0;1;8;0;0;1;8
"nicolas hugo";0;0;1;7;0;0;1;7
duytter;0;0;1;6;0;0;1;6
agamagraph;0;0;1;31;0;0;1;31
"anthony clarke basquiat";0;0;1;9;0;0;1;9
hannaka;0;0;1;24;0;0;1;24
"galerie nue";0;0;1;9;0;0;1;9
fubiz;0;0;1;32;0;0;1;32
"cs 1.9";0;0;2;36;0;0;2;36
moyoshi;0;0;1;5;0;0;1;5
"kilmany-jo liversage";0;0;2;8;0;0;2;8
"jean-francois rauzier";0;0;1;31;0;0;1;31
"david gerstein art for sale";0;0;1;7;0;0;1;7
"shaka french artist";0;0;2;9;0;0;1;10;0;0;1;8
"sharon drew artist";0;0;1;8;0;0;1;8
"manuel geerinck";0;0;2;25;0;0;2;25
"wishlist for men";0;0;1;33;0;0;1;33
"bruno catalano";0;0;2;24.5;0;0;2;24.5
"eric de ville";0;0;1;1;0;0;1;1
"link loader";0;0;1;340;0;0;1;340
"art jingle";0;0;1;10;0;0;1;10
"joanna glazer";0;0;1;8;0;0;1;8
"nils udo art";0;0;1;10;0;0;1;10
"anna bocek art";0;0;1;8;0;0;1;8
"delphine couturier brochand";0;0;1;6;0;0;1;6
"monumental sculpture";0;0;1;47;0;0;1;47
"marie pierre fontaine";0;0;1;5;0;0;1;5
"shirley jaffe artist";0;0;3;10.333333333333;0;0;2;10;0;0;1;11
"michal lukasiewicz";0;0;1;29;0;0;1;29
"renata har";0;0;1;12;0;0;1;12
"ville du soleil";0;0;1;34;0;0;1;34
"mc2 gallery";0;0;1;6;0;0;1;6
"pierre terrasson";0;0;1;12;0;0;1;12
"big ben";0;0;1;350;0;0;1;350
"gordon hopkins";0;0;4;5;0;0;3;5;0;0;1;5
"dan rawlings";0;0;3;5;0;0;3;5
femmejambes;0;0;1;9;0;0;1;9
"navabi sale";0;0;1;43;0;0;1;43
"gottfried salzmann";0;0;4;12.25;0;0;2;19.5;0;0;2;5
poligrafa;0;0;1;43;0;0;1;43
"rob van hoek";0;0;3;9;0;0;2;9;0;0;1;9
benichou;0;0;1;110;0;0;1;110
"hotel hinckley";0;0;1;182;0;0;1;182
"jerome romain artist";0;0;1;6;0;0;1;6
liwei;0;0;7;5.4285714285714;0;0;6;5.8333333333333;0;0;1;3
"manolo chretien";0;0;1;8;0;0;1;8
"panda sculpture";0;0;1;50;0;0;1;50
"takashi murakami medium";0;0;1;45;0;0;1;45
"leobardo perez";0;0;3;1.6666666666667;0;0;3;1.6666666666667
"maurizio nannucci artist";0;0;1;10;0;0;1;10
"yuval shaul";0;0;2;8.5;0;0;1;10;0;0;1;7
"olivier debré";0;0;1;89;0;0;1;89
"jeanne lorioz wikipedia";0;0;1;31;0;0;1;31
"stephen forbes artist";0;0;2;3.5;0;0;2;3.5
"moonwalker iceland";0;0;1;31;0;0;1;31
"cédrix crespel";0;0;1;10;0;0;1;10
"olivier leroy";0;0;1;24;0;0;1;24
"sági gyula";0;0;2;5.5;0;0;2;5.5
mendras;0;0;1;37;0;0;1;37
"ii ta'";0;0;1;190;0;0;1;190
"john monteith";0;0;1;50;0;0;1;50
"cédric dequidt";0;0;2;5;0;0;2;5
"anouk grinberg";0;0;1;45;0;0;1;45
"sylvie x art";0;0;1;11;0;0;1;11
"zao wou ki";0;0;1;97;0;0;1;97
"gerry cranham";0;0;6;5;0;0;6;5
"victori contemporary";0;0;1;54;0;0;1;54
"babajide olatunji";0;0;2;9;0;0;1;11;0;0;1;7
"philippe hiquily";0;0;1;18;0;0;1;18
"juliet ferguson";0;0;1;20;0;0;1;20
dtone;0;0;2;9;0;0;2;9
"open in your mind";0;0;1;5;0;0;1;5
"kim sun hyuk";0;0;5;9;0;0;4;9.25;0;0;1;8
"andrea michaelsson";0;0;1;8;0;0;1;8
"jim kazanjian";0;0;1;31;0;0;1;31
"obey fairey";0;0;2;44;0;0;2;44
"eros et thanatos";0;0;1;43;0;0;1;43
"robert bradford artist";0;0;1;20;0;0;1;20
dionus;0;0;1;5;0;0;1;5
"simon liddiment";0;0;1;7;0;0;1;7
"real art for sale";0;0;1;71;0;0;1;71
"jean-pierre nadau";0;0;2;1;0;0;2;1
"esther de bont";0;0;3;11;0;0;3;11
"galerie gabel";0;0;1;6;0;0;1;6
"galerie fluegel-roncak";0;0;2;16;0;0;2;16
"parc kruger";0;0;1;151;0;0;1;151
"kumi sugai";0;0;1;8;0;0;1;8
"laurina paperina";0;0;1;59;0;0;1;59
villeglé;0;0;2;9;0;0;1;9;0;0;1;9
"membre du congrès ""telling""";0;0;1;502;0;0;1;502
"julian opie biography";0;0;1;35;0;0;1;35
"laurent roux";0;0;1;19;0;0;1;19
"claude closky";0;0;1;29;0;0;1;29
"misskiss_ nude";0;0;1;30;0;0;1;30
"shanghai la chapelle fashion";0;0;1;102;0;0;1;102
"fantasmes x";0;0;1;229;0;0;1;229
nuhomme;0;0;1;14;0;0;1;14
"escalier de la reine versailles";0;0;1;30;0;0;1;30
"pierre francois grimaldi";0;0;9;3.2222222222222;0;0;6;3;0;0;3;3.6666666666667
"vuk vidor art history";0;0;1;6;0;0;1;6
"salomon muci venezuela";0;0;1;97;0;0;1;97
"rodney place";0;0;1;6;0;0;1;6
"sui jianguo";0;0;2;73.5;0;0;2;73.5
"crystal-streaming ""rapids""";0;0;3;337;0;0;3;337
"moma adress";0;0;1;319;0;0;1;319
"eric deville";0;0;1;9;0;0;1;9
"oeuvre de cesar baldaccini";0;0;1;2;0;0;1;2
"wei wei li";0;0;1;6;0;0;1;6
"ayline olukman";0;0;6;5.1666666666667;0;0;6;5.1666666666667
"obey lotus";0;0;2;1;0;0;2;1
"pakpoom silaphan";0;0;1;16;0;0;1;16
"ommer uwe";0;0;1;16;0;0;1;16
"galerie art 83";0;0;2;2;0;0;2;2
"claude champy";0;0;1;8;0;0;1;8
+mel+ramos;0;0;1;116;0;0;1;116
"antoni muntadas";0;0;1;61;0;0;1;61
carabas;0;0;1;96;0;0;1;96
"hotel ristorante camene";0;0;1;59;0;0;1;59
samsofy;0;0;1;45;0;0;1;45
"jan saudek art";0;0;1;12;0;0;1;12
"anne et patrick poirier";0;0;1;21;0;0;1;21
"jean gaudaire thor";0;0;1;6;0;0;1;6
"bernard pras biography";0;0;1;2;0;0;1;2
okpa;0;0;1;32;0;0;1;32
"egor bogachev";0;0;2;8;0;0;2;8
"nuance et lumiere";0;0;1;3;0;0;1;3
"charlie roberts artist";0;0;1;9;0;0;1;9
"jock sturges";0;0;2;94;0;0;1;90;0;0;1;98
chubac;0;0;4;6.75;0;0;1;9;0;0;3;6
"folly and muse";0;0;1;7;0;0;1;7
fuck.cm;0;0;1;113;0;0;1;113
"miss tic";0;0;4;6.25
makhloufi;0;0;1;30
"marie anne thieffry";0;0;1;5
"li baoxun";0;0;3;1.6666666666667
"lance letscher";0;0;1;21
"peter klasen";0;0;5;11
"hank china";0;0;1;10
"oleg dou";0;0;1;41
"hus gallery";0;0;1;99
"adela burdujanu";0;0;2;4;0;0;1;4
"gz gallery";0;0;1;5
"david iglesis";0;0;1;153
"coccinelle sale";0;0;1;91
"la souris sur le gateau";0;0;4;7.25
"laurence bruguière";0;0;1;7
"galerie catherine houard";0;0;2;5.5
"davide cicolani";0;0;2;2
xintao;0;0;1;44
lamri;0;0;3;2;0;0;1;10
"jonathan callan";0;0;1;46
"palazzo bembo venise";0;0;1;184
"isabelle pelletane";0;0;1;2
"helmut newton sumo";0;0;2;47.5
"gerard rancinan";0;0;4;13.5
"vincent descotils";0;0;3;10
"li, wei";0;0;1;11
"eugene begarat";0;0;2;8;0;0;2;8.5
"stéphanie nava";0;0;1;8
"black artwork for sale";0;0;1;75
"rudolf hausner adam";0;0;1;15
pagart;0;0;2;38
"jeanne lorioz";0;0;5;10.2;0;0;2;11.5
"jada pinkett smith artwork";0;0;2;4;0;0;1;9
"bruno timmermans";0;0;2;1
"pret à porter artwork";0;0;1;5
"luciano polverigiani";0;0;2;8
"gabriela bodin";0;0;3;8.3333333333333;0;0;1;9
"willy ronis";0;0;1;49
"uche okpa-iroha";0;0;2;16;0;0;2;6
"le grand palais biarritz";0;0;1;172
josse;0;0;1;199
"aboriginal art animals";0;0;1;340
"eva maude tardif champoux";0;0;1;10
"vanity fair sale";0;0;1;32
"muhanna durra";0;0;3;10
"sarah hardacre";0;0;1;18
"rak artist";0;0;2;8
"tiffany chung";0;0;1;46
"arno elias";0;0;1;37
"jean michel basquiat skull";0;0;1;30
"galerie 127";0;0;1;7
"elin melberg";0;0;1;10;0;0;1;9
"peter lippmann photography";0;0;1;9
"ahn sun mi";0;0;4;5.75
"christine barres";0;0;1;6
"gilda rita";0;0;1;213
"simon geiger juice plus";0;0;1;57
"chateau lafite 2012";0;0;1;38
"nils inne";0;0;1;8
"matthew attard";0;0;3;9.3333333333333;0;0;1;9
"fleur de roeck";0;0;1;4
"yayoi kusama artworks";0;0;1;72
"herve di rosa";0;0;2;5.5
"banksy pound";0;0;1;1
"katrin bremermann";0;0;1;2
"francois darmigny";0;0;1;5
"linoleum wood effect";0;0;1;303
"stéphanie jeannet";0;0;1;7
+william+sweetlove;0;0;1;106
"lou ros artist";0;0;7;9.8571428571429
"vincent chenut";0;0;1;9
"tobias putrih";0;0;1;49
"princes school of traditional arts";0;0;1;33
"mikhail lezin";0;0;1;7
"david ferreira";0;0;1;34
awena;0;0;5;42.2
"danilo di nenno";0;0;1;1
"murakami cushion";0;0;2;10
"crash artist";0;0;1;10;0;0;2;10
"harold munoz";0;0;1;12
"aaron keith";0;0;1;329
"léo caillard";0;0;1;35
seher;0;0;1;181
beetles+huxley;0;0;1;6
"alexey klimov";0;0;1;20
"marcin bialas";0;0;2;21;0;0;2;10
"la madrague brigitte";0;0;1;7
"kiddy citny";0;0;1;5
"patricia kinard";0;0;1;9
"the wonder 500";0;0;1;32
"graffiti artwork for sale";0;0;1;73
trucanh;0;0;2;8.5
"patrick moya artist";0;0;1;10
yongliang;0;0;1;11
"advanced graphics london";0;0;1;90
"valerie hadida";0;0;7;9.8571428571429
"asgar/ gabriel";0;0;1;10
uqulele;0;0;1;9
"charlotte lelong";0;0;1;8
"sky mikesell";0;0;1;47
"yves zurstrassen";0;0;2;10;0;0;1;3
"irina ionesco";0;0;2;53.5;0;0;1;50
mpah;0;0;1;33
"aboriginal art animals images";0;0;1;334
"nicaise jean louis nude";0;0;1;60
bertelli;0;0;1;197
"philippe vasseur artist";0;0;1;1
"uwe ommer";0;0;4;33;0;0;1;41
"zhou tiehai";0;0;1;15
"whitespace gallery";0;0;1;58
"young pink lips";0;0;1;29
"marty de montereau";0;0;1;1
"denis rouvre";0;0;1;51
"galerie taglialatella";0;0;1;7
"art nue";0;0;1;6
"david gerstein";0;0;2;46;0;0;1;1
"sandy skoglund essay";0;0;1;37
valencin;0;0;1;17
lazarew;0;0;1;5
fuger;0;0;1;339
"claude mollard";0;0;2;5
"""open your mind""";0;0;1;1
"modern art paintings savannah ga";0;0;2;417
"ren hang";0;0;2;22;0;0;1;22
"gz store";0;0;6;7.3333333333333;0;0;2;7
"aris messinis";0;0;19;8.3684210526316;0;0;2;7;0;0;1;9
"contemporary portrait photography";0;0;3;416.33333333333
"anna bjerger paintings";0;0;1;5;0;0;2;5.5
"fabrizio corneli";0;0;2;7;0;0;1;7
"leicter university";0;0;1;9
moscovino;0;0;3;4
"gautier deblonde atelier";0;0;4;10
benharrouche;0;0;1;1
"ki to la gloire";0;0;3;6
"alain godon";0;0;3;1.6666666666667
katakol;0;0;1;22
"cara delevingne graffiti";0;0;1;1
ayline;0;0;3;8
"fred ebami";0;0;1;8
"intimacy in art";0;0;1;18
"luca di filippo";0;0;3;10
corno;0;0;2;134
"коньяк galavani";0;0;1;19
"florence d'elle";0;0;3;7.3333333333333
roch3;0;0;1;4
"alex folla";0;0;2;7
"maison dauphine";0;0;1;11
"keith haring montreux jazz festival 1983";0;0;2;1
"gabriel jones";0;0;2;11
saudek;0;0;1;43
"isabel espinoza";0;0;1;9
"georges autard";0;0;1;7
"christof monnin";0;0;1;9
"galerie vidal st phalle";0;0;1;5
quik;0;0;3;7.6666666666667
"jacques renoir";0;0;2;8.5;0;0;3;10
"thomas jorion photography";0;0;1;4
"ruta jusionyte";0;0;1;8
"costa artist";0;0;2;10
traffik;0;0;1;11
"jean-michel basquiat in italian";0;0;1;12;0;0;1;11
"elisabeth lecourt";0;0;1;8
"open your mind";0;0;86;1.9651162790698;0;0;10;2.5
"jean christophe fischer";0;0;1;8
"ronald dupont artist";0;0;1;6
"aki kuroda artist";0;0;1;1
"ren hang art";0;0;1;8
"a nous paris";0;0;1;32
"anne und patrick poirier";0;0;1;9
"paul carey kent";0;0;1;10
"janet lynch artist";0;0;3;10
"ferrero art";0;0;1;8
"natalia rak";0;0;2;9
denot;0;0;1;30
"thomas bossard artist";0;0;4;4
"galerie baudoin lebon";0;0;1;4
"torrick ablack";0;0;1;10
"dollar bleu";0;0;1;9
virnaburger;0;0;1;11
"valerie hadida sculptures";0;0;1;7
"black mass artwork";0;0;1;10
"marie rioux";0;0;1;3
"small artworks";0;0;1;10
"gallery aka";0;0;1;8
"monsieur chat";0;0;2;10.5
ducatteau;0;0;1;7
"linda blackstone";0;0;1;9
"richard bonan";0;0;1;10;0;0;1;3
"valerie hadida sculpture";0;0;1;8
keymi;0;0;1;7
ideelart;0;0;1;7
"olivier castaing";0;0;1;19
"yann houri";0;0;1;8
"louis pons artist";0;0;2;3
"maude lachapelle nude";0;0;1;9
"by the dude";0;0;1;10
mariposas;0;0;1;183
"nasty artwork";0;0;2;4
"caroline veith";0;0;3;9.3333333333333
"guy denning art";0;0;1;10
nurcan;0;0;1;62
"marie claire";0;0;1;187
"fabrice hyber";0;0;2;10
nasty;0;0;1;199
"bard artwork";0;0;1;6
"bruno catalano price";0;0;1;5
"galerie hus";0;0;2;5.5
"roland cat";0;0;1;5
"ann grim";0;0;1;11
"jaja mode";0;0;1;6
teasemaid;0;0;1;10
f2b;0;0;1;76
putov;0;0;2;1
"tall nudes";0;0;1;24
"boccara rugs";0;0;1;15
"lucien murat";0;0;2;2.5
"henri lamy art";0;0;1;9
"patrick cornillet";0;0;2;1
"didier triglia";0;0;1;3
"arthur lanyon";0;0;1;14
"galerie lazarew";0;0;1;6
"nguyen the dung";0;0;1;6
"sandra krasker";0;0;1;6
"arkiv vilmansa";0;0;1;10
"jo di bona";0;0;1;18
