"brno del zou";13;0.30232558139535;43;2.093023255814;12;0.31578947368421;38;2.1052631578947;1;0.2;5;2
"christophe catelain";2;0.66666666666667;3;1;1;1;1;1;0;0;1;1;1;1;1;1
"hideka tonomura";2;0.058823529411765;34;8.2647058823529;1;0.041666666666667;24;8.5416666666667;1;0.11111111111111;9;7.3333333333333;0;0;1;10
"raymond hains";2;0.083333333333333;24;6.9166666666667;2;0.095238095238095;21;6.7142857142857;0;0;3;8.3333333333333
"knut eckstein";2;0.5;4;8.5;2;0.5;4;8.5
"damir polic";1;0.11111111111111;9;4.7777777777778;1;0.25;4;4.25;0;0;5;5.2
"magdalena lamri";1;0.2;5;4;1;0.2;5;4
"dominique regnier";1;0.2;5;6;1;0.2;5;6
"guy denning";1;0.010526315789474;95;9.2315789473684;1;0.01219512195122;82;9.1219512195122;0;0;13;9.9230769230769
"artdog london";1;1;1;4;1;1;1;4
"veronica green artist";1;1;1;20;1;1;1;20
"korosh ghazimorad";1;1;1;9;1;1;1;9
"stephane gautier";1;1;1;3;1;1;1;3
"yan morvan";1;0.25;4;11.25;1;0.25;4;11.25
"ruta jusionyte";1;0.2;5;9;1;0.25;4;9;0;0;1;9
"carlotta bertelli";1;0.5;2;12.5;1;0.5;2;12.5
"stephen forbes artist";1;0.25;4;4.5;1;0.25;4;4.5
"valerie vaubourg";1;0.33333333333333;3;2;1;0.33333333333333;3;2
"bertrand desprez";1;0.5;2;9;1;0.5;2;9
"flexo zed";1;0.5;2;3;1;1;1;3;0;0;1;3
"juan camilo alvarez";1;0.5;2;6;1;0.5;2;6
onemizer;1;0.33333333333333;3;6.3333333333333;0;0;1;6;1;1;1;5;0;0;1;8
"aviva brooks";1;1;1;2;1;1;1;2
"jeanne lorioz gallery";1;0.5;2;11;1;1;1;14;0;0;1;8
"charlie roberts artist";1;1;1;12;1;1;1;12
"peter lippmann biography";1;0.2;5;1;1;0.2;5;1
"anna bocek prices";1;0.5;2;6;1;0.5;2;6
"fleur de roeck";1;1;1;12;1;1;1;12
"brno del zou biography";1;0.33333333333333;3;1;1;0.33333333333333;3;1
"jean faucheur artist";1;0.25;4;2;1;0.25;4;2
"zin helena song";1;1;1;21;1;1;1;21
"brno del zou wiki";1;0.5;2;5.5;1;0.5;2;5.5
"valerie hadida";1;0.16666666666667;6;4.3333333333333;1;0.16666666666667;6;4.3333333333333
"thomas muller artist";1;0.14285714285714;7;5;1;0.25;4;5;0;0;1;5;0;0;2;5
kikayou;1;1;1;5;1;1;1;5
gregos;1;0.5;2;36.5;1;0.5;2;36.5
"sophie morisse";1;1;1;5;1;1;1;5
"martha cooper photography for sale";1;1;1;9;1;1;1;9
"alexandre akar";1;1;1;11;1;1;1;11
"veronique rischard";1;1;1;5;1;1;1;5
"carole duhayer";1;1;1;7;1;1;1;7
"nils udo biography";1;1;1;4;1;1;1;4
"francois bard";1;0.16666666666667;6;7.6666666666667;0;0;4;7.75;0;0;1;7;1;1;1;8
"nils udo";1;0.03125;32;7.65625;0;0;22;7.4090909090909;0;0;4;8.75;1;0.16666666666667;6;7.8333333333333
"nathan chantob";1;1;1;1;1;1;1;1
"francois glineur";1;1;1;5;1;1;1;5
"india leire";1;1;1;12;1;1;1;12
"bruno del zou";1;1;1;2;1;1;1;2
"erin cone";1;0.25;4;10;1;0.25;4;10
jisbar;1;1;1;1;1;1;1;1
"bernard pras";1;0.058823529411765;17;9.6470588235294;0;0;14;10.428571428571;1;0.33333333333333;3;6
"ayline olukman";1;0.5;2;5;1;0.5;2;5
"adrian buba";1;0.33333333333333;3;4;1;0.5;2;3.5;0;0;1;5
"pascal jacquot";1;0.2;5;3.4;1;0.2;5;3.4
"lolita nudes";1;1;1;64;1;1;1;64
"robert combas";1;0.14285714285714;7;8.7142857142857;1;0.14285714285714;7;8.7142857142857
"alma haser biography";1;0.5;2;2;1;0.5;2;2
"zhang wei photography";1;1;1;6;1;1;1;6
"jacques villeglé";1;0.2;5;8.4;1;0.25;4;8.25;0;0;1;9
"dirk de keyzer";0;0;1;27;0;0;1;27
"seon kang wolter";0;0;1;5;0;0;1;5
"no galerie";0;0;3;4.6666666666667;0;0;3;4.6666666666667
"sabine green";0;0;1;350;0;0;1;350
"sun hyuk kim";0;0;2;5
saifou;0;0;1;25;0;0;1;25
ngale;0;0;1;76;0;0;1;76
"obey lotus";0;0;3;7;0;0;3;7
"gomez barros";0;0;1;10;0;0;1;10
"wilfred artist";0;0;1;19;0;0;1;19
"zao wou-ki prints for sale";0;0;1;27;0;0;1;27
"raymond hains artwork";0;0;3;3.3333333333333
"baudoin galler";0;0;10;6.2;0;0;9;6.1111111111111;0;0;1;7
"decorative art minneapolis";0;0;1;184;0;0;1;184
eppelé;0;0;1;2;0;0;1;2
charwomen;0;0;2;46;0;0;2;46
kyliss;0;0;1;7;0;0;1;7
"bubble shooter";0;0;2;177;0;0;1;177;0;0;1;177
jonone;0;0;8;9;0;0;7;8.7142857142857;0;0;1;11
pcp;0;0;1;424
"le biez";0;0;1;13;0;0;1;13
"damien gard";0;0;1;9;0;0;1;9
"nils udo artist";0;0;5;6.2;0;0;5;6.2
"street art los angeles";0;0;1;340;0;0;1;340
"patrick cornillet";0;0;1;3
"aiguille du chardonnet";0;0;1;47;0;0;1;47
"yen japon";0;0;1;35;0;0;1;35
"italian galleries";0;0;1;20
"anne-catherine becker-echivard";0;0;1;10
"alain clement artist";0;0;1;4;0;0;1;4
"alva bernadine";0;0;10;3;0;0;10;3
"wrinkles of the city";0;0;1;79;0;0;1;79
zenoy;0;0;1;8
"renaud delorme artist";0;0;2;5;0;0;2;5
"gerard rancinan prints";0;0;6;7.5;0;0;4;7.75;0;0;2;7
"jan saudek photographs";0;0;1;47;0;0;1;47
"bruno catalano prices";0;0;1;5;0;0;1;5
"le valet";0;0;1;6;0;0;1;6
"thomas jorion";0;0;9;7;0;0;9;7
"william eggleston artwork";0;0;2;5;0;0;1;4;0;0;1;6
"blog kenza";0;0;1;28;0;0;1;28
"marc petit";0;0;1;50;0;0;1;50
kartonn;0;0;1;5;0;0;1;5
"big star sophie";0;0;1;19;0;0;1;19
"janet lynch artist";0;0;1;10
birkbeck;0;0;2;123
savates;0;0;1;50;0;0;1;50
"gerstein art";0;0;2;29.5;0;0;2;29.5
"jef daniel";0;0;1;5;0;0;1;5
"jasmine black";0;0;1;109
"saudek gallery";0;0;1;35;0;0;1;35
"michele mikesell";0;0;1;17;0;0;1;17
"kunst german";0;0;1;415;0;0;1;415
"tapis eveil fisher price";0;0;1;45;0;0;1;45
unbo;0;0;1;16;0;0;1;16
"takashi murakami";0;0;1;126;0;0;1;126
"women leos";0;0;1;203;0;0;1;203
"hank china";0;0;2;4.5;0;0;2;4.5
"study to be a priest";0;0;1;233;0;0;1;233
"isabelle bonzom";0;0;1;7;0;0;1;7
vagabondage;0;0;7;8.1428571428571;0;0;7;8.1428571428571
"mel ramos";0;0;93;8.9462365591398;0;0;11;1;0;0;7;1
"petra wunderlich";0;0;5;8.8;0;0;4;8.75;0;0;1;9
"greg gorman";0;0;1;10;0;0;1;10
"virginia benedicto";0;0;1;18;0;0;1;18
"bastardoz patrick";0;0;4;4;0;0;4;4
"ramos mel";0;0;1;11
"julia mangold";0;0;2;12;0;0;2;12
"monica denevan";0;0;1;16
"bertrand grégoire";0;0;2;8.5;0;0;2;8.5
cridart;0;0;2;11;0;0;2;11
"matea design";0;0;3;6.3333333333333
jingjia;0;0;1;4;0;0;1;4
"obey obama";0;0;2;47;0;0;2;47
"markus and koala";0;0;1;3;0;0;1;3
"fouad bouchoucha";0;0;1;6;0;0;1;6
"benjamin deroche";0;0;1;5;0;0;1;5
"lou ros";0;0;1;37
"thomas muller art";0;0;2;5;0;0;1;5;0;0;1;5
"galerie vidal";0;0;1;2;0;0;1;2
gluska;0;0;2;22;0;0;2;22
"alain bertrand";0;0;1;15;0;0;1;15
"braque amsterdam";0;0;2;50;0;0;2;50
"sandy skoglund breathing glass";0;0;1;14;0;0;1;14
"john matos crash";0;0;1;7;0;0;1;7
"galerie polysémie";0;0;1;9;0;0;1;9
"wilfred lang artist";0;0;1;34;0;0;1;34
"jaja mode";0;0;1;9
"florence d'elle";0;0;9;6.5555555555556;0;0;5;6.8;0;0;1;6
"maria torp";0;0;1;9;0;0;1;9
"vincent richeux";0;0;5;5.8;0;0;5;5.8
"guy boyer";0;0;2;7.5;0;0;1;8
"alain godon";0;0;5;9.6;0;0;4;10.75;0;0;1;5
valencin;0;0;1;13
brugier;0;0;3;31.333333333333;0;0;3;31.333333333333
"desert yam";0;0;1;28;0;0;1;28
"patrick villas";0;0;1;10;0;0;1;10
"francoise nielly for sale";0;0;1;16;0;0;1;16
"antoine stevens bio";0;0;1;2;0;0;1;2
"arthur dorval";0;0;8;4.625;0;0;3;4.6666666666667;0;0;5;4.6
"muller artist";0;0;1;9;0;0;1;9
jadikan;0;0;5;7.8;0;0;4;7.5;0;0;1;9
"guy denning artist";0;0;4;7;0;0;1;8
"henri lamy";0;0;5;7.6;0;0;4;7.5;0;0;1;8
"massa art";0;0;1;50;0;0;1;50
"jean michel basquiat untitled skull";0;0;1;1;0;0;1;1
"charlotte champion";0;0;3;4.6666666666667;0;0;2;4;0;0;1;6
"mickael doucet";0;0;1;2
auboiron;0;0;1;10
"graham dolphin";0;0;1;7;0;0;1;7
"valérie hadida";0;0;1;5;0;0;1;5
"manu perez";0;0;1;19;0;0;1;19
"mer de nuages";0;0;1;44;0;0;1;44
plusch;0;0;1;9;0;0;1;9
"jonone street art";0;0;2;14
"landscape paintings for sale";0;0;1;344
"antoine de la boulaye";0;0;1;5
"reda abdel rahman";0;0;1;12;0;0;1;12
"stephane joannes";0;0;2;8;0;0;1;7;0;0;1;9
"abou diarrassouba";0;0;1;37;0;0;1;37
amorales;0;0;1;145
"wesselmann gmbh";0;0;1;39;0;0;1;39
"fabrice hyber";0;0;6;7.5;0;0;2;9
"chuck elliott";0;0;1;39;0;0;1;39
"bertrand meunier";0;0;2;1;0;0;2;1
"christine barres";0;0;1;3
lecourt;0;0;1;41;0;0;1;41
"amelie desjardins";0;0;1;23;0;0;1;23
"aboudia artist";0;0;1;9
"browse art";0;0;1;47;0;0;1;47
"crash artist";0;0;3;8;0;0;2;8;0;0;1;8
"mel ramos coco";0;0;2;1;0;0;1;1;0;0;1;1
"jean-philippe berger";0;0;1;8;0;0;1;8
"jean-claude deutsch";0;0;2;7;0;0;2;7
"seon kang";0;0;1;30;0;0;1;30
"john kacere";0;0;1;34
"sen2 figueroa";0;0;1;5;0;0;1;5
"lockheed constellation for sale";0;0;1;26;0;0;1;26
"helmut newton artwork";0;0;1;9;0;0;1;9
"jacque villegle";0;0;5;9;0;0;5;9
"francesco ferrante";0;0;1;97;0;0;1;97
"john isaac artist";0;0;2;5
doorsen;0;0;1;5;0;0;1;5
"artist shazz switzerland";0;0;1;40
"robert combas information";0;0;1;19
"vincent descotils";0;0;1;9;0;0;1;9
"imagine there's no heaven";0;0;1;67
"eric pottier";0;0;1;14;0;0;1;14
"kiki picasso";0;0;4;5;0;0;2;4.5;0;0;2;5.5
"robert rauschenberg";0;0;1;304;0;0;1;304
curval;0;0;1;28;0;0;1;28
"alain huet";0;0;2;6
gangal;0;0;1;65;0;0;1;65
"luc lacroix";0;0;1;10;0;0;1;10
"nomusa makhubu";0;0;1;9
"aida silvestri";0;0;2;9;0;0;2;9
"liliane lijn";0;0;1;3;0;0;1;3
"philippe pradalie";0;0;6;4.6666666666667;0;0;6;4.6666666666667
"ray richardson artist";0;0;2;15
"sarah le meur";0;0;1;2;0;0;1;2
"françois houtin";0;0;4;6;0;0;3;7.6666666666667;0;0;1;1
kleiber;0;0;1;175;0;0;1;175
"monica dalmasso";0;0;5;9.6;0;0;2;9;0;0;3;10
"cara delevingne stencil";0;0;1;1;0;0;1;1
"rob van hoek";0;0;1;20;0;0;1;20
"robert schad";0;0;1;9;0;0;1;9
"valerie dupond";0;0;1;8;0;0;1;8
"jean faucheur";0;0;12;3.3333333333333;0;0;12;3.3333333333333
"easy rider artwork";0;0;1;22
"peter klasen";0;0;1;8;0;0;1;8
"takashi murakami biography";0;0;1;29;0;0;1;29
"alistair taylor young";0;0;1;26;0;0;1;26
"dan hillier";0;0;1;66;0;0;1;66
"patrick van der elst";0;0;1;5
"cécile desserle";0;0;1;8;0;0;1;8
"philippe de saint lager";0;0;1;3;0;0;1;3
"agnes crepin";0;0;1;6;0;0;1;6
nonsicle;0;0;3;9;0;0;2;9;0;0;1;9
"drm galerie";0;0;2;7;0;0;2;7
"françois bard";0;0;1;8
"jack otway";0;0;10;10;0;0;9;10;0;0;1;10
"bambi paintings";0;0;1;10;0;0;1;10
"claude charlier";0;0;2;6.5;0;0;1;6;0;0;1;7
"gerard rancinan";0;0;8;9.125;0;0;5;8.4;0;0;2;10.5;0;0;1;10
"maison dauphine";0;0;1;8
"vicente rojo artist";0;0;2;21;0;0;2;21
"valérie vaubourg";0;0;1;2;0;0;1;2
"modern gallery art fort lauderdale fl";0;0;6;435.83333333333;0;0;3;436.33333333333
"guy de rougemont";0;0;3;8.3333333333333;0;0;3;8.3333333333333
"bordeaux lafite rothschild";0;0;1;207;0;0;1;207
"olivia clavel";0;0;2;7;0;0;2;7
"basquiat skull";0;0;1;21
"italianlady 2";0;0;2;6;0;0;1;4;0;0;1;8
"jo main";0;0;1;32;0;0;1;32
http://www.basementizid.com/;0;0;2;166;0;0;2;166
mbfactory;0;0;1;9;0;0;1;9
"lisa sartorio";0;0;2;5.5;0;0;2;5.5
"claire dorsett";0;0;1;11;0;0;1;11
"aslan pin up";0;0;1;42
"warhol exhibition";0;0;2;405
"charles fazzino art";0;0;1;56;0;0;1;56
kouka;0;0;1;47
"pharrell williams asian";0;0;1;23
"hélion jean";0;0;1;6
"art plus tel aviv";0;0;1;189
"john crash";0;0;1;7;0;0;1;7
"naturist adolescents";0;0;1;18;0;0;1;18
"philippe pasqua";0;0;6;12;0;0;5;13;0;0;1;7
"oude elferink";0;0;1;30;0;0;1;30
"juliet ferguson";0;0;1;23;0;0;1;23
"alejandra franco facebook";0;0;1;25
artiane;0;0;1;5;0;0;1;5
"sam szafran";0;0;1;13;0;0;1;13
"baudoin lebon";0;0;2;6.5;0;0;2;6.5
"beaubourg hotel";0;0;1;198
"lunch atop a skyscraper";0;0;1;2
"lady gaga hello kitty";0;0;1;43
"matthew attard";0;0;2;10
"adjust gallery miami";0;0;1;48
"pierre francois grimaldi";0;0;8;3.125;0;0;7;3;0;0;1;4
"gyula sagi";0;0;3;5.6666666666667;0;0;2;5.5;0;0;1;6
be2;0;0;2;217;0;0;2;217
"en collaboration avec";0;0;1;49;0;0;1;49
"francois bard artist";0;0;2;6.5;0;0;2;6.5
"mauro benetti";0;0;2;10;0;0;2;10
"alexis gorodine";0;0;1;2;0;0;1;2
"bordeaux lafite";0;0;2;359;0;0;2;359
"huston ripley";0;0;2;10;0;0;2;10
"tatiana plotnikova";0;0;1;28;0;0;1;28
"maxime fardeau";0;0;1;9;0;0;1;9
"young jim morrison";0;0;1;47;0;0;1;47
"ральф петерс";0;0;1;37;0;0;1;37
"bordeaux chateau lafite";0;0;1;245;0;0;1;245
"sandra noir";0;0;1;45;0;0;1;45
"galerie huit";0;0;1;14;0;0;1;14
"cara delevingne artwork";0;0;1;1;0;0;1;1
"fabio de santis";0;0;1;14
"graham dolphin artist";0;0;2;7.5;0;0;2;7.5
"francisco sepulveda";0;0;1;10;0;0;1;10
"hopkins painter";0;0;1;7
"medway college of design";0;0;1;223;0;0;1;223
"henri lamy artist";0;0;1;5;0;0;1;5
"betancourt carlos";0;0;2;43.5;0;0;2;43.5
"maxime ansiau";0;0;2;11.5
"manolo chretien";0;0;2;9;0;0;2;9
"maurice renoma";0;0;1;7;0;0;1;7
"xavier prieur";0;0;1;10
"creepy art for sale";0;0;1;6;0;0;1;6
"art for sale";0;0;1;345;0;0;1;345
"dino valls";0;0;1;34
"henk van kalken";0;0;3;9;0;0;3;9
xaipe;0;0;2;29.5;0;0;2;29.5
"taki 183";0;0;3;23.666666666667;0;0;3;23.666666666667
"arnaud liard";0;0;1;2;0;0;1;2
"sunday b morning";0;0;1;22
"galerie bruno massa";0;0;1;9
muckensturm;0;0;1;21;0;0;1;21
"bahareh navabi";0;0;1;9;0;0;1;9
nowart;0;0;4;10.25;0;0;2;12.5;0;0;2;8
"roger schall";0;0;11;1.0909090909091;0;0;11;1.0909090909091
"brno art";0;0;1;42;0;0;1;42
"contemporary african art";0;0;6;361;0;0;6;361
"le bout des lèvres";0;0;1;52;0;0;1;52
"tom wesselmann";0;0;5;28;0;0;5;28
"claire trotignon";0;0;1;9;0;0;1;9
ideelart;0;0;1;2
"xavier veilhan";0;0;1;63;0;0;1;63
"troy henriksen art";0;0;3;3.3333333333333;0;0;2;4;0;0;1;2
"catarina bravo";0;0;1;4;0;0;1;4
"marie anne thieffry";0;0;2;3;0;0;2;3
vanmarque;0;0;1;5;0;0;1;5
"vincent hawkins";0;0;8;9.25;0;0;6;9.6666666666667;0;0;2;8
"smael vagner";0;0;1;9;0;0;1;9
"lola cola";0;0;39;1.4358974358974;0;0;25;1.6;0;0;12;1.1666666666667;0;0;2;1
miss.tic;0;0;1;6;0;0;1;6
"money art fort lauderdale fl";0;0;6;334.5;0;0;3;340;0;0;3;329
revelateurs;0;0;1;8;0;0;1;8
"esther de bont";0;0;3;12;0;0;3;12
"oswaldo guayasamin paintings";0;0;1;9
"trojan artwork";0;0;1;42;0;0;1;42
"juliette schwartz";0;0;2;1;0;0;2;1
"herve telemaque";0;0;3;8.6666666666667;0;0;3;8.6666666666667
"shaka artist";0;0;1;9;0;0;1;9
"artwork shoes sale";0;0;1;17;0;0;1;17
"paul hill artist";0;0;1;19
"charlotte sans";0;0;2;31
"rancillac bernard";0;0;1;15;0;0;1;15
"kilmany jo";0;0;2;9;0;0;2;9
"kaws vader";0;0;1;1;0;0;1;1
"pauline ohrel";0;0;1;8;0;0;1;8
"hilda rogers";0;0;1;27
"duster ua";0;0;1;18;0;0;1;18
rayou;0;0;1;9
"contemporary lyrics";0;0;1;405;0;0;1;405
"makiko furuichi";0;0;1;9;0;0;1;9
ruyter;0;0;1;318;0;0;1;318
nils-udo;0;0;5;7;0;0;5;7
"markowicz fine art";0;0;2;46.5;0;0;2;46.5
"bonnie and clyde artwork";0;0;1;21
"christian bonnefoi";0;0;1;9;0;0;1;9
urbanium;0;0;1;41;0;0;1;41
"eric herrmann artist";0;0;1;7;0;0;1;7
"eva jospin artist";0;0;3;6.6666666666667;0;0;3;6.6666666666667
cammal;0;0;1;10
"spanish galleries";0;0;1;13
"jean-pierre nadau";0;0;1;5;0;0;1;5
"alain bonnefoit";0;0;2;8;0;0;2;8
"liquid iv";0;0;1;61
"oliver eitner";0;0;1;104;0;0;1;104
"philippe pasqua information";0;0;1;7;0;0;1;7
"anne decup";0;0;1;2;0;0;1;2
"jean faucheur photography";0;0;2;2;0;0;2;2
"philippe pasqua price";0;0;1;8
"ron english biography";0;0;1;24
"lavi carlotte";0;0;2;4.5;0;0;1;3;0;0;1;6
"sam phillips art";0;0;1;14;0;0;1;14
layral;0;0;1;9;0;0;1;9
"puzzle pulp fiction";0;0;2;1;0;0;2;1
"melanie comber";0;0;1;158;0;0;1;158
"william kentridge art for sale";0;0;1;293;0;0;1;293
"richard orlinski";0;0;9;9.4444444444444;0;0;7;9;0;0;2;11
"self portrait photography york";0;0;1;135
"parfum d amour";0;0;1;23;0;0;1;23
"cool artwork for sale";0;0;2;48;0;0;2;48
"césar baldaccini";0;0;2;14.5;0;0;1;19;0;0;1;10
"clinton friedman";0;0;3;41.333333333333;0;0;1;42;0;0;2;41
"jeanne lorioz";0;0;3;8;0;0;3;8
"stéphane compoint";0;0;1;4;0;0;1;4
"jacques renoir";0;0;7;9.7142857142857;0;0;3;10
"benjamin spark";0;0;5;13;0;0;5;13
"vivendi gallery";0;0;1;9
"jeanne socquet";0;0;1;4
"yves zurstrassen";0;0;1;10;0;0;1;10
"cesar baldaccini compression";0;0;1;5;0;0;1;5
"joan mitchell peinture";0;0;1;11;0;0;1;11
"shen jingdong";0;0;4;7;0;0;1;9;0;0;1;5
"ecole art annecy";0;0;1;309;0;0;1;309
lazarew;0;0;2;7
"thomas ahl";0;0;1;18;0;0;1;18
"madeleine dietz";0;0;2;15;0;0;1;20;0;0;1;10
"jonone artist";0;0;3;10.666666666667;0;0;1;7
"jerome bost";0;0;2;11
"kollektiv plus zwei";0;0;1;5;0;0;1;5
"anna bocek paintings";0;0;1;14;0;0;1;14
"willy ronis le petit parisien";0;0;1;1;0;0;1;1
ciprana;0;0;1;9;0;0;1;9
christophel;0;0;1;43;0;0;1;43
"thomas duval";0;0;1;10;0;0;1;10
"zhang wei";0;0;1;10;0;0;1;10
couettes;0;0;1;218;0;0;1;218
"robert bradford";0;0;1;47;0;0;1;47
hyvrard;0;0;1;36
artsper;0;0;29;1;0;0;6;1;0;0;1;1
cosug;0;0;1;8
"baldaccini cesar";0;0;2;11.5;0;0;2;11.5
"oswaldo guayasamin painting";0;0;1;23;0;0;1;23
"lauryn hill";0;0;1;181
"nils-udo art";0;0;1;8
"rasta fashion";0;0;1;331;0;0;1;331
"ren hang artist";0;0;2;6;0;0;1;6;0;0;1;6
jaunery;0;0;1;7;0;0;1;7
"gijsbert hanekroot";0;0;1;3;0;0;1;3
"onur art";0;0;3;5;0;0;2;5;0;0;1;5
"richard orlinski artist";0;0;1;5;0;0;1;5
"bard artwork";0;0;2;8;0;0;1;8
"os gemeos for sale";0;0;1;51;0;0;1;51
"chateau de by 2008";0;0;1;434;0;0;1;434
carzon;0;0;2;48.5;0;0;2;48.5
"truc anh";0;0;1;17;0;0;1;17
"alison wilding artist";0;0;1;22
"davide boriani";0;0;1;8;0;0;1;8
"arty gallery";0;0;1;9;0;0;1;9
"michael costes";0;0;1;322;0;0;1;322
"aka the one";0;0;1;10;0;0;1;10
"crystal wagner";0;0;1;46;0;0;1;46
"eva jospin";0;0;7;9.4285714285714;0;0;5;9.4;0;0;2;9.5
"claude closky";0;0;1;14;0;0;1;14
"lego sculpture for sale";0;0;1;39;0;0;1;39
yutao;0;0;3;4.6666666666667;0;0;2;5;0;0;1;4
"keith haring lucky strike";0;0;4;1.25;0;0;1;2
"abstract sculpture";0;0;4;381.5
"herb ritts nude";0;0;1;27
"kevin vast";0;0;1;2;0;0;1;2
"museum of contemporary photography";0;0;1;445
"art to be gallery";0;0;1;5
"olivier widmaier picasso";0;0;5;10.4;0;0;3;11.333333333333;0;0;2;9
"guy denning painting";0;0;3;6.6666666666667;0;0;3;6.6666666666667
"flowers by andy warhol";0;0;1;1;0;0;1;1
"laurent maes";0;0;1;8
www.senz.com.my;0;0;1;20;0;0;1;20
"artist shaw";0;0;1;425
"antoine stevens";0;0;11;7.9090909090909;0;0;9;8;0;0;1;7;0;0;1;8
"linda blackstone";0;0;1;8
"bansky tag";0;0;1;31;0;0;1;31
"anne valerie dupond";0;0;3;7;0;0;3;7
"nicholas hugo";0;0;1;5;0;0;1;5
"rero artist";0;0;2;35;0;0;2;35
"carles valverde";0;0;1;2;0;0;1;2
"shoplifter artist";0;0;1;19;0;0;1;19
"28 millimetres";0;0;1;18;0;0;1;18
"leon tutundjian";0;0;1;76;0;0;1;76
chanoir;0;0;3;7.3333333333333;0;0;1;5;0;0;2;8.5
"noire photography";0;0;1;348
"jiji girl";0;0;1;7;0;0;1;7
"roberto greco";0;0;1;25;0;0;1;25
"valery barykin";0;0;1;19;0;0;1;19
"zhang wei artist";0;0;2;9
"pierre david";0;0;2;16;0;0;2;16
"alex katz for sale";0;0;1;49
"crash street artist";0;0;1;6;0;0;1;6
"martin reyna";0;0;2;19;0;0;2;19
"jacqueline schafer art";0;0;1;2
"pornografie fr";0;0;1;50;0;0;1;50
"barter paris art club";0;0;2;7.5;0;0;2;7.5
"mist graffiti";0;0;2;40;0;0;2;40
mondapart;0;0;1;6;0;0;1;6
www.artsper.com;0;0;1;1;0;0;1;1
"bousquet artist";0;0;1;10;0;0;1;10
"cesar baldaccini";0;0;2;11;0;0;2;11
"wifredo lam";0;0;1;182;0;0;1;182
"peter maureau";0;0;2;30;0;0;1;29
"philippe weisbecker";0;0;4;8.5;0;0;3;9;0;0;1;7
"etam cru sketch";0;0;2;10;0;0;2;10
"baudoin lebon gallery";0;0;2;4
"bernard chauveau";0;0;2;8;0;0;2;8
"dganit blechner";0;0;2;9.5;0;0;2;9.5
"history iceland";0;0;1;444;0;0;1;444
"jacek hazuka";0;0;1;17;0;0;1;17
"hervé di rosa";0;0;2;9;0;0;1;7;0;0;1;11
chubac;0;0;10;7.1;0;0;4;7.75;0;0;5;6.6;0;0;1;7
"smile is beautiful";0;0;1;30;0;0;1;30
"lady gaga hello kitty dress";0;0;1;21;0;0;1;21
"montreux art gallery";0;0;1;18;0;0;1;18
"galerie lazarew";0;0;1;8
"damien hirst dove";0;0;1;9
"graffiti mist";0;0;1;26
"unique artworks";0;0;1;406;0;0;1;406
"philippe pasqua art";0;0;1;8;0;0;1;8
babelen;0;0;1;46;0;0;1;46
"pasqua philippe";0;0;1;8;0;0;1;8
"david rodriguez artist";0;0;1;26;0;0;1;26
"thibault ehrengardt";0;0;11;1;0;0;11;1
ioye;0;0;2;12;0;0;1;16;0;0;1;8
"jean marie drouet";0;0;2;4.5
"galerie w";0;0;2;5.5;0;0;1;7
"zoxx gallery";0;0;1;5;0;0;1;5
"jack otway art";0;0;1;7;0;0;1;7
"isabelle bartoli";0;0;1;1
"delaunay artist";0;0;1;71;0;0;1;71
"kennis chan";0;0;2;9.5;0;0;2;9.5
"vincent godeau";0;0;1;7;0;0;1;7
"wasted youth";0;0;1;213;0;0;1;213
"le cirque matisse";0;0;1;1;0;0;1;1
"dvir gallery";0;0;2;357;0;0;2;357
"tente alexander";0;0;3;6.3333333333333
mr.dob;0;0;1;9;0;0;1;9
azeroual;0;0;1;21;0;0;1;21
"atila biro";0;0;1;8
"ren hang photography";0;0;3;7.3333333333333;0;0;2;7;0;0;1;8
"pretty portal";0;0;2;6;0;0;1;7;0;0;1;5
"jon one";0;0;2;7.5
"art life gallery";0;0;1;41;0;0;1;41
"miro svolik";0;0;1;9;0;0;1;9
"gauthier deblonde";0;0;1;2;0;0;1;2
"mr big";0;0;1;217;0;0;1;217
grisor;0;0;2;6.5;0;0;2;6.5
penelle;0;0;2;5;0;0;2;5
"alain clément";0;0;2;5.5;0;0;2;5.5
"oleg dou biography";0;0;1;3
"jan saudek gallery";0;0;1;34;0;0;1;34
"david ferreira";0;0;1;29;0;0;1;29
"jean georges inca";0;0;1;1;0;0;1;1
"alex katz collages";0;0;1;45
pengspace;0;0;1;16;0;0;1;16
mendras;0;0;1;36;0;0;1;36
"jean marie oger";0;0;1;10;0;0;1;10
"victoria klotz";0;0;7;1.8571428571429;0;0;7;1.8571428571429
"apple or";0;0;1;9;0;0;1;9
"jeff koons red balloon dog plate";0;0;1;2;0;0;1;2
"kpmg belfast";0;0;1;31;0;0;1;31
"philippe huart";0;0;2;5;0;0;1;5;0;0;1;5
"sigune hamann";0;0;1;6;0;0;1;6
"jeff kunst";0;0;1;38
"andy warhol gun wallpaper";0;0;1;19;0;0;1;19
"fabrizio corneli";0;0;15;7.6;0;0;2;8
"yvonne coomber";0;0;2;28;0;0;2;28
"richard di rosa";0;0;1;5;0;0;1;5
"wolfgang krell";0;0;2;6
"ted starkowski";0;0;1;1;0;0;1;1
virginie;0;0;1;339;0;0;1;339
"artist mel ramos";0;0;1;43;0;0;1;43
"ted nomad";0;0;1;4;0;0;1;4
"gollum artwork";0;0;1;41;0;0;1;41
"bob carlos clarke";0;0;1;47;0;0;1;47
"a la bardot";0;0;2;3.5
"francois houtin";0;0;4;1;0;0;4;1
"antoine josse";0;0;4;9.5;0;0;2;9;0;0;2;10
"vivienne maun";0;0;2;9.5;0;0;2;9.5
"photographe portrait rodez";0;0;1;83;0;0;1;83
femmejambes;0;0;3;10;0;0;3;10
bruguiere;0;0;1;43;0;0;1;43
"simon liddiment";0;0;1;8;0;0;1;8
"david gerstein wall sculptures";0;0;1;37;0;0;1;37
"blandine bardeau";0;0;1;11
"emeritus at arlington";0;0;1;303;0;0;1;303
"damien hirst gold";0;0;1;43
"vasarely for sale";0;0;1;40
"yasemin senel";0;0;11;11.909090909091;0;0;9;13;0;0;2;7
"annina roescheisen";0;0;1;17;0;0;1;17
stoul;0;0;13;3.9230769230769;0;0;13;3.9230769230769
"charlize theron vincent peters";0;0;1;4;0;0;1;4
"denning artist";0;0;1;4;0;0;1;4
+nitsch+hermann;0;0;1;131;0;0;1;131
"robert combas prezzo";0;0;1;21;0;0;1;21
trovic;0;0;1;11;0;0;1;11
"gz galerie";0;0;1;6;0;0;1;6
"arnold schwarzenegger artwork";0;0;1;42;0;0;1;42
"barry cawston";0;0;1;9
"galerie roy sfeir";0;0;2;5.5
"bernad pras";0;0;1;9;0;0;1;9
"carole feuerman artist";0;0;1;26
"aris messinis photography";0;0;2;7.5;0;0;1;7;0;0;1;8
"wang shu hui";0;0;3;8;0;0;2;10;0;0;1;4
"bambi art";0;0;4;13.25;0;0;4;13.25
"nils udo artwork";0;0;1;9;0;0;1;9
"brokeback mountain";0;0;1;195;0;0;1;195
"hedva ser";0;0;4;4.5;0;0;1;1;0;0;1;1
"raymond hains facts";0;0;2;6;0;0;1;5;0;0;1;7
"tiger rock";0;0;1;100;0;0;1;100
"nazi regalia";0;0;1;35;0;0;1;35
cony;0;0;1;173
"henrietta dubrey";0;0;1;11;0;0;1;11
"pierre alex";0;0;3;4;0;0;3;4
"adrien belgrand";0;0;1;6;0;0;1;6
"wifredo lam prints";0;0;1;35
"art works";0;0;1;335
takala;0;0;4;4.25;0;0;4;4.25
"givenchy hat";0;0;1;42;0;0;1;42
"hotel läckö";0;0;1;182
"peter mc";0;0;1;53;0;0;1;53
"quik graffiti";0;0;1;10;0;0;1;10
"hotel art plus tel aviv";0;0;1;189;0;0;1;189
"gz store";0;0;1;5
"eduardo arroyo art";0;0;1;24
"aris messinis";0;0;11;9.0909090909091;0;0;2;9.5
"contemporary art gallery";0;0;1;420
"unique gallery dubai";0;0;4;8;0;0;1;9;0;0;1;8;0;0;2;7.5
"cornucopia artwork";0;0;1;1;0;0;1;1
"natures photography";0;0;1;407;0;0;1;407
"pilar ortega";0;0;1;18;0;0;1;18
"grand baleine";0;0;1;32
"combas robert";0;0;1;5;0;0;1;5
"barbara howey";0;0;1;10;0;0;1;10
"jock sturges";0;0;2;92.5;0;0;1;89;0;0;1;96
"jacques mahé de la villeglé";0;0;1;8;0;0;1;8
"renaud delorme";0;0;5;5.6;0;0;1;7;0;0;4;5.25
"e gallery french";0;0;8;7.25;0;0;1;8
"chris morin";0;0;4;3;0;0;4;3
"tim flach prints for sale";0;0;2;14;0;0;2;14
"jean gabriel";0;0;1;155;0;0;1;155
"sabyl ghoussoub";0;0;1;5;0;0;1;5
"takashi murakami flower cushion";0;0;2;5;0;0;2;5
"jim dine for sale";0;0;1;33;0;0;1;33
"reza khatir";0;0;1;12
"ici 1";0;0;1;44
"saudek exhibition prague";0;0;1;22
angélique;0;0;1;300;0;0;1;300
"greg guillemin biography";0;0;1;9;0;0;1;9
"inventaire 53 dali";0;0;2;3;0;0;2;3
"pin up las vegas";0;0;1;171;0;0;1;171
"max czertok";0;0;9;9.2222222222222;0;0;8;9.375;0;0;1;8
"mireille roobaert";0;0;1;6;0;0;1;6
"banksy print";0;0;1;209
"eva navarro";0;0;4;7.5;0;0;2;8.5;0;0;1;8
"mélanie peduzzi";0;0;1;9;0;0;1;9
"ama benjamin";0;0;1;13;0;0;1;13
"chatte x";0;0;1;46;0;0;1;46
"peter doig";0;0;1;122;0;0;1;122
"top 10 graphic designers";0;0;1;341;0;0;1;341
bodnariu;0;0;40;15.25;0;0;22;13.136363636364;0;0;12;18.833333333333;0;0;6;15.833333333333
erotica;0;0;1;229
"audrey the artist french";0;0;1;10;0;0;1;10
"loulou picasso";0;0;2;13;0;0;2;13
"cecile decorniquet";0;0;1;1
"benoit trimborn artist";0;0;2;5
"guy dening";0;0;2;10;0;0;1;10;0;0;1;10
dubart;0;0;1;4;0;0;1;4
"miami vice";0;0;2;182.5;0;0;1;183;0;0;1;182
"david lachapelle biography";0;0;1;40;0;0;1;40
"most famous contemporary artists";0;0;1;42;0;0;1;42
"nathalie grenier";0;0;1;20;0;0;1;20
"soulmate artwork";0;0;1;20;0;0;1;20
"france mitrofanoff";0;0;2;2;0;0;2;2
"oan kim";0;0;1;9
astrobal;0;0;1;29;0;0;1;29
perlinpinpin;0;0;1;5;0;0;1;5
"blues brothers artwork";0;0;1;25;0;0;1;25
"xavier blondeau";0;0;1;1
"christophe ronel";0;0;1;9;0;0;1;9
"miro maravillas";0;0;1;1
"cello for sale";0;0;1;231;0;0;1;231
"ben goossens";0;0;1;46;0;0;1;46
"polly ngale";0;0;3;28.666666666667;0;0;3;28.666666666667
"anna bjerger";0;0;8;6.875;0;0;1;6
"georgianna robertson";0;0;1;39;0;0;1;39
"painting bronx";0;0;1;318
"flower delivery bilbao";0;0;1;57;0;0;1;57
jonvelle;0;0;1;19;0;0;1;19
"guy denning paintings";0;0;1;8;0;0;1;8
"makler zürich";0;0;1;30
"clément denis";0;0;1;9;0;0;1;9
+hans+hartung;0;0;5;133.4;0;0;5;133.4
"hotel beaubourg paris";0;0;1;163;0;0;1;163
atomium;0;0;1;196;0;0;1;196
"van hove painter";0;0;2;10;0;0;1;11;0;0;1;9
"frith sculpture";0;0;1;188
"ursula krauss";0;0;1;16;0;0;1;16
"antoine stevens art";0;0;2;8.5;0;0;2;8.5
"peter hoffer artist";0;0;2;11;0;0;1;12;0;0;1;10
"peter klasen artist";0;0;3;5;0;0;3;5
"johanne 8";0;0;2;7;0;0;2;7
"azart gallery";0;0;1;187;0;0;1;187
"ronnie budja";0;0;1;38;0;0;1;38
"arts in minneapolis";0;0;1;198;0;0;1;198
"jacques de la villegle";0;0;1;6;0;0;1;6
jm;0;0;1;39;0;0;1;39
"jerome lagarrigue";0;0;10;10.4;0;0;8;10.375;0;0;2;10.5
"odile decq";0;0;1;56
"bastien cuenot";0;0;3;2;0;0;1;2;0;0;1;2;0;0;1;2
"andreas leikauf";0;0;2;7
"dan carabas";0;0;1;2;0;0;1;2
"ren hang";0;0;5;24.6
bardeau;0;0;2;44;0;0;2;44
jorion;0;0;1;49
"ernest pignon";0;0;1;8;0;0;1;8
"cédric arnold";0;0;1;2;0;0;1;2
"christophe dugied";0;0;2;8;0;0;2;8
"jean michel basquiat art for sale";0;0;1;31
"ernest pignon ernest";0;0;2;8.5
"charles fazzino";0;0;1;99;0;0;1;99
"jaques villegle";0;0;1;10;0;0;1;10
"nielly francoise";0;0;1;35;0;0;1;35
"autobuses paris";0;0;2;70.5
"sale nue";0;0;2;5;0;0;2;5
"btoy mix shows";0;0;1;26;0;0;1;26
salamech;0;0;1;10;0;0;1;10
"peikwen cheng";0;0;2;10
"liquid i.v.";0;0;1;61
ebubedike;0;0;1;9
"beau rivage nice";0;0;1;156
tuxon;0;0;1;37;0;0;1;37
"bettina von arnim";0;0;2;36;0;0;2;36
"black mass artwork";0;0;1;9;0;0;1;9
"kerry eggleton";0;0;5;3;0;0;5;3
"bruno fontana";0;0;1;10;0;0;1;10
"andré cottavoz";0;0;1;5;0;0;1;5
"personalised sundials for sale";0;0;1;50;0;0;1;50
"keith haring crack down";0;0;12;3.3333333333333;0;0;6;3.3333333333333
"stéphane gautier";0;0;7;5;0;0;6;5.1666666666667;0;0;1;4
"phillipe vasseur";0;0;1;15
"ethiopian contemporary art";0;0;1;37;0;0;1;37
"eric de ville";0;0;3;5;0;0;3;5
"carme albaiges";0;0;1;1;0;0;1;1
"adeline spengler";0;0;2;3;0;0;2;3
moz;0;0;2;120.5;0;0;1;120;0;0;1;121
"fabien verschaere";0;0;5;4;0;0;4;4
"kiddy citny";0;0;11;6.9090909090909;0;0;9;8.2222222222222;0;0;2;1
"banksy born";0;0;1;42;0;0;1;42
"paul maze paintings for sale";0;0;1;28
"tanc artist";0;0;1;3;0;0;1;3
"gros artist";0;0;1;10;0;0;1;10
"amandine crozat";0;0;2;2;0;0;2;2
"judith guion";0;0;1;3;0;0;1;3
"andrea btoy";0;0;1;9;0;0;1;9
"tom wesselmann pop art";0;0;2;24;0;0;2;24
"egon schiele";0;0;1;159;0;0;1;159
"annette messager sculpture";0;0;1;6;0;0;1;6
"conrad marca-relli artist";0;0;1;34;0;0;1;34
"nazi helmet for sale";0;0;1;250;0;0;1;250
"galerie alain blondel";0;0;1;30;0;0;1;30
"grigori dor";0;0;3;9.3333333333333;0;0;2;9;0;0;1;10
"gautier deblonde";0;0;1;2;0;0;1;2
r-o-ch3;0;0;1;4
fotofever;0;0;1;33;0;0;1;33
zwy;0;0;1;43
"eric peyret";0;0;1;5;0;0;1;5
"erik salin";0;0;2;7;0;0;2;7
"misskiss_ nude";0;0;1;30;0;0;1;30
"yrjö edelmann";0;0;1;27;0;0;1;27
"galerie rx";0;0;3;6.6666666666667
"al katia";0;0;1;7;0;0;1;7
"alex folla";0;0;2;12;0;0;1;10
design+and+decoration;0;0;2;238;0;0;2;238
"mahé boissel";0;0;1;2;0;0;1;2
"david guiraud";0;0;1;18;0;0;1;18
"kristina kostadinova";0;0;3;5;0;0;3;5
"claude venard";0;0;1;22
"yann houri";0;0;8;6.25;0;0;4;6.75
"richard dirosa";0;0;1;5;0;0;1;5
"young pink lips";0;0;2;6;0;0;2;6
"romina de";0;0;1;5
+robert+combas;0;0;4;12.25;0;0;4;12.25
"national history museum denver";0;0;1;432;0;0;1;432
sun7;0;0;1;45;0;0;1;45
thyateira;0;0;1;41
kijno;0;0;1;8
margue;0;0;2;44;0;0;2;44
"francine van hove";0;0;1;21;0;0;1;21
"arthur tress biography";0;0;3;9.6666666666667;0;0;3;9.6666666666667
"yayoi kusama soft sculpture";0;0;1;9;0;0;1;9
"unwell bunny";0;0;1;17;0;0;1;17
"sandra krasker";0;0;1;11
"les dunes";0;0;1;160;0;0;1;160
"eva jospin biography";0;0;1;2
"jonathan huxley";0;0;1;6
"brooklyn prominade";0;0;1;220
"anna bocek for sale";0;0;3;4.3333333333333;0;0;1;7;0;0;2;3
"polin italie";0;0;1;9;0;0;1;9
saifon;0;0;1;25;0;0;1;25
"didier avril";0;0;3;1;0;0;1;1
"andoche praudel";0;0;2;5;0;0;2;5
"louis blanc";0;0;2;91.5;0;0;2;91.5
pentaptyque;0;0;1;6;0;0;1;6
"miguel ortiz berrocal";0;0;1;50;0;0;1;50
"aurel rubbish";0;0;1;9;0;0;1;9
"michel le belhomme";0;0;1;10;0;0;1;10
"mariah carey gold";0;0;1;1;0;0;1;1
"nue gallery";0;0;2;3.5;0;0;1;2;0;0;1;5
"lori field";0;0;1;29;0;0;1;29
"history museum stockholm";0;0;1;326;0;0;1;326
"paula martine";0;0;1;10;0;0;1;10
"le cerf";0;0;1;165
"invest in art";0;0;1;92
"bettina von armin";0;0;1;26;0;0;1;26
"eric kellerman";0;0;1;39;0;0;1;39
"jeune malgache";0;0;1;22;0;0;1;22
"elsa guillaume";0;0;3;2;0;0;3;2
hideka;0;0;1;6;0;0;1;6
"rakel wajnberg";0;0;1;5;0;0;1;5
"jean michel basquiat paintings for sale";0;0;1;26;0;0;1;26
derrier;0;0;1;59;0;0;1;59
"galerie olivier waltman";0;0;2;5
"jose manuel fors";0;0;2;6.5;0;0;2;6.5
sijae;0;0;1;6;0;0;1;6
"olivier devignaud";0;0;1;7
mitz.at;0;0;2;23.5
"kongo street art";0;0;2;10;0;0;2;10
"caroline poulet";0;0;1;3;0;0;1;3
"rudolf hausner paintings";0;0;2;6.5;0;0;2;6.5
+jock+sturges;0;0;1;106;0;0;1;106
"massimo carasi";0;0;1;10;0;0;1;10
"julia whitehead";0;0;2;10.5;0;0;2;10.5
"gerard escougnou";0;0;2;2;0;0;2;2
"colgate with gardol";0;0;1;35;0;0;1;35
"anna bocek artist";0;0;1;8;0;0;1;8
rnst;0;0;2;34;0;0;2;34
"nous paris";0;0;1;20;0;0;1;20
"jasper johns moratorium";0;0;1;26;0;0;1;26
"kate barry artist";0;0;1;7;0;0;1;7
"galerie brugier rigail";0;0;1;10;0;0;1;10
"elisabeth taylor";0;0;1;121;0;0;1;121
"pulp fiction puzzle";0;0;1;1;0;0;1;1
calmets;0;0;1;5;0;0;1;5
"ramon grimalt";0;0;1;7;0;0;1;7
"isabel espinoza";0;0;3;9;0;0;1;9
"olivia de bona";0;0;1;8;0;0;1;8
"tau artwork";0;0;1;24;0;0;1;24
"bernard pras artist";0;0;4;9;0;0;4;9
"music maker";0;0;1;213
renoma;0;0;1;78;0;0;1;78
"david lachapelle prints for sale";0;0;1;35;0;0;1;35
"bernard rancillac";0;0;2;9;0;0;2;9
"tite street for sale";0;0;2;47
"luca di filippo";0;0;7;9.4285714285714;0;0;3;10;0;0;1;11
putov;0;0;1;4;0;0;1;4
bellissima;0;0;1;413
"mr jago prints for sale";0;0;1;37;0;0;1;37
"thierry pelletier";0;0;2;9.5;0;0;2;9.5
"asgar gabriel";0;0;2;6;0;0;2;6
"avignon history";0;0;1;441
"hom nguyen";0;0;3;9.3333333333333;0;0;2;9;0;0;1;10
"duane michals bio";0;0;1;39;0;0;1;39
"dawit abebe";0;0;1;17;0;0;1;17
"cécile andrieu";0;0;2;9;0;0;2;9
"dana gordon artist";0;0;1;8
"paris artist";0;0;2;49;0;0;2;49
"claude azoulay";0;0;1;20
zalez;0;0;2;5.5
"kool koor";0;0;2;3;0;0;2;3
"jacques lacroix";0;0;2;8.5;0;0;2;8.5
"john short artist";0;0;2;7.5;0;0;1;5;0;0;1;10
"nature of painting";0;0;1;422
"jean pierre attal";0;0;1;2;0;0;1;2
"paula parrish";0;0;1;17;0;0;1;17
"romero britto";0;0;1;49;0;0;1;49
"nils udo art in nature";0;0;2;10.5;0;0;1;10;0;0;1;11
"naturalism child";0;0;1;508;0;0;1;508
laviw;0;0;1;1;0;0;1;1
tryptique;0;0;2;47
"eduardo chillida artwork";0;0;1;23
"17th century paintings for sale";0;0;1;39;0;0;1;39
"hd gallery";0;0;2;27;0;0;2;27
"hd gallery bruxelles";0;0;1;5
"terra trio";0;0;1;25;0;0;1;25
"johanne 8 facebook";0;0;3;7;0;0;2;7;0;0;1;7
"rebecca bird artist";0;0;1;8;0;0;1;8
"roxane stroobant";0;0;1;4;0;0;1;4
"dita von tees";0;0;1;230;0;0;1;230
"li lihong";0;0;6;2;0;0;6;2
pechane;0;0;1;8;0;0;1;8
"headshot artwork";0;0;2;9.5;0;0;1;10
"lou camino";0;0;1;2;0;0;1;2
"gabriella bodin";0;0;2;8;0;0;2;8
"envie d'art";0;0;3;8;0;0;1;6;0;0;1;10;0;0;1;8
"victor vasarely";0;0;1;82;0;0;1;82
"henri matisse";0;0;3;191.66666666667;0;0;2;193.5;0;0;1;188
+william+sweetlove+prijzen;0;0;1;45;0;0;1;45
daurios;0;0;1;8;0;0;1;8
"bank transfer germany";0;0;1;392;0;0;1;392
"porte quoi";0;0;1;18
"gérard nicollet";0;0;1;5
"david hinchliffe artist";0;0;1;9;0;0;1;9
"marie laure vareilles";0;0;1;10;0;0;1;10
"charlotte aleman";0;0;1;4;0;0;1;4
"emeric chantier";0;0;2;1;0;0;2;1
"kuroda aki";0;0;1;3;0;0;1;3
"riccardo simonutti";0;0;1;10;0;0;1;10
isodora;0;0;1;84;0;0;1;84
"stefan bircheneder";0;0;1;24;0;0;1;24
"singapore to sao paulo";0;0;1;88;0;0;1;88
"lisa norris gallery";0;0;1;7;0;0;1;7
"patrick fleurion";0;0;1;5;0;0;1;5
"ernest breleur";0;0;1;5;0;0;1;5
"jerry zeniuk deutschland";0;0;1;20
"best florist dorval";0;0;1;81
"shahabuddin ahmed artist";0;0;1;29;0;0;1;29
"coral artwork";0;0;1;234;0;0;1;234
"anna bocek art";0;0;1;8;0;0;1;8
"paintings for sale toronto";0;0;1;197;0;0;1;197
"ki to la gloire";0;0;1;7;0;0;1;7
"adam et eve sculpture";0;0;1;10;0;0;1;10
"inception gallery";0;0;1;4;0;0;1;4
"erró artist";0;0;1;21
"berlin gardens poly furniture buffalo ny";0;0;1;94;0;0;1;94
"denis christophel";0;0;1;2;0;0;1;2
"priscilla moore";0;0;1;28;0;0;1;28
"figurative paintings for sale";0;0;1;17;0;0;1;17
"jpg4 nude";0;0;2;24.5;0;0;1;25
"1000 euros";0;0;1;26;0;0;1;26
"guy denning work";0;0;1;8
"the dude company";0;0;5;2
"cecile desserle";0;0;1;7;0;0;1;7
"brat 1";0;0;1;431;0;0;1;431
"orlinski crocodile";0;0;1;1;0;0;1;1
"banksy note";0;0;1;20;0;0;1;20
liquidiv;0;0;1;46;0;0;1;46
"philippe berry";0;0;9;4.4444444444444;0;0;5;4.4;0;0;3;4.6666666666667;0;0;1;4
"fabio coruzzi";0;0;1;10
"peet doherty";0;0;1;130;0;0;1;130
"glamour artwork";0;0;1;24;0;0;1;24
"guy denning bio";0;0;2;5;0;0;2;5
"os gemeos print";0;0;1;40
"philippe vasseur";0;0;2;9;0;0;2;9
"jacqueline roberts";0;0;2;20
"chris macauley";0;0;1;9;0;0;1;9
"alecos fassianos";0;0;1;37;0;0;1;37
awena;0;0;1;46;0;0;1;46
uriginal;0;0;2;7;0;0;1;6;0;0;1;8
"caroline yates";0;0;1;7
"john kenny photographer";0;0;2;28;0;0;2;28
"nava france";0;0;1;9;0;0;1;9
"foot fetish";0;0;1;163;0;0;1;163
"claude champy";0;0;1;13;0;0;1;13
"women contemporary artist";0;0;1;311;0;0;1;311
"making love";0;0;1;230;0;0;1;230
"boreas john william waterhouse";0;0;2;43;0;0;2;43
"serge roux";0;0;1;24;0;0;1;24
"nue art";0;0;2;9.5;0;0;1;9;0;0;1;10
"ren hang gallery";0;0;1;7;0;0;1;7
"fadi daoud";0;0;4;9.5;0;0;1;10;0;0;1;10;0;0;2;9
"hiro ando";0;0;4;6.25;0;0;2;5.5;0;0;1;7
"galerie bettina von arnim";0;0;3;5;0;0;1;5;0;0;2;5
"kim sun hyuk";0;0;3;9;0;0;1;7;0;0;2;10
"aharon gluska";0;0;1;2
"thomas tramp";0;0;1;6;0;0;1;6
"arkiv vilmansa";0;0;1;10
"annick bouvattier";0;0;1;10
"yoel benharrouche";0;0;1;8
"louvre st honore hotel";0;0;1;191
dhio;0;0;1;128;0;0;1;128
houtin;0;0;2;3.5;0;0;2;3.5
"paysage fantastique";0;0;1;21;0;0;1;21
"chateau lafite bordeaux";0;0;1;203;0;0;1;203
cortade;0;0;2;19
bambel;0;0;1;19
"eugenio carmi artist";0;0;1;5
"alexandre durand";0;0;1;8
"sam phillips match 3";0;0;2;3;0;0;2;3
"alberto reguera";0;0;1;86;0;0;1;86
"basquiat for sale";0;0;1;38
"katrin bremermann";0;0;3;3;0;0;2;2
oneeightone;0;0;1;6;0;0;1;6
"guayasamin paintings";0;0;1;25;0;0;1;25
"sandy skoglund";0;0;1;68
"paul stolper gallery";0;0;1;4;0;0;1;4
"nick walker street artist";0;0;1;44;0;0;1;44
"peter day artist";0;0;1;17;0;0;1;17
"jonone art";0;0;2;7.5
"toxic street art";0;0;2;9;0;0;2;9
"gerard clisson";0;0;1;5
"nazi luger";0;0;3;36.666666666667;0;0;1;56
"berger paints galleries";0;0;1;46
"bettina arnim";0;0;1;37;0;0;1;37
"sculpture for sale";0;0;1;339
"murakami flower cushion";0;0;1;8;0;0;1;8
"basquiat paintings for sale";0;0;1;30;0;0;1;30
nookia;0;0;1;7;0;0;1;7
"nicolas dubreuille";0;0;1;2;0;0;1;2
"li, wei";0;0;2;7;0;0;2;7
"jared leto artwork";0;0;1;32;0;0;1;32
"ahmad zakii anwar artwork";0;0;1;10;0;0;1;10
"adrian fernandez artist";0;0;1;8;0;0;1;8
"banksy dismaland";0;0;1;100;0;0;1;100
rancillac;0;0;1;19
"jeanne susplugas";0;0;1;4;0;0;1;4
"zhuo qi";0;0;1;1;0;0;1;1
"maria kupfer";0;0;1;11;0;0;1;11
kokian;0;0;4;9;0;0;2;8
"izabeau jousse";0;0;1;5;0;0;1;5
"paul carey kent";0;0;2;6.5
"arno artist";0;0;1;8
"minimalism less is more";0;0;1;516
d-tone;0;0;1;35;0;0;1;35
"landscape as metaphor";0;0;1;449;0;0;1;449
"alain clement";0;0;6;7.6666666666667
"armelle boussidan";0;0;1;4;0;0;1;4
"eric liot";0;0;3;10;0;0;1;10;0;0;2;10
"philippe assalit";0;0;1;1;0;0;1;1
frederico;0;0;1;274;0;0;1;274
"beaux gosses";0;0;1;129;0;0;1;129
"georges braque";0;0;1;168;0;0;1;168
"sophie chir";0;0;1;4
"beatriz guzman catena";0;0;1;1
dagada;0;0;1;6
"victor kastelic";0;0;1;8
"etienne cail";0;0;5;1.2;0;0;3;1;0;0;2;1
izabeau;0;0;2;1
"iñigo arregi";0;0;1;9
"heiner meyer artist";0;0;1;8
silaphan;0;0;3;7.3333333333333;0;0;1;8
"art galleries cornwall";0;0;1;318
"imi knoebel";0;0;1;346
"mitchell landscaping greensboro nc";0;0;2;32
"philippe pasqua preise";0;0;1;17
"stephane ducatteau";0;0;1;2
pierre-alex;0;0;1;4
"folla folla";0;0;1;201
"jean louis emond";0;0;1;10
koolkoor;0;0;1;8
"florent touchot";0;0;1;10
"susan shup";0;0;1;7
"gilles candelier";0;0;2;10
"shahabuddin paintings";0;0;1;35
"daniel göttin";0;0;1;16
"nude lolita art";0;0;1;59
sfeir;0;0;1;1
"jimmy lawlor prints for sale";0;0;1;9
"etienne rey";0;0;2;8.5
"photo edition berlin";0;0;1;41
hornsleth;0;0;2;117
"la butte";0;0;1;199
"alberto rosselli";0;0;1;50
"pdp gallery";0;0;1;4
"timur novikov";0;0;13;6.5384615384615;0;0;3;4
+bram+bogart;0;0;2;81
"david ferreira artist";0;0;1;1
"guy ferrer";0;0;1;14
"capleton house in jamaica";0;0;1;37
"paul carey-kent";0;0;1;7
catabase;0;0;1;28
georgik;0;0;1;6
"sergio moscona";0;0;3;6.6666666666667
"charlotte briant";0;0;1;5
"john matos";0;0;2;5.5;0;0;3;7
vray;0;0;1;79
artetmiss;0;0;1;7
"lisa roberts artist";0;0;1;9
villegle;0;0;2;8
"ran hwang";0;0;2;37.5
"wadi finan art gallery";0;0;1;5
lepelletier;0;0;1;85
anorexic;0;0;3;172.33333333333;0;0;1;194
"forum dube";0;0;1;233
"ılgın seymen";0;0;2;12.5
artjingle;0;0;2;9
dallanegra;0;0;2;3
sezam;0;0;1;49
"kilmany jo liversage";0;0;1;8
"li wei";0;0;58;11.293103448276;0;0;11;2.0909090909091;0;0;4;1.75
hannaka;0;0;1;19
"jef aerosol";0;0;3;11
durix;0;0;2;1;0;0;2;1
"miss van";0;0;1;69
"valette artist";0;0;1;30
"exhibitions dans la rue";0;0;1;3
"luz severino";0;0;2;9
liwei;0;0;10;10.4;0;0;1;1
"diane arbus artwork";0;0;3;25;0;0;3;27.333333333333;0;0;2;25
"capleton house";0;0;1;33
"galleri gkm";0;0;2;6.5
lepenseur;0;0;1;82
dtone;0;0;8;1.875;0;0;1;9;0;0;1;1
"antoine geiger";0;0;1;10
"navabi sale";0;0;1;9
kowit;0;0;1;147
"daniella zalcman";0;0;1;43
"christian bilger";0;0;1;1
"no neutral ground film";0;0;1;25
"genevieve claisse";0;0;1;7
"jacques de la villeglé";0;0;1;10
intra01;0;0;6;8.3333333333333
"etienne gros";0;0;6;5
"hotel ristorante le camene";0;0;1;95
"concorde paris";0;0;1;190
"richard hudson sculptor";0;0;1;11
"cricket fine art";0;0;2;7
"speedy graphito";0;0;2;35.5
orlinski;0;0;1;8
"galerie boccara";0;0;2;4
"patrick loste";0;0;1;8
"cecile plaisance";0;0;1;8;0;0;2;7
"vue de esprit";0;0;1;36
"blek le rat";0;0;1;45
courrèges;0;0;1;108
"jean michel basquiat candles";0;0;2;359
"dominique clerc";0;0;2;8
"street photoraphy";0;0;1;334
цедки;0;0;1;6
"jacques villegle biography";0;0;1;6
"grafica miro";0;0;1;5
"galerie garnier";0;0;1;10
"alfred manessier";0;0;1;47
"""scratch cards"" -chinese -china -0086 -86 -used -yellow -b2b -.gov -ebay -.edu -job -soft -alibaba -globalsource -ec21 -ec51 -blog -.org -business -ecvv -amazon -nextag -aol -youtube -dhgate -forum -hotfrog -jhmbuttco -thomex -bikudo -acesuppliers -cylex -bizrate -zhongguo";0;0;1;210
"bola sete";0;0;1;45
"freddie mercury paintings";0;0;1;21
"fille et chien";0;0;1;10
"max charvolen";0;0;1;3
"bernard quentin";0;0;1;10
"30 x 60 mirror";0;0;1;177
"le petit poulet";0;0;1;79
"markus & koala";0;0;1;3;0;0;2;2
btoy;0;0;2;29
"geert kollau";0;0;1;12
"keith tyson artist";0;0;2;28
"blek le rat art";0;0;1;24
"olivier widmaier";0;0;1;8
"scottish terrier";0;0;1;206
"raymond voinquel";0;0;1;6
"touche d espoir";0;0;1;40
"sophie sigorel";0;0;2;5
"jacques trovic";0;0;1;6
"vikram kushwah";0;0;1;3
"dibond signage in lagos";0;0;1;37
"no smoking artwork";0;0;1;37
"les cabines du phare";0;0;1;239
"""peter klasen""";0;0;1;9
"didier marien";0;0;1;8
"bambi artist";0;0;16;5.625
"martha cooper books";0;0;1;39
"murakami sculpture";0;0;1;9
"cara delevigne stencil";0;0;1;1
"άρης μεσσήνης";0;0;1;18
"simon gaon";0;0;1;11
kilmany;0;0;1;35
"christian marclay crossfire";0;0;1;45
"le petit parisien willy ronis";0;0;2;1
"lyle carbajal";0;0;4;7.25
"aki kuroda";0;0;4;7;0;0;1;7
"aslan artwork";0;0;1;42
"bruno catalano for sale";0;0;2;6.5
"herve lewis";0;0;1;9
"23 carats";0;0;1;28
"beirut art";0;0;1;56
"fine art paper";0;0;1;370
"galerie perahia";0;0;1;4
"gabriele viertel";0;0;1;23
abcgallery;0;0;1;5
"brauer artist";0;0;1;29
"ling art";0;0;1;5
"mountain artwork";0;0;1;338
"john bulmer";0;0;6;11
"monumental sculpture";0;0;1;40
"elvis presley artwork";0;0;1;49
talard;0;0;2;9
borys;0;0;1;183
"abstract art savannah ga";0;0;2;308
"aism mauritius";0;0;1;8
"montreux jazz festival 1986";0;0;4;1
"speedy graphito for sale";0;0;3;2.3333333333333
begarat;0;0;1;2;0;0;2;2
"gabriela tolomei";0;0;2;3.5
renhang;0;0;1;35
"babajide olatunji";0;0;1;6
"genevieve sawtelle";0;0;2;7.5
"jim kazanjian";0;0;1;32
"geert lemmers";0;0;1;3;0;0;1;3
"gia car";0;0;1;42
+mel+ramos;0;0;1;143
ixblue;0;0;2;91
"artsper gallery";0;0;2;2
bargholz;0;0;2;37
"saudek praha";0;0;1;38
triglia;0;0;1;60
"la maja desnuda painting";0;0;1;28
"marie marion";0;0;1;3
bargues;0;0;1;31
"banksy silver flag";0;0;1;1
"planete serie";0;0;5;5
"9th art";0;0;1;39
"van hove artist";0;0;1;24;0;0;1;9
"ody saban";0;0;1;5
"jean michel basquiat painting for sale";0;0;1;37
"abc gallery";0;0;3;5;0;0;1;9
"le déjeuner sur l'herbe";0;0;1;11
"sofia loren";0;0;1;233
"le diamantaire";0;0;1;18
"john crash matos";0;0;1;8;0;0;1;8
"alberto reguera artist";0;0;3;6.3333333333333
"jerome zonder";0;0;1;9
planeteserie;0;0;1;3
"alma haser";0;0;2;25.5
"spectacled owl";0;0;1;159
"jerome lagarrigue art";0;0;1;8;0;0;1;8
"brokeback mountain 2";0;0;4;46.75
"balloons online delivery";0;0;1;42
azema;0;0;1;33
"david gerstein artist";0;0;1;17
"daniela huerta";0;0;1;10
"vidal saint phalle";0;0;1;4
"cécile decorniquet";0;0;1;7
mercky;0;0;2;13
"kowit wattanarach";0;0;1;10
"victoria horkan";0;0;1;21
"duster ua graffiti";0;0;1;11
"hotel bobo";0;0;1;75
"beluga whale";0;0;1;334
"molly sims";0;0;2;217.5
"eligriv tempfoli";0;0;1;2
"françois mendras";0;0;1;5
"x-art online";0;0;1;172
"esso oil can";0;0;2;18
plossu;0;0;1;25
"colin guillemet";0;0;3;5
"sandra beccarelli";0;0;1;8
"viet ha tran";0;0;4;7
echivard;0;0;1;19
mesnager;0;0;4;7;0;0;1;5
"asian paints shade card";0;0;1;10
"manga loader";0;0;1;45
"philippe pasqua biography";0;0;1;9
tairou;0;0;1;10
"golden beach for sale";0;0;1;162
"guy denning artwork";0;0;3;8.6666666666667;0;0;2;7
"anna bocek";0;0;14;9.1428571428571;0;0;1;9
"crash matos";0;0;1;9
"shepard fairey peace dove";0;0;1;1
"wally wood disney";0;0;1;27
"wang yan cheng";0;0;3;10;0;0;1;8
"pierre de fenoÿl";0;0;1;16
"destruction painting";0;0;1;441
"thurle wright";0;0;1;8
kuuji;0;0;2;7
"mwenze kibwanga";0;0;1;4
"nieves mingueza";0;0;1;7
"louis stettner";0;0;1;33
"marie bagot";0;0;1;6
tjok;0;0;1;43
"hotel ristorante camene";0;0;1;39
"meyer works";0;0;1;185
"laurent martinez";0;0;2;8
"lorioz art";0;0;6;9.1666666666667
"dominique regnier sculpteur";0;0;1;9
"alexandre joly";0;0;1;18
"reiner riedler";0;0;1;40
"guillaine querrien";0;0;1;5
"michele destarac";0;0;1;4
"davood koochaki";0;0;2;6.5;0;0;1;6
"this life loader";0;0;10;8.9
"trending artists";0;0;1;33
"nazi sculptures";0;0;1;145
"thomas muller black and white";0;0;1;8
"benoit trimborn";0;0;1;7
aboudia;0;0;1;33
"artist yvonne coomber";0;0;1;18
"olivier brouwers";0;0;1;10
"lamborghini fire extinguisher";0;0;2;28.5
"""li wei""";0;0;1;11
"monika nowak";0;0;1;4
"duster graffiti";0;0;1;14
"warhol mao";0;0;1;68
"john hutton artist";0;0;1;15
"june lee artist";0;0;1;9
evrard;0;0;1;231
"philippe pasqua crane";0;0;1;7
"david lachapelle photographe";0;0;1;9
fanny;0;0;1;323;0;0;1;304
"bruno catalano biography";0;0;1;6;0;0;1;6
"takashi murakami biographie";0;0;1;22
"paul bogaers";0;0;5;38.6
"emmanuel flipo";0;0;1;3;0;0;1;5
"grégoire léon guillemin";0;0;1;3
"ne pas une pipe";0;0;1;108
"david harber water features";0;0;1;39
"corine pagny";0;0;1;3;0;0;2;5
"cedric arnold";0;0;1;19
"gordon hopkins artist";0;0;1;4
sumarria;0;0;1;8
"jada pinkett smith artwork";0;0;4;5.5;0;0;2;6
"rob and nick carter for sale";0;0;1;17
"galerie sibony";0;0;1;12
"gérard rancinan";0;0;2;9.5
"marc cerrone";0;0;1;20
"marc ferrero";0;0;1;5;0;0;1;10
"mel ramos vintage";0;0;1;86
"jorg doring";0;0;1;17
"rero art";0;0;2;28
"black and red swimsuit";0;0;1;207
"rafael navarro";0;0;9;3.3333333333333;0;0;2;4
"marek piasecki";0;0;2;22
"nicolas hugo";0;0;1;5;0;0;1;9
"naked in the rain";0;0;1;102
himba;0;0;2;212
calirezo;0;0;1;13
"claude abadie";0;0;1;347
cumbone;0;0;1;6
"dawn's awakening";0;0;1;8
"santander bewertungen in waldkraiburg";0;0;1;37;0;0;1;38
"gaspard mitz";0;0;5;5;0;0;2;3
"edmond li";0;0;2;13.5
"pierre terrasson";0;0;1;17
"gordon hopkins";0;0;8;3.875;0;0;2;4
"brno del zou wikipedia";0;0;1;5
"alain schank";0;0;1;2
"raymond hains artist";0;0;1;5;0;0;3;7.6666666666667
"cesar expansion";0;0;2;9
"tim flach biography";0;0;2;11
"shepard fairey lotus";0;0;1;1;0;0;1;1
"heroine for sale";0;0;1;66
"le tri postal lille";0;0;1;330
villeglé;0;0;2;6.5
"embassy hotel tel aviv tel aviv";0;0;1;168
"vincent pasquier";0;0;1;18
"mischa keijser";0;0;3;3;0;0;1;2
"venezuelan artists";0;0;1;19
"paris photo li wei";0;0;1;23
"alva bernardine";0;0;1;3
"avenue g";0;0;1;114
"puig france";0;0;1;24
"mc2 gallery";0;0;1;7
"sandro giordano";0;0;1;10
"robert bradford artist";0;0;1;18
"zhang lin";0;0;1;50
"tom wesselmann artist";0;0;1;73
"patricia kinard";0;0;1;11
"finbarr dac";0;0;1;9
"patrick moya artist";0;0;1;7
"bullfighting arenas";0;0;1;65
"jerry zeniuk";0;0;1;67
"sági gyula";0;0;1;10
"jacques villegle";0;0;5;7.6;0;0;3;8.6666666666667
"""momentary articulation""";0;0;1;23
"brugier rigail";0;0;1;13
"robert combas biography";0;0;3;16.666666666667
"jean milo";0;0;1;6
godon;0;0;10;2.2;0;0;2;4
"delahaye for sale";0;0;1;46
"taki 183 biography";0;0;1;5
"marie-anne thieffry";0;0;2;3.5
"self portrait photographer york";0;0;1;118
"miss tic";0;0;1;6;0;0;2;8
"martine models";0;0;1;322
"thomas agrinier";0;0;1;2
"lou ros artist";0;0;1;9
"kumi sugai";0;0;1;7
"biography of thor";0;0;1;217
"blek le rat gallery";0;0;1;19
"крэш джон матос";0;0;1;8
"keith haring montreux";0;0;2;1;0;0;3;2
sourty;0;0;1;10;0;0;2;6.5
"michaël cailloux";0;0;1;17
"becuwe contact";0;0;1;22
"zhao bandi";0;0;2;7
"aaron keith";0;0;1;301
"john timberlake";0;0;1;43
"bruce clarke artist";0;0;2;9
aizée;0;0;1;7
"pakpoom silaphan";0;0;3;10.333333333333
"artbar71 berlin";0;0;1;64
"eleanor wood artist";0;0;1;12
schwurhand;0;0;1;20
"li wei art";0;0;1;18
"gabriela bodin";0;0;5;5.4
"john steel artist";0;0;1;9
"pippa young";0;0;4;1.25;0;0;3;1.6666666666667
"lihong li";0;0;1;37
"famous contemporary artists";0;0;2;41
"fantasy art for sale";0;0;1;28;0;0;1;21
"jacques beneich";0;0;3;5
"guy denning art";0;0;1;8
"duster graffiti artist";0;0;2;9
"badri lomsianidze";0;0;1;4
"ahmed moustafa";0;0;2;7
"kolaj art";0;0;2;10
marcoville;0;0;1;7
"evelyn robertson";0;0;1;30
"el grito 2 oswaldo guayasamin";0;0;2;11
"florence d elle";0;0;1;10
"murakami flower";0;0;1;10
"yoann merienne";0;0;1;2
eldeoblo;0;0;1;28
"alexandre devals";0;0;1;4
shahabuddin;0;0;1;102
"cécile plaisance";0;0;1;9
"didier triglia";0;0;3;3;0;0;1;3
"julien durix";0;0;2;2
"georges cabot";0;0;2;2
"xavier oriach";0;0;1;6
stindel;0;0;1;9
"marit beer";0;0;1;10
"julien raynaud artiste";0;0;1;2
"césar expansion";0;0;1;8
"crystal wagner artist";0;0;1;40
"ronda haberer facebook";0;0;2;21
"jimmy ruf";0;0;1;2
"luke newton";0;0;1;42
"ange basso";0;0;1;5
"elisa haberer";0;0;1;8
"raynaud artist";0;0;1;10
"christof monnin";0;0;1;6
"daan oude elferink";0;0;1;8;0;0;7;9.1428571428571
"florence d'elle art";0;0;1;5
"bost bord";0;0;1;8
"onur painting";0;0;1;9
pagart;0;0;1;14
"april gornik biography";0;0;1;11
"lolita galleries";0;0;2;35.5
catrana;0;0;1;18
"bruno mallart";0;0;1;10
brodlim;0;0;1;5
"foot fetish paintings";0;0;1;9
"octave pixel";0;0;3;9;0;0;1;10
"funny gifts";0;0;1;117
"mick jagger";0;0;1;200
"helga lachapelle";0;0;1;8
"creation espaces verts beaurepaire";0;0;1;73
"johanne 8 instagram";0;0;5;1
"gz gallery";0;0;1;5
"david lynch artwork";0;0;1;78
"victor vasarely artwork";0;0;1;83
"james coignard";0;0;1;39
"francois morellet";0;0;1;15;0;0;14;11
"ren hang wiki";0;0;1;7
"francine van hove artist";0;0;1;15;0;0;1;7
"ren hang prints";0;0;1;5
"renaud bargues";0;0;1;3
lamri;0;0;1;12;0;0;1;11
"what is kolaj";0;0;1;8
"adonis flores";0;0;1;7
"niclas castello";0;0;1;19
leyto;0;0;2;2;0;0;1;2
"anne catherine becker echivard";0;0;1;9
lemuria;0;0;1;306
"bernard pras biography";0;0;6;2
"ac mel";0;0;1;5
"roca artist";0;0;1;11
"patrick villas sculpteur";0;0;1;9
univer;0;0;1;183
"peter lippmann";0;0;1;6
"creepy art";0;0;1;18
"christy lee rogers prints";0;0;1;6
"sui jianguo";0;0;1;68
"leah beggs";0;0;1;10
"ingerlise vikne";0;0;1;69
dubailand;0;0;1;190
"bernard pras art";0;0;1;9
"olivier lelong";0;0;1;6
"cesar compression";0;0;1;9
aliberg;0;0;1;10
"aurelie bauer";0;0;1;10
"jo lynch";0;0;1;20
"raphaël denis";0;0;3;4
"casey baugh";0;0;1;63
"frank de mulder";0;0;1;47
"david jaunay";0;0;1;7
rednudes;0;0;1;19
"thomas bossard";0;0;1;6
"mel ramos for sale";0;0;1;5
