"brno del zou";7;0.5;14;1.6428571428571;7;0.58333333333333;12;1.5833333333333;0;0;2;2
"mira maodus";3;0.14285714285714;21;3;2;0.1;20;3;1;1;1;3
"laurent dauptain";2;1;2;9;2;1;2;9
"elisabeth lecourt";2;0.66666666666667;3;7.3333333333333;1;0.5;2;8;1;1;1;6
"eva jospin";2;0.25;8;7.625;1;0.2;5;6.2;1;0.33333333333333;3;10
nojnoma;2;0.033333333333333;60;2.9333333333333;0;0;20;2.95;2;0.051282051282051;39;2.9230769230769;0;0;1;3
onemizer;2;0.28571428571429;7;7.2857142857143;1;1;1;6;0;0;3;7;1;0.33333333333333;3;8
"stephanie jeannet";2;0.5;4;5;2;0.5;4;5
"benjamin carbonne";2;0.28571428571429;7;1;1;0.2;5;1;1;0.5;2;1
"takashi murakami flower pillow";1;0.25;4;5.5;0;0;1;7;1;0.33333333333333;3;5
"bilal bahir";1;1;1;2;1;1;1;2
"gerard schlosser";1;0.2;5;7.8;1;0.25;4;7.75;0;0;1;8
"david harber torus";1;0.25;4;5.75;0;0;1;8;1;0.33333333333333;3;5
"davide cicolani";1;0.33333333333333;3;1;1;0.33333333333333;3;1
"sunday b morning black stamp";1;1;1;25;1;1;1;25
"bernard pras";1;0.33333333333333;3;11.666666666667;0;0;2;12;1;1;1;11
"mickael doucet";1;1;1;3;1;1;1;3
"guy denning artist";1;0.2;5;9;1;0.33333333333333;3;8.6666666666667;0;0;2;9.5
"elin melberg";1;0.2;5;8.8;1;0.25;4;6;0;0;1;20
"peter klasen artist";1;0.5;2;3.5;1;1;1;5;0;0;1;2
"didier triglia";1;0.2;5;3.4;1;1;1;3
"thomas muller artist";1;0.16666666666667;6;5;1;0.16666666666667;6;5
"benoit trimborn artist";1;1;1;5;1;1;1;5
"philippe berry";1;0.14285714285714;7;5.8571428571429;0;0;2;4;1;0.33333333333333;3;6.3333333333333;0;0;2;7
artsper;1;0.032258064516129;31;1;1;0.035714285714286;28;1;0;0;3;1
"nue gallery";1;0.33333333333333;3;3;0;0;1;3;1;0.5;2;3
"bernard pras biography";1;1;1;3;1;1;1;3
"david ferreira artist";1;0.33333333333333;3;2;1;0.5;2;2;0;0;1;2
"kool koor";1;0.5;2;5.5;1;1;1;3;0;0;1;8
"ren hang art";1;1;1;6;1;1;1;6
"berge panossian";1;1;1;4;1;1;1;4
"davide boriani";1;0.125;8;8.625;1;0.16666666666667;6;8.8333333333333;0;0;2;8
"cédric dequidt";1;0.33333333333333;3;4.6666666666667;0;0;2;5.5;1;1;1;3
"christophe charbonnel";1;0.5;2;5;1;0.5;2;5
"tiphaine popesco";1;1;1;3;1;1;1;3
"charles guyot";1;0.16666666666667;6;1;1;0.16666666666667;6;1
"virginie soubeiroux";1;1;1;2;1;1;1;2
"francois bard artist";1;0.5;2;7;1;0.5;2;7
"jock sturges photo gallery";1;1;1;43;1;1;1;43
"guy denning biography";1;0.33333333333333;3;5;0;0;2;5;1;1;1;5
"blek le rat artworks";1;1;1;14;1;1;1;14
"kilmany jo liversage";1;1;1;13;1;1;1;13
"laetitia giraud";1;1;1;4;1;1;1;4
uriginal;1;1;1;23;1;1;1;23
"hideka tonomura";1;0.2;5;10;1;0.25;4;9.75;0;0;1;11
"guy mansuy";1;1;1;12;1;1;1;12
"sun mi ahn";1;0.5;2;3;1;1;1;3
"antoine stevens bio";1;1;1;2;1;1;1;2
"anne guillon";1;1;1;1;1;1;1;1
"jean faucheur";1;0.2;5;3.4;1;0.2;5;3.4
"troy henriksen";1;1;1;2;1;1;1;2
"jerome lagarrigue";1;1;1;10;1;1;1;10
"john steel artist";1;0.25;4;7;1;0.33333333333333;3;7
"georges bru";1;0.5;2;3;1;0.5;2;3
"renata boero";1;1;1;8;1;1;1;8
"julien durix";1;0.090909090909091;11;1.5454545454545;1;0.11111111111111;9;1.6666666666667
"peter lippmann photography";1;0.33333333333333;3;6.6666666666667;1;0.33333333333333;3;6.6666666666667
"dan hays artist";1;1;1;13;1;1;1;13
"zhang wei artist";1;1;1;7;1;1;1;7
konichiwa;0;0;1;189
"la lagune";0;0;1;162;0;0;1;162
"ki art";0;0;1;138;0;0;1;138
"our partners david bowie and iman";0;0;2;293.5;0;0;2;293.5
"alliance ethio francaise addis ababa";0;0;1;19
mitrofanoff;0;0;1;76;0;0;1;76
"fresh to death";0;0;2;188.5;0;0;1;193;0;0;1;184
"yoel benharrouche";0;0;4;9.25;0;0;4;9.25
"mise au point artwork";0;0;1;382;0;0;1;382
"antoine correia";0;0;3;5;0;0;3;5
"mark mawson";0;0;1;68;0;0;1;68
"portrait of gerti schiele";0;0;1;8;0;0;1;8
"urban art for sale";0;0;1;164;0;0;1;164
"nick walker artist";0;0;1;42;0;0;1;42
"katja rosenberg";0;0;1;219;0;0;1;219
"jonone art";0;0;3;9.3333333333333;0;0;1;10
"c'est mieux que rien";0;0;2;10;0;0;2;10
"françois morellet";0;0;1;51
"et in terra";0;0;1;103;0;0;1;103
"claude mollard";0;0;1;3
"ted starkowski";0;0;2;6;0;0;2;6
"galerie vivendi";0;0;2;4
"romain tichit";0;0;1;10;0;0;1;10
"texas photographic society";0;0;1;437;0;0;1;437
"takashi murakami artwork";0;0;1;14;0;0;1;14
"mot cost";0;0;1;448;0;0;1;448
"lambermont bruxelles";0;0;1;177;0;0;1;177
"open tour mind";0;0;1;1;0;0;1;1
"silver crane photography";0;0;1;249
"elwin buchel";0;0;1;13
"philippe huart";0;0;5;12.2;0;0;5;12.2
"""encryption"" + ""contact"" ~justification";0;0;11;816.72727272727
"simon liddiment";0;0;1;6;0;0;1;6
"masha shubina";0;0;2;7
"eva maude tardif champoux";0;0;1;10
"yan pei-ming";0;0;1;56
"haine artwork";0;0;7;272.14285714286
teissere;0;0;1;144;0;0;1;144
"contemporary brno";0;0;1;59;0;0;1;59
"jean gabriel";0;0;1;173;0;0;1;173
"curious duke gallery";0;0;1;20;0;0;1;20
"emilio scanavino";0;0;1;71;0;0;1;71
"as i opened fire";0;0;1;35
"du zhenjun";0;0;2;20.5;0;0;2;20.5
"bloc artistic";0;0;3;283.33333333333;0;0;3;283.33333333333
ebami;0;0;3;11;0;0;2;9;0;0;1;15
"us la catte";0;0;1;35;0;0;1;35
"polliniser artistic";0;0;1;165
"henrik simonsen";0;0;1;12;0;0;1;12
"murakami pillow";0;0;1;44;0;0;1;44
"aki kuroda artist";0;0;1;3
"annette messager";0;0;1;97;0;0;1;97
"francoise nielly for sale";0;0;2;21.5;0;0;2;21.5
"phil macquet";0;0;2;24;0;0;2;24
"anaïs boudot";0;0;1;7
"koala for sale";0;0;1;249;0;0;1;249
"polly ngale";0;0;2;31.5;0;0;2;31.5
rotganzen;0;0;1;20
"julien calot";0;0;4;10;0;0;4;10
"esther de bont";0;0;3;11.666666666667;0;0;3;11.666666666667
"christopher schulz";0;0;1;66;0;0;1;66
"abie loy paintings";0;0;3;52.333333333333;0;0;2;53;0;0;1;51
"thomas jorion";0;0;3;3.3333333333333;0;0;3;3.3333333333333
"polly ngale aboriginal art";0;0;3;49;0;0;2;49;0;0;1;49
"tour bruxelles";0;0;1;2;0;0;1;2
chanoir;0;0;7;7.1428571428571;0;0;6;6.8333333333333;0;0;1;9
"yayoi kusama art for sale";0;0;1;25;0;0;1;25
"galerie 127 marrakech";0;0;1;11;0;0;1;11
"porte artwork";0;0;3;25.333333333333
"juanita cruz";0;0;1;46;0;0;1;46
"""etching,"" + ""contact"" ~justification";0;0;20;677.85;0;0;20;677.85
"occasion artistic";0;0;1;354;0;0;1;354
"jean michel basquiat paintings for sale";0;0;1;25;0;0;1;25
"alinka echeverria";0;0;1;32;0;0;1;32
"narcose serie";0;0;1;10;0;0;1;10
li-wei;0;0;1;3;0;0;1;3
"miss van prints for sale";0;0;1;24
"""dessin"" + ""contact"" ~justification";0;0;1;549;0;0;1;549
"john crash";0;0;1;8;0;0;1;8
kokian;0;0;1;10;0;0;1;10
"un hack artist";0;0;3;192.66666666667
"water etching";0;0;1;432
"sam phillips match 3";0;0;1;5;0;0;1;5
"jardin loeffler";0;0;1;9;0;0;1;9
"depression contours";0;0;1;449;0;0;1;449
"minah pics";0;0;1;124
"jm robert art";0;0;1;9;0;0;1;9
"atila biro";0;0;1;9;0;0;1;9
"sérénité artwork";0;0;1;13;0;0;1;13
"décrochage artist";0;0;1;477;0;0;1;477
"l'âge de pierre apprentice";0;0;1;520;0;0;1;520
"pharrell williams asian";0;0;1;18
"annina roescheisen";0;0;2;18;0;0;2;18
"mel ramos wonder woman";0;0;1;11;0;0;1;11
"kiddy citny";0;0;1;25
"paul treasure artist";0;0;2;9;0;0;2;9
"diffusion франция";0;0;1;49;0;0;1;49
"francois houtin";0;0;3;1.6666666666667;0;0;1;1;0;0;2;2
"peter klasen oeuvres";0;0;2;4
"yasemin senel";0;0;3;20.333333333333;0;0;1;21;0;0;2;20
"takashi murakami art";0;0;1;64;0;0;1;64
"soigneusement artist";0;0;1;10;0;0;1;10
"kunstsalon villa artista";0;0;1;3;0;0;1;3
"mihai bara";0;0;1;4;0;0;1;4
"skyline framing";0;0;1;417
"asgar/ gabriel";0;0;1;10
"alexis gorodine";0;0;1;2;0;0;1;2
"cruauté artwork";0;0;3;211.66666666667;0;0;3;211.66666666667
"""exhibit"" + ""contact"" ~justification";0;0;14;921.5;0;0;14;921.5
"galerie grand rue poitiers";0;0;1;7;0;0;1;7
"diversion artwork";0;0;2;172;0;0;2;172
"jacques mahé de la villeglé";0;0;4;6.5;0;0;2;7;0;0;2;6
zenoy;0;0;1;1
manthur;0;0;1;9
"la nuit artwork";0;0;1;399
"max czertok";0;0;3;8.6666666666667;0;0;2;9;0;0;1;8
guillaumette;0;0;1;41;0;0;1;41
"ekkehard altenburger";0;0;1;21;0;0;1;21
"monopole artwork";0;0;2;160;0;0;2;160
"salon apparently";0;0;2;412;0;0;2;412
"polar triangle";0;0;1;350
"lin felton";0;0;1;1;0;0;1;1
"michele graff";0;0;1;53;0;0;1;53
zevs;0;0;1;88;0;0;1;88
"tabish khan";0;0;1;27;0;0;1;27
"kim sun-hyuk";0;0;1;5;0;0;1;5
"carlos cruz-diez";0;0;1;64
"""etching"" + ""contact"" ~justification";0;0;7;584.42857142857
"duster ua";0;0;1;13;0;0;1;13
"à l'heure artwork";0;0;2;155.5
"guy dennig";0;0;1;9;0;0;1;9
"christophe ronel";0;0;1;10
"galerie fluegel-roncak";0;0;1;12
"nills udo";0;0;1;10;0;0;1;10
"rappel artwork";0;0;1;338
nkechi;0;0;1;37;0;0;1;37
"peter downsbrough";0;0;2;86.5;0;0;2;86.5
"fertilité artwork";0;0;4;276.75;0;0;4;276.75
"gérard alary";0;0;1;6
"jérôme romain";0;0;2;16
"christian bonnefoi";0;0;1;20
"philippe hiquily";0;0;1;17;0;0;1;17
ipso;0;0;1;235;0;0;1;235
"judith guion";0;0;1;3;0;0;1;3
"vanity of vanities";0;0;2;14;0;0;2;14
carabas;0;0;2;96;0;0;2;96
"natalia rak";0;0;4;28.75
"bernard buffet paintings for sale";0;0;1;44;0;0;1;44
nils-udo;0;0;6;9.3333333333333;0;0;5;9.2;0;0;1;10
"kathleen petyarre";0;0;1;37;0;0;1;37
"samuel maenhoudt";0;0;2;7;0;0;1;6;0;0;1;8
"fabien verschaere";0;0;1;2
"france arno";0;0;1;19;0;0;1;19
"tao zuo";0;0;2;5
"michael bevilacqua";0;0;1;59;0;0;1;59
"masinarie ""frame""";0;0;1;478;0;0;1;478
"isabelle cochereau";0;0;2;8.5
"spanish galleries";0;0;1;9
"anouk grinberg";0;0;1;34;0;0;1;34
fukumoto;0;0;1;181;0;0;1;181
"m city";0;0;1;85
"matthias bargholz";0;0;4;4;0;0;4;4
"miss van artist";0;0;1;11
"cool artwork for sale";0;0;2;33.5;0;0;2;33.5
"minjun yue";0;0;1;239
"is mariah carey black";0;0;1;36
"jeanne lorioz";0;0;4;10.25
"""exhibitions"" + ""contact"" ~justification";0;0;2;550;0;0;2;550
"hek graffiti";0;0;1;10;0;0;1;10
"saint cyr";0;0;1;189
"irina ionesco";0;0;1;92
"amandine levy";0;0;3;8.6666666666667;0;0;3;8.6666666666667
"our partners iman and david bowie";0;0;1;272
"crash artist";0;0;1;10;0;0;1;10
"francois bard paintings";0;0;2;5.5;0;0;2;5.5
"stephane jacob";0;0;1;7;0;0;1;7
"jonathan huxley";0;0;3;7.6666666666667;0;0;1;7
"""eden"" + ""contact"" ~justification";0;0;1;393
"alex guofeng cao";0;0;1;15;0;0;1;15
"takashi murakami prints for sale";0;0;1;20;0;0;1;20
"séjour à : artist";0;0;2;144.5
"kollektiv plus zwei";0;0;1;2;0;0;1;2
"benjamin spark";0;0;2;7.5;0;0;1;7;0;0;1;8
"cs 1.9";0;0;1;34;0;0;1;34
"fabio coruzzi";0;0;1;12
"marquis artwork";0;0;2;161;0;0;2;161
"l toma";0;0;2;1;0;0;2;1
"jacques renoir";0;0;2;8;0;0;1;8
"liliane lijn";0;0;1;44
"dope gallery";0;0;2;8;0;0;2;8
"jamie hewlett kid";0;0;1;5;0;0;1;5
warnu;0;0;1;4;0;0;1;4
"lyn balzer & tony perkins";0;0;1;48;0;0;1;48
daurios;0;0;1;11;0;0;1;11
"pauline dufour";0;0;3;8;0;0;1;8;0;0;2;8
"sexualité artwork";0;0;1;390;0;0;1;390
"kent art galleries";0;0;1;445;0;0;1;445
"juan camilo alvarez";0;0;1;10;0;0;1;10
"diffusion sale";0;0;1;26;0;0;1;26
"jean georges inca";0;0;1;1;0;0;1;1
"jean helion";0;0;1;47
"de filippi";0;0;1;81;0;0;1;81
"""galerie"" + ""contact"" ~justification";0;0;5;612.8;0;0;5;612.8
bertelli;0;0;1;193
"jacqueline roberts";0;0;1;26
"ren hang photography";0;0;3;10.666666666667;0;0;3;10.666666666667
"nils inne";0;0;1;6
"bernard szajner";0;0;1;45;0;0;1;45
"hiro ando";0;0;4;7.75;0;0;1;8
"jianguo beijing";0;0;1;192
"alex kizu";0;0;1;9;0;0;1;9
"photographe art";0;0;1;406;0;0;1;406
"serré artist";0;0;3;216
"inception gallery";0;0;4;4;0;0;4;4
"kristian von hornsleth";0;0;6;15.5;0;0;6;15.5
"georges braque";0;0;2;167.5;0;0;1;162;0;0;1;173
dandy2;0;0;1;7;0;0;1;7
"simon von barloewen";0;0;2;2;0;0;1;2
"jacques poli";0;0;2;1;0;0;2;1
sezam;0;0;2;86.5;0;0;2;86.5
hamey;0;0;2;5.5;0;0;2;5.5
"bicha gallery";0;0;1;94;0;0;1;94
"george platt lynes";0;0;1;59;0;0;1;59
"""elements"" + ""contact"" ~justification";0;0;2;948.5;0;0;2;948.5
awena;0;0;2;42
"illusoire apparently";0;0;1;194;0;0;1;194
"daniela bernhard";0;0;1;412
"bogena galerie";0;0;1;93;0;0;1;93
"charro skull";0;0;1;10;0;0;1;10
"sale manger";0;0;1;338;0;0;1;338
"ivan alifan";0;0;1;33
"art hotel budapest";0;0;1;195
"wilfred lang paintings for sale";0;0;3;7.6666666666667;0;0;1;7
yongliang;0;0;1;11
"romain cadilhon";0;0;1;6
"""fe"" + ""contact"" ~justification";0;0;1;771;0;0;1;771
"ivoire paint";0;0;1;109
"soigneusement array";0;0;2;112.5;0;0;2;112.5
"marie finaz";0;0;1;113
"jeff koons split rocker";0;0;1;60
"john hartman artist";0;0;1;10;0;0;1;10
"damir polic";0;0;2;2;0;0;2;2
"ruta jusionyte";0;0;1;9;0;0;1;9
"vanishing point photography";0;0;1;325;0;0;1;325
"miro svolik";0;0;1;20;0;0;1;20
"raymond hains artwork";0;0;1;3
"georges inca";0;0;1;2;0;0;1;2
merienne;0;0;1;5
"lucien gilson";0;0;2;6;0;0;2;6
fullmäne;0;0;1;4;0;0;1;4
"guy denning";0;0;38;8.7105263157895;0;0;4;7;0;0;2;9
"sharon drew artist";0;0;1;10;0;0;1;10
"""dublin"" + ""contact"" ~justification";0;0;2;544
"""fantastic"" + ""contact"" ~justification";0;0;5;544;0;0;5;544
"fabrizio corneli";0;0;16;8.625;0;0;6;9
"ronald dupont artist";0;0;1;4;0;0;1;4
"chu teh chun";0;0;1;54;0;0;1;54
"juliet ferguson";0;0;1;20
synecdocque;0;0;1;1;0;0;1;1
"pierre & gilles";0;0;1;37;0;0;1;37
"anton f";0;0;1;39;0;0;1;39
"rob van hoek artist";0;0;2;9;0;0;2;9
jmrobert;0;0;1;2;0;0;1;2
"henrietta dubrey";0;0;6;10.5;0;0;5;12;0;0;1;3
"len jessome";0;0;2;1;0;0;2;1
"thomas verny";0;0;1;18;0;0;1;18
"nina urlichs";0;0;1;1;0;0;1;1
"florence d'elle";0;0;7;6.2857142857143;0;0;2;8.5;0;0;2;8.5
"décrochage artwork";0;0;2;124.5;0;0;2;124.5
"jm robert";0;0;1;1;0;0;1;1
"galerie charron";0;0;2;3.5;0;0;1;3;0;0;1;4
"elodie artist";0;0;1;37
jonone;0;0;8;13;0;0;6;15;0;0;2;7
"cedric dequidt";0;0;12;5.8333333333333;0;0;9;6.1111111111111;0;0;3;5
"francoise nielly art";0;0;3;21.666666666667;0;0;3;21.666666666667
"quentin garel";0;0;6;9.3333333333333;0;0;6;9.3333333333333
"solène ballesta";0;0;1;7;0;0;1;7
"jock sturges vanessa";0;0;1;79;0;0;1;79
"lacroix jacques";0;0;1;42;0;0;1;42
"alain godon";0;0;5;4.2
"martine feipel & jean bechameil";0;0;1;51;0;0;1;51
"nils udo artist";0;0;1;11;0;0;1;11
"london contemporary art gallery";0;0;1;113;0;0;1;113
"galerie bruno massa";0;0;1;11;0;0;1;11
"by erro";0;0;1;2;0;0;1;2
guinio;0;0;2;9;0;0;2;9
"patrick cornillet";0;0;1;1
"patrick villas";0;0;1;10;0;0;1;10
"guy boyer";0;0;2;8
"wiesmann for sale";0;0;1;43
"eduardo kac";0;0;1;61;0;0;1;61
"tom wesselmann";0;0;2;37.5;0;0;2;37.5
"émetteur artwork";0;0;4;124
"novotel budapest";0;0;1;186
"""geometric"" + ""contact"" ~justification";0;0;1;389;0;0;1;389
"age artwork";0;0;3;350.66666666667
pairoj;0;0;1;10;0;0;1;10
"ron english artist biography";0;0;1;45;0;0;1;45
"marcelli france";0;0;1;7;0;0;1;7
"bruno catalano prices";0;0;1;5;0;0;1;5
nowart;0;0;1;7;0;0;1;7
"katherine hoffmann";0;0;1;13
wangshu;0;0;1;241;0;0;1;241
"vincent hawkins";0;0;10;8.2;0;0;10;8.2
"wadi finan";0;0;1;9;0;0;1;9
"chris morin";0;0;1;3;0;0;1;3
"roland cat";0;0;2;7.5;0;0;1;5
"hengki koentjoro";0;0;1;41;0;0;1;41
"""dumplings"" + ""contact"" ~justification";0;0;2;440.5
"yan pei ming";0;0;1;56;0;0;1;56
"jochem hendricks";0;0;1;26;0;0;1;26
"белый кит 1987";0;0;1;44
"jian guo beijing";0;0;1;181
"takashi murakami dob";0;0;1;46;0;0;1;46
toroptsov;0;0;10;4;0;0;8;4;0;0;2;4
"intuition artwork";0;0;1;241
"henri lamy";0;0;2;7.5;0;0;2;7.5
jorion;0;0;2;42
"crédit anguish";0;0;2;498
"janet lynch artist";0;0;1;10;0;0;1;10
"""hawkins"" + ""contact"" ~justification";0;0;1;276;0;0;1;276
ideelart;0;0;1;8
"pat andrea";0;0;1;25;0;0;1;25
"gerstein art";0;0;1;37;0;0;1;37
cilicie;0;0;1;49;0;0;1;49
kartonn;0;0;2;4.5;0;0;2;4.5
"open your minf";0;0;1;3
"kerry eggleton";0;0;3;3;0;0;3;3
"symétrique artistic";0;0;1;405;0;0;1;405
"herve telemaque";0;0;1;9;0;0;1;9
"eva maria küpfer";0;0;1;10;0;0;1;10
marthe;0;0;1;313
"miguel chevalier";0;0;2;60;0;0;2;60
"contemporary portrait photography";0;0;3;413.33333333333
"black artwork for sale";0;0;1;78
"antoni tapies original prints worcester";0;0;1;50;0;0;1;50
"jean hélion";0;0;1;49;0;0;1;49
"grace butcher";0;0;1;44;0;0;1;44
"""graphic"" + ""contact"" ~justification";0;0;13;694.61538461538;0;0;13;694.61538461538
"martin schoeller george clooney";0;0;1;10;0;0;1;10
"oksana yambykh";0;0;1;4;0;0;1;4
"stephane joannes";0;0;1;5;0;0;1;5
"rafael gomez barros";0;0;7;8.8571428571429;0;0;1;9;0;0;3;9
"erik salin";0;0;1;7;0;0;1;7
"patrick martin";0;0;1;209;0;0;1;209
"léo caillard";0;0;1;28
"shirley jaffe";0;0;1;31;0;0;1;31
"heiner meyer";0;0;3;24.666666666667;0;0;3;24.666666666667
"leonardo ulian";0;0;2;33;0;0;2;33
"jean pierre attal";0;0;1;6
"pret à porter artwork";0;0;1;4
"sabina ii";0;0;1;54;0;0;1;54
"carine joiris";0;0;1;5;0;0;1;5
oedipe;0;0;1;247;0;0;1;247
"galerie hus";0;0;4;5.5;0;0;2;6
"jean-marie drouet";0;0;1;6
"galerie nivet carzon";0;0;1;4
shup;0;0;1;46;0;0;1;46
"keith tyson";0;0;1;99;0;0;1;99
"stephane gautier";0;0;4;5.5;0;0;2;6;0;0;2;5
latlas;0;0;1;87;0;0;1;87
"judy rifka";0;0;1;31;0;0;1;31
"petra wunderlich";0;0;6;7.5;0;0;4;7.5;0;0;2;7.5
"lucie bennett";0;0;1;21
"richard orlinski";0;0;4;10.25;0;0;4;10.25
"naples artist";0;0;1;236;0;0;1;236
"nous irons plus au bois";0;0;1;40;0;0;1;40
"francois morellet art";0;0;1;8;0;0;1;8
"jean pierre schneider";0;0;2;1;0;0;1;1;0;0;1;1
"fabrice hyber";0;0;1;14
"bram bogart artist";0;0;1;12;0;0;1;12
"elephant artwork for sale";0;0;1;39;0;0;1;39
"benoît trimborn";0;0;4;6.75;0;0;4;6.75
kijno;0;0;1;10
"clinton friedman";0;0;2;21.5;0;0;2;21.5
"rodney white artist";0;0;1;250;0;0;1;250
"manuel geerinck";0;0;1;25;0;0;1;25
"lolita nudes";0;0;1;88;0;0;1;88
tenarts;0;0;1;7;0;0;1;7
"keith down";0;0;1;430;0;0;1;430
"""flower"" + ""contact"" ~justification";0;0;3;338.66666666667;0;0;3;338.66666666667
"cruz diez art";0;0;1;25;0;0;1;25
"shen jingdong";0;0;4;6.75
"robert bradford";0;0;1;91;0;0;1;91
lazarew;0;0;1;6;0;0;1;6
"vincent descotils";0;0;2;6;0;0;1;7
"steven gagnon";0;0;1;56;0;0;1;56
"françois houtin";0;0;3;11;0;0;3;11
"madeleine dietz";0;0;4;12;0;0;1;24;0;0;3;8
"rudolf hausner paintings";0;0;1;5;0;0;1;5
tiutin;0;0;1;7
af1680;0;0;2;17.5;0;0;2;17.5
"galerie l'oeil du prince";0;0;1;6;0;0;1;6
"james ostrer";0;0;1;30
"elysées paris";0;0;1;171;0;0;1;171
"cara delevingne stencil";0;0;3;1;0;0;2;1;0;0;1;1
"peter liversidge";0;0;1;65;0;0;1;65
"tente artwork";0;0;1;419
"shen jing dong";0;0;4;9;0;0;3;9.6666666666667
"crédit artwork";0;0;1;390;0;0;1;390
"barley sugar";0;0;1;98
"thomas müller artist";0;0;1;7
aliot;0;0;4;55.5;0;0;4;55.5
"kate barry artist";0;0;1;11;0;0;1;11
"onur dinc";0;0;1;8;0;0;1;8
"jacques perconte";0;0;1;16;0;0;1;16
"mehdi \lemoduledezeer\";0;0;1;26;0;0;1;26
calmets;0;0;1;4;0;0;1;4
"nils udo biography";0;0;2;4
topor;0;0;1;148;0;0;1;148
"ferraille artwork";0;0;2;259.5;0;0;2;259.5
"amaury mulliez";0;0;1;9
couettes;0;0;1;214;0;0;1;214
"bernard pras artist";0;0;2;10;0;0;2;10
"porto rico artist";0;0;1;303
"matisse prints for sale";0;0;1;96;0;0;1;96
"el pescador";0;0;1;152;0;0;1;152
"willy ronis le petit parisien";0;0;3;1;0;0;2;1;0;0;1;1
"francis artist";0;0;1;11;0;0;1;11
"bernard rancillac";0;0;1;9;0;0;1;9
"luca di filippo";0;0;1;9
"nick carter";0;0;1;166;0;0;1;166
"hermann nitsch art";0;0;1;46
"françois millo";0;0;1;10;0;0;1;10
"""emotion"" + ""contact"" ~justification";0;0;2;916;0;0;2;916
"jose concha";0;0;1;47
"uche okpa iroha";0;0;1;7
"mot de passe artistic";0;0;3;387.33333333333;0;0;3;387.33333333333
"nils-udo art";0;0;1;10
"de prévision artwork";0;0;4;64.5;0;0;4;64.5
"rivieras fille";0;0;1;94;0;0;1;94
"alfonso brezmes";0;0;3;10;0;0;3;10
"turkan soray nude";0;0;1;40;0;0;1;40
"bertrand photo";0;0;1;243;0;0;1;243
parallelos;0;0;1;6;0;0;1;6
"gilles aillaud";0;0;5;8.6;0;0;5;8.6
"vietnam sculptures";0;0;1;406;0;0;1;406
"gijsbert hanekroot";0;0;3;1.3333333333333;0;0;3;1.3333333333333
"trees of the tundra";0;0;1;342
guydenning;0;0;1;8;0;0;1;8
"open.your mind";0;0;1;2;0;0;1;2
"jonone artist";0;0;3;13.666666666667
"ephrem solomon artist";0;0;1;10;0;0;1;10
"rudolf hausner";0;0;1;9;0;0;1;9
"branding logos";0;0;2;425.5;0;0;1;429;0;0;1;422
"jerome mesnager";0;0;1;5
"gérard schlosser";0;0;1;10;0;0;1;10
"cesar santos painter";0;0;1;35
"raphael tachdjian";0;0;1;7;0;0;1;7
"polymère artist";0;0;2;262.5;0;0;2;262.5
"griffin gallery";0;0;1;168;0;0;1;168
"dam gallery";0;0;1;35;0;0;1;35
"berlin gardens poly furniture buffalo ny";0;0;1;98;0;0;1;98
"gottfried salzmann";0;0;3;14.333333333333;0;0;2;17.5;0;0;1;8
"noury timmermans nude";0;0;2;10;0;0;2;10
"hélène duclos";0;0;1;2;0;0;1;2
"yanko tihov";0;0;9;9.2222222222222;0;0;7;10
"art nue";0;0;1;9
"oleg dou";0;0;1;41
"fubiz art";0;0;1;3
"tim flach animal photography";0;0;1;47;0;0;1;47
"stephane gizard";0;0;5;10.8;0;0;4;11;0;0;1;10
"cecile desserle";0;0;2;6.5;0;0;1;6;0;0;1;7
"nude blues";0;0;1;332;0;0;1;332
"eric deville";0;0;1;8;0;0;1;8
dionus;0;0;1;5;0;0;1;5
"roberto greco";0;0;1;28;0;0;1;28
liquidiv;0;0;1;49;0;0;1;49
"advertisement for fast food";0;0;1;446
"irina ionesco photo";0;0;1;39
"ando haruka";0;0;1;13;0;0;1;13
frolicking;0;0;1;403
"eugene begarat art";0;0;2;2;0;0;2;2
"vanesa paradise";0;0;1;234;0;0;1;234
"advanced graphics london";0;0;1;76
"matt kay photography";0;0;1;315
"20x30 blank canvas";0;0;1;44
"jean paul moscovino";0;0;1;2
"vin artwork";0;0;1;17
"mayank shyam";0;0;2;7;0;0;2;7
"frank horvat";0;0;4;45.25;0;0;4;45.25
"rodney place";0;0;2;9;0;0;1;9;0;0;1;9
"un hack artistic";0;0;1;183
ioye;0;0;3;8;0;0;3;8
"zhuo qi";0;0;1;6;0;0;1;6
"viveca koh";0;0;1;16;0;0;1;16
"""fairy"" + ""contact"" ~justification";0;0;1;326;0;0;1;326
"hugo gallery";0;0;1;138;0;0;1;138
daniela;0;0;1;446;0;0;1;446
"yayoi kusama pumpkin";0;0;1;63;0;0;1;63
"charlie roberts art";0;0;1;9;0;0;1;9
"lance letscher";0;0;1;20
"""game"" + ""contact"" ~justification";0;0;1;545;0;0;1;545
"nicolas nicolini";0;0;4;7;0;0;3;7
"puerto rico 1965";0;0;1;29;0;0;1;29
"1960s pop art posters";0;0;1;320;0;0;1;320
"victori contemporary";0;0;1;44;0;0;1;44
"pierre david";0;0;1;31;0;0;1;31
"herve di rosa";0;0;5;7.4;0;0;2;9;0;0;1;6
"julien raynaud";0;0;1;7;0;0;1;7
jonvelle;0;0;1;10;0;0;1;10
"françoise pétrovitch";0;0;1;7;0;0;1;7
"""eating"" + ""contact"" ~justification";0;0;1;862
"rafael gomezbarros";0;0;1;18;0;0;1;18
"françois grimaldi";0;0;1;27;0;0;1;27
"abstract sculpture";0;0;6;376
"nature morte vivante";0;0;2;19;0;0;2;19
"yanko tihov artist";0;0;1;8;0;0;1;8
"philippe berry sculpteur";0;0;1;3;0;0;1;3
"""eyes"" + ""contact"" ~justification";0;0;2;685.5
"alain clement";0;0;1;6
"alain clément";0;0;1;4;0;0;1;4
"kilian glasner";0;0;1;10;0;0;1;10
"michelle hold";0;0;1;8
"thierry michelet";0;0;1;25
"philippe pasqua";0;0;9;9.3333333333333;0;0;6;9.5;0;0;3;9
"alma haser";0;0;1;28;0;0;1;28
fubiz;0;0;3;37.666666666667;0;0;3;37.666666666667
"greg carlin";0;0;1;22;0;0;1;22
"nobuyoshi araki biography";0;0;1;44;0;0;1;44
"morellet artist";0;0;1;9;0;0;1;9
begarat;0;0;1;7;0;0;1;7
"attraverserà ""expansion""";0;0;1;444
"serie narcose";0;0;1;8;0;0;1;8
"salinité artist";0;0;1;124;0;0;1;124
"pius fox artist";0;0;3;4;0;0;1;2;0;0;2;5
"eva navarro";0;0;10;10.1;0;0;1;3
"william holman gallery";0;0;1;24;0;0;1;24
"gallery haifa hotel";0;0;1;172;0;0;1;172
"mor charpentier";0;0;1;68;0;0;1;68
"francois bard";0;0;7;7.5714285714286;0;0;4;7.75;0;0;3;7.3333333333333
artiane;0;0;1;9;0;0;1;9
"izabeau jousse";0;0;2;6;0;0;2;6
"""designers"" + ""contact"" ~justification";0;0;2;553.5
"x-50 dragonfly";0;0;1;319;0;0;1;319
"mr brainwash andy warhol";0;0;2;7;0;0;2;7
marien;0;0;1;202
"neutralité artist";0;0;1;252;0;0;1;252
"je s'aime";0;0;1;8
"roussé artwork";0;0;3;195
"parapluie cocktail";0;0;1;30;0;0;1;30
"""gallery"" + ""contact"" ~justification";0;0;16;610.625;0;0;16;610.625
"pol_grafa obra gr_fica";0;0;1;90;0;0;1;90
"benjamin deroche";0;0;1;5;0;0;1;5
"jérôme mesnager";0;0;2;6.5;0;0;2;6.5
"julian schnabel";0;0;1;347;0;0;1;347
"lisman works";0;0;1;5
"baudoin lebon";0;0;4;7.75;0;0;3;8.6666666666667;0;0;1;5
"marie maertens";0;0;2;6.5
"michal lukasiewicz artist";0;0;2;17;0;0;2;17
"christian von sydow";0;0;2;9
fkdl;0;0;1;10;0;0;1;10
"julia mangold";0;0;1;10;0;0;1;10
"gabriele viertel photography";0;0;1;28
"fernando garcía ponce";0;0;1;16;0;0;1;16
"graham dolphin artist";0;0;2;9;0;0;2;9
"bullet artwork";0;0;1;93;0;0;1;93
"razvan bucharest";0;0;1;193;0;0;1;193
"roussé art";0;0;1;448;0;0;1;448
"olivier toma";0;0;1;10;0;0;1;10
"whos that girl sale";0;0;1;29
"thierry carrier";0;0;2;10
"malika mokadem";0;0;1;19;0;0;1;19
"message in a bottle for sale";0;0;1;80;0;0;1;80
"matthew feyld";0;0;1;19;0;0;1;19
"sun hyuk kim";0;0;1;2
"""dove"" + ""contact"" ~justification";0;0;2;380;0;0;2;380
"gz galerie";0;0;1;7;0;0;1;7
"matthew seed photography";0;0;1;348;0;0;1;348
"death in art";0;0;1;30;0;0;1;30
"illusoire artistic";0;0;1;477
"bernard pas";0;0;1;10;0;0;1;10
"edouard buzon";0;0;1;2;0;0;1;2
"f jacques artist";0;0;1;8;0;0;1;8
"sam szafran";0;0;1;13;0;0;1;13
"hannah adamaszek";0;0;1;11
"anne brunet";0;0;1;23;0;0;1;23
"uche okpa-iroha";0;0;1;10
"sérgio ferro";0;0;1;11;0;0;1;11
"silvia coccaglio";0;0;4;4.75;0;0;4;4.75
"arthur tress";0;0;2;53;0;0;2;53
keymi;0;0;4;8.25;0;0;2;8.5
"tobias putrih";0;0;1;52;0;0;1;52
"john matos crash";0;0;2;3.5;0;0;1;3
"jock sturges";0;0;4;89;0;0;4;89
"17th century paintings for sale";0;0;2;35.5;0;0;2;35.5
"pierre tal coat";0;0;1;9;0;0;1;9
"open open your mind";0;0;1;5;0;0;1;5
justine;0;0;1;423;0;0;1;423
"richard di rosa";0;0;1;3;0;0;1;3
"cruz diez artist";0;0;2;11;0;0;1;11
"cara delevingne artwork";0;0;1;1;0;0;1;1
"violant artistic";0;0;2;305.5;0;0;2;305.5
"lisbeth diers";0;0;2;26.5;0;0;2;26.5
"keith haring montreux jazz festival 1983";0;0;2;1
"transe 500";0;0;1;24;0;0;1;24
"albert rafols casamada";0;0;1;39
"a la bardot";0;0;1;5
"galerie roy sfeir";0;0;1;4
"maxime ansiau";0;0;1;12
"""fr"" + ""contact"" ~justification";0;0;2;879.5
"héritage artwork";0;0;1;362;0;0;1;362
"pruski usd";0;0;2;7;0;0;2;7
"juliette clovis";0;0;4;1
"senorita rio";0;0;1;33;0;0;1;33
"""gangsters"" + ""contact"" ~justification";0;0;1;530;0;0;1;530
"yuriko takagi";0;0;2;20
"raymond hains";0;0;9;7;0;0;6;7;0;0;3;7
"le dejeuner sur lherbe";0;0;1;128
"payable apprehension";0;0;3;397.33333333333;0;0;3;397.33333333333
"distance artwork";0;0;1;326;0;0;1;326
"how not to panic";0;0;1;414;0;0;1;414
"renaud delorme";0;0;5;5.6;0;0;1;4;0;0;4;6
"matthew attard";0;0;1;8;0;0;1;8
"""familia"" + ""contact"" ~justification";0;0;1;489;0;0;1;489
"john crash matos art";0;0;1;6;0;0;1;6
"gz store";0;0;3;10.666666666667
"nina katz";0;0;1;417;0;0;1;417
"obey artwork";0;0;1;49;0;0;1;49
"whitespace gallery";0;0;1;56
"jean-francois rauzier";0;0;1;33;0;0;1;33
"galerie bettina";0;0;1;4;0;0;1;4
"aris messinis";0;0;21;8.5238095238095;0;0;6;8.6666666666667;0;0;2;9
"huit sale";0;0;2;48.5;0;0;1;49;0;0;1;48
"edwin apps";0;0;3;8.3333333333333;0;0;1;11
"abie loy kemarre";0;0;1;15;0;0;1;15
"alex maclean";0;0;1;94;0;0;1;94
"acrylic self portrait";0;0;1;524;0;0;1;524
"federico fellini drawings";0;0;1;38;0;0;1;38
"peter wüthrich";0;0;1;52
"gabriel paris";0;0;1;43;0;0;1;43
"landscape design thornton";0;0;1;345
"fred calmets";0;0;4;4.25;0;0;3;4.3333333333333
3000roger;0;0;1;15
"manolo chretien";0;0;2;9.5;0;0;1;10;0;0;1;9
"eric ville";0;0;2;1.5
"naples artistic";0;0;1;185
"raymond hains art";0;0;1;8;0;0;1;8
"xavier prieur";0;0;2;10;0;0;1;10
"guy dening";0;0;3;9.3333333333333
"polly ngale paintings";0;0;3;36.333333333333;0;0;2;37;0;0;1;35
"ii ta'";0;0;1;176;0;0;1;176
parisot;0;0;1;170;0;0;1;170
"jean claude deutsch";0;0;2;10;0;0;2;10
"bram bogart";0;0;1;35;0;0;1;35
"henri matisse";0;0;1;211;0;0;1;211
"sonia aniceto";0;0;2;4
"miss van art";0;0;1;39;0;0;1;39
lechar;0;0;1;101;0;0;1;101
"pennsylvania artwork";0;0;1;208;0;0;1;208
"abstract painting for sale";0;0;1;201
"cornwall contemporary";0;0;2;5;0;0;2;5
"taki 183";0;0;1;40;0;0;1;40
"ivan plusch";0;0;2;4.5;0;0;2;4.5
"jean michel basquiat scull";0;0;1;35
"arnaud puig";0;0;1;7;0;0;1;7
"famous pop art artists";0;0;1;118;0;0;1;118
"david harber artist";0;0;1;8;0;0;1;8
kikayou;0;0;1;10;0;0;1;10
"michal lukasiewicz";0;0;1;30;0;0;1;30
"""existential"" + ""contact"" ~justification";0;0;1;574
"serré artwork";0;0;4;198;0;0;4;198
"luzia simons";0;0;1;34;0;0;1;34
"anna bjerger";0;0;10;7.2;0;0;3;7;0;0;1;7
"sorane rotellini";0;0;1;4;0;0;1;4
"citadine paris";0;0;1;83
"monopole artist";0;0;2;282.5;0;0;2;282.5
"sarah hardacre";0;0;1;22
"korosh ghazimorad";0;0;2;6.5;0;0;1;6;0;0;1;7
"omega house ii";0;0;1;401;0;0;1;401
"arthur dorval";0;0;1;4;0;0;1;4
"galerie oneiro";0;0;1;4;0;0;1;4
"claire trotignon";0;0;2;7;0;0;2;7
"coca-cola 500";0;0;1;309;0;0;1;309
"chenaux gallery";0;0;1;2;0;0;1;2
"flower delivery bilbao";0;0;1;59;0;0;1;59
"ella prien nude";0;0;1;29;0;0;1;29
"bruno theme";0;0;1;241
"distance artist";0;0;1;368;0;0;1;368
"bob verschueren artist";0;0;8;8.375;0;0;8;8.375
"monopole artistic";0;0;2;68;0;0;2;68
"peter hoffer artist";0;0;1;10;0;0;1;10
"manteau artist";0;0;5;380.2;0;0;5;380.2
"by belie";0;0;5;5
fleurion;0;0;1;7;0;0;1;7
dorval;0;0;1;158;0;0;1;158
jadikan;0;0;2;7;0;0;2;7
"serial painter";0;0;1;28
"mel ramos vintage peekaboo";0;0;1;57;0;0;1;57
"clément denis";0;0;1;8;0;0;1;8
"charlotte cornaton";0;0;1;91;0;0;1;91
"jieun park artist";0;0;3;9;0;0;3;9
"georgianna robertson";0;0;1;39;0;0;1;39
"ernest pignon-ernest";0;0;1;19;0;0;1;19
"male fashion nude";0;0;1;208
"ren hang";0;0;3;14;0;0;1;10
"richard hudson sculptor";0;0;1;7;0;0;1;7
"franck lundangi";0;0;1;5;0;0;1;5
"311 trust your instincts";0;0;1;238
"gemma cossey";0;0;1;1
"catalano bruno";0;0;1;25;0;0;1;25
"roman opalka";0;0;1;81;0;0;1;81
"zao wou ki";0;0;1;91;0;0;1;91
"band artwork for sale";0;0;1;44
"nicole wendel";0;0;2;9;0;0;2;9
"jacques de la villegle";0;0;1;7;0;0;1;7
"de tension artist";0;0;1;209;0;0;1;209
"pennsylvania artist";0;0;1;257;0;0;1;257
"marc asnin";0;0;1;55
"yona friedman";0;0;1;77;0;0;1;77
"""floral"" + ""contact"" ~justification";0;0;5;547
"liu xiaofang";0;0;2;20.5;0;0;2;20.5
"angele guerre";0;0;1;2;0;0;1;2
"valérie hadida";0;0;1;10;0;0;1;10
"juergen teller contax g2";0;0;1;42;0;0;1;42
"jacques villegle artwork";0;0;3;8.3333333333333;0;0;1;9;0;0;2;8
"jean marie marion";0;0;3;8;0;0;3;8
"capital culture gallery";0;0;3;4.3333333333333;0;0;2;4;0;0;1;5
"stéphanie nava";0;0;1;6
"freestyle freedom error 4";0;0;1;316;0;0;1;316
"ayline olukman";0;0;5;5.2;0;0;2;5;0;0;3;5.3333333333333
"shaka artist";0;0;1;10;0;0;1;10
"nielly francoise";0;0;1;54;0;0;1;54
"graham dolphin";0;0;1;10;0;0;1;10
"jimmy lawlor biography";0;0;1;5;0;0;1;5
"pius fox";0;0;1;28;0;0;1;28
"remi rough & crash";0;0;1;36;0;0;1;36
"portrait contemporary art";0;0;1;422;0;0;1;422
"jim dine artwork";0;0;5;87.2;0;0;2;98;0;0;3;80
"silvia calmejane";0;0;2;7
"mark demsteader prints for sale";0;0;2;10;0;0;2;10
"contemporary fan";0;0;3;223.66666666667;0;0;2;239;0;0;1;193
"jacqueline roberts photography";0;0;1;9;0;0;1;9
"gordon hopkins artwork";0;0;2;2;0;0;2;2
"pierre schneider";0;0;1;25
"keymi artist";0;0;1;2;0;0;1;2
"bertrand desprez";0;0;1;5
"kami art";0;0;1;302;0;0;1;302
"framing paintings";0;0;1;530;0;0;1;530
"sandro giordano in extremis";0;0;2;21
tanc;0;0;2;43;0;0;1;82;0;0;1;4
"jonone street art";0;0;3;22
"paulette tavormina";0;0;3;30.333333333333
espadon;0;0;1;199;0;0;1;199
"kemper gallery colorado springs";0;0;1;349;0;0;1;349
"eugenio carmi";0;0;1;14;0;0;1;14
"klaus guingand";0;0;2;9;0;0;1;9;0;0;1;9
"garrett pruter";0;0;1;18;0;0;1;18
"david gerstein disco large";0;0;1;50;0;0;1;50
klasen;0;0;1;5;0;0;1;5
"carlos betancourt";0;0;2;24.5
"fertilité artist";0;0;1;222;0;0;1;222
moorning;0;0;1;44;0;0;1;44
"tom wesselmann pop art";0;0;1;23;0;0;1;23
"christophe charbonnel sculpture";0;0;1;9;0;0;1;9
"alex folla";0;0;2;6.5
"prophétie artistic";0;0;2;83.5;0;0;2;83.5
"bruno fontana";0;0;1;40;0;0;1;40
"eva jospin artist";0;0;1;5;0;0;1;5
"mel ramos";0;0;1;83
"andre laure";0;0;1;20;0;0;1;20
"olivier debré";0;0;1;95;0;0;1;95
"monsieur chat";0;0;1;9;0;0;1;9
"polymère artwork";0;0;2;412.5;0;0;2;412.5
"marie cecile thijs";0;0;1;20
"markowicz fine art";0;0;2;43;0;0;2;43
"la soubrette";0;0;1;44;0;0;1;44
"flamboyant nürnberg";0;0;1;90;0;0;1;90
"norman rockwell artwork";0;0;1;238;0;0;1;238
"philippe pasqua information";0;0;2;8.5;0;0;2;8.5
unkuri;0;0;1;80
"francine van hove";0;0;2;19;0;0;2;19
"thierry feuz";0;0;1;29
"bob nugent artist";0;0;1;5;0;0;1;5
"""fauvism"" + ""contact"" ~justification";0;0;4;172.5;0;0;4;172.5
"ta kala";0;0;1;8
"tour de bruxelles";0;0;3;1.6666666666667;0;0;1;1
"alberto sanchez art";0;0;1;8;0;0;1;8
"michel gribinski";0;0;1;8;0;0;1;8
"chateau rothschild bordeaux";0;0;2;354;0;0;2;354
"art gallery in germany";0;0;1;237;0;0;1;237
"carme albaiges";0;0;1;1;0;0;1;1
"michel four";0;0;1;6;0;0;1;6
"kongo artist";0;0;1;10;0;0;1;10
"renato pasmanik";0;0;3;9;0;0;3;9
"jean michel basquiat for sale";0;0;1;81;0;0;1;81
"denis darzacq";0;0;1;63
"rafael canogar";0;0;1;90;0;0;1;90
"""enfance"" + ""contact"" ~justification";0;0;2;546.5
"alexey klimov";0;0;1;13;0;0;1;13
"vincent hawkins artist";0;0;1;8
"pierre-marie brisson";0;0;1;43
"miro portugal";0;0;1;2;0;0;1;2
"marc laffolay";0;0;1;3;0;0;1;3
"thierry bigaignon";0;0;1;7;0;0;1;7
"stephen gill photography";0;0;1;126
"jean michel voge";0;0;3;6.6666666666667;0;0;1;9;0;0;2;5.5
"jean-pierre nadau";0;0;1;3;0;0;1;3
"telemaque herve";0;0;1;8;0;0;1;8
"le cerf";0;0;1;159
"buzon usa";0;0;1;46;0;0;1;46
"key west artwork";0;0;1;148;0;0;1;148
levallet;0;0;1;5;0;0;1;5
"artist shazz switzerland";0;0;2;41
"tobias gorges";0;0;1;217;0;0;1;217
"lottie jackson";0;0;1;24;0;0;1;24
"jan saudek art";0;0;1;20
sijae;0;0;1;6;0;0;1;6
"philippe parreno";0;0;1;95;0;0;1;95
"barthes de ruyter";0;0;1;2;0;0;1;2
"chris de ruyter";0;0;1;30;0;0;1;30
"thomas ahl";0;0;1;20;0;0;1;20
"peter hoffer";0;0;1;17;0;0;1;17
"kongo graffiti artist";0;0;1;10
"gainsbourg dali";0;0;1;18;0;0;1;18
"rebecca schuster roman tramp";0;0;1;49;0;0;1;49
"photographer duane michals";0;0;1;222;0;0;1;222
"rosa art";0;0;1;308;0;0;1;308
"""grafica"" + ""contact"" ~justification";0;0;3;325.33333333333;0;0;3;325.33333333333
"ionesco photo";0;0;1;107;0;0;1;107
"marque figurative artwork";0;0;1;107;0;0;1;107
"mikael lafontan";0;0;1;8;0;0;1;8
"anatoly rudakov";0;0;1;4;0;0;1;4
"jonty levin";0;0;2;7
sokrate;0;0;1;56;0;0;1;56
"eric kellerman";0;0;1;26;0;0;1;26
"mark aside";0;0;1;374
"crystal wagner biotica";0;0;1;33;0;0;1;33
"mist artwork";0;0;1;6
"modern art paintings savannah ga";0;0;2;411
"michel le belhomme";0;0;1;10;0;0;1;10
"henry lamy";0;0;2;6;0;0;2;6
"carlos cruz diez";0;0;1;63;0;0;1;63
"""frontier"" + ""contact"" ~justification";0;0;2;678
"richard orlinski prix";0;0;1;6;0;0;1;6
"tite street for sale";0;0;1;47
"kiki picasso";0;0;8;4.625;0;0;5;4.6;0;0;3;4.6666666666667
"arnaud rabier";0;0;1;61
"les bons copains";0;0;1;13;0;0;1;13
"nurcan giz";0;0;1;2
"contemporary spanish artists";0;0;1;56;0;0;1;56
"séjour à : artwork";0;0;1;60
"galerie guillaume";0;0;1;4;0;0;1;4
"adam manu";0;0;1;19
"roberto battistini";0;0;1;1;0;0;1;1
mitz.at;0;0;2;22.5
"ryan callanan";0;0;1;34;0;0;1;34
"paul smith artwork";0;0;1;63
"emerge gallery";0;0;1;21;0;0;1;21
"manteau artistic";0;0;2;187.5;0;0;2;187.5
artsper.com;0;0;1;1
"willy ronis";0;0;3;41
"les capucins brest";0;0;1;183;0;0;1;183
"henni alftan";0;0;2;15;0;0;2;15
linmes;0;0;1;5;0;0;1;5
sawtelle;0;0;1;171;0;0;1;171
"thomas duval";0;0;1;27
pookky;0;0;1;4;0;0;1;4
"mon deiu";0;0;1;242;0;0;1;242
levalet;0;0;3;14.666666666667;0;0;3;14.666666666667
"d yquem";0;0;1;403;0;0;1;403
"kenvelo cluj";0;0;1;119;0;0;1;119
renoma;0;0;1;98;0;0;1;98
"jean-michel basquiat";0;0;1;238;0;0;1;238
"stephen forbes artist";0;0;3;2.6666666666667;0;0;3;2.6666666666667
"louis blanc";0;0;1;106;0;0;1;106
"france bruno catalano";0;0;1;8
"jean-michel basquiat in italian";0;0;5;11.8;0;0;3;12.333333333333;0;0;2;11
"lauryn hill";0;0;1;192
"fin artwork";0;0;2;25;0;0;2;25
"wagner painting";0;0;1;26;0;0;1;26
"branding and logos";0;0;4;415.75;0;0;3;413.33333333333;0;0;1;423
"rob van hoek";0;0;1;10;0;0;1;10
"armando rearte";0;0;1;42
"asgar gabriel";0;0;2;8;0;0;2;8
"christophe catelain";0;0;2;1
"hom nguyen";0;0;1;9;0;0;1;9
"gwen schall nude";0;0;1;9
"self portrait photographers york";0;0;1;124;0;0;1;124
"la tour de bruxelles";0;0;1;2;0;0;1;2
"isabelle art";0;0;1;313
"helmut newton artwork";0;0;1;7;0;0;1;7
"gerard rancinan";0;0;2;33.5
"thierry pelletier";0;0;2;8;0;0;2;8
"ararat noah's ark";0;0;1;422;0;0;1;422
"claude closky";0;0;1;18;0;0;1;18
"kcho cuban artist";0;0;1;219;0;0;1;219
"cesar santos art";0;0;1;39;0;0;1;39
"open your mind";0;0;265;2.1320754716981;0;0;85;1.9882352941176;0;0;20;1.8
"rudi pillen";0;0;1;1
"polliniser artist";0;0;2;219.5
"georges braque paintings for sale";0;0;1;31;0;0;1;31
"canto art";0;0;1;49;0;0;1;49
"john short artist";0;0;1;7;0;0;1;7
markus&koala;0;0;6;19.666666666667;0;0;5;23.4;0;0;1;1
"bard artwork";0;0;2;5.5;0;0;1;7
"frédéric de goldschmidt";0;0;1;13;0;0;1;13
"mad art works";0;0;1;403
"david gerstein art for sale";0;0;3;6.3333333333333;0;0;3;6.3333333333333
"patrick van der elst";0;0;1;5;0;0;1;5
"micky clement";0;0;1;8
"hans-christian schink";0;0;1;49;0;0;1;49
"oxford palace hotel and galleri";0;0;1;198;0;0;1;198
"allegro fortissimo";0;0;1;22;0;0;1;22
"deret x";0;0;1;9;0;0;1;9
"cerj lalonde";0;0;1;12
"crystal wagner";0;0;1;43;0;0;1;43
"paintings for sale online";0;0;1;311;0;0;1;311
"julian opie for sale";0;0;1;35
"dan rawlings";0;0;6;4.3333333333333;0;0;6;4.3333333333333
"marion colomer";0;0;1;5;0;0;1;5
"françois bard";0;0;4;7
"truc anh";0;0;3;2.6666666666667
"jack otway";0;0;4;9;0;0;4;9
"jacque villeglé";0;0;1;8;0;0;1;8
"chu teh-chun";0;0;1;54;0;0;1;54
"james roper art";0;0;1;26
"lucky luke";0;0;1;139
"envie d'art";0;0;7;8.4285714285714;0;0;5;7.4;0;0;2;11
"jesper just";0;0;1;95;0;0;1;95
"emeric chantier";0;0;9;4.5555555555556;0;0;8;4.25;0;0;1;7
"olivier catté";0;0;2;1;0;0;1;1;0;0;1;1
"matt attard";0;0;1;9;0;0;1;9
"space zin";0;0;2;1;0;0;2;1
"patrick s naggar";0;0;1;9
"possession artwork";0;0;1;187
"yang yonglian";0;0;1;11;0;0;1;11
"kuroda aki";0;0;1;7;0;0;1;7
"geste artwork";0;0;1;395
"vulnérabilité artwork";0;0;2;178.5;0;0;2;178.5
"prophétie artwork";0;0;3;289.66666666667
"francis apesteguy";0;0;1;1
zaru;0;0;1;224;0;0;1;224
mariatorp;0;0;2;14;0;0;2;14
"bernard chauchet";0;0;2;9.5;0;0;1;10;0;0;1;9
"keanu reeves boots";0;0;1;206
"jonathan callan";0;0;1;44
"pedro font alba";0;0;1;8;0;0;1;8
"open you mind";0;0;4;2;0;0;4;2
"olivier widmaier picasso";0;0;1;19;0;0;1;19
"essayez artist";0;0;2;185.5;0;0;2;185.5
"udo art";0;0;1;23
"alain france";0;0;1;246
"colin guillemet";0;0;1;6
"anya gallaccio";0;0;1;83
"takashi murakami flower";0;0;2;24.5
"yago partal";0;0;1;43
"zhao bandi";0;0;4;3.75
intra01;0;0;2;6
"keith jarrett koln";0;0;1;116
"bruno vilela";0;0;1;80
"silvia matta nude";0;0;1;8
"guy de rougemont";0;0;2;9
rischard;0;0;1;89
"what is me";0;0;1;413
"jonny green artist";0;0;1;6;0;0;1;6
"richard burel";0;0;2;14.5
"keith tyson artist";0;0;1;32
"caroline fraser";0;0;1;60
"emmanuel barcilon";0;0;1;14
"anderson & low";0;0;1;35
"fantastic nudes";0;0;1;36
"laurent bouro";0;0;1;4
"le galet";0;0;1;153
"jacques villeglé";0;0;5;8.2
"bambi artist";0;0;5;1
"cécile schall";0;0;1;8
"""genre"" + ""contact"" ~justification";0;0;1;647
"saveur artwork";0;0;1;65
"john crash matos";0;0;4;9.75
"steve artistic";0;0;1;121
"li, wei";0;0;1;11
"cécile decorniquet";0;0;1;10
saint-cyr;0;0;1;189
"oger sale";0;0;1;22
"concorde paris";0;0;1;181
"molly sims";0;0;1;220
"les terrasses de cécile";0;0;1;57
"art la fleur";0;0;1;217
"real art for sale";0;0;1;60
"guy denning bio";0;0;4;6
"sergio moscona";0;0;4;5.25
"payable anguish";0;0;3;371.33333333333
"sally duberson";0;0;1;78
"raigon stanley";0;0;3;3.3333333333333
"mwenze kibwanga";0;0;1;1
chenut;0;0;1;40
"robert combas paintings";0;0;1;10
"eva jospin art";0;0;1;7
"anca cernoschi";0;0;2;23.5
"david crismon";0;0;1;1
"reinhard gorner";0;0;1;14;0;0;1;10
"trending artists";0;0;3;9.6666666666667
"conrad marca-relli";0;0;1;37
"galerie laure roynette";0;0;2;7.5
"jeanne susplugas";0;0;1;7
"alexandre joly";0;0;1;13
"franck chambrun";0;0;2;6
"tony bevan";0;0;1;60
"koala cutting table";0;0;1;202
"grégoire léon guillemin";0;0;1;7
"mathieu mercier";0;0;1;86
"marc ferrero";0;0;1;5;0;0;1;11
hornsleth;0;0;2;132
"jorg doring";0;0;2;1
"yang yongliang";0;0;16;11
"creepy art";0;0;2;31
"soigneusement artwork";0;0;13;241
"marek piasecki";0;0;2;22.5
"francesco libassi";0;0;1;8
"la roue";0;0;1;302
"fetish art photography";0;0;1;340
"bernard pras art";0;0;1;6
"gordon hopkins";0;0;3;4.6666666666667;0;0;3;5
"bruno catalano";0;0;3;32
liwei;0;0;5;4.8
"""effects"" + ""contact"" ~justification";0;0;2;788
"leobardo perez";0;0;1;1
"how to price your artwork";0;0;1;414
"speedy graphito for sale";0;0;2;5
"au-delà de artwork";0;0;8;312.375
"refuge artwork";0;0;5;346.8
"mot de passe analogy";0;0;1;454
"""donegal"" + ""contact"" ~justification";0;0;2;392.5
"au-delà de artist";0;0;1;136
"stern artwork";0;0;1;242
"antoine rose";0;0;7;4.7142857142857;0;0;1;2
"suling wang";0;0;1;15
"composition fleur";0;0;1;38
"marino marini cavaliere";0;0;1;45
"paul stolper gallery";0;0;1;33
"etienne gros";0;0;3;5.6666666666667;0;0;4;6
"tom wesselmann still life";0;0;1;86
"""dead"" + ""contact"" ~justification";0;0;1;548
"etienne cail";0;0;12;1.3333333333333
"no neutral ground film";0;0;1;10
"jerome zonder";0;0;1;24
"joseph beuys";0;0;1;243
"la garrigue";0;0;1;154
"spectacled owl";0;0;1;168
"""des"" + ""contact"" ~justification";0;0;2;889
"martín reyna";0;0;1;22
"""espresso"" + ""contact"" ~justification";0;0;1;125
"bruno mallart";0;0;3;7
"du beffroi calais";0;0;1;70
"jan saudek";0;0;1;10
houtin;0;0;2;7;0;0;4;3.5
"ilgin seymen";0;0;1;11
"candle in the wind";0;0;1;163;0;0;1;179
"""cubism"" + ""contact"" ~justification";0;0;1;462
"vulnérabilité artistic";0;0;2;309.5
"gazelli art house";0;0;1;35
"jonas “sun7” bournat";0;0;1;3
"porto rico artwork";0;0;5;213.8
"keith coventry";0;0;1;48
"serge labegorre";0;0;1;4
"marcus egli";0;0;2;10.5
"viet ha tran";0;0;5;6.4;0;0;2;6
"anna bocek";0;0;5;9;0;0;3;6.3333333333333
sorbac;0;0;3;20
"el pradino";0;0;1;7
"urban portrait art";0;0;1;438
"la mri";0;0;1;9;0;0;2;9
"yanko tihov map";0;0;1;1
kuuji;0;0;4;22
"iñigo arregi";0;0;1;5;0;0;2;6
"nieves mingueza";0;0;1;8
"art therapy painting";0;0;1;513
"réciprocité as";0;0;3;435.33333333333
paulova;0;0;1;40
"marquis artistic";0;0;1;438
"caldecot chubb";0;0;1;228
"laurent martinez";0;0;2;9
"nue art";0;0;2;7.5;0;0;1;3
"graphic opsession";0;0;1;34
"greg gorman photography";0;0;1;146
"philippe weisbecker";0;0;11;7.0909090909091;0;0;3;7
"tatiana kourochkina contemporary art project";0;0;1;66
"per horup";0;0;1;48
"kenny hunter";0;0;2;44
"susan shup";0;0;1;8
"angel duarte";0;0;1;3;0;0;2;1.5
"conrad marca relli";0;0;1;37
"sophie sigorel";0;0;2;4
"side x side for sale monroe la";0;0;1;89
"li lihong";0;0;6;3.6666666666667;0;0;1;6
hako;0;0;1;172
"venus in art";0;0;1;19
aboudia;0;0;1;23
"borys makary";0;0;1;25
"lamborghini fire extinguisher";0;0;1;35
"magazine loader";0;0;1;348
"frank gibson photography";0;0;1;131
"ran hwang";0;0;1;40
"mel ramos vintage";0;0;1;93
"corinne hotel";0;0;1;191
"oüi fm";0;0;1;32
"klaus kampert";0;0;1;20
"""experiences"" + ""contact"" ~justification";0;0;2;921
"manteau artwork";0;0;4;348.5
"jerry zeniuk";0;0;1;65
"rero artist";0;0;2;17
"herbarium for sale";0;0;1;44
"jean fautrier";0;0;1;42
"li wei";0;0;88;10.022727272727;0;0;23;1.8695652173913;0;0;1;4
"nils udo";0;0;12;11.583333333333;0;0;3;10;0;0;1;9
"nicolas hugo";0;0;1;5
"herve lewis";0;0;4;1;0;0;2;1
"novotel budapest city";0;0;1;199
"contemporary deutsch";0;0;1;83
"galerie schwab";0;0;2;5.5
"anna bocek art";0;0;1;8
"guy denning painting";0;0;3;8.3333333333333;0;0;1;6
"bande de artwork";0;0;1;23
"navabi sale";0;0;1;37
"""galleries"" + ""contact"" ~justification";0;0;11;668.18181818182
"lyle carbajal artist";0;0;2;5;0;0;1;5
"von conta";0;0;1;26
"cinderlla castle";0;0;1;249
"tim flach biography";0;0;1;12
shanshui;0;0;2;218.5
"morin smole";0;0;1;5
"antoine de laboulaye";0;0;1;5
"de tension artwork";0;0;9;258
"oeuvres d'art artwork";0;0;1;486
"octave pixel";0;0;1;1;0;0;4;8.5
"bona artist";0;0;1;8
"andre cottavoz";0;0;1;6;0;0;1;6
"art hotel szeged";0;0;1;197
"laurina paperina";0;0;1;27
"grand bleu";0;0;1;195
pagart;0;0;1;38
"axel gouala";0;0;2;2
"""garden"" + ""contact"" ~justification";0;0;2;621
"keith haring watches";0;0;1;303
"momo gallery cape town";0;0;3;10
"palazzo bembo venise";0;0;1;182
"philippe charpentier";0;0;1;1
"edward harber";0;0;1;328
"antoine stevens";0;0;2;6;0;0;3;6
"""fiori"" + ""contact"" ~justification";0;0;1;460
"mist art";0;0;2;9.5
"à pied artwork";0;0;5;215.2
"refuge artist";0;0;1;219
"cedric lollia";0;0;1;10
"genevieve claisse";0;0;1;3
"francois glineur";0;0;1;9
"perino & vele";0;0;2;5.5
qitete;0;0;1;7
"jacques de la villeglé";0;0;1;10
godon;0;0;11;3.9090909090909;0;0;2;1
"robert combas";0;0;6;10.166666666667;0;0;1;11
"yz artist";0;0;1;13
"fantasy art for sale";0;0;1;32
"robert zandvliet";0;0;2;32
"zao wou-ki";0;0;1;95
"contemporary plaster sculpture";0;0;1;10
"stiliana alexieva";0;0;1;10;0;0;1;9
"réciprocité artist";0;0;4;229.5
"gudmundur erro";0;0;1;19
"philippe hiquily sculpture";0;0;1;7
"jef aérosol";0;0;5;7.2
"helene de saint lager";0;0;2;10
"speedy graphito";0;0;5;18.8
"fusion artwork";0;0;1;23
"andy hope 1930";0;0;1;93
"kenneth noland";0;0;1;80
"cecile plaisance";0;0;1;11
"toblerone sale";0;0;1;43
+bram+bogart;0;0;2;79.5
blandine;0;0;1;233
"women in new delhi";0;0;1;245
"de prévision artist";0;0;2;145
"steve artwork";0;0;5;98.8
"special moment photography";0;0;1;341
"salon artwork";0;0;6;290
mesnager;0;0;3;5.6666666666667
"geneviève claisse";0;0;1;5
"takashi murakami bio";0;0;1;42
"hotel bobo";0;0;1;88
"vulnérabilité artist";0;0;1;228
"jonatan maldonado";0;0;1;5;0;0;1;5
doia;0;0;1;56
"open your minde";0;0;1;1;0;0;1;2
rednudes;0;0;1;10
vevais;0;0;3;36.333333333333
blueballoon;0;0;1;324
"kavachnina contemporary";0;0;1;82
"mc2 gallery";0;0;1;2
"crash matos";0;0;1;1
"blek le rat";0;0;1;70
"alfred manessier";0;0;2;50
"arno music";0;0;1;201
"lucy & jorge orta";0;0;1;52
"subject matter art";0;0;1;85
"wifredo lam";0;0;1;198
"budapest novotel";0;0;1;182
"cassius clay";0;0;1;205
cottavoz;0;0;1;4
"galerie sylvie le page";0;0;1;2;0;0;1;3
"force artist";0;0;1;380
"adam nidzgorski";0;0;1;4
"jane emberson";0;0;3;5.3333333333333;0;0;3;6.6666666666667
"abie loy";0;0;1;14
gwbot;0;0;1;20
"spengler france";0;0;1;27
"elephantus ""frame""";0;0;5;393.2
"réciprocité art";0;0;1;359
"artworks by amy";0;0;1;39
"tom bouquet";0;0;1;309
"nicolas dhervillers";0;0;2;9
"alfie goodrich";0;0;1;24
"moz artist";0;0;2;8
"negotiated transfer price";0;0;1;406
"cony theis";0;0;1;26
"jacques benaroch";0;0;1;1
"""figurines"" + ""contact"" ~justification";0;0;1;258
villeglé;0;0;3;4.6666666666667
"jin bo grand";0;0;1;186
"""darkroom"" + ""contact"" ~justification";0;0;2;429.5
"bernard quentin";0;0;2;10.5
"aboriginal art";0;0;1;406
"rero art";0;0;2;34
"melanie bonajo";0;0;1;53
"kolaj art";0;0;1;13
"geert kollau";0;0;2;10
"leopold rabus";0;0;2;26.5
"symétrique artwork";0;0;1;409
"atlas weil am rhein";0;0;1;153
"aurelie nemours";0;0;1;51
"pretty portal";0;0;3;6.6666666666667
"thomas muller black and white";0;0;1;9
villegle;0;0;2;7.5
"aboudia abdoulaye diarrassouba";0;0;1;29
"raymond voinquel";0;0;1;8
"toma l";0;0;3;11.666666666667
"victor vasarely artwork";0;0;1;61
"garnier colors";0;0;1;70
"magdalena lamri";0;0;1;6
"rutger brandt gallery";0;0;1;3;0;0;2;7
"jean pierre comes mail art";0;0;1;99
"se promener artwork";0;0;3;50
"jerome festy";0;0;2;6;0;0;1;4
"martin bez";0;0;1;6
"francois boisrond";0;0;1;9
"""haye,"" + ""contact"" ~justification";0;0;4;322
"scotch broth soup campbells";0;0;1;40
"dibond signage in lagos";0;0;1;44
"mark articulate";0;0;3;443.66666666667
"olivier masmonteil";0;0;1;8;0;0;2;9
"al held";0;0;1;55
"pez artist";0;0;1;22
"gunter damisch";0;0;1;40
"arno singer";0;0;1;127
artphotoby;0;0;2;4.5
"fusion artist";0;0;1;297
"bruno catalano biography";0;0;1;6
"thierry alet";0;0;4;5.5
"aki kuroda";0;0;4;5;0;0;4;1;0;0;1;1
"gérard rancinan";0;0;1;28
"""de"" + ""contact"" ~justification";0;0;2;800
"gustave singier";0;0;1;34
yumari;0;0;1;44
"jef aerosol paris";0;0;1;7
"cesar baldaccini";0;0;1;20
"hotel vuk";0;0;1;176
"yazid oulab";0;0;8;7.375
"corine pagny";0;0;1;6
"paul bogaers";0;0;2;31
"etienne rey";0;0;4;9
"my country tis of thee sign language";0;0;1;340
"fr alfonse";0;0;1;40
"nouvelles artwork";0;0;1;500
"fred astair";0;0;1;40
"gohar dashti";0;0;1;35;0;0;1;1
"quentin garel sculpteur";0;0;1;10
"marc cerrone";0;0;2;33.5
"espre de corps";0;0;1;305
"stew artiste";0;0;1;5
"vuk vidor";0;0;1;9;0;0;2;7.5;0;0;1;9
echancrure;0;0;1;24
pelmont;0;0;1;30
"jerome romain";0;0;1;29
"philippe vasseur";0;0;1;7;0;0;1;8
"miss van";0;0;2;62
"murano lamper";0;0;1;36
maillat;0;0;1;50
"self portrait photographer york";0;0;1;148
"pierre terrasson";0;0;1;11
"richard orlinski prices";0;0;2;8
"victor lope arte contemporaneo";0;0;1;84
"hogarth galleries";0;0;1;304
"mel ramos lola cola";0;0;1;21
durix;0;0;4;1.5
"bill blast graffiti";0;0;1;9
"jean françois jonvelle";0;0;1;18
"yuval shaul";0;0;1;10
"destiny maker";0;0;1;43
"olivier leroy";0;0;2;28.5
"bloc artwork";0;0;3;241
"""designer"" + ""contact"" ~justification";0;0;1;976
"quantum contemporary art";0;0;1;31
"bailly patrick";0;0;2;1
"open your min";0;0;1;2
"tieri trademark";0;0;1;2
dtone;0;0;2;14;0;0;1;12
lemilo;0;0;1;9
"norton cinema";0;0;1;723
"en-tête appearance";0;0;1;347
"l'âge de pierre artwork";0;0;4;196.5
"sandro giordano";0;0;2;6.5
"john matos";0;0;2;7.5;0;0;1;9
"john monteith";0;0;1;51
"abstract art savannah ga";0;0;2;330
"takashi murakami mr dob";0;0;1;32
"yaacov agam";0;0;1;86
"kc ho";0;0;1;235
"""fire"" + ""contact"" ~justification";0;0;1;553
"appréhension apparently";0;0;1;46
"appréhension artist";0;0;1;139
"john bulmer";0;0;12;11
"jim kazanjian";0;0;1;31
"diane arbus artwork";0;0;1;18;0;0;1;15
"misskiss_ nude";0;0;1;37
"robert combas biography";0;0;2;18;0;0;1;6
"jean milo";0;0;1;6
"louis blanc photography";0;0;2;3
"landscape design maiden";0;0;1;328
"genevieve sawtelle";0;0;2;13.5
"pade design";0;0;3;3
"doinel gallery";0;0;1;5
"sui jianguo";0;0;1;84
"planete serie";0;0;4;3.25;0;0;1;3;0;0;1;5
"daan oude elferink";0;0;3;9.6666666666667;0;0;2;8.5
"open your mind art";0;0;1;1
"jacques villegle";0;0;4;8.75
"francois le fantome";0;0;3;7.3333333333333
"art lab beirut";0;0;1;10
impedere;0;0;1;10
"italian lady 2";0;0;1;9
"artigas planas";0;0;1;3
kupferking;0;0;1;9
"pez painting";0;0;1;8
"maurizio nannucci artist";0;0;1;8
"alzbeta jaresova";0;0;1;10
"edwin apps actor";0;0;1;9
silaphane;0;0;1;10
"chuck berry stencil";0;0;1;10
"www.x mahe.com";0;0;1;30
"arno elias prints";0;0;1;1
roch3;0;0;4;5.75
"cricket paintings for sale";0;0;1;19
"elizabeth lecourt";0;0;1;7
"akira asakura";0;0;1;10
"henri de quatrebarbes";0;0;1;4
"francois morellet";0;0;4;10
croisa;0;0;1;10
"gottfried salzmann artist";0;0;1;7
"mesnager jerome";0;0;1;7
"ahn sun mi";0;0;1;6
"sun-hyuk kim";0;0;1;6
"nyaba leon ouedraogo";0;0;2;6
mariposas;0;0;1;174
"jola images";0;0;1;7
"pierre tissier";0;0;1;10
"yoel benharrouche prices";0;0;1;8;0;0;1;9
"jenna haugmard";0;0;1;9
psychose;0;0;1;175
"daniel lucien durand";0;0;1;40
"monica orlanda";0;0;1;10
"christian bilger";0;0;1;8
"etienne viard";0;0;2;11
artisaway;0;0;2;7
"peter klasen";0;0;2;5.5
leyto;0;0;3;5.6666666666667
chubac;0;0;3;6
"peter wüthrich artist";0;0;2;6
"li wei photography";0;0;2;10
"frank fischer artist";0;0;1;2
"sturges jock";0;0;1;109
"peter lippman";0;0;1;8
"boom surfboards";0;0;4;7
цедки;0;0;2;6.5
"ren hang prints";0;0;1;4
"galerie rivière faiveley";0;0;1;7
"tran viet ha";0;0;1;6
silaphan;0;0;3;10
"annie berthet";0;0;1;9
"mi ahn";0;0;1;10
"lucien murat";0;0;2;10
"kim sun hyuk";0;0;7;6.5714285714286
"ronald dupont";0;0;1;1
"in caelo et in terra";0;0;1;15
"catherine klein";0;0;1;18
"pascal goet";0;0;2;6;0;0;3;8
"jerzy piwowarczyk";0;0;1;24
"peter lippmann";0;0;5;7.8;0;0;1;6
"philippe vasseur artist";0;0;1;2
"prisoners movie";0;0;1;186
"david gery";0;0;1;9
"florence d'elle artwork";0;0;2;3
ribart;0;0;1;10
picka;0;0;1;103
"phillipe pasqua";0;0;1;10
"kathleen ngale";0;0;1;62
"carole duhayer";0;0;1;7
"elise oudin gilles";0;0;1;4
"galerie wagner";0;0;1;8
"jean francois jonvelle";0;0;1;17
georgik;0;0;1;9
"mr lolo";0;0;1;10
hominium;0;0;1;19
"blek le rat biography";0;0;1;6
"lyle carbajal";0;0;1;10
"gregoire leon guillemin";0;0;1;9
"benoit trimborn";0;0;2;5
"guillaumette duplaix";0;0;1;5
"artistic fall";0;0;2;9
"jean-baptiste dumont";0;0;1;6
skunkdog;0;0;1;10
"florian jomain";0;0;1;5
"francis latreille";0;0;1;7
wesselmann;0;0;1;9
"tall nudes";0;0;2;14.5
"lou ros artist";0;0;1;10
"jean marie drouet";0;0;1;9
"jean paul lubliner";0;0;1;10
"folly & muse";0;0;1;6
"katrin bremermann";0;0;1;2
"etienne de quatrebarbes";0;0;1;40
faucheur;0;0;1;28
"gregoire eloy";0;0;3;6.6666666666667
