"babajide olatunji";2;0.33333333333333;6;6.6666666666667;1;0.33333333333333;3;7;0;0;2;7;1;1;1;5
"kaws boba fett";2;1;2;29;2;1;2;29
keymi;2;0.25;8;6.125;1;0.33333333333333;3;6.3333333333333;1;1;1;6;0;0;4;6
"manu perez paris";2;0.090909090909091;22;7.3181818181818;1;0.083333333333333;12;7.6666666666667;1;0.11111111111111;9;7;0;0;1;6
"peter keizer";2;0.28571428571429;7;4.2857142857143;0;0;1;1;1;0.5;2;8.5;1;0.25;4;3
chanoir;1;0.33333333333333;3;6.6666666666667;0;0;2;5.5;1;1;1;9
"jean hélion peintre";1;1;1;6;1;1;1;6
artigasplanas;1;1;1;2;1;1;1;2
"puzzle pulp fiction";1;1;1;1;1;1;1;1
"jerome zonder";1;0.5;2;22;1;0.5;2;22
"jeanne lorioz";1;0.14285714285714;7;9;0;0;4;8.25;1;0.33333333333333;3;10
"jean gaudaire thor";1;1;1;27;1;1;1;27
"artist bernard buffet";1;1;1;32;1;1;1;32
"robert sgarra";1;1;1;5;1;1;1;5
"thomas canto";1;1;1;19;1;1;1;19
"jimmy ruf";1;0.25;4;4.75;0;0;1;5;0;0;1;4;1;0.5;2;5
"laurent bouro";1;1;1;5;1;1;1;5
"marty de montereau";1;0.5;2;1;1;0.5;2;1
"hopkins painter";1;1;1;9;1;1;1;9
"claire dorsett";1;0.33333333333333;3;7.6666666666667;1;0.5;2;7;0;0;1;9
"guy denning";1;0.05;20;8.6;0;0;14;9.6428571428571;1;0.16666666666667;6;6.1666666666667
"yoel benharrouche prices";1;1;1;4;1;1;1;4
"gabriel bodnariu";1;0.5;2;5;1;0.5;2;5
"anatoly rudakov";1;0.5;2;9;1;0.5;2;9
"sandro giordoan";1;1;1;7;1;1;1;7
"zhou hongbin";1;0.2;5;9.2;1;0.25;4;9.75;0;0;1;7
"huston ripley";1;0.125;8;10.375;1;0.2;5;10.4;0;0;3;10.333333333333
"ren hang exhibition";1;0.33333333333333;3;4;1;0.33333333333333;3;4
"eliane larus";1;1;1;4;1;1;1;4
jonone;1;0.11111111111111;9;10.666666666667;1;0.25;4;13.75;0;0;5;8.2
"fred ebami";1;1;1;7;1;1;1;7
"linda blackstone gallery";1;0.33333333333333;3;5;1;0.33333333333333;3;5
"edouard buzon";1;0.5;2;1.5;0;0;1;2;1;1;1;1
"agnes baudet";1;1;1;9;1;1;1;9
"etiye dimma poulsen";1;0.5;2;17;1;0.5;2;17
"sun mi ahn";1;0.5;2;3.5;1;0.5;2;3.5
"elisabeth lecourt";1;0.125;8;8.875;1;0.16666666666667;6;9.1666666666667;0;0;2;8
aïroh;1;1;1;3;1;1;1;3
"edmond van dooren";1;0.5;2;3.5;1;0.5;2;3.5
"philippe vasseur artist";1;1;1;1;1;1;1;1
"yann houri for sale";1;1;1;3;1;1;1;3
"anna bocek prices";1;0.5;2;4.5;1;0.5;2;4.5
"loulou picasso";1;1;1;12;1;1;1;12
"aris messinis";1;0.1;10;8.2;1;0.11111111111111;9;8.1111111111111;0;0;1;9
"david harber torus";1;0.5;2;9.5;1;0.5;2;9.5
"nina urlichs";1;1;1;2;1;1;1;2
"valerie hadida sculptures";1;0.5;2;8;1;0.5;2;8
"guy denning art for sale";1;0.33333333333333;3;5.3333333333333;1;0.5;2;6;0;0;1;4
"mahjoub ben bella";1;1;1;2;1;1;1;2
"bruno mallart";0;0;2;8;0;0;1;9;0;0;1;7
"stephane jacob";0;0;1;4;0;0;1;4
цедки;0;0;2;5;0;0;2;5
"romero britto";0;0;1;33;0;0;1;33
"edwin apps actor";0;0;1;6;0;0;1;6
"jiri kolar collage";0;0;1;43;0;0;1;43
"herve lewis photo";0;0;1;1;0;0;1;1
"johanne 8 facebook";0;0;1;7;0;0;1;7
"alf roberts";0;0;1;43;0;0;1;43
"red indians art";0;0;1;335;0;0;1;335
"florence d'elle art";0;0;1;1;0;0;1;1
"jean michel basquiat paintings for sale";0;0;1;25;0;0;1;25
"sell star n8";0;0;1;45;0;0;1;45
"aris messinis photographer";0;0;1;9;0;0;1;9
aliot;0;0;1;94;0;0;1;94
"laurent martinez";0;0;1;6;0;0;1;6
"jean gabriel";0;0;1;169;0;0;1;169
"lorioz art";0;0;1;10;0;0;1;10
"florence d'elle paintings";0;0;3;2.6666666666667;0;0;3;2.6666666666667
"blek le rat";0;0;2;71;0;0;2;71
renoma;0;0;1;89;0;0;1;89
"italian lady 2";0;0;1;4;0;0;1;4
"conrad marca-relli";0;0;1;38;0;0;1;38
"martine feipel & jean bechameil";0;0;1;50;0;0;1;50
"aurelie nemours";0;0;1;56;0;0;1;56
"toma l";0;0;3;3.6666666666667;0;0;2;1;0;0;1;9
"pedro font alba";0;0;1;10;0;0;1;10
"jack otway";0;0;1;6;0;0;1;6
"natalia art";0;0;1;21;0;0;1;21
"sergio birga";0;0;1;9;0;0;1;9
"stephane joannes";0;0;1;6;0;0;1;6
"yan pei ming";0;0;1;50;0;0;1;50
"dibond signage in lagos";0;0;1;41;0;0;1;41
"alberto martini facebook";0;0;1;51;0;0;1;51
"francine van hove";0;0;1;15;0;0;1;15
"gunter damisch";0;0;1;53;0;0;1;53
"terry watts";0;0;1;35;0;0;1;35
"soir bleu";0;0;1;44;0;0;1;44
"home alone artwork";0;0;1;5;0;0;1;5
"thierry alet";0;0;1;8;0;0;1;8
"seher art";0;0;1;26;0;0;1;26
"corine pagny";0;0;2;5;0;0;2;5
"mambo art for sale";0;0;1;9;0;0;1;9
"takashi murakami art for sale";0;0;1;5;0;0;1;5
"peter liversidge";0;0;1;60;0;0;1;60
"henrietta dubrey";0;0;4;11.75;0;0;4;11.75
"bahareh navabi";0;0;1;5;0;0;1;5
"guy denning biography";0;0;1;5;0;0;1;5
"marc ferrero";0;0;4;9.5;0;0;2;10;0;0;2;9
"la butte";0;0;1;184;0;0;1;184
"bogena galerie";0;0;1;100;0;0;1;100
"antoni tapies original prints worcester";0;0;1;51;0;0;1;51
"kathleen petyarre";0;0;1;38;0;0;1;38
"herve lewis";0;0;2;9.5;0;0;2;9.5
"suling wang artist";0;0;1;1;0;0;1;1
"brno del zou information";0;0;1;3;0;0;1;3
"yoel benharrouche for sale";0;0;1;4;0;0;1;4
"lockheed constellation for sale";0;0;1;31;0;0;1;31
"thomas ahl";0;0;1;20;0;0;1;20
"li lihong";0;0;4;3.5;0;0;4;3.5
"paul bogaers";0;0;7;28.571428571429;0;0;7;28.571428571429
"philippe berry sculpteur";0;0;1;3;0;0;1;3
"bruno catalano prices";0;0;2;5;0;0;2;5
"plantation boys";0;0;1;40;0;0;1;40
"urinoir art";0;0;1;45;0;0;1;45
"bill blast graffiti";0;0;1;7;0;0;1;7
abcgallery;0;0;1;7;0;0;1;7
"murano lamper";0;0;1;40;0;0;1;40
"alain riviere lecoeur";0;0;2;1.5;0;0;1;2;0;0;1;1
"ii ta'";0;0;1;190;0;0;1;190
withoos;0;0;1;32;0;0;1;32
"serge nyfeler";0;0;1;14;0;0;1;14
"home alone 6";0;0;1;47;0;0;1;47
"fantasy art for sale";0;0;2;29;0;0;2;29
"madeleine dietz";0;0;2;11.5;0;0;2;11.5
"duxbury art museum";0;0;1;406;0;0;1;406
"david harber sculptures";0;0;1;36;0;0;1;36
"troy henriksen art";0;0;1;2;0;0;1;2
"kavachnina contemporary";0;0;1;73;0;0;1;73
"subject matter art";0;0;1;88;0;0;1;88
"crash matos";0;0;2;2;0;0;1;3;0;0;1;1
"nathan chantob";0;0;1;3;0;0;1;3
"peter hoffer";0;0;2;17;0;0;2;17
"annette messager";0;0;1;93;0;0;1;93
"basquiat paintings for sale";0;0;1;28;0;0;1;28
"perino & vele";0;0;1;4;0;0;1;4
"gerard alary";0;0;1;4;0;0;1;4
"david crismon";0;0;1;18;0;0;1;18
"david lachapelle helga lachapelle";0;0;1;9;0;0;1;9
"henry lamy";0;0;1;9;0;0;1;9
vagabondage;0;0;1;9;0;0;1;9
"cony theis";0;0;1;25;0;0;1;25
"guy denning street art";0;0;1;6;0;0;1;6
"alva bernadine";0;0;3;12;0;0;3;12
"jean michel berts";0;0;1;48
"andrew mcneile";0;0;1;15;0;0;1;15
"melanie bonajo";0;0;2;39;0;0;2;39
sijae;0;0;1;3;0;0;1;3
"sandy skoglund biography";0;0;3;20;0;0;3;20
"lady gaga hello kitty dress";0;0;2;17;0;0;2;17
"roman opalka";0;0;1;81;0;0;1;81
"gallery nue";0;0;1;3;0;0;1;3
"isabelle leclercq";0;0;1;19;0;0;1;19
"vikram kushwah";0;0;1;1;0;0;1;1
"joan saló";0;0;2;20.5;0;0;2;20.5
houri;0;0;1;125;0;0;1;125
"unique gallery dubai";0;0;1;10;0;0;1;10
"chris morin";0;0;1;7;0;0;1;7
"olivier masmonteil";0;0;1;10;0;0;1;10
"martin szekely";0;0;1;38;0;0;1;38
"jacques poli";0;0;1;2;0;0;1;2
+nitsch+hermann;0;0;1;131;0;0;1;131
"jared leto artwork";0;0;1;35;0;0;1;35
"kurt cobain artwork for sale";0;0;1;36;0;0;1;36
"artist jeff koons";0;0;1;215;0;0;1;215
"kilmany jo liversage";0;0;1;9;0;0;1;9
"djinane alsuwayeh";0;0;1;8;0;0;1;8
"be gallery";0;0;1;29;0;0;1;29
"rudolf hausner";0;0;1;9;0;0;1;9
"roger edgar gillet";0;0;2;9;0;0;1;10;0;0;1;8
"polic usa";0;0;1;5;0;0;1;5
"florent touchot";0;0;1;2;0;0;1;2
hornsleth;0;0;2;136;0;0;2;136
"miss van art";0;0;1;44;0;0;1;44
"norma bessieres";0;0;1;11;0;0;1;11
"polly ngale";0;0;2;34.5;0;0;2;34.5
"césar baldaccini";0;0;1;7;0;0;1;7
"miguel chevalier artist";0;0;1;10;0;0;1;10
surian;0;0;1;168;0;0;1;168
"نحن ""contact"" ~فأفآ";0;0;2;226.5;0;0;2;226.5
"jean-francois rauzier";0;0;1;32;0;0;1;32
"shepard fairey lotus";0;0;3;1;0;0;3;1
"brigitte perrier";0;0;1;7;0;0;1;7
"esso oil can";0;0;1;26;0;0;1;26
"damien gard";0;0;2;4;0;0;2;4
sawtelle;0;0;1;161;0;0;1;161
grisor;0;0;2;9;0;0;1;10;0;0;1;8
"lolita nudes";0;0;1;69;0;0;1;69
"mélanie peduzzi";0;0;2;2;0;0;2;2
"navabi sale";0;0;1;41;0;0;1;41
"philippe pradalie";0;0;1;4;0;0;1;4
takala;0;0;6;8.1666666666667;0;0;3;7.6666666666667;0;0;1;9;0;0;2;8.5
"stephen forbes artist";0;0;3;5.3333333333333;0;0;3;5.3333333333333
jmrobert;0;0;1;1;0;0;1;1
"basquiat art for sale";0;0;1;24;0;0;1;24
brantt;0;0;1;38;0;0;1;38
"francine van hove art";0;0;1;18;0;0;1;18
"bambi art";0;0;1;37;0;0;1;37
"remy mars";0;0;1;222;0;0;1;222
"antoine geiger";0;0;1;19;0;0;1;19
"rafael marquez biography";0;0;1;26;0;0;1;26
"octave pixel";0;0;9;2.7777777777778;0;0;1;1;0;0;5;3.8;0;0;3;1.6666666666667
"finbarr dac";0;0;1;10;0;0;1;10
"david lachapelle biography";0;0;1;43;0;0;1;43
"shirley jaffe";0;0;1;31;0;0;1;31
"ekkehard altenburger";0;0;2;22.5;0;0;2;22.5
"jim kazanjian";0;0;1;29;0;0;1;29
"laurina paperina";0;0;1;54;0;0;1;54
af1680;0;0;1;22;0;0;1;22
"djamel boucly";0;0;1;16;0;0;1;16
couettes;0;0;1;229;0;0;1;229
"misskiss_ nude";0;0;1;32;0;0;1;32
"jin bo grand";0;0;1;161;0;0;1;161
"moca beijing";0;0;1;135;0;0;1;135
"jean denis";0;0;1;221;0;0;1;221
"helmut newton artwork";0;0;4;7.75;0;0;4;7.75
"planete serie";0;0;9;4.2222222222222;0;0;8;4.25;0;0;1;4
"eric deville";0;0;2;6;0;0;1;2;0;0;1;10
"obey lotus";0;0;1;1;0;0;1;1
"space art";0;0;1;330;0;0;1;330
"jacques villegle";0;0;5;8;0;0;4;7.5;0;0;1;10
"artbar71 berlin";0;0;1;53;0;0;1;53
"ville du soleil";0;0;1;33;0;0;1;33
"thomas x gally";0;0;1;39;0;0;1;39
"max parisot";0;0;1;1;0;0;1;1
"antoni muntadas";0;0;1;60;0;0;1;60
"galerie vevais";0;0;1;8;0;0;1;8
"yona friedman";0;0;2;63;0;0;2;63
"branding in art";0;0;1;8;0;0;1;8
"miss tic";0;0;3;9;0;0;2;8;0;0;1;11
"gregoire leon guillemin";0;0;2;5.5;0;0;2;5.5
"li wei art";0;0;1;27;0;0;1;27
"peter klasen";0;0;1;23;0;0;1;23
"oleg dou";0;0;3;40.333333333333;0;0;3;40.333333333333
"keith haring montreux";0;0;3;2;0;0;1;2;0;0;2;2
"self portrait photographer york";0;0;1;149;0;0;1;149
"jesper just";0;0;1;92;0;0;1;92
"folly and muse";0;0;2;4.5;0;0;1;5;0;0;1;4
"lihong li";0;0;1;35;0;0;1;35
"léo caillard";0;0;1;35;0;0;1;35
"kolaj painting art";0;0;1;9;0;0;1;9
lagarrigue;0;0;1;44;0;0;1;44
"stéphanie nava";0;0;1;7;0;0;1;7
"advanced graphics london";0;0;1;77;0;0;1;77
"la madrague brigitte";0;0;1;7;0;0;1;7
shup;0;0;1;49;0;0;1;49
"john matos crash";0;0;1;3;0;0;1;3
"jef aérosol";0;0;4;7;0;0;4;7
"m. monroe";0;0;1;243;0;0;1;243
koleć;0;0;1;3;0;0;1;3
"paul stolper gallery";0;0;1;33;0;0;1;33
"cecile plaisance";0;0;1;17;0;0;1;17
"mel ramos coco";0;0;1;10;0;0;1;10
"renaud delorme";0;0;2;6.5;0;0;1;6;0;0;1;7
"john crash matos";0;0;3;11.333333333333;0;0;3;11.333333333333
colomina;0;0;2;4;0;0;2;4
"kool kor";0;0;1;2;0;0;1;2
mondapart;0;0;1;5;0;0;1;5
desperator;0;0;1;7;0;0;1;7
"branding and logos";0;0;3;416;0;0;3;416
"anne valerie dupond";0;0;1;10;0;0;1;10
"pez art";0;0;2;44;0;0;2;44
"jon one artist";0;0;2;10;0;0;2;10
"gijsbert hanekroot";0;0;2;1;0;0;2;1
"gazelli art house";0;0;1;38;0;0;1;38
"viveca koh";0;0;1;18;0;0;1;18
"spectacled owl";0;0;1;165;0;0;1;165
"open you mind";0;0;5;2;0;0;4;2.25;0;0;1;1
"peter klasen artist";0;0;1;5;0;0;1;5
"shepard fairey peace dove";0;0;4;1;0;0;4;1
"alex guofeng cao";0;0;1;13;0;0;1;13
"hervé lewis";0;0;1;1;0;0;1;1
"jonny green artist";0;0;1;8;0;0;1;8
"les caprices de victoria";0;0;1;172;0;0;1;172
"crystal wagner";0;0;1;44;0;0;1;44
"galerie nicolas hugo";0;0;1;5;0;0;1;5
"mel ramos chiquita";0;0;1;9;0;0;1;9
"max czertok";0;0;1;3;0;0;1;3
"john matos";0;0;1;8;0;0;1;8
"narcose serie";0;0;1;25;0;0;1;25
trovic;0;0;1;10;0;0;1;10
"christopher schulz";0;0;1;68;0;0;1;68
"gerstein art";0;0;2;21.5;0;0;2;21.5
"murielle belin";0;0;1;6;0;0;1;6
"joan prats";0;0;1;42;0;0;1;42
"bicha gallery";0;0;1;37;0;0;1;37
misstic;0;0;1;9;0;0;1;9
"galerie bettina";0;0;1;5;0;0;1;5
"saudek gallery";0;0;1;42;0;0;1;42
"octavian florescu";0;0;1;25;0;0;1;25
"jacques villegle artwork";0;0;1;7;0;0;1;7
chasur;0;0;1;6;0;0;1;6
"michele destarac";0;0;1;1;0;0;1;1
"yayoi kusama sculptures";0;0;1;2;0;0;1;2
"x corno";0;0;1;33;0;0;1;33
latlas;0;0;1;86;0;0;1;86
"maurice renoma";0;0;1;2;0;0;1;2
"open your mine";0;0;1;1;0;0;1;1
"lucy & jorge orta";0;0;1;48;0;0;1;48
hyber;0;0;1;41;0;0;1;41
"jean hélion";0;0;1;47;0;0;1;47
"عشرة ""contact"" ~فأفآ";0;0;1;458;0;0;1;458
"aris messinis photography";0;0;3;6.3333333333333;0;0;2;6.5;0;0;1;6
"jean faucheur";0;0;2;2;0;0;1;2;0;0;1;2
agnis;0;0;1;205;0;0;1;205
"jaded angel";0;0;1;43;0;0;1;43
"iñigo arregi";0;0;1;9;0;0;1;9
"pierre riba";0;0;3;9;0;0;3;9
"steven gagnon";0;0;1;55;0;0;1;55
blinded;0;0;1;326;0;0;1;326
"conrad marca relli";0;0;1;38;0;0;1;38
"georges braque";0;0;1;193;0;0;1;193
"angel duarte";0;0;5;1;0;0;5;1
"antonio asis";0;0;1;66;0;0;1;66
"sam phillips art";0;0;1;35;0;0;1;35
"monika nowak";0;0;1;15;0;0;1;15
"graham dolphin";0;0;1;8;0;0;1;8
"armand israel";0;0;2;5;0;0;2;5
"anya gallaccio";0;0;1;79;0;0;1;79
hugoofficial;0;0;1;31;0;0;1;31
"tony bevan";0;0;1;54;0;0;1;54
"hiro and ando";0;0;1;28;0;0;1;28
"bernard quentin";0;0;1;9;0;0;1;9
"henri lamy";0;0;3;7.3333333333333;0;0;3;7.3333333333333
"anthony murphy artist";0;0;1;10;0;0;1;10
"didier triglia artist";0;0;1;2;0;0;1;2
"mehdi \lemoduledezeer\";0;0;1;16;0;0;1;16
"richard orlinski";0;0;1;17;0;0;1;17
"catherine seher";0;0;1;5;0;0;1;5
"richard di rosa";0;0;3;5;0;0;1;5;0;0;2;5
"pretty portal";0;0;1;4;0;0;1;4
"la lagune";0;0;1;153;0;0;1;153
"antoine correia";0;0;1;5;0;0;1;5
"sun ra arkestra";0;0;1;242;0;0;1;242
"keith coventry";0;0;1;43;0;0;1;43
"disney orgy";0;0;1;50;0;0;1;50
"gérard rancinan";0;0;1;21;0;0;1;21
"cesar baldaccini";0;0;1;7;0;0;1;7
"galerie oneiro";0;0;1;4;0;0;1;4
"etienne rey";0;0;1;10;0;0;1;10
"claire trotignon";0;0;2;6;0;0;2;6
"άρης μεσσήνης";0;0;2;10.5;0;0;2;10.5
"jiji girl";0;0;1;10;0;0;1;10
"mathieu mercier";0;0;1;83;0;0;1;83
"bernard pras artwork";0;0;2;8;0;0;1;8;0;0;1;8
"batista artist";0;0;1;9;0;0;1;9
aboudia;0;0;1;31;0;0;1;31
"allan mccollum";0;0;1;74;0;0;1;74
"charles fazzino";0;0;2;73.5;0;0;2;73.5
"reda abdel rahman";0;0;1;1;0;0;1;1
"pierre & gilles";0;0;1;39;0;0;1;39
"michel jean basquiat";0;0;2;391;0;0;2;391
"open tour mind";0;0;1;1;0;0;1;1
"willy ronis le petit parisien";0;0;6;1;0;0;3;1;0;0;3;1
"le galet";0;0;1;182;0;0;1;182
"relief print artists";0;0;1;528;0;0;1;528
"inception gallery";0;0;1;5;0;0;1;5
"li wei";0;0;75;7;0;0;46;9.9565217391304;0;0;28;2.3571428571429;0;0;1;1
"operation serval";0;0;1;115;0;0;1;115
"العكس ""contact"" ~فأفآ";0;0;1;54;0;0;1;54
"ye xing";0;0;1;12;0;0;1;12
"francois bard";0;0;10;7.7;0;0;7;8.4285714285714;0;0;3;6
"gerard mortier";0;0;1;50;0;0;1;50
hannaka;0;0;1;21;0;0;1;21
"benjamin deroche";0;0;2;4;0;0;2;4
arakimentari;0;0;1;220;0;0;1;220
"david harber";0;0;2;19;0;0;2;19
guinio;0;0;3;10;0;0;3;10
posticles;0;0;1;1;0;0;1;1
"benoit trimborn prix";0;0;1;7;0;0;1;7
mechali;0;0;1;35;0;0;1;35
"philip pasqua";0;0;1;10;0;0;1;10
"pulp fiction puzzle";0;0;1;2;0;0;1;2
"nils udo art";0;0;1;9;0;0;1;9
"judy rifka";0;0;1;28;0;0;1;28
"jacques mahé de la villeglé";0;0;3;6;0;0;2;6;0;0;1;6
"kongo artist";0;0;2;4;0;0;2;4
"victor lope arte contemporaneo";0;0;1;85;0;0;1;85
"sam phillips match 3";0;0;2;3;0;0;1;3;0;0;1;3
gueranger;0;0;1;49;0;0;1;49
"bruno catalano";0;0;1;26;0;0;1;26
"rob van hoek";0;0;1;6;0;0;1;6
"ernest pignon-ernest";0;0;1;21;0;0;1;21
"rebecca schuster debütroman tramp";0;0;1;42;0;0;1;42
"poppy flowers for sale";0;0;1;105;0;0;1;105
"yuval shaul";0;0;2;9.5;0;0;2;9.5
"mark mawson";0;0;1;53;0;0;1;53
"lyle carbajal artist";0;0;1;8;0;0;1;8
"i married an artist";0;0;2;19;0;0;2;19
"jean pierre nadau";0;0;1;3;0;0;1;3
"adrian buba";0;0;1;5;0;0;1;5
"zao wou ki";0;0;1;91;0;0;1;91
"henri matisse original prints worcester";0;0;1;24;0;0;1;24
"philippe hiquily";0;0;3;17.666666666667;0;0;3;17.666666666667
"richard orlinski prices";0;0;1;9;0;0;1;9
"murakami art for sale";0;0;2;7.5;0;0;1;9;0;0;1;6
"julien airault";0;0;1;5;0;0;1;5
"open in your mind";0;0;1;5;0;0;1;5
"greg carlin";0;0;1;29;0;0;1;29
"cruz diez art";0;0;2;11;0;0;2;11
"bernard pras";0;0;2;9;0;0;2;9
"sandro giordano";0;0;7;8.1428571428571;0;0;6;8;0;0;1;9
"quantum contemporary art";0;0;1;32;0;0;1;32
"simon liddiment";0;0;1;7;0;0;1;7
"brno del zou";0;0;5;2.2;0;0;3;2.3333333333333;0;0;2;2
"buddha artwork for sale";0;0;1;51;0;0;1;51
"1000 kisses";0;0;1;6;0;0;1;6
ciprana;0;0;1;7;0;0;1;7
"open your mind images";0;0;1;1;0;0;1;1
"a2z art gallery";0;0;1;8;0;0;1;8
"john bulmer";0;0;4;11;0;0;4;11
"frances bruno catalano";0;0;1;11;0;0;1;11
arietti;0;0;1;8;0;0;1;8
"kun deng";0;0;2;18;0;0;2;18
"mor charpentier";0;0;1;62;0;0;1;62
"sun-hyuk kim";0;0;2;5.5;0;0;2;5.5
"fernando garcía ponce";0;0;1;14;0;0;1;14
"léon tutundjian";0;0;1;96;0;0;1;96
"anouk grinberg";0;0;1;48;0;0;1;48
"genevieve sawtelle";0;0;2;10;0;0;2;10
"poisson séché";0;0;1;51;0;0;1;51
"françoise nielly";0;0;1;34;0;0;1;34
"jm robert art";0;0;2;3.5;0;0;1;1;0;0;1;6
"mi hyun kim";0;0;1;34;0;0;1;34
"hotel ristorante camene";0;0;1;55;0;0;1;55
+mel+ramos;0;0;1;108;0;0;1;108
"claude closky";0;0;2;18;0;0;2;18
"marie-anne thieffry";0;0;3;6.3333333333333;0;0;3;6.3333333333333
"jock sturges";0;0;1;91;0;0;1;91
chubac;0;0;3;6;0;0;1;4;0;0;2;7
http://www.basementizid.com/;0;0;2;178;0;0;2;178
"genius norman";0;0;1;14;0;0;1;14
"li baoxun";0;0;1;1;0;0;1;1
"lance letscher";0;0;1;22;0;0;1;22
"michal lukasiewicz";0;0;1;30;0;0;1;30
lamri;0;0;3;2.3333333333333;0;0;3;2.3333333333333
"car bonne";0;0;1;5;0;0;1;5
"crash artist";0;0;2;11;0;0;1;11;0;0;1;11
"thomas muller art";0;0;3;5;0;0;1;5;0;0;2;5
"gerard rancinan";0;0;1;18;0;0;1;18
"alexey klimov";0;0;1;16;0;0;1;16
"gerard schlosser";0;0;1;10;0;0;1;10
"thierry bigaignon";0;0;1;6;0;0;1;6
"meyer works";0;0;1;190;0;0;1;190
"christian bilger";0;0;1;8;0;0;1;8
"le large";0;0;1;206;0;0;1;206
"bettina von arnim";0;0;1;32;0;0;1;32
"yago partal";0;0;1;43;0;0;1;43
"willy ronis";0;0;3;36.666666666667;0;0;3;36.666666666667
"antoine stevens bio";0;0;2;2;0;0;1;2;0;0;1;2
"uche okpa-iroha";0;0;1;9;0;0;1;9
"forum ctoq";0;0;1;129;0;0;1;129
"garrett pruter";0;0;1;21;0;0;1;21
"hiro ando";0;0;3;7.6666666666667;0;0;1;8;0;0;1;8;0;0;1;7
josse;0;0;1;200;0;0;1;200
"alain rivière lecoeur";0;0;1;5;0;0;1;5
"vincent hawkins artist";0;0;1;5;0;0;1;5
bertelli;0;0;1;194;0;0;1;194
"gordon hopkins artist";0;0;4;5;0;0;4;5
"arthur tress";0;0;1;63;0;0;1;63
"zhao bandi";0;0;3;8;0;0;2;7;0;0;1;10
"antoine stevens artist";0;0;1;9;0;0;1;9
"uwe ommer";0;0;1;17;0;0;1;17
"zhou tiehai";0;0;2;17.5;0;0;2;17.5
"suling wang";0;0;2;11.5;0;0;2;11.5
djalouz;0;0;1;10;0;0;1;10
sensuality;0;0;1;415;0;0;1;415
"robert combas";0;0;6;8;0;0;5;8.2;0;0;1;7
"alma haser";0;0;1;24;0;0;1;24
heze;0;0;1;312;0;0;1;312
lhoste;0;0;1;246;0;0;1;246
"benjamin carbonne";0;0;5;1.2;0;0;3;1.3333333333333;0;0;1;1;0;0;1;1
"art nue";0;0;2;4.5;0;0;2;4.5
"david gerstein";0;0;2;26.5;0;0;1;52;0;0;1;1
"yaacov agam";0;0;1;91;0;0;1;91
"ahn sun mi";0;0;2;6;0;0;2;6
"timur novikov";0;0;2;11;0;0;2;11
"jan pruski";0;0;1;22;0;0;1;22
"olivier courty";0;0;1;7;0;0;1;7
"sienna patti contemporary";0;0;1;82;0;0;1;82
"alex katz for sale";0;0;1;47;0;0;1;47
"fleur de roeck";0;0;3;4;0;0;2;4;0;0;1;4
"keith tyson";0;0;1;84;0;0;1;84
"ysl loader";0;0;1;10;0;0;1;10
"thierry valencin";0;0;2;10;0;0;2;10
"vikram kushwah photography";0;0;1;3;0;0;1;3
saint-cyr;0;0;1;193;0;0;1;193
"ruta jusionyte";0;0;3;10.333333333333;0;0;1;12;0;0;2;9.5
"freddie nguyen";0;0;1;12;0;0;1;12
"maria torp";0;0;1;10;0;0;1;10
"toxic artist";0;0;1;4;0;0;1;4
"veruschka helmut newton";0;0;1;10;0;0;1;10
"les terrasses de cécile";0;0;1;48;0;0;1;48
"philippe huart";0;0;2;13;0;0;1;16;0;0;1;10
zenoy;0;0;1;3;0;0;1;3
"asgar/ gabriel";0;0;1;10;0;0;1;10
kyliss;0;0;1;1;0;0;1;1
"sonia aniceto";0;0;1;3;0;0;1;3
"contemporary portrait photography";0;0;1;423;0;0;1;423
"cat vinton";0;0;1;10;0;0;1;10
"etienne gros";0;0;6;6;0;0;4;6.5;0;0;2;5
"keith haring crack down";0;0;1;6;0;0;1;6
"christian renonciat";0;0;3;7.6666666666667;0;0;2;7;0;0;1;9
"christy lee";0;0;1;8;0;0;1;8
"speedy graphito";0;0;3;19;0;0;2;24;0;0;1;9
"antoine rose";0;0;1;70;0;0;1;70
"bruno catalano sculpture for sale";0;0;2;8.5;0;0;2;8.5
"juliette montier";0;0;1;7;0;0;1;7
"dope gallery";0;0;1;8;0;0;1;8
"jiji sale";0;0;1;18;0;0;1;18
fuger;0;0;1;336;0;0;1;336
delaplace;0;0;1;177;0;0;1;177
"claude charlier";0;0;1;9;0;0;1;9
"luca di filippo";0;0;5;7.6;0;0;3;8.6666666666667;0;0;2;6
"paris burel";0;0;1;2;0;0;1;2
ribart;0;0;1;11;0;0;1;11
"jonas “sun7” bournat";0;0;1;4;0;0;1;4
"wilfred lang prints";0;0;1;19;0;0;1;19
"jacek hazuka";0;0;1;14;0;0;1;14
"toxic street artist";0;0;1;9;0;0;1;9
izabeau;0;0;1;10;0;0;1;10
"arman violon";0;0;1;5;0;0;1;5
"vito hannibal acconci";0;0;1;85;0;0;1;85
"jan saudek";0;0;1;48;0;0;1;48
gielczynski;0;0;9;1;0;0;9;1
"ilgin seymen";0;0;1;9;0;0;1;9
"rob van hoek art";0;0;1;10;0;0;1;10
"who is frankie moreno";0;0;1;140;0;0;1;140
"guy de rougemont";0;0;2;8.5;0;0;2;8.5
"bernard chauchet";0;0;1;11;0;0;1;11
"guy boyer connaissance des arts";0;0;1;7;0;0;1;7
"arthur dorval";0;0;2;1;0;0;2;1
"christophe charbonnel";0;0;3;7;0;0;1;6;0;0;1;7;0;0;1;8
"foot fetish";0;0;1;150;0;0;1;150
"jean-michel berts";0;0;2;48;0;0;2;48
"millésime gallery";0;0;1;6;0;0;1;6
"romain tichit";0;0;1;7;0;0;1;7
planeteserie;0;0;1;2;0;0;1;2
"nicole wendel";0;0;1;1;0;0;1;1
"anna bocek";0;0;13;8.7692307692308;0;0;8;8.625;0;0;4;9;0;0;1;9
lebredonchel;0;0;1;10;0;0;1;10
"griffin gallery";0;0;1;157;0;0;1;157
"inside out museum paris";0;0;1;338;0;0;1;338
serigraphy;0;0;1;250;0;0;1;250
+bram+bogart;0;0;1;34;0;0;1;34
"roman opalka paintings for sale";0;0;1;10;0;0;1;10
"jef claes";0;0;1;25;0;0;1;25
"pierre david";0;0;1;33;0;0;1;33
"marcus egli";0;0;1;8;0;0;1;8
"luzia simons";0;0;1;34;0;0;1;34
"cool artwork for sale";0;0;1;60;0;0;1;60
"marie anne thieffry";0;0;9;7.2222222222222;0;0;3;6.6666666666667;0;0;2;6;0;0;4;8.25
"chu teh-chun";0;0;2;46;0;0;2;46
"liu xiaofang";0;0;1;19;0;0;1;19
"ken spooner artist";0;0;1;1;0;0;1;1
"du beffroi calais";0;0;1;76;0;0;1;76
"cali rezo";0;0;1;15;0;0;1;15
"melanie peduzzi";0;0;1;6;0;0;1;6
"jean charles quillin";0;0;3;3.3333333333333;0;0;1;3;0;0;2;3.5
"ando yuki";0;0;1;5;0;0;1;5
"هي ""contact"" ~فأفآ";0;0;1;187;0;0;1;187
"nieves mingueza";0;0;1;10;0;0;1;10
"wifredo lam";0;0;1;194;0;0;1;194
"hotel bobo";0;0;1;81;0;0;1;81
tanc;0;0;1;74;0;0;1;74
"claude champy ceramics";0;0;2;7;0;0;2;7
litao;0;0;1;44;0;0;1;44
"jacob loy";0;0;1;231;0;0;1;231
"oxana taran";0;0;1;6;0;0;1;6
"joel giraud";0;0;1;9;0;0;1;9
"taki 183";0;0;3;30.666666666667;0;0;3;30.666666666667
"jeremy annear";0;0;2;24;0;0;2;24
"clothilde lasserre";0;0;1;9;0;0;1;9
"etching acrylic";0;0;1;441;0;0;1;441
"football artwork";0;0;1;236;0;0;1;236
"sandra ghosn";0;0;2;10;0;0;2;10
"solene ballesta";0;0;1;6;0;0;1;6
"alfie goodrich";0;0;1;22;0;0;1;22
"masseuse 1";0;0;1;17;0;0;1;17
"lin felton";0;0;2;1.5;0;0;2;1.5
"juliette brown";0;0;1;45;0;0;1;45
"famous clown artists";0;0;1;413;0;0;1;413
"stephane gautier";0;0;2;2.5;0;0;1;2;0;0;1;3
"yang yongliang artist";0;0;1;4;0;0;1;4
"contemporary middle eastern art";0;0;2;389;0;0;2;389
"ren hang photography";0;0;1;11;0;0;1;11
littlepussy;0;0;1;100;0;0;1;100
"hugh turvey";0;0;1;38;0;0;1;38
"jean charles millepied";0;0;1;6;0;0;1;6
demiak;0;0;1;27;0;0;1;27
"jim dine pinocchio";0;0;1;36;0;0;1;36
"joseph beuys";0;0;1;238;0;0;1;238
"nue art";0;0;2;2.5;0;0;2;2.5
"herve perdriel";0;0;3;7;0;0;1;7;0;0;2;7
dagada;0;0;1;34;0;0;1;34
pradino;0;0;1;4;0;0;1;4
"this life loader";0;0;8;20.125;0;0;8;20.125
nowart;0;0;2;7.5;0;0;2;7.5
"boom surfboards";0;0;2;7;0;0;1;7;0;0;1;7
"philippe parreno";0;0;1;97;0;0;1;97
"bernard pas";0;0;1;9;0;0;1;9
"li wie";0;0;1;1;0;0;1;1
kleiber;0;0;1;172;0;0;1;172
"cottavoz andré";0;0;3;10;0;0;3;10
"alain clement artist";0;0;4;4;0;0;4;4
"andy hope 1930";0;0;1;100;0;0;1;100
"rob van hoek artist";0;0;1;10;0;0;1;10
"xin art";0;0;1;5;0;0;1;5
"george platt lynes";0;0;1;63;0;0;1;63
"françois houtin";0;0;1;11;0;0;1;11
"tatiana kourochkina contemporary art project";0;0;1;58;0;0;1;58
"clint eastwood artwork";0;0;1;18;0;0;1;18
"caroline fraser";0;0;1;56;0;0;1;56
"صديق ""contact"" ~فأفآ";0;0;1;155;0;0;1;155
"julian schnabel";0;0;1;337;0;0;1;337
36e;0;0;1;312;0;0;1;312
"munch artwork";0;0;1;240;0;0;1;240
chenut;0;0;1;38;0;0;1;38
"aboudia abdoulaye diarrassouba";0;0;1;28;0;0;1;28
sainte-fauste;0;0;1;23;0;0;1;23
zaru;0;0;1;226;0;0;1;226
"branding logos";0;0;2;421;0;0;1;422;0;0;1;420
"benoit trimborn";0;0;1;5;0;0;1;5
"liu bolin usa";0;0;1;43;0;0;1;43
agamograph;0;0;1;36;0;0;1;36
"fabrizio cornelli";0;0;2;10;0;0;2;10
"castle galleries";0;0;1;41;0;0;1;41
"jonone paris";0;0;1;10;0;0;1;10
"nasty artist";0;0;1;6;0;0;1;6
"philippe assalit";0;0;1;1;0;0;1;1
"magdalena lamri";0;0;2;4;0;0;2;4
"don mateo street art";0;0;1;90;0;0;1;90
"sylvain dress code";0;0;1;6;0;0;1;6
"top 10 graphic designers";0;0;1;414;0;0;1;414
"arthur tress biography";0;0;1;8;0;0;1;8
"markowicz fine art";0;0;2;35;0;0;2;35
"rutger brandt gallery";0;0;1;7;0;0;1;7
"dana gordon";0;0;1;144;0;0;1;144
"jola images";0;0;1;8;0;0;1;8
"side x side for sale monroe la";0;0;1;86;0;0;1;86
"jacque villegle";0;0;1;7;0;0;1;7
"reinhard gorner";0;0;4;10.75;0;0;3;11;0;0;1;10
"marc petit";0;0;1;56;0;0;1;56
"irina starkova";0;0;1;11;0;0;1;11
"clinton friedman";0;0;2;18.5;0;0;1;20;0;0;1;17
"dean stockton";0;0;1;35;0;0;1;35
"still life food photographers";0;0;1;408;0;0;1;408
hako;0;0;1;166;0;0;1;166
"jean-charles millepied";0;0;1;5;0;0;1;5
"yury toroptsov";0;0;1;17;0;0;1;17
"greg minah";0;0;1;15;0;0;1;15
"michelle mikesell";0;0;1;20;0;0;1;20
"yan houri";0;0;1;7;0;0;1;7
miss.tic;0;0;1;10;0;0;1;10
"borys makary";0;0;1;34;0;0;1;34
"chu teh chun";0;0;2;44.5;0;0;2;44.5
"molin corvo gallery";0;0;1;9;0;0;1;9
vray;0;0;3;137.66666666667;0;0;3;137.66666666667
"pez artist";0;0;1;34;0;0;1;34
"pierre tissier";0;0;2;8;0;0;2;8
+al+held;0;0;1;112;0;0;1;112
"galerie charron";0;0;3;4;0;0;1;4;0;0;2;4
"rafael gomez barros";0;0;6;9.6666666666667;0;0;2;9;0;0;4;10
"jethro buck";0;0;1;16;0;0;1;16
+robert+combas;0;0;1;14;0;0;1;14
"georges inca";0;0;2;8;0;0;2;8
"la maja desnuda";0;0;1;82;0;0;1;82
gzstore;0;0;1;9;0;0;1;9
"raymond hains";0;0;13;9.1538461538462;0;0;9;9.7777777777778;0;0;4;7.75
"pius fox";0;0;1;22;0;0;1;22
onemizer;0;0;3;8.6666666666667;0;0;3;8.6666666666667
"porno france";0;0;1;15;0;0;1;15
"francine vanhove";0;0;1;18;0;0;1;18
"alinka echeverria";0;0;1;38;0;0;1;38
"alexandre joly";0;0;2;13.5;0;0;1;19;0;0;1;8
"ivan plusch";0;0;2;4.5;0;0;2;4.5
"creepy art for sale";0;0;3;8;0;0;1;8;0;0;1;7;0;0;1;9
"carlos cruz diez";0;0;1;74;0;0;1;74
"bambi artist";0;0;1;31;0;0;1;31
"jacques villeglé";0;0;3;7;0;0;3;7
"anne brunet";0;0;1;25;0;0;1;25
"anderson & low";0;0;1;36;0;0;1;36
"corinne dubreuil";0;0;1;10;0;0;1;10
"ahmed nejad";0;0;1;12;0;0;1;12
"hans-christian schink";0;0;1;50;0;0;1;50
"martin reyna";0;0;1;16;0;0;1;16
"yvonne coomber";0;0;1;26;0;0;1;26
polic;0;0;1;15;0;0;1;15
"elephant artwork for sale";0;0;1;39;0;0;1;39
"erik salin";0;0;1;9;0;0;1;9
"lyle carbajal";0;0;2;12;0;0;2;12
"relton marine";0;0;1;21;0;0;1;21
rafiy;0;0;1;7;0;0;1;7
"zhang wei artist";0;0;1;6;0;0;1;6
"benjamin spark";0;0;2;9;0;0;1;9;0;0;1;9
"li wei photography";0;0;1;38;0;0;1;38
"the art of nasty";0;0;3;8.6666666666667;0;0;1;6;0;0;2;10
"anna marrow artist";0;0;1;19;0;0;1;19
"envie d'art";0;0;3;8.3333333333333;0;0;1;3;0;0;2;11
"hazuka jacek";0;0;1;1;0;0;1;1
"valérie hadida";0;0;2;10;0;0;2;10
"patrizio di renzo";0;0;1;32;0;0;1;32
"roberto battistini";0;0;1;1;0;0;1;1
markowicz;0;0;1;126;0;0;1;126
"jonvelle photographer";0;0;1;1;0;0;1;1
"blind impression";0;0;1;44;0;0;1;44
"l'apanage des faibles";0;0;1;4;0;0;1;4
delbaere;0;0;1;29;0;0;1;29
sezam;0;0;1;67;0;0;1;67
"peter downsbrough";0;0;1;85;0;0;1;85
"gohar dashti";0;0;1;38;0;0;1;38
"cedric dequidt";0;0;3;8;0;0;1;10;0;0;2;7
"gabriel paris";0;0;2;43;0;0;2;43
"forum cgac";0;0;1;223;0;0;1;223
"al held";0;0;1;56;0;0;1;56
"darco artist";0;0;2;9.5;0;0;1;9;0;0;1;10
"francoise neilly";0;0;1;39;0;0;1;39
dysform;0;0;1;6;0;0;1;6
lassaâd;0;0;1;17;0;0;1;17
"flower delivery bilbao";0;0;1;65;0;0;1;65
"rero artist";0;0;2;18;0;0;2;18
"yang yongliang";0;0;11;11;0;0;11;11
"lamborghini fire extinguisher";0;0;1;41;0;0;1;41
"alexis gorodine";0;0;1;2;0;0;1;2
"heiner meyer";0;0;1;63;0;0;1;63
"olivier sultan";0;0;2;15;0;0;2;15
"rero art";0;0;2;27;0;0;2;27
"disney castle artwork";0;0;1;306;0;0;1;306
"dominique regnier";0;0;1;10;0;0;1;10
"steet view";0;0;1;50;0;0;1;50
"david hinchliffe art for sale";0;0;1;6;0;0;1;6
"nils udo";0;0;1;11;0;0;1;11
"eva jospin";0;0;11;4.2727272727273;0;0;8;4.75;0;0;2;4;0;0;1;1
"marek piasecki";0;0;5;23.4;0;0;5;23.4
"fresh to death";0;0;2;189.5;0;0;1;185;0;0;1;194
"yasemin senel";0;0;1;14;0;0;1;14
"antoine josse";0;0;1;11;0;0;1;11
fubiz;0;0;3;32.666666666667;0;0;3;32.666666666667
"ran hwang";0;0;1;38;0;0;1;38
"vincent richeux";0;0;1;9;0;0;1;9
"a to z galleries";0;0;1;204;0;0;1;204
"pierre marie brisson";0;0;7;4.7142857142857;0;0;3;1;0;0;3;9.6666666666667;0;0;1;1
"philippe weisbecker";0;0;4;6.25;0;0;2;5;0;0;2;7.5
"disco hard rock";0;0;1;7;0;0;1;7
"giorgio laveri";0;0;1;10;0;0;1;10
"what is 2nd amendment";0;0;1;419;0;0;1;419
"philippe vasseur";0;0;3;11.666666666667;0;0;2;11.5;0;0;1;12
"kiki picasso";0;0;2;6.5;0;0;2;6.5
"joanne corno";0;0;1;26;0;0;1;26
"sculpture crocodile rouge";0;0;1;2;0;0;1;2
"eric de ville";0;0;2;2;0;0;2;2
"gérard schlosser";0;0;1;10;0;0;1;10
"cara delevingne stencil";0;0;1;1;0;0;1;1
"mariah carey gold";0;0;1;1;0;0;1;1
"art jingle";0;0;1;11;0;0;1;11
"لون ""contact"" ~فأفآ";0;0;2;36.5;0;0;2;36.5
"miss van";0;0;2;69;0;0;2;69
schmite;0;0;1;10;0;0;1;10
"philippe berry";0;0;2;6;0;0;2;6
"brigitte penicaud";0;0;1;4;0;0;1;4
"pierre terrasson";0;0;1;13;0;0;1;13
"raphael tachdjian";0;0;1;7;0;0;1;7
"gordon hopkins";0;0;7;4;0;0;3;4;0;0;4;4
"sharon drew artist";0;0;1;10;0;0;1;10
"renaud delorme artist";0;0;1;6;0;0;1;6
"ramzi adek";0;0;1;7;0;0;1;7
femmejambes;0;0;1;8;0;0;1;8
"nava france";0;0;1;17;0;0;1;17
"capital culture gallery";0;0;1;5;0;0;1;5
"armando rearte";0;0;1;66;0;0;1;66
"gottfried salzmann";0;0;1;9;0;0;1;9
"mel ramos lola cola";0;0;2;27.5;0;0;2;27.5
liwei;0;0;4;4.5;0;0;3;5.6666666666667;0;0;1;1
"aki kuroda";0;0;10;3.4;0;0;4;7;0;0;3;1;0;0;3;1
"roger schall";0;0;2;1;0;0;2;1
"prisoners movie";0;0;1;192;0;0;1;192
"leobardo perez";0;0;3;2;0;0;3;2
"frank horvat";0;0;2;41;0;0;2;41
"miguel chevalier";0;0;3;33;0;0;3;33
"jerome lagarrigue";0;0;2;13.5;0;0;1;16;0;0;1;11
"alison wilding";0;0;1;45;0;0;1;45
"emilio scanavino";0;0;1;62;0;0;1;62
"mr lolo";0;0;1;10;0;0;1;10
"asgar gabriel";0;0;1;8;0;0;1;8
"denis proteor";0;0;1;17;0;0;1;17
"francesco libassi";0;0;1;10;0;0;1;10
"olivier leroy";0;0;1;25;0;0;1;25
"kerry eggleton";0;0;1;4;0;0;1;4
"basquiat artist";0;0;1;343;0;0;1;343
lietart;0;0;1;9;0;0;1;9
"emmanuel barcilon";0;0;1;14;0;0;1;14
"hideka tonomura";0;0;3;1;0;0;3;1
shanshui;0;0;1;187;0;0;1;187
"venezuelan artists";0;0;1;36;0;0;1;36
"tom wesselmann lulu";0;0;1;1;0;0;1;1
"victori contemporary";0;0;1;54;0;0;1;54
"paul treasure artist";0;0;1;10;0;0;1;10
seksigöster;0;0;1;75;0;0;1;75
dtone;0;0;2;9;0;0;1;9;0;0;1;9
muckensturm;0;0;1;8;0;0;1;8
"alva bernardine";0;0;1;2;0;0;1;2
durix;0;0;1;4;0;0;1;4
"jean georges inca";0;0;1;1;0;0;1;1
"william eggleston biography";0;0;1;32;0;0;1;32
"laurent dierick";0;0;2;8.5;0;0;1;7;0;0;1;10
"philippe pasqua";0;0;6;9.5;0;0;3;11.333333333333;0;0;2;8.5;0;0;1;6
reve6;0;0;1;43;0;0;1;43
"john monteith";0;0;1;51;0;0;1;51
pookky;0;0;2;8;0;0;2;8
"emeric chantier";0;0;2;8;0;0;1;7;0;0;1;9
"hélder batista";0;0;3;10;0;0;3;10
zeimert;0;0;2;5.5;0;0;1;1;0;0;1;10
"anna marrow";0;0;1;28;0;0;1;28
"campbells scotch broth";0;0;1;39;0;0;1;39
"speedy graphito for sale";0;0;2;5;0;0;2;5
houtin;0;0;1;3;0;0;1;3
"the little queen (2014)";0;0;1;17;0;0;1;17
"david stetson";0;0;1;31;0;0;1;31
"yves gellie";0;0;1;9;0;0;1;9
"michael bevilacqua";0;0;1;60;0;0;1;60
"abstract art savannah ga";0;0;2;329;0;0;2;329
"anthony clarke basquiat";0;0;1;9;0;0;1;9
"olivia art gallery";0;0;1;225;0;0;1;225
godon;0;0;13;1.8461538461538;0;0;9;2.1111111111111;0;0;1;1;0;0;3;1.3333333333333
"el pescador";0;0;1;153;0;0;1;153
"jean faucheur artist";0;0;1;2;0;0;1;2
ribardiere;0;0;1;8;0;0;1;8
"tom wesselmann";0;0;13;31.153846153846;0;0;13;31.153846153846
"ramon grimalt";0;0;1;9;0;0;1;9
liquidiv;0;0;1;53;0;0;1;53
"open our mind";0;0;1;1;0;0;1;1
"esther de bont";0;0;4;14;0;0;4;14
"sabine danze";0;0;2;9.5;0;0;2;9.5
"susanne stemmer";0;0;1;26;0;0;1;26
"telemaque herve";0;0;1;8;0;0;1;8
"jim morrison artwork";0;0;2;19;0;0;2;19
"drip drop";0;0;1;243;0;0;1;243
"charlotte champion";0;0;3;6.3333333333333;0;0;2;6.5;0;0;1;6
"du zhenjun";0;0;1;30;0;0;1;30
"kumi sugai";0;0;6;10.5;0;0;5;10.8;0;0;1;9
"philippe artist";0;0;1;2;0;0;1;2
"open yourmind";0;0;1;1;0;0;1;1
"kusama sculpture";0;0;1;23;0;0;1;23
"pierre francois grimaldi";0;0;7;3.8571428571429;0;0;4;3.75;0;0;2;4;0;0;1;4
shrigley;0;0;1;268;0;0;1;268
"galerie nuances et lumière lyon";0;0;1;3;0;0;1;3
dequidt;0;0;1;39;0;0;1;39
"sui jianguo";0;0;1;67;0;0;1;67
"marie chauvel";0;0;1;3;0;0;1;3
"nick walker artist";0;0;1;44;0;0;1;44
"andrea btoy";0;0;1;10;0;0;1;10
"pakpoom silaphan";0;0;2;10.5;0;0;2;10.5
"open yor mind";0;0;1;1;0;0;1;1
"anne moses";0;0;1;44;0;0;1;44
"vinz art";0;0;1;18;0;0;1;18
"renata har";0;0;1;12;0;0;1;12
"manuel geerinck";0;0;1;28;0;0;1;28
"boccara galerie";0;0;1;4;0;0;1;4
"massimo carasi";0;0;1;10;0;0;1;10
picka;0;0;3;103.66666666667;0;0;3;103.66666666667
"galerie fluegel-roncak";0;0;1;17;0;0;1;17
"claude champy";0;0;3;9;0;0;3;9
"anne et patrick poirier";0;0;1;18;0;0;1;18
"format painting";0;0;1;29;0;0;1;29
"banksy 10 pound note";0;0;1;18;0;0;1;18
"bob dylan smoking";0;0;1;223;0;0;1;223
"montreux jazz festival 1983";0;0;1;1;0;0;1;1
"charlie roberts artist";0;0;2;13.5;0;0;2;13.5
"eleanor wood artist";0;0;2;8;0;0;2;8
"forum bxma";0;0;1;150;0;0;1;150
+william+sweetlove;0;0;1;110;0;0;1;110
"forum cifo";0;0;1;230;0;0;1;230
"lou ros artist";0;0;5;9;0;0;3;8.3333333333333;0;0;2;10
"ayline olukman";0;0;13;5.4615384615385;0;0;3;6.3333333333333;0;0;10;5.2
"isabelle cochereau";0;0;1;5;0;0;1;5
"tobias putrih";0;0;1;50;0;0;1;50
"davide cicolani";0;0;2;1;0;0;2;1
"manu perez";0;0;7;23;0;0;6;23.666666666667;0;0;1;19
"paper ruff";0;0;1;327;0;0;1;327
"bob marley art for sale";0;0;1;28;0;0;1;28
awena;0;0;5;39.8;0;0;5;39.8
carabas;0;0;1;94;0;0;1;94
"jonathan callan";0;0;1;44;0;0;1;44
"palazzo bembo venise";0;0;1;185;0;0;1;185
fulcrand;0;0;1;1;0;0;1;1
"lelong car for sale";0;0;1;14;0;0;1;14
"liwei li";0;0;1;5;0;0;1;5
"pop art lithographs";0;0;1;329;0;0;1;329
"sunday b morning flowers";0;0;1;18;0;0;1;18
"moby blues";0;0;1;218;0;0;1;218
"vincent descotils";0;0;1;7;0;0;1;7
"les dunes";0;0;1;151;0;0;1;151
"eugene begarat";0;0;2;8;0;0;2;8
li-wei;0;0;1;3;0;0;1;3
"thierry lo";0;0;1;10;0;0;1;10
"antoine stevens";0;0;31;6.0967741935484;0;0;5;6.2;0;0;21;6.0952380952381;0;0;5;6
"shahabuddin ahmed";0;0;1;36;0;0;1;36
"concorde paris";0;0;1;195;0;0;1;195
"carlos cruz-diez";0;0;1;74;0;0;1;74
"valerie hadida";0;0;6;8.8333333333333;0;0;5;9;0;0;1;8
"open.your mind";0;0;1;1;0;0;1;1
"toshimitsu imai artist";0;0;1;20;0;0;1;20
"baudoin lebon";0;0;4;6.25;0;0;3;6;0;0;1;7
"gabriela bodin";0;0;1;6;0;0;1;6
"mel ramos vintage peekaboo";0;0;2;40.5;0;0;2;40.5
"map of north south america";0;0;1;321;0;0;1;321
"hopkins artist";0;0;1;14;0;0;1;14
"lolita beach nude";0;0;1;18;0;0;1;18
"gregory watin";0;0;3;5;0;0;3;5
"le grand palais biarritz";0;0;1;177;0;0;1;177
"jef aerosol";0;0;1;10;0;0;1;10
"vincent hawkins";0;0;2;10;0;0;1;10;0;0;1;10
"the dude artwork";0;0;1;8;0;0;1;8
"gottfried salzmann artist";0;0;1;7;0;0;1;7
"greenwood gallery paris";0;0;1;5;0;0;1;5
"mikael lafontan";0;0;1;8;0;0;1;8
"martin kudlek";0;0;1;97;0;0;1;97
"etienne cail";0;0;3;1.3333333333333;0;0;3;1.3333333333333
"natalia rak";0;0;7;14;0;0;7;14
"kilian glasner";0;0;1;11;0;0;1;11
"sarah hardacre";0;0;1;20;0;0;1;20
"17th century paintings for sale";0;0;1;39;0;0;1;39
"whitespace gallery";0;0;1;61;0;0;1;61
+hans+hartung;0;0;2;143;0;0;2;143
"tiffany chung";0;0;1;49;0;0;1;49
"genevieve claisse";0;0;1;7;0;0;1;7
"whats an epilogue";0;0;1;132;0;0;1;132
"denis rouvre";0;0;1;43;0;0;1;43
"riccardo simonutti";0;0;1;8;0;0;1;8
"elin melberg";0;0;1;24;0;0;1;24
"charlotte cornaton";0;0;1;92;0;0;1;92
"girl panda";0;0;1;126;0;0;1;126
"jacques de la villeglé";0;0;1;10;0;0;1;10
"dan rawlings";0;0;3;4;0;0;2;4;0;0;1;4
lazarew;0;0;1;10;0;0;1;10
"anna bocek artist";0;0;1;9;0;0;1;9
"matthew attard";0;0;2;8;0;0;2;8
"jose manuel fors";0;0;1;9;0;0;1;9
"modern art paintings savannah ga";0;0;2;411;0;0;2;411
"les bories";0;0;1;86;0;0;1;86
"galerie virginie barrou planquart";0;0;2;6;0;0;2;6
villeglé;0;0;1;9;0;0;1;9
"bengt lindström";0;0;1;67;0;0;1;67
"jacques pellegrin";0;0;2;7.5;0;0;1;7;0;0;1;8
"ren hang";0;0;1;23;0;0;1;23
"helene de saint lager";0;0;1;8;0;0;1;8
"katrin bremermann";0;0;2;2;0;0;2;2
"murakami flower cushion";0;0;3;6;0;0;2;6;0;0;1;6
"gz store";0;0;3;6.3333333333333;0;0;1;7;0;0;2;6
"pius fox artist";0;0;1;8;0;0;1;8
"candle in the wind";0;0;2;176;0;0;1;178;0;0;1;174
"bram bogart";0;0;2;32;0;0;2;32
intra01;0;0;1;6;0;0;1;6
"irina ionesco";0;0;1;93;0;0;1;93
"kenneth noland";0;0;1;90;0;0;1;90
"corinne pagny";0;0;2;5;0;0;2;5
"fantasy females are impossible to satisfy";0;0;1;6;0;0;1;6
"anna bjerger paintings";0;0;1;5;0;0;1;5
"gregory gaydu";0;0;1;9;0;0;1;9
"olivier widmaier picasso";0;0;3;13;0;0;2;14;0;0;1;11
"hilger modern / contemporary";0;0;1;98;0;0;1;98
"martín reyna";0;0;1;24;0;0;1;24
"bor iii";0;0;1;48;0;0;1;48
"petite_fille nude";0;0;1;48;0;0;1;48
"yann houri";0;0;13;5;0;0;8;3.75;0;0;5;7
hamey;0;0;1;8;0;0;1;8
"romain artist";0;0;1;5;0;0;1;5
"robert zandvliet";0;0;1;27;0;0;1;27
"ilka meschke";0;0;1;17;0;0;1;17
"von hornsleth";0;0;1;9;0;0;1;9
roch3;0;0;2;6.5;0;0;2;6.5
"pauline dufour";0;0;3;7;0;0;3;7
pagart;0;0;1;39;0;0;1;39
"henni alftan";0;0;4;8.25;0;0;2;8.5;0;0;2;8
"shen jing dong";0;0;2;7;0;0;2;7
"zao wou-ki";0;0;1;94;0;0;1;94
"yan morvan";0;0;1;10;0;0;1;10
"hom nguyen";0;0;1;9;0;0;1;9
"fabrice hyber";0;0;3;10.333333333333;0;0;3;10.333333333333
"ville de lumieres";0;0;1;239;0;0;1;239
"keith haring montreux jazz festival 1983";0;0;1;1;0;0;1;1
"olivier debré";0;0;1;90;0;0;1;90
konichiwa;0;0;1;187;0;0;1;187
"bruno catalano sculpture prices";0;0;2;6;0;0;2;6
"easy rider artwork";0;0;1;22;0;0;1;22
"veronique rischard";0;0;2;2;0;0;2;2
"lyric gallery";0;0;1;414;0;0;1;414
"alex maclean";0;0;1;93;0;0;1;93
"rudi pillen";0;0;2;1;0;0;1;1;0;0;1;1
"cornwall contemporary";0;0;1;7;0;0;1;7
"mel ramos";0;0;3;41;0;0;3;41
"stiliana alexieva";0;0;3;9.3333333333333;0;0;1;10;0;0;2;9
"gerry cranham";0;0;1;4;0;0;1;4
"cecile desserle";0;0;1;7;0;0;1;7
"homme arbre";0;0;1;39;0;0;1;39
nils-udo;0;0;1;9;0;0;1;9
"self portrait photographers york";0;0;1;136;0;0;1;136
"""moscona""";0;0;1;41;0;0;1;41
"طول ""contact"" ~فأفآ";0;0;1;63;0;0;1;63
"jacques mahe de la villegle";0;0;2;6.5;0;0;2;6.5
"galerie noel";0;0;1;405;0;0;1;405
"mel ramos paintings";0;0;1;43
"serge mendjisky";0;0;1;13
"lucie bennett";0;0;1;42
"yan pei-ming";0;0;1;50
"dino valls";0;0;1;24
"frank de mulder";0;0;2;53
"jacques renoir";0;0;5;8.8;0;0;1;9;0;0;1;10
"emma levine artist";0;0;1;10
kijno;0;0;1;7
openyourmind;0;0;1;4
"olivier picasso";0;0;1;15
"allegro for sale";0;0;1;175
"fabio coruzzi";0;0;1;14
"marilyn minter";0;0;1;111
"forum geaf";0;0;1;244
"didier hamey";0;0;1;10
"le cerf";0;0;1;160
"michael meyersfeld";0;0;1;16
"lucien murat";0;0;5;5.4;0;0;1;2;0;0;1;3
"is mariah carey black";0;0;1;30
"lotus diamond";0;0;1;1
"open your mind";0;0;213;1.6619718309859;0;0;111;1.7117117117117;0;0;18;1.8888888888889
"lou ros art";0;0;1;10
"شراء ""contact"" ~برانس";0;0;1;338
mitz.at;0;0;2;29
"لطيف ""contact"" ~قابي";0;0;1;292
"sarah maple";0;0;1;39
"ronald dupont";0;0;2;1
"gerard titus carmel";0;0;1;47
"thierry feuz";0;0;2;32.5
"ahmad zakii anwar";0;0;1;17
"ángel duarte";0;0;1;4
"nomusa makhubu";0;0;1;9;0;0;2;9
"ted nomad";0;0;1;5
"lyric media";0;0;1;424
"george harrison portrait";0;0;1;305
"jianguo beijing";0;0;1;160
"peter wüthrich";0;0;1;49
"maria perello";0;0;1;23
"andy warhol l";0;0;1;19
chichorro;0;0;1;32
"sun hyuk kim";0;0;1;1;0;0;1;3
"guy denning inferno";0;0;1;16
"alex kizu";0;0;1;10
"artist bambi";0;0;2;3;0;0;1;2
"jacques ibert";0;0;1;56
"razvan hotel bucharest";0;0;1;76
"jonone street art";0;0;3;18.333333333333
"lynch ii";0;0;1;221
"florence d'elle";0;0;2;6.5;0;0;4;8
"nurcan giz";0;0;1;3
"mario sughi";0;0;1;33
"di rosa";0;0;1;105
"arman artist";0;0;1;29
"lisa sartorio";0;0;1;7;0;0;1;2
"jacqueline roberts";0;0;2;24.5
"by the dude";0;0;1;10
"jonathan huxley";0;0;2;7
"keith haring lucky strike";0;0;1;1
"eillen grey";0;0;1;14
"john kacere";0;0;3;37
"quentin shih";0;0;2;23
"lynch painting";0;0;1;330
"anna bjerger";0;0;10;7.6;0;0;6;7.3333333333333;0;0;10;7.2
"margarete roeder gallery";0;0;1;335
"jean helion";0;0;1;49
"arnaud rabier";0;0;1;99
"henri sarla";0;0;1;2
"anne guillon";0;0;3;2
"lyric paper";0;0;1;345
"troy henriksen";0;0;4;3;0;0;1;3
"georges autard";0;0;1;5
"norman rockwell artist proof";0;0;1;40
"sandra david";0;0;1;10
pipet;0;0;1;151;0;0;1;164
"john “crash” matos";0;0;1;9
"sally fuerst";0;0;1;10;0;0;1;10
"carlos betancourt";0;0;1;44
"juliette clovis";0;0;1;1;0;0;1;1;0;0;2;1
"marie claire";0;0;2;183;0;0;1;185
"centre culturel juliette drouet upcoming events";0;0;1;44
"françois morellet";0;0;1;55
"keith haring & la2";0;0;1;88
"francois morellet";0;0;6;14.166666666667;0;0;1;11
"kool koor";0;0;8;2;0;0;2;7;0;0;1;2
"guy dening";0;0;1;9
"didier triglia";0;0;2;3
"tente alexander";0;0;2;16
"lyric bank";0;0;1;310
"alan avery art company";0;0;1;221
artsper;0;0;5;1;0;0;1;1;0;0;2;1
"mario chichorro";0;0;2;5
"fabrizio corneli";0;0;3;7.6666666666667;0;0;6;8.6666666666667;0;0;3;8
"shen jingdong";0;0;3;5.3333333333333
"galerie rx";0;0;1;3
"adam binder";0;0;1;42
"reservoir dogs artwork";0;0;1;15
"galerie olivier waltman";0;0;1;4
"jonone art";0;0;2;9.5
"xavier prieur";0;0;1;10
"anne guillon peintre";0;0;1;2
"jian guo art";0;0;1;34
"ahmed moustafa";0;0;1;54
seestudio;0;0;1;26
"romain cadilhon";0;0;1;6
"eva navarro";0;0;3;5.6666666666667
"خمسة ""contact"" ~فأفآ";0;0;1;480
guyodo;0;0;1;1
"jieun park";0;0;1;30
"juha arvid helminen";0;0;1;32
"thomas muller paris";0;0;1;44
trichom;0;0;1;30
"denis darzacq";0;0;1;63
"baruj salinas";0;0;1;44
"pierre-marie brisson";0;0;2;15.5
"thomas bossard";0;0;3;4.6666666666667;0;0;2;5
"nguyen the dung";0;0;1;4
"christian von sydow";0;0;1;13
"bernard buffet clown";0;0;1;232
"guy denning artist";0;0;3;5.6666666666667;0;0;1;5;0;0;2;10
"joseph kosuth oeuvres";0;0;2;9
"sunday b morning";0;0;1;20
"paulette tavormina";0;0;1;33;0;0;2;35
"cecile colombo";0;0;1;2
"barbara stanley gallery";0;0;1;5
calmets;0;0;1;6;0;0;1;5
"ki to la gloire";0;0;1;6
"edwin apps";0;0;1;9
"forum jea";0;0;1;245
"jonone artist";0;0;3;9.6666666666667;0;0;2;11
"alexander tente";0;0;2;17
"daan oude elferink";0;0;2;10
"elwin buchel";0;0;2;12
"fred calmets";0;0;1;5
brasstooth;0;0;1;42
"maxime ansiau";0;0;1;15
"boccara design";0;0;1;8
"wolfgang krell";0;0;2;14
ommer;0;0;1;36
"mitch dobrowner";0;0;1;92
"caroline veith";0;0;2;8.5
"thomas muller artist";0;0;2;6
"ferro sergio";0;0;1;4
leyto;0;0;8;2.625;0;0;2;3.5;0;0;1;4
"berlin jianguo international";0;0;1;98
"eric lapierre";0;0;2;7.5
"gérard alary";0;0;1;5
"dieter mammel";0;0;1;33
"akira asakura";0;0;1;10
"sylvester deutsch";0;0;1;7
"françois bard";0;0;5;8
"francoise nielly";0;0;1;40
"marc asnin";0;0;1;54
"yoel benharrouche";0;0;1;10
"peter lippmann";0;0;1;9;0;0;1;9
"christophe catelain";0;0;2;4
"tite street for sale";0;0;1;49
"christian bonnefoi";0;0;1;21
"oeuvre de joan miro";0;0;1;1
"liquid iv";0;0;1;67
"i will protect";0;0;1;245
"ivan alifan";0;0;2;31
jorion;0;0;1;37
"oxana art";0;0;1;25
"claude closky artist";0;0;2;7.5
"jerome mesnager";0;0;1;4
"abstract painting for sale";0;0;1;213
hopare;0;0;1;96
"french galleries";0;0;2;5
"pierre cornudet";0;0;1;3
"robert bradford artist biography";0;0;1;11
mariposas;0;0;1;195
"claude azoulay";0;0;1;16
"cruz diez artist";0;0;1;1
"roman road gallery";0;0;1;11
"lie wei";0;0;1;4
tanç;0;0;1;2
"nojnoma paris";0;0;1;5
quik;0;0;1;8
"alain huet";0;0;1;9
"paul carey kent";0;0;1;8
"florence d elle photographs";0;0;2;1
"artigas planas";0;0;2;3
"hopkins painting";0;0;1;7
putov;0;0;1;6
pechane;0;0;1;5
"guy boyer";0;0;2;6.5
"open your mind art";0;0;1;1
"natalia rak art";0;0;1;9
"isabel espinoza";0;0;1;8
"pierre fontaine";0;0;1;50
"antoine veron";0;0;1;10
"patrick guidot";0;0;2;8
"ren hang wiki";0;0;1;6
"sibylle baltzer";0;0;3;7
kouka;0;0;1;10
"sabyl ghoussoub";0;0;1;7
"valerie hadida sculpture";0;0;3;9;0;0;1;10
"galerie roy sfeir";0;0;1;8
"cara delevingne graffiti";0;0;1;1
"bernard st maxent";0;0;1;9
tiutin;0;0;1;6
"eva jospin biography";0;0;1;3
nasty;0;0;1;194
"sandra krasker";0;0;1;5
"beetles huxley";0;0;1;7
"jm robert";0;0;2;1
"maya de mondragon";0;0;1;32
"gomez barros";0;0;2;9
"costa artist";0;0;1;10
"tetsuo harada";0;0;1;10
"david sitbon";0;0;1;3
"yuriko takagi photographer";0;0;2;9
