"mira maodus";4;0.19047619047619;21;4.1428571428571;2;0.10526315789474;19;4.2631578947368;2;1;2;3
"daan oude elferink";3;0.13636363636364;22;8.6363636363636;0;0;13;8.1538461538462;2;0.5;4;9.75;1;0.2;5;9
"petra wunderlich";2;0.22222222222222;9;8.2222222222222;1;0.16666666666667;6;8.6666666666667;1;0.33333333333333;3;7.3333333333333
"brno del zou";2;0.5;4;2;0;0;1;3;2;0.66666666666667;3;1.6666666666667
"etienne gros";2;0.22222222222222;9;5.5555555555556;0;0;3;5.6666666666667;2;0.4;5;5;0;0;1;8
"raigon stanley";2;0.4;5;3.6;2;0.5;4;3.5;0;0;1;4
nojnoma;2;0.11111111111111;18;1.6111111111111;1;0.14285714285714;7;1.7142857142857;1;0.1;10;1.4;0;0;1;3
"jane emberson";2;0.5;4;6.25;1;0.33333333333333;3;6.3333333333333;1;1;1;6
"fabrizio corneli";1;0.11111111111111;9;9;1;0.125;8;8.875;0;0;1;10
apesteguy;1;1;1;1;1;1;1;1
"michele destarac";1;1;1;1;1;1;1;1
"didier hamey";1;0.066666666666667;15;4.9333333333333;1;0.066666666666667;15;4.9333333333333
"toxic graffiti artist";1;1;1;10;1;1;1;10
"yo marchand";1;1;1;5;1;1;1;5
"banksy tenner for sale";1;1;1;19;1;1;1;19
"vuk vidor";1;0.33333333333333;3;4.6666666666667;1;0.33333333333333;3;4.6666666666667
"anatoly rudakov";1;1;1;8;1;1;1;8
"isabel espinoza";1;0.5;2;9;1;0.5;2;9
"annabelle tattu";1;1;1;6;1;1;1;6
"christy lee rogers prints";1;1;1;7;1;1;1;7
"banksy choose your weapon for sale";1;1;1;22;1;1;1;22
"emmanuel barcilon";1;0.5;2;14;1;0.5;2;14
"aris messinis";1;0.25;4;12.5;0;0;3;12;1;1;1;14
"galerie vivendi";1;1;1;3;1;1;1;3
"bruno catalano prices";1;0.5;2;6;1;0.5;2;6
"bastien cuenot";1;1;1;2;1;1;1;2
"ronald dupont";1;0.5;2;1;1;0.5;2;1
"philippe pasqua";1;0.2;5;14.4;1;0.2;5;14.4
"toxic street artist";1;1;1;10;1;1;1;10
"arno elias prints";1;1;1;1;1;1;1;1
"giorgio ciam";1;1;1;10;1;1;1;10
"monique de roux";1;0.5;2;8;1;0.5;2;8
"bruno catalano sculpture for sale";1;1;1;5;1;1;1;5
"zhou hongbin";1;0.5;2;9;1;0.5;2;9
"marie maertens";1;0.5;2;4;1;0.5;2;4
"raymond hains";1;0.16666666666667;6;6.8333333333333;1;0.25;4;6.5;0;0;2;7.5
"philippe huart";1;0.16666666666667;6;9.1666666666667;1;0.25;4;9.75;0;0;2;8
"magdalena lamri";1;0.2;5;5;1;0.2;5;5
"ilgin seymen";1;0.33333333333333;3;9.6666666666667;1;0.33333333333333;3;9.6666666666667
"peter lippmann";1;0.076923076923077;13;7.6923076923077;1;0.1;10;8;0;0;3;6.6666666666667
"jack otway art";1;1;1;4;1;1;1;4
"richard orlinski prix";1;1;1;4;1;1;1;4
"silvia calmejane";1;0.25;4;2;0;0;2;2;1;0.5;2;2
"open your mind";1;0.0032051282051282;312;2.3269230769231;1;0.0084033613445378;119;2.1428571428571;0;0;171;2.4619883040936;0;0;22;2.2727272727273
"rafael gomez barros";1;0.25;4;7.5;0;0;1;9;1;0.33333333333333;3;7
"guo peng photography";1;0.5;2;8.5;1;0.5;2;8.5
goet;0;0;1;48;0;0;1;48
"razvan bucharest";0;0;1;191;0;0;1;191
"united states rigorously";0;0;17;305.52941176471;0;0;17;305.52941176471
"zao wou-ki";0;0;1;98;0;0;1;98
"du beffroi calais";0;0;1;72;0;0;1;72
"jacques villegle biography";0;0;1;8;0;0;1;8
"hervé di rosa";0;0;1;10;0;0;1;10
k-narf;0;0;1;97;0;0;1;97
"frederic deprun";0;0;1;4;0;0;1;4
colomina;0;0;2;3;0;0;1;3;0;0;1;3
"yago partal";0;0;1;39;0;0;1;39
"hom nguyen";0;0;1;4;0;0;1;4
"genevieve claisse";0;0;4;5.5;0;0;3;6;0;0;1;4
"jaurena art";0;0;1;223;0;0;1;223
poes;0;0;1;209;0;0;1;209
"jonas “sun7” bournat";0;0;1;4;0;0;1;4
"bram bogart";0;0;1;28;0;0;1;28
"alva bernadine";0;0;1;21;0;0;1;21
"speedy graphito";0;0;3;39;0;0;3;39
"jerzy piwowarczyk";0;0;1;24;0;0;1;24
"remi rough & crash";0;0;1;36;0;0;1;36
"vinz feel free";0;0;1;98;0;0;1;98
"jean christophe";0;0;1;309;0;0;1;309
carzon;0;0;1;29;0;0;1;29
"maggie matthews";0;0;1;30;0;0;1;30
"nicole wendel";0;0;1;1;0;0;1;1
"markus & koala";0;0;6;3;0;0;6;3
"poppy artwork";0;0;1;233;0;0;1;233
sijae;0;0;1;8;0;0;1;8
"claude champy ceramics";0;0;1;7;0;0;1;7
"peter klasen artist";0;0;2;4.5;0;0;1;1;0;0;1;8
"romero britto";0;0;5;43;0;0;5;43
"cony theis";0;0;1;23;0;0;1;23
layral;0;0;1;9;0;0;1;9
"mwenze kibwanga";0;0;2;1.5;0;0;1;2;0;0;1;1
"ayana v jackson";0;0;1;28;0;0;1;28
"tanc artist";0;0;3;3;0;0;2;3;0;0;1;3
"united states primarily";0;0;1;378;0;0;1;378
"charles guyot";0;0;1;1;0;0;1;1
"kenny hunter";0;0;1;55;0;0;1;55
"nicolas dhervillers";0;0;1;10;0;0;1;10
"italian lady 2";0;0;1;4;0;0;1;4
"ford gt for sale";0;0;2;159.5;0;0;1;155;0;0;1;164
"anderson & low";0;0;1;35;0;0;1;35
"victor richardson artist";0;0;1;9;0;0;1;9
"luca de gaetano";0;0;2;8;0;0;2;8
"tatiana kourochkina contemporary art project";0;0;1;88;0;0;1;88
"combas robert";0;0;1;5;0;0;1;5
"sandy skoglund biography";0;0;1;19;0;0;1;19
"benoit trimborn";0;0;1;6;0;0;1;6
"antoni clavé";0;0;1;95;0;0;1;95
"chris morin";0;0;1;3;0;0;1;3
"papillon art gallery";0;0;2;149.5;0;0;2;149.5
"frankie moreno";0;0;1;176;0;0;1;176
nebay;0;0;2;25;0;0;2;25
"gunter damisch";0;0;1;45;0;0;1;45
"bruno catalano biography";0;0;1;5;0;0;1;5
"creepy art for sale";0;0;2;7;0;0;2;7
"adrian buba";0;0;2;6;0;0;2;6
"emilio scanavino";0;0;1;67;0;0;1;67
"james hori";0;0;1;230;0;0;1;230
"jacek hazuka artist";0;0;3;1;0;0;3;1
"dominique rayou";0;0;2;11;0;0;2;11
"big star sophie";0;0;1;29;0;0;1;29
"claire trotignon";0;0;1;6;0;0;1;6
"envie d'art";0;0;1;10;0;0;1;10
"allan mccollum";0;0;1;76;0;0;1;76
"carlos boix";0;0;1;7;0;0;1;7
doolon;0;0;1;6;0;0;1;6
"gabriel paris";0;0;1;41;0;0;1;41
"flower delivery bilbao";0;0;1;69;0;0;1;69
fenx;0;0;1;35;0;0;1;35
"james darc";0;0;1;347;0;0;1;347
"jérôme mesnager";0;0;1;7;0;0;1;7
"lonely roads";0;0;1;323;0;0;1;323
"jean paul belmundo";0;0;1;229;0;0;1;229
"paul stolper gallery";0;0;1;35;0;0;1;35
"bard artist";0;0;2;9.5;0;0;1;9;0;0;1;10
"vanessa paradis";0;0;1;225;0;0;1;225
"jacques de la villeglé";0;0;1;7;0;0;1;7
aliot;0;0;2;65;0;0;2;65
"fantasy females are impossible to satisfy";0;0;1;7;0;0;1;7
"kristian von hornsleth";0;0;1;50;0;0;1;50
"olivier anicet";0;0;1;7;0;0;1;7
alftan;0;0;1;31;0;0;1;31
"alex maclean";0;0;1;94;0;0;1;94
"art rom";0;0;1;103;0;0;1;103
"galerie envie d'art";0;0;1;5;0;0;1;5
"pedro font alba";0;0;2;7.5;0;0;2;7.5
"richard hudson sculptor";0;0;1;9;0;0;1;9
"serge labegorre";0;0;1;7;0;0;1;7
"artwork of elephants";0;0;1;226;0;0;1;226
"jeremy annear";0;0;1;30;0;0;1;30
"bordeaux lafite rothschild";0;0;1;243;0;0;1;243
"jimmy ruf";0;0;2;5;0;0;2;5
"renaud delorme";0;0;6;4.6666666666667;0;0;4;5.25;0;0;2;3.5
"branding logos";0;0;2;428;0;0;1;429;0;0;1;427
"bruno vilela";0;0;1;76;0;0;1;76
fourni;0;0;1;204;0;0;1;204
"philippe soussan";0;0;3;3.3333333333333;0;0;1;2;0;0;2;4
"viet ha tran";0;0;1;5;0;0;1;5
"gazelli art house";0;0;1;36;0;0;1;36
"kavachnina contemporary";0;0;1;76;0;0;1;76
chanoir;0;0;3;5.6666666666667;0;0;3;5.6666666666667
"rero art";0;0;2;27;0;0;2;27
"patrick letovsky";0;0;1;2;0;0;1;2
"jean marc paris";0;0;1;240;0;0;1;240
"peter hoffer";0;0;1;19;0;0;1;19
"reinhard gorner";0;0;1;14;0;0;1;14
"sebastien bayet";0;0;1;1;0;0;1;1
"ثم ""contact"" ~ترتعي";0;0;1;616;0;0;1;616
"artworks by poitou";0;0;1;2;0;0;1;2
"open your maind";0;0;1;2;0;0;1;2
"herbert oehm";0;0;5;4.6;0;0;2;5;0;0;2;4;0;0;1;5
"martine feipel & jean bechameil";0;0;1;50;0;0;1;50
"gerstein david";0;0;1;11;0;0;1;11
"stephane ducatteau";0;0;1;6;0;0;1;6
pradino;0;0;2;5;0;0;2;5
kalouf;0;0;1;12;0;0;1;12
"juan ripolles sculptures";0;0;1;8;0;0;1;8
"philippe weisbecker";0;0;1;8;0;0;1;8
"george platt lynes";0;0;1;54;0;0;1;54
"herb ritts prints for sale";0;0;1;2;0;0;1;2
"julian schnabel";0;0;1;8;0;0;1;8
"florent touchot";0;0;1;13;0;0;1;13
"françois bruetschy";0;0;1;11;0;0;1;11
chauchet;0;0;1;9;0;0;1;9
"georges cabot";0;0;1;3;0;0;1;3
"polly ngale";0;0;2;31.5;0;0;2;31.5
"armand israel";0;0;1;6;0;0;1;6
"juan alvarez artist";0;0;9;14.888888888889;0;0;9;14.888888888889
"jean jacques rullier";0;0;1;311;0;0;1;311
jonone;0;0;12;9;0;0;8;9.875;0;0;4;7.25
"nature artwork for sale";0;0;1;37;0;0;1;37
"antoine correia";0;0;1;5;0;0;1;5
"barthes de ruyter";0;0;1;3;0;0;1;3
"thomas muller art";0;0;1;10;0;0;1;10
"hotel vuk";0;0;1;188;0;0;1;188
"mb factory";0;0;1;38;0;0;1;38
hjellegjerde;0;0;1;64;0;0;1;64
"mark mawson";0;0;1;68;0;0;1;68
"jean jeacques";0;0;1;336;0;0;1;336
"peter liversidge";0;0;1;64;0;0;1;64
"galerie wagner";0;0;1;10;0;0;1;10
"greg carlin";0;0;1;23;0;0;1;23
hornsleth;0;0;2;133;0;0;2;133
"jazz matisse";0;0;1;128;0;0;1;128
"seven fires superficially";0;0;1;291;0;0;1;291
"guy denning painting";0;0;2;8;0;0;2;8
"herve telemaque";0;0;6;8.3333333333333;0;0;3;6.6666666666667;0;0;3;10
"steven gill photographer";0;0;1;329;0;0;1;329
"nicolas hugo";0;0;1;5;0;0;1;5
"vincent richeux";0;0;1;7;0;0;1;7
"bar rigorously";0;0;3;168.33333333333;0;0;3;168.33333333333
"anna marrow";0;0;1;29;0;0;1;29
"banksy virgin mary";0;0;1;8;0;0;1;8
"inception gallery";0;0;1;5;0;0;1;5
"disco hard rock";0;0;1;4;0;0;1;4
"francis latreille";0;0;1;7;0;0;1;7
"dominique regnier";0;0;1;10;0;0;1;10
"franco asado";0;0;1;1;0;0;1;1
"joanne corno";0;0;1;8;0;0;1;8
poligrafa;0;0;1;46;0;0;1;46
"johanna heeg";0;0;1;6;0;0;1;6
"jamie hewlett";0;0;1;115;0;0;1;115
"joan jett artwork";0;0;1;8;0;0;1;8
"bar subject matter";0;0;1;100;0;0;1;100
"pierre terrasson";0;0;1;11;0;0;1;11
"victor lope arte contemporaneo";0;0;1;84;0;0;1;84
"mor charpentier";0;0;1;63;0;0;1;63
"jean paul belmando";0;0;1;225;0;0;1;225
"pulp fiction puzzle";0;0;1;6;0;0;1;6
"gottfried salzmann";0;0;5;13.2;0;0;4;15;0;0;1;6
liwei;0;0;5;6.2;0;0;5;6.2
"damir polic";0;0;1;4;0;0;1;4
"leobardo perez";0;0;1;1;0;0;1;1
"new york city 2099";0;0;1;11;0;0;1;11
"jacques villegle";0;0;3;9.3333333333333;0;0;3;9.3333333333333
"prisoners movie";0;0;1;179;0;0;1;179
"olivier leroy";0;0;1;30;0;0;1;30
"zao wou ki";0;0;1;91;0;0;1;91
"navabi sale";0;0;1;40;0;0;1;40
"victori contemporary";0;0;1;41;0;0;1;41
jean-georges;0;0;1;237;0;0;1;237
"peter keizer";0;0;4;8;0;0;1;9;0;0;3;7.6666666666667
"ruby anemic";0;0;1;213;0;0;1;213
"sylvain lang";0;0;1;4;0;0;1;4
"united states secluded";0;0;1;130;0;0;1;130
"philippe croq";0;0;2;5.5;0;0;2;5.5
"jacques ibert biography";0;0;1;37;0;0;1;37
smallartworks;0;0;1;7;0;0;1;7
shanshui;0;0;1;191;0;0;1;191
"yinka shonibare montreal";0;0;1;48;0;0;1;48
"bordeaux lafite";0;0;2;372;0;0;2;372
"yona friedman";0;0;1;75;0;0;1;75
danzé;0;0;1;31;0;0;1;31
"parc kruger";0;0;1;158;0;0;1;158
"jeans painting";0;0;1;335;0;0;1;335
"open ypur mind";0;0;1;2;0;0;1;2
dessauvage;0;0;1;45;0;0;1;45
"marcelli france";0;0;1;6;0;0;1;6
"berry ha";0;0;1;7;0;0;1;7
"victor kastelic";0;0;1;9;0;0;1;9
"jan paul belmondo";0;0;1;226;0;0;1;226
"japanese artist takashi murakami";0;0;1;325;0;0;1;325
"bar sandstone";0;0;2;392.5;0;0;2;392.5
"alberto rosselli";0;0;1;43;0;0;1;43
"henr matisse";0;0;1;250;0;0;1;250
dubura;0;0;1;40;0;0;1;40
"pascale barret";0;0;1;14;0;0;1;14
markus&koala;0;0;1;31;0;0;1;31
"photo montages";0;0;1;405;0;0;1;405
"open your mind pictures";0;0;1;1;0;0;1;1
"geneviève claisse";0;0;1;11;0;0;1;11
"hiro x ando";0;0;3;9.3333333333333;0;0;1;8;0;0;2;10
"perino & vele";0;0;1;5;0;0;1;5
kyliss;0;0;1;1;0;0;1;1
kartonn;0;0;2;6.5;0;0;2;6.5
"tom wesselman";0;0;2;23;0;0;1;36;0;0;1;10
"frabcis bacon";0;0;1;308;0;0;1;308
"robert zandvliet";0;0;1;38;0;0;1;38
"françois mendras";0;0;2;5.5;0;0;2;5.5
"patrice larue";0;0;1;10;0;0;1;10
"joseph beuys";0;0;1;244;0;0;1;244
mercky;0;0;1;6;0;0;1;6
"korosh ghazimorad";0;0;2;9.5;0;0;2;9.5
"etienne cail";0;0;11;1.3636363636364;0;0;6;1.3333333333333;0;0;4;1.5;0;0;1;1
"mustapha azeroual";0;0;1;10;0;0;1;10
"self portrait photographers york";0;0;1;131;0;0;1;131
"""bucharest"" + ""contact"" ~modesty";0;0;1;393;0;0;1;393
"zabou art";0;0;1;27;0;0;1;27
"""rencontres"" + ""contact"" ~magical";0;0;1;292;0;0;1;292
"li wei artist";0;0;1;17;0;0;1;17
"christophe charbonnel";0;0;5;6.8;0;0;3;8;0;0;1;6;0;0;1;4
"jef aérosol";0;0;1;8;0;0;1;8
"oliver black photographer";0;0;1;314;0;0;1;314
"la garrigue";0;0;1;165;0;0;1;165
"""frankreich"" + ""contact"" ~endless";0;0;1;263;0;0;1;263
"jef koon";0;0;1;112;0;0;1;112
"cricket fine art";0;0;1;6;0;0;1;6
"huston ripley";0;0;5;10;0;0;4;10.5;0;0;1;8
"anna bocek";0;0;8;9.25;0;0;7;9.7142857142857;0;0;1;6
"nielly francoise";0;0;1;46;0;0;1;46
"gerstein art";0;0;2;29;0;0;2;29
"bruno catalano marseille";0;0;1;17;0;0;1;17
"crystal wagner biotica";0;0;1;26;0;0;1;26
"bruno mallart";0;0;1;7;0;0;1;7
"mehdi \lemoduledezeer\";0;0;1;26;0;0;1;26
"jasmine gordon";0;0;1;325;0;0;1;325
"madeleine dietz";0;0;1;22;0;0;1;22
"jan saudek";0;0;2;46;0;0;2;46
"""plastiques"" + ""contact"" ~magical";0;0;1;259
m-city;0;0;1;89;0;0;1;89
"lilly kelly";0;0;1;33;0;0;1;33
"forum jjea";0;0;1;307;0;0;1;307
"anya gallaccio";0;0;1;78;0;0;1;78
"jeff koon artwork";0;0;1;137;0;0;1;137
"jonny green artist";0;0;3;8.3333333333333;0;0;2;8.5;0;0;1;8
"foujita artist";0;0;1;44;0;0;1;44
"lucy & jorge orta";0;0;1;50;0;0;1;50
"contemporary artist";0;0;1;323;0;0;1;323
"francisco sepulveda";0;0;1;9;0;0;1;9
"open you mind";0;0;4;3.75;0;0;1;3;0;0;3;4
"jamie hewlett gallery";0;0;1;224;0;0;1;224
"yinka shonibare photography";0;0;2;274.5;0;0;2;274.5
"crash matos";0;0;1;4;0;0;1;4
"isabeau jousse";0;0;1;6;0;0;1;6
"umberto toselli";0;0;2;9;0;0;2;9
"hervé lewis";0;0;1;2;0;0;1;2
"laurent martinez";0;0;1;7;0;0;1;7
"galerie nicolas hugo";0;0;4;5;0;0;4;5
"keith coventry";0;0;1;48;0;0;1;48
"le telquel";0;0;1;20;0;0;1;20
catté;0;0;1;4;0;0;1;4
"""aux"" + ""contact"" ~modesty";0;0;2;291.5;0;0;2;291.5
"roy sfeir";0;0;1;6;0;0;1;6
"yanko tihov map";0;0;3;1;0;0;3;1
"jeanne lorioz art";0;0;1;9;0;0;1;9
"jardin des oliviers";0;0;1;126;0;0;1;126
"operation serval";0;0;1;124;0;0;1;124
"robert combas paintings";0;0;1;10;0;0;1;10
"abstract paintings savannah ga";0;0;2;303;0;0;2;303
"jean gabriel";0;0;1;172;0;0;1;172
"pretty portal";0;0;1;5;0;0;1;5
"stephane gautier";0;0;2;2.5;0;0;2;2.5
villegle;0;0;2;8;0;0;1;7;0;0;1;9
vagabondage;0;0;1;8;0;0;1;8
parisot;0;0;1;166;0;0;1;166
"laurence dreyfus art advisor";0;0;1;10;0;0;1;10
"steven gagnon";0;0;1;55;0;0;1;55
"jean paul lubliner";0;0;1;10;0;0;1;10
"michal batory";0;0;1;38;0;0;1;38
"pomme photography";0;0;1;318;0;0;1;318
"the zero point rigorously";0;0;1;306;0;0;1;306
capton;0;0;1;27;0;0;1;27
hek;0;0;1;280;0;0;1;280
"rob van hoek artist";0;0;1;10;0;0;1;10
"banksy interviews";0;0;1;222;0;0;1;222
"melanie bonajo";0;0;1;52;0;0;1;52
"hugo laruelle";0;0;1;5;0;0;1;5
"caroline fraser";0;0;1;59;0;0;1;59
"nick carter";0;0;2;163;0;0;1;162;0;0;1;164
"onur dinç";0;0;3;11;0;0;2;11.5;0;0;1;10
"jeanne t";0;0;1;343;0;0;1;343
"ren hang photographer";0;0;1;8;0;0;1;8
hako;0;0;1;180;0;0;1;180
"alex katz paintings for sale";0;0;1;46;0;0;1;46
"le galet";0;0;1;155;0;0;1;155
"roman opalka";0;0;1;79;0;0;1;79
"lamborghini fire extinguisher";0;0;1;36;0;0;1;36
"jaws artwork";0;0;1;242;0;0;1;242
"aki kuroda";0;0;7;1.7142857142857;0;0;2;2;0;0;3;1;0;0;2;2.5
"yaacov agam agamograph";0;0;1;22;0;0;1;22
"didier marien";0;0;1;5;0;0;1;5
nonne;0;0;1;231;0;0;1;231
javeland;0;0;1;318;0;0;1;318
"onur dinc";0;0;1;12;0;0;1;12
"anthony murphy artist";0;0;1;7;0;0;1;7
"henri lamy";0;0;3;8.3333333333333;0;0;1;9;0;0;2;8
"li lihong";0;0;1;2;0;0;1;2
"gregoire guillemin";0;0;1;22;0;0;1;22
"jean paul perrier";0;0;1;302;0;0;1;302
"the zero point quietly";0;0;2;497.5;0;0;2;497.5
"kenny scharf art for sale";0;0;1;14;0;0;1;14
"la lagune";0;0;1;158;0;0;1;158
"ivan plusch";0;0;3;4.3333333333333;0;0;3;4.3333333333333
"valery barykin";0;0;1;16;0;0;1;16
"sunday b. morning";0;0;1;24;0;0;1;24
"battle at troy";0;0;1;411;0;0;1;411
"jacques villeglé";0;0;1;12;0;0;1;12
"corine pagny";0;0;1;6;0;0;1;6
"frank horvat";0;0;1;46;0;0;1;46
"henrietta dubrey";0;0;9;10.222222222222;0;0;7;12.285714285714;0;0;2;3
"jazz the";0;0;1;7;0;0;1;7
"jean tinguely basel";0;0;1;109;0;0;1;109
"jeff koons art work";0;0;1;220;0;0;1;220
hypnos;0;0;1;320;0;0;1;320
"lyle carbajal";0;0;4;8.25;0;0;2;7.5;0;0;2;9
"mary sibande";0;0;1;32;0;0;1;32
"batista artist";0;0;2;5.5;0;0;1;6;0;0;1;5
"christian boltanski biography";0;0;1;303;0;0;1;303
"bernard pras artwork";0;0;1;8;0;0;1;8
"gohar dashti";0;0;1;35;0;0;1;35
"eduardo kac";0;0;3;53;0;0;3;53
"edouard buzon";0;0;1;2;0;0;1;2
"huit sale";0;0;2;44.5;0;0;1;47;0;0;1;42
dysform;0;0;1;7;0;0;1;7
"richard orlinski prices";0;0;2;10;0;0;2;10
"yang yongliang";0;0;6;11;0;0;6;11
doorsen;0;0;1;9;0;0;1;9
"li wei";0;0;54;8.1481481481481;0;0;46;9.0434782608696;0;0;4;2.5;0;0;4;3.5
youri;0;0;1;201;0;0;1;201
"francois bard";0;0;10;7.6;0;0;8;7.75;0;0;2;7
"open tour mind";0;0;1;3;0;0;1;3
"guitare sale";0;0;2;26;0;0;2;26
"emeric chantier";0;0;3;12;0;0;1;8;0;0;2;14
"hervé télémaque";0;0;1;10;0;0;1;10
"rero artist";0;0;2;15;0;0;2;15
moyoshi;0;0;1;10;0;0;1;10
"le ballon sale";0;0;1;25;0;0;1;25
"francois bard artist";0;0;1;10;0;0;1;10
"heiner meyer";0;0;3;24.666666666667;0;0;3;24.666666666667
jean-jacques;0;0;1;349;0;0;1;349
"john bulmer";0;0;4;11;0;0;4;11
"serie narcose";0;0;3;8.3333333333333;0;0;3;8.3333333333333
"pierre alex";0;0;1;9;0;0;1;9
yutao;0;0;2;10;0;0;2;10
"f jacques artist";0;0;2;6.5;0;0;1;8;0;0;1;5
"oxford palace hotel and galleri";0;0;1;200;0;0;1;200
"claire louria";0;0;1;8;0;0;1;8
"jacques mahé de la villeglé";0;0;1;6;0;0;1;6
"jin bo grand";0;0;1;171;0;0;1;171
"damien gard";0;0;2;4.5;0;0;2;4.5
"gérard schlosser";0;0;2;9.5;0;0;2;9.5
"william eggleston artwork";0;0;1;6;0;0;1;6
"nyne factory";0;0;4;4;0;0;4;4
"united states regularly";0;0;3;213;0;0;3;213
"jean helion paintings";0;0;1;25;0;0;1;25
"jacques germain";0;0;1;35;0;0;1;35
"anouk grinberg";0;0;1;36;0;0;1;36
"yuval shaul";0;0;1;11;0;0;1;11
sawtelle;0;0;1;182;0;0;1;182
"lyle carbajal artist";0;0;1;5;0;0;1;5
"pasqua artist";0;0;1;5;0;0;1;5
"le moulin de rudelle";0;0;1;96;0;0;1;96
"jerome lagarrigue";0;0;2;1.5;0;0;1;1;0;0;1;2
"open your min";0;0;1;1;0;0;1;1
"christophe dugied";0;0;1;7;0;0;1;7
dtone;0;0;3;12;0;0;3;12
"murakami art for sale";0;0;1;7;0;0;1;7
"puig france";0;0;1;36;0;0;1;36
"daniela huerta";0;0;1;10;0;0;1;10
"""drapeaux"" + ""contact"" ~endless";0;0;1;303;0;0;1;303
"angelica wiik";0;0;1;40;0;0;1;40
"elvis presley artwork";0;0;1;48;0;0;1;48
"quentin garel";0;0;2;12;0;0;1;14;0;0;1;10
"octave pixel";0;0;8;8.125;0;0;7;9.1428571428571;0;0;1;1
"henri matisse original prints worcester";0;0;1;38;0;0;1;38
"buddha artwork for sale";0;0;1;43;0;0;1;43
"jesper just";0;0;1;97;0;0;1;97
"laurina paperina";0;0;1;25;0;0;1;25
begarat;0;0;2;4.5;0;0;2;4.5
alleluiah;0;0;1;42;0;0;1;42
carabas;0;0;1;89;0;0;1;89
"john monteith";0;0;1;53;0;0;1;53
"""momentary articulation""";0;0;1;42;0;0;1;42
couettes;0;0;1;228;0;0;1;228
"du zhenjun";0;0;1;30;0;0;1;30
"jean jacques";0;0;1;342;0;0;1;342
li-wei;0;0;1;11;0;0;1;11
"lolita nude";0;0;1;142;0;0;1;142
"babajide olatunji";0;0;1;6;0;0;1;6
"jean denis";0;0;1;237;0;0;1;237
cedki;0;0;1;3;0;0;1;3
"castle galleries birmingham";0;0;1;19;0;0;1;19
"rodney place";0;0;3;7;0;0;1;3;0;0;2;9
"genevieve sawtelle";0;0;2;13.5;0;0;2;13.5
"how are you doing sculptor";0;0;1;191;0;0;1;191
"jamie christopher";0;0;1;308;0;0;1;308
"open yor mind";0;0;1;3;0;0;1;3
"annie dufresne nude";0;0;1;113;0;0;1;113
"jim kazanjian";0;0;1;30;0;0;1;30
"ville du soleil";0;0;1;31;0;0;1;31
"claude champy";0;0;3;7.6666666666667;0;0;3;7.6666666666667
"arthur tress";0;0;1;62;0;0;1;62
"fair choice";0;0;1;49;0;0;1;49
dionus;0;0;1;5;0;0;1;5
"michelle auboiron";0;0;3;5;0;0;3;5
"miss tic";0;0;1;6;0;0;1;6
"taki 183 biography";0;0;1;5;0;0;1;5
"isabelle cochereau";0;0;1;9;0;0;1;9
"jeff koons paintings";0;0;1;137;0;0;1;137
"erin o connor nude";0;0;1;115;0;0;1;115
"esther de bont";0;0;2;15;0;0;2;15
"peter klasen";0;0;7;9.4285714285714;0;0;5;9.8;0;0;2;8.5
lamri;0;0;2;2;0;0;1;2;0;0;1;2
"kumi sugai";0;0;2;14;0;0;2;14
"vera molnar";0;0;1;62;0;0;1;62
"oleg dou";0;0;1;40;0;0;1;40
"kilian glasner";0;0;1;8;0;0;1;8
nuhomme;0;0;1;25;0;0;1;25
"kim sun hyuk";0;0;4;9;0;0;2;9.5;0;0;1;8;0;0;1;9
"cesar sculptures";0;0;2;10;0;0;2;10
"jacques de la villegle";0;0;1;9;0;0;1;9
"crash artist";0;0;1;7;0;0;1;7
artvizor;0;0;1;10;0;0;1;10
"sebastien layral";0;0;2;7.5;0;0;2;7.5
"jeff koons artwork";0;0;1;209;0;0;1;209
"coccinelle sale";0;0;1;87;0;0;1;87
"crash street artist";0;0;2;6;0;0;2;6
"sui jianguo";0;0;1;86;0;0;1;86
"marcin bialas";0;0;1;10;0;0;1;10
"graffiti artwork for sale";0;0;1;58;0;0;1;58
"pakpoom silaphan";0;0;1;16;0;0;1;16
"as i opened fire";0;0;1;2;0;0;1;2
"antoine stevens";0;0;35;6.5142857142857;0;0;11;7.2727272727273;0;0;20;6.05;0;0;4;6.75
"kenneth noland";0;0;1;76;0;0;1;76
"filip mirazovic";0;0;2;1;0;0;2;1
"cara artist";0;0;1;1;0;0;1;1
"museum of contemporary art san juan";0;0;1;239;0;0;1;239
"jerome lagarrigue art";0;0;1;7;0;0;1;7
"galerie capazza";0;0;1;10;0;0;1;10
"alex guofeng cao";0;0;1;13;0;0;1;13
"gregory watin";0;0;1;4;0;0;1;4
"lethbridge nudes";0;0;1;129;0;0;1;129
"garrett pruter";0;0;2;15.5;0;0;2;15.5
"renato pasmanik";0;0;1;9;0;0;1;9
"vincent hawkins";0;0;8;9;0;0;7;9;0;0;1;9
"jacqueline roberts photography";0;0;1;8;0;0;1;8
"alain rivière lecoeur";0;0;1;6;0;0;1;6
"ryan callanan";0;0;1;23;0;0;1;23
"the zero point porcelain";0;0;2;482.5;0;0;2;482.5
houtin;0;0;3;7;0;0;1;11;0;0;2;5
"mikael lafontan";0;0;1;8;0;0;1;8
"catherine houard";0;0;3;6;0;0;3;6
"andré borderie";0;0;1;77;0;0;1;77
"david ferreira artist";0;0;1;2;0;0;1;2
"suling wang";0;0;1;17;0;0;1;17
"ando yuki";0;0;1;20;0;0;1;20
"sen2 figueroa";0;0;3;6.3333333333333;0;0;3;6.3333333333333
"kate barry artist";0;0;1;6;0;0;1;6
"robert combas";0;0;10;7.5;0;0;8;6.75;0;0;2;10.5
"thierry lo";0;0;1;9;0;0;1;9
escougnou;0;0;1;13;0;0;1;13
"benjamin carbonne";0;0;5;1.2;0;0;4;1;0;0;1;2
"aldo cannes";0;0;1;159;0;0;1;159
guydenning;0;0;1;11;0;0;1;11
"candle in the wind";0;0;2;163.5;0;0;1;158;0;0;1;169
"fernando costa painter";0;0;1;8;0;0;1;8
"where i end you begin";0;0;1;305;0;0;1;305
"forum ekac";0;0;1;312;0;0;1;312
"angèle guerre";0;0;1;2;0;0;1;2
"ye xing qian";0;0;1;2;0;0;1;2
"olivier widmaier picasso";0;0;4;16;0;0;4;16
misstic;0;0;1;9;0;0;1;9
"john goto photography";0;0;1;350;0;0;1;350
zokatos;0;0;1;4;0;0;1;4
"galerie charron";0;0;1;3;0;0;1;3
"fantasy art for sale";0;0;1;33;0;0;1;33
"hotel ristorante le camene";0;0;1;95;0;0;1;95
"bondage painting";0;0;1;244;0;0;1;244
"linda blackstone gallery";0;0;7;6.8571428571429;0;0;2;7;0;0;2;6.5;0;0;3;7
"markus and koala";0;0;2;3;0;0;2;3
"bruno catalano sculpture prices";0;0;1;8;0;0;1;8
"nue gallery";0;0;1;3;0;0;1;3
"concorde paris";0;0;1;191;0;0;1;191
"hans withoos";0;0;1;31;0;0;1;31
"jen reve";0;0;1;405;0;0;1;405
"princes paris";0;0;1;184;0;0;1;184
"stiliana alexieva";0;0;2;9.5;0;0;2;9.5
"jean schneider";0;0;1;202;0;0;1;202
nils-udo;0;0;1;9;0;0;1;9
"jan colle";0;0;1;113;0;0;1;113
"gerard mortier painter";0;0;1;2;0;0;1;2
"spectacled owl";0;0;1;160;0;0;1;160
"elysées paris";0;0;1;172;0;0;1;172
"guy de rougemont";0;0;1;8;0;0;1;8
"jane serge";0;0;1;213;0;0;1;213
"jazz by henri matisse";0;0;1;118;0;0;1;118
"guy ferrer";0;0;1;10;0;0;1;10
"anne valerie dupond";0;0;4;8.5;0;0;4;8.5
"mahjoub ben bella";0;0;2;2;0;0;1;2;0;0;1;2
"crystal wagner";0;0;1;45;0;0;1;45
"sergio ferro";0;0;1;9;0;0;1;9
"jean zheng";0;0;1;347;0;0;1;347
"molly sims";0;0;1;207;0;0;1;207
"andy hope 1930";0;0;1;93;0;0;1;93
"portrait of gerti schiele";0;0;1;10;0;0;1;10
"golden beach for sale";0;0;1;161;0;0;1;161
"jeanne lorioz";0;0;3;10.333333333333;0;0;1;9;0;0;2;11
"hotel bobo";0;0;1;91;0;0;1;91
"gilles aillaud";0;0;4;8;0;0;3;7;0;0;1;11
"jean louis paul";0;0;1;304;0;0;1;304
"mark demsteader";0;0;2;22.5;0;0;2;22.5
"andy warhol flowers";0;0;2;1;0;0;2;1
"le glacier";0;0;1;193;0;0;1;193
"gabriel bodnariu";0;0;3;4.6666666666667;0;0;2;5;0;0;1;4
"sumi-e portrait";0;0;2;1;0;0;2;1
"keith haring lucky strike poster";0;0;2;1;0;0;2;1
"cecile plaisance";0;0;8;8;0;0;4;9;0;0;3;6.3333333333333;0;0;1;9
"subject matter art";0;0;1;83;0;0;1;83
cohorte;0;0;1;243;0;0;1;243
"aris messinis photography";0;0;1;15;0;0;1;15
"""artwork"" + ""contact"" ~modesty";0;0;1;168;0;0;1;168
"badri lomsianidze";0;0;1;10;0;0;1;10
"stephen forbes";0;0;1;93;0;0;1;93
"lin felton";0;0;1;3;0;0;1;3
"lyle carbajal art";0;0;2;4;0;0;2;4
"luzia simons";0;0;1;34;0;0;1;34
"artbar71 berlin";0;0;1;95;0;0;1;95
"ernest breleur";0;0;1;6;0;0;1;6
"wang shu hui";0;0;1;9;0;0;1;9
"bernard buffet art";0;0;1;46
"jacques villegle artwork";0;0;2;9.5;0;0;2;9.5
"art fairs";0;0;1;311;0;0;1;311
"nils udo portrait";0;0;1;6
"kim sun hyuk artist";0;0;1;6;0;0;1;6
"abc gallery";0;0;2;10;0;0;2;10
"japanese artists contemporary";0;0;1;320;0;0;1;320
"gabriela bodin";0;0;3;8.6666666666667;0;0;3;8.6666666666667
"warrior cat";0;0;1;68
"united states reactionary";0;0;3;349.66666666667;0;0;3;349.66666666667
"lolita nude art";0;0;1;24;0;0;1;24
"branding and logos";0;0;4;421.25;0;0;3;417.33333333333;0;0;1;433
"blek le rat";0;0;1;66;0;0;1;66
mesnager;0;0;3;10.333333333333;0;0;1;10;0;0;1;10;0;0;1;11
"hanna sidorowicz";0;0;1;10;0;0;1;10
"arthur dorval";0;0;1;6;0;0;1;6
"carlos cruz diez";0;0;1;66;0;0;1;66
"millésime gallery";0;0;1;8;0;0;1;8
"liu xiaofang";0;0;1;19;0;0;1;19
"gijsbert hanekroot";0;0;6;1;0;0;6;1
kleiber;0;0;1;178;0;0;1;178
"cellai hotel florence";0;0;1;168;0;0;1;168
"hello kitty photography";0;0;1;328;0;0;1;328
dubrey;0;0;1;3;0;0;1;3
"viveca koh";0;0;1;23;0;0;1;23
"annette messager";0;0;1;93;0;0;1;93
"jean michel basquiat paintings for sale";0;0;1;42;0;0;1;42
"françois houtin";0;0;2;1.5;0;0;1;1;0;0;1;2
"mathieu nozieres";0;0;1;6;0;0;1;6
"james cotton band";0;0;1;323;0;0;1;323
"alain clément";0;0;1;4;0;0;1;4
"judy rifka";0;0;1;32;0;0;1;32
silaphan;0;0;1;10;0;0;1;10
"bernard rancillac";0;0;3;10.333333333333;0;0;2;10;0;0;1;11
"thomas ruff photographer";0;0;1;332;0;0;1;332
"marcus egli";0;0;1;11;0;0;1;11
"jean paul belmondo";0;0;1;145;0;0;1;145
"cool artwork for sale";0;0;3;45.666666666667;0;0;3;45.666666666667
onemizer;0;0;7;7.2857142857143;0;0;3;6;0;0;4;8.25
"chu teh-chun";0;0;1;49;0;0;1;49
"alfie goodrich";0;0;1;25;0;0;1;25
"nathalie miquel";0;0;1;8;0;0;1;8
"langlands and bell";0;0;1;36;0;0;1;36
"karen ay";0;0;1;7;0;0;1;7
"ren hang photography";0;0;2;11;0;0;2;11
"el pradino";0;0;4;5.5;0;0;4;5.5
"united states rocket";0;0;1;317;0;0;1;317
"peter hoffer artist";0;0;1;7;0;0;1;7
"nue art";0;0;3;9;0;0;2;9;0;0;1;9
"jean louis paris";0;0;1;211;0;0;1;211
"jef aerosol for sale";0;0;1;8;0;0;1;8
tanc;0;0;2;80.5;0;0;2;80.5
"monroe 7150";0;0;1;204;0;0;1;204
"bar splashy";0;0;3;262;0;0;3;262
"samuel maenhoudt";0;0;4;6.25;0;0;4;6.25
"michel gueranger";0;0;1;4;0;0;1;4
renoma;0;0;1;100;0;0;1;100
"mundos paralelos";0;0;1;204;0;0;1;204
vray;0;0;2;99;0;0;2;99
"jacques lacroix";0;0;6;9.5;0;0;3;10;0;0;3;9
"soleil bleu";0;0;1;163;0;0;1;163
"jeff koons blue dog";0;0;1;39;0;0;1;39
"catherine loader";0;0;1;315;0;0;1;315
"willy ronis";0;0;2;43.5;0;0;2;43.5
"un photon";0;0;1;41;0;0;1;41
"villegle jacques";0;0;1;8;0;0;1;8
"christopher schulz";0;0;1;69;0;0;1;69
"la maja desnuda";0;0;1;81;0;0;1;81
"vincent peters biography";0;0;1;7;0;0;1;7
"jean hélion";0;0;1;52;0;0;1;52
"dingo photography";0;0;1;99;0;0;1;99
"namib people";0;0;1;421;0;0;1;421
"bicha gallery";0;0;1;92;0;0;1;92
"jeanne susplugas";0;0;3;6.6666666666667;0;0;3;6.6666666666667
"contemporary middle eastern art";0;0;2;399;0;0;2;399
"alexandre joly";0;0;1;13;0;0;1;13
"antoni tapies artwork";0;0;1;43;0;0;1;43
"raymond voinquel";0;0;1;7;0;0;1;7
"jean charles millepied";0;0;2;5.5;0;0;1;6;0;0;1;5
"anca cernoschi";0;0;1;26;0;0;1;26
"jean marie marion mannequin";0;0;1;2;0;0;1;2
"liu bolin usa";0;0;1;43;0;0;1;43
"how are you doing polaroid";0;0;2;341.5;0;0;2;341.5
smagala;0;0;1;123;0;0;1;123
nowart;0;0;3;7;0;0;1;5;0;0;2;8
"chenaux gallery";0;0;1;3;0;0;1;3
"pierre & gilles";0;0;1;37;0;0;1;37
"philippe parreno";0;0;1;96;0;0;1;96
"davide boriani";0;0;1;18;0;0;1;18
"yves krief";0;0;2;7;0;0;2;7
"jean paul sartre photo";0;0;1;124;0;0;1;124
bogachev;0;0;1;76;0;0;1;76
"jared jablonka";0;0;1;109;0;0;1;109
"gaspard mitz";0;0;1;3;0;0;1;3
"yves zurstrassen";0;0;1;17;0;0;1;17
"conrad marca-relli";0;0;1;39;0;0;1;39
"angel duarte";0;0;4;2.5;0;0;4;2.5
"rafael canogar";0;0;1;90;0;0;1;90
"martin bez";0;0;1;7;0;0;1;7
"great white buffallo";0;0;1;217;0;0;1;217
"jean dubuffett";0;0;1;138;0;0;1;138
"japanese zero for sale";0;0;1;343;0;0;1;343
"topor artist";0;0;1;8;0;0;1;8
"african american contemporary artist";0;0;1;323;0;0;1;323
"emmanuel debarre";0;0;1;10;0;0;1;10
levalet;0;0;1;6;0;0;1;6
"forum cifo";0;0;1;223;0;0;1;223
"yuriko takagi";0;0;1;19;0;0;1;19
"markowicz fine art";0;0;2;42;0;0;2;42
"aurelie nemours";0;0;1;49;0;0;1;49
aboudia;0;0;1;29;0;0;1;29
"jean faucheur";0;0;2;5.5;0;0;1;6;0;0;1;5
"graham dolphin";0;0;2;10;0;0;1;10;0;0;1;10
"miguel angel sanchez";0;0;1;43;0;0;1;43
"aboudia abdoulaye diarrassouba";0;0;1;30;0;0;1;30
"dibond signage in lagos";0;0;1;47;0;0;1;47
"david harber sculpture prices";0;0;1;6;0;0;1;6
"al held";0;0;1;56;0;0;1;56
"yanko tihov artist";0;0;10;9;0;0;3;9.3333333333333;0;0;7;8.8571428571429
"tony bevan";0;0;1;59;0;0;1;59
"toma l";0;0;2;7;0;0;2;7
"atlas weil am rhein";0;0;1;152;0;0;1;152
"son of a bitch ritualize";0;0;2;470;0;0;2;470
"guillaume guerin photographe";0;0;1;9;0;0;1;9
"georges braque";0;0;2;168.5;0;0;1;163;0;0;1;174
"george bru";0;0;1;5;0;0;1;5
"yan pei ming";0;0;1;56;0;0;1;56
"roland topor";0;0;1;55;0;0;1;55
"monika nowak";0;0;1;10;0;0;1;10
"romero britto biography";0;0;1;57;0;0;1;57
"joan saló";0;0;1;13;0;0;1;13
"ran hwang";0;0;1;40;0;0;1;40
"clinton friedman";0;0;1;25;0;0;1;25
"dancing bones ink";0;0;1;35;0;0;1;35
"duane michals biography";0;0;1;46;0;0;1;46
"fresh to death";0;0;2;172.5;0;0;1;168;0;0;1;177
"dollar bill yo";0;0;1;32;0;0;1;32
"chu teh chun";0;0;1;51;0;0;1;51
"artist etienne";0;0;1;24;0;0;1;24
"cornwall contemporary gallery";0;0;1;7;0;0;1;7
"borys makary";0;0;1;10;0;0;1;10
"anne-valerie dupond";0;0;1;9;0;0;1;9
"isabelle durand";0;0;1;32;0;0;1;32
"levalet art";0;0;1;5;0;0;1;5
"richard orlinski";0;0;3;14.666666666667;0;0;3;14.666666666667
"julien doyle";0;0;1;3;0;0;1;3
"paul bogaers";0;0;1;25;0;0;1;25
gzstore;0;0;2;6;0;0;2;6
"bernard buffet";0;0;1;100;0;0;1;100
planete-serie;0;0;1;3;0;0;1;3
"wüthrich peter";0;0;1;48;0;0;1;48
"johnny hallyday biography";0;0;1;135;0;0;1;135
milay;0;0;1;104;0;0;1;104
"alinka echeverria";0;0;1;32;0;0;1;32
"raphael tachdjian";0;0;1;7;0;0;1;7
"catherine lopes curval";0;0;2;9;0;0;2;9
"roland topor art";0;0;2;10;0;0;2;10
"jacques damez";0;0;1;7;0;0;1;7
"edmond van dooren";0;0;1;8;0;0;1;8
jean-claude;0;0;1;326;0;0;1;326
"thierry alet";0;0;1;7;0;0;1;7
"philippe brosse";0;0;1;3;0;0;1;3
"jean philippe berger";0;0;1;10;0;0;1;10
"hans-christian schink";0;0;1;51;0;0;1;51
"gérard rancinan";0;0;1;19;0;0;1;19
"etienne rey";0;0;1;9;0;0;1;9
"jean paul belmond";0;0;1;217;0;0;1;217
artigasplanas;0;0;1;2;0;0;1;2
"madonna house for sale";0;0;1;325;0;0;1;325
"duetche bank";0;0;1;44;0;0;1;44
"jean quality";0;0;1;301;0;0;1;301
silowets;0;0;1;344;0;0;1;344
"mathieu mercier";0;0;1;88;0;0;1;88
"mel ramos vintage";0;0;2;82;0;0;2;82
"wifredo lam artwork";0;0;1;32;0;0;1;32
"dam gallery";0;0;1;20;0;0;1;20
"antoine rose prints";0;0;1;8;0;0;1;8
"beirut art fair";0;0;1;43;0;0;1;43
"tom wesselmann pop art";0;0;1;28;0;0;1;28
"valérie hadida";0;0;1;10;0;0;1;10
"fire extinguisher art";0;0;1;100;0;0;1;100
"charles fazzino biography";0;0;1;6;0;0;1;6
"guy denning";0;0;26;8.6153846153846;0;0;15;8.6;0;0;11;8.6363636363636
"mary j blige fur";0;0;1;24;0;0;1;24
"alice gotheil";0;0;1;8;0;0;1;8
"liu xin";0;0;1;46;0;0;1;46
"francesco libassi";0;0;1;6;0;0;1;6
"marc ferrero";0;0;5;9.8;0;0;5;9.8
"serenade from the stars";0;0;1;30;0;0;1;30
"alberto reguera";0;0;3;32.666666666667;0;0;1;9;0;0;2;44.5
"francois houtin";0;0;1;1;0;0;1;1
"laure krug";0;0;1;5;0;0;1;5
"lolitas nudes";0;0;1;129;0;0;1;129
"art bona";0;0;3;45;0;0;3;45
"gyula sagi";0;0;1;4;0;0;1;4
"willy ronis le petit parisien";0;0;3;3.3333333333333;0;0;1;1;0;0;2;4.5
"charles fazzino";0;0;1;48;0;0;1;48
"jean dubuffet painting";0;0;1;325;0;0;1;325
"united states shirley";0;0;1;50;0;0;1;50
"urban photography london";0;0;1;318;0;0;1;318
"guy denning biography";0;0;2;5;0;0;1;5;0;0;1;5
"portal art";0;0;1;420;0;0;1;420
"cara delevingne artwork";0;0;2;1;0;0;2;1
"kathleen petyarre";0;0;1;35;0;0;1;35
"forum cgac";0;0;1;204;0;0;1;204
"united states soul";0;0;2;478.5;0;0;2;478.5
"jean cocteau artwork";0;0;1;23;0;0;1;23
"vincent fillon";0;0;2;3.5;0;0;2;3.5
"art callegari";0;0;1;9;0;0;1;9
"nils udo";0;0;1;10;0;0;1;10
"hunter young";0;0;1;137;0;0;1;137
"marek piasecki";0;0;2;24;0;0;2;24
"bruno fontana";0;0;1;18;0;0;1;18
"yasemin senel";0;0;1;19;0;0;1;19
"cesar baldaccini artworks";0;0;1;2;0;0;1;2
"herve lewis";0;0;2;1;0;0;1;1;0;0;1;1
"miss van art";0;0;1;40;0;0;1;40
staubfinger;0;0;1;69;0;0;1;69
"quantum contemporary art";0;0;1;29;0;0;1;29
fubiz;0;0;1;43;0;0;1;43
"dawn's awakening";0;0;1;6;0;0;1;6
"united states somnambulist";0;0;4;141;0;0;4;141
"pius fox artist";0;0;1;2;0;0;1;2
"vincent ruffin";0;0;1;6;0;0;1;6
"klein art";0;0;1;446;0;0;1;446
"jean pol belmondo";0;0;1;240;0;0;1;240
"ekkehard altenburger";0;0;1;22;0;0;1;22
"jean-francois rauzier";0;0;1;33;0;0;1;33
"antoni tapies original prints worcester";0;0;1;50;0;0;1;50
"philippe vasseur";0;0;2;8;0;0;1;5;0;0;1;11
"shirley jaffe";0;0;3;29;0;0;2;31.5;0;0;1;24
"yoel benharrouche for sale";0;0;1;6;0;0;1;6
"eric kellerman";0;0;1;24;0;0;1;24
"mc2 gallery";0;0;1;3;0;0;1;3
"charlotte cornaton";0;0;1;88;0;0;1;88
"jeff koons popeye";0;0;1;236;0;0;1;236
"eva maude tardif champoux";0;0;1;10;0;0;1;10
"christian courrèges";0;0;1;1;0;0;1;1
"eva jospin";0;0;2;5.5;0;0;1;10;0;0;1;1
"galerie schwab beaubourg";0;0;1;6;0;0;1;6
"baudoin lebon";0;0;3;5.6666666666667;0;0;3;5.6666666666667
"miss van";0;0;1;72;0;0;1;72
"giorgio laveri";0;0;1;21;0;0;1;21
"charlotte aleman";0;0;1;7;0;0;1;7
"child portrait photographer york";0;0;1;342;0;0;1;342
"kiki picasso";0;0;7;6.7142857142857;0;0;7;6.7142857142857
"philippe berry";0;0;2;7;0;0;1;6;0;0;1;8
"jan boom";0;0;1;333;0;0;1;333
"galerie perahia";0;0;1;4;0;0;1;4
"gordon hopkins";0;0;3;5.6666666666667;0;0;2;5.5;0;0;1;6
"at-at artwork";0;0;1;9;0;0;1;9
femmejambes;0;0;1;10;0;0;1;10
"jean paul agosti";0;0;2;7;0;0;1;8;0;0;1;6
"joan longas";0;0;1;10;0;0;1;10
"phil monk";0;0;1;36;0;0;1;36
"raymond hains artist";0;0;1;4;0;0;1;4
"nathan loader";0;0;1;70;0;0;1;70
"victor soren";0;0;1;7;0;0;1;7
"lyn balzer & tony perkins";0;0;1;48;0;0;1;48
"ren hang wikipedia";0;0;1;7;0;0;1;7
"jean christophe ballot";0;0;1;41;0;0;1;41
"petrovitch françoise";0;0;1;8;0;0;1;8
"nick walker artist";0;0;1;44;0;0;1;44
"miguel chevalier";0;0;2;60.5;0;0;2;60.5
"hemingway for sale";0;0;1;305;0;0;1;305
"cesar santos art";0;0;1;36;0;0;1;36
"jelen budapest";0;0;1;131;0;0;1;131
xiaogang;0;0;1;313;0;0;1;313
"bruno catalano";0;0;1;22;0;0;1;22
"denis proteor";0;0;1;24;0;0;1;24
"dan rawlings";0;0;4;2;0;0;3;2;0;0;1;2
"ii ta'";0;0;1;178;0;0;1;178
"jean françois jonvelle";0;0;1;15;0;0;1;15
"""grafiek"" + ""contact"" ~endless";0;0;1;126;0;0;1;126
"juliet ferguson";0;0;1;20;0;0;1;20
"venezuelan artists";0;0;1;38;0;0;1;38
"swoon art for sale";0;0;1;46;0;0;1;46
"iron man tutu";0;0;1;15;0;0;1;15
"emmanuel flipo";0;0;1;5;0;0;1;5
"philippe hiquily";0;0;1;19;0;0;1;19
faucheur;0;0;1;8;0;0;1;8
"galerie fluegel-roncak";0;0;1;15;0;0;1;15
kolasz;0;0;1;3;0;0;1;3
"jean paul garnier";0;0;1;312;0;0;1;312
"jean georges inca";0;0;3;1.3333333333333;0;0;3;1.3333333333333
"galerie bettina von arnim";0;0;1;5;0;0;1;5
"sala art";0;0;1;335;0;0;1;335
"conrad marca relli";0;0;1;40;0;0;1;40
"andrea michaelsson";0;0;1;4;0;0;1;4
parallelos;0;0;1;10;0;0;1;10
dellarosa;0;0;1;152;0;0;1;152
"claude closky";0;0;2;11;0;0;2;11
"sandro giordano";0;0;1;8;0;0;1;8
"alain riviere lecoeur";0;0;1;4;0;0;1;4
"jankowski artist";0;0;1;24;0;0;1;24
"christopher barnekow";0;0;1;8;0;0;1;8
"david gerstein sculpture";0;0;1;42;0;0;1;42
"antoine rose up in the air";0;0;1;4;0;0;1;4
"simon liddiment";0;0;1;7;0;0;1;7
"georges dumas";0;0;2;20.5;0;0;2;20.5
"rebecca schuster roman tramp";0;0;2;40;0;0;2;40
"stephen forbes artist";0;0;2;2;0;0;2;2
"patti smith artwork";0;0;1;42;0;0;1;42
hamey;0;0;2;4;0;0;2;4
"el pescador";0;0;1;155;0;0;1;155
"sági gyula";0;0;1;4;0;0;1;4
"making love";0;0;1;219;0;0;1;219
"ayline olukman";0;0;1;5;0;0;1;5
"open our mind";0;0;1;2;0;0;1;2
"galerie mazel";0;0;1;6;0;0;1;6
"photographs for sale";0;0;1;420;0;0;1;420
"henrik simonsen";0;0;2;17;0;0;1;22;0;0;1;12
"sunday b morning marilyn";0;0;1;22;0;0;1;22
"antonella masetti";0;0;1;9;0;0;1;9
"franta artist";0;0;1;4;0;0;1;4
"by erro";0;0;1;2;0;0;1;2
"misskiss_ nude";0;0;1;37;0;0;1;37
"bernard pras";0;0;5;11.4;0;0;2;13.5;0;0;3;10
"philippe artist";0;0;1;6;0;0;1;6
"seven fires self-taught";0;0;1;100;0;0;1;100
"sun-hyuk kim";0;0;2;4;0;0;2;4
"jessica guillon";0;0;1;32;0;0;1;32
"helmut newton artwork";0;0;2;9;0;0;1;9;0;0;1;9
"jean claude gautrand";0;0;1;326;0;0;1;326
"je construis";0;0;1;146;0;0;1;146
"michael bevilacqua";0;0;1;58;0;0;1;58
"jerome romain artist";0;0;3;1.6666666666667;0;0;3;1.6666666666667
"seven fires solidify";0;0;2;212.5;0;0;2;212.5
godon;0;0;11;3.2727272727273;0;0;4;2.25;0;0;2;5;0;0;5;3.4
"manuel geerinck";0;0;1;24;0;0;1;24
"oksana yambykh";0;0;2;6;0;0;2;6
picka;0;0;1;70;0;0;1;70
"tom wesselmann";0;0;5;17;0;0;2;23.5;0;0;2;14;0;0;1;10
"antoni muntadas";0;0;1;59;0;0;1;59
"gerry cranham";0;0;1;5;0;0;1;5
chubac;0;0;2;6;0;0;1;6;0;0;1;6
"open your mind images";0;0;1;1;0;0;1;1
mallart;0;0;1;3;0;0;1;3
"michel four";0;0;1;10;0;0;1;10
"patrick villas";0;0;1;8;0;0;1;8
"jeans san francisco";0;0;1;121;0;0;1;121
liliane;0;0;1;228;0;0;1;228
lemilo;0;0;1;9;0;0;1;9
"truc anh";0;0;1;3;0;0;1;3
"djamel boucly";0;0;2;10;0;0;2;10
awena;0;0;1;42;0;0;1;42
"forum ctoq";0;0;1;137;0;0;1;137
desnature;0;0;2;10;0;0;2;10
"jacques beneich";0;0;1;7;0;0;1;7
"jonathan callan";0;0;1;49;0;0;1;49
"lambermont bruxelles";0;0;1;184;0;0;1;184
"léo caillard";0;0;1;28;0;0;1;28
malab;0;0;2;98;0;0;1;99;0;0;1;97
"urban artwork for sale";0;0;1;37;0;0;1;37
"zhao bandi";0;0;3;4.3333333333333;0;0;3;4.3333333333333
"gerard rancinan";0;0;3;15;0;0;2;18;0;0;1;9
"fernando garcía ponce";0;0;1;20;0;0;1;20
"pierre marie brisson prices";0;0;2;3;0;0;2;3
"wim delvoye artworks";0;0;1;16;0;0;1;16
"gerard schlosser";0;0;3;10;0;0;3;10
"planete serie";0;0;13;3;0;0;13;3
"paris artist";0;0;1;47;0;0;1;47
"david gerstein disco large";0;0;1;49;0;0;1;49
"stéphanie nava";0;0;1;8;0;0;1;8
nellisa;0;0;1;8;0;0;1;8
"john crash matos";0;0;4;7.75;0;0;1;7;0;0;3;8
"li wein";0;0;1;11;0;0;1;11
"guy denning prints";0;0;1;4;0;0;1;4
"renata har";0;0;1;12;0;0;1;12
"valerie hadida";0;0;4;10;0;0;3;10;0;0;1;10
"oger sale";0;0;1;22;0;0;1;22
"john matos crash";0;0;1;3;0;0;1;3
"hotel ristorante camene";0;0;1;47;0;0;1;47
"charlotte lelong";0;0;3;8.6666666666667;0;0;3;8.6666666666667
"stéphane jacob";0;0;1;6;0;0;1;6
"gwen schall nude";0;0;1;7;0;0;1;7
"texas photographic society";0;0;1;442;0;0;1;442
"sky mikesell";0;0;1;46;0;0;1;46
"jean kokto";0;0;1;313;0;0;1;313
"antoine stevens bio";0;0;2;2;0;0;2;2
"jock sturges";0;0;2;88;0;0;1;89;0;0;1;87
jeangeorges;0;0;1;229;0;0;1;229
"tomas vu artist";0;0;1;10;0;0;1;10
"hiro ando";0;0;3;7;0;0;2;5.5;0;0;1;10
"tobias putrih";0;0;1;54;0;0;1;54
"julien barcilon";0;0;1;3;0;0;1;3
"helder batista";0;0;2;6;0;0;1;9;0;0;1;3
"del zou";0;0;1;1;0;0;1;1
"david ferreira";0;0;1;34;0;0;1;34
"troy henriksen art";0;0;1;3;0;0;1;3
gammacurta;0;0;1;25;0;0;1;25
"jerome zonder";0;0;1;31;0;0;1;31
"palazzo bembo venise";0;0;1;185;0;0;1;185
"speedy graphito for sale";0;0;2;5;0;0;2;5
"jeanne colombo";0;0;1;304;0;0;1;304
"car bonne";0;0;1;7;0;0;1;7
"famous contemporary artists";0;0;2;38.5;0;0;2;38.5
"jose manuel fors";0;0;1;14;0;0;1;14
xaipe;0;0;1;33;0;0;1;33
"gz gallery";0;0;6;5;0;0;6;5
"cecile desserle";0;0;1;7;0;0;1;7
"keith tyson";0;0;1;97;0;0;1;97
"zhou tiehai";0;0;1;17
"btoy andrea";0;0;1;8
"james dean warhol";0;0;1;216
"julia whitehead";0;0;1;28
"gz store";0;0;1;3;0;0;2;2
"hilger modern / contemporary";0;0;1;85
rafiy;0;0;4;1.75;0;0;1;11
"nicolette jelen";0;0;1;23
"tiffany chung";0;0;1;43
"forum crfe";0;0;1;249
"things are getting interesting";0;0;1;41
"okamoto's opera";0;0;1;91
"irina ionesco";0;0;2;75.5
"jef claes";0;0;1;28
"yan morvan";0;0;1;17
konichiwa;0;0;1;180;0;0;1;177
"carlos cruz-diez";0;0;1;64
"olivier debré";0;0;1;88
"natalia rak";0;0;1;29
"eckstein berlin";0;0;1;176
"catherine lopes";0;0;1;9
"jeanne 2004";0;0;1;344
"lucky luke";0;0;1;134
"peter wüthrich";0;0;1;47
"maria perello";0;0;1;28
"artist stefan";0;0;1;334
"fabio coruzzi";0;0;1;16
"eva navarro";0;0;3;11.666666666667;0;0;1;3;0;0;1;3
"yan pei-ming";0;0;1;56
durrey;0;0;1;11
"frank de mulder";0;0;1;66
"thomas bossard";0;0;1;5;0;0;1;7
"helmut newton for sale";0;0;1;43
"le cerf";0;0;1;154
"uwe ommer";0;0;4;16
"artist jean baptiste";0;0;1;211
"focalpoint photography";0;0;1;320
"david gerstein";0;0;5;49.8
"jean paul belomondo";0;0;1;229
"raymond hains artwork";0;0;2;3
"andrej barov";0;0;1;122
"by belie";0;0;2;6;0;0;2;6
"ren hang";0;0;2;25;0;0;1;7;0;0;3;25.333333333333
"griffin gallery";0;0;1;165
"caesar ii";0;0;1;142
"yann houri";0;0;1;1;0;0;5;6
"fubiz art";0;0;1;6
"galerie insula";0;0;1;30
"fabrice hyber";0;0;2;7.5;0;0;1;8
"laurence dreyfus art";0;0;1;6;0;0;2;6.5
"gottfried salzmann artist";0;0;1;6;0;0;1;4
"john matos";0;0;1;8
"mel ramos";0;0;46;11.108695652174;0;0;6;1;0;0;10;1
"henri lamy paintings";0;0;1;8
"shen jingdong";0;0;1;7;0;0;2;5
"joachim monvoisin";0;0;2;5
"maggie matthews art";0;0;1;10
"sun mi ahn";0;0;1;4
"je te tient";0;0;1;103
"pont alexander";0;0;1;205
"valerie hadida sculptures";0;0;2;9;0;0;1;10
"pruski usd";0;0;1;8
"jerry zeniuk deutschland";0;0;1;20
"united states richard";0;0;1;440
"cindy sherman black and white";0;0;1;324
"jacques renoir";0;0;7;8.4285714285714;0;0;5;9;0;0;2;10.5
"rent artwork";0;0;1;338
"lynch ii";0;0;1;223
"niclas castello";0;0;2;21
"nurcan giz";0;0;1;2
"cristinerosa nude";0;0;1;40
"lucien murat";0;0;6;4;0;0;1;3
"lolita galleries";0;0;4;43
"mike hall artist";0;0;1;29
"cynthia nude";0;0;1;38
"nils-udo art";0;0;1;10
"jesus is love";0;0;1;245
"janine biermann";0;0;1;220
"alex folla";0;0;1;15
"lolita art nude";0;0;1;34
butfuck;0;0;1;21
"jean-paul belmondo";0;0;1;229
"cellai hotel";0;0;1;169
"by the dude";0;0;1;5
"jonathan huxley";0;0;1;8;0;0;2;7
"elwin buchel";0;0;1;11
"fred calmets";0;0;2;5
"art elysees";0;0;1;16
"agafia polynchuk";0;0;2;10
"patrick villas sculpture";0;0;2;4
"theo platt";0;0;1;43
"paris concorde";0;0;1;196
"philippe vasseur artist";0;0;1;1;0;0;3;1.3333333333333
"atlas blue";0;0;1;172
"whitespace gallery";0;0;1;54
"jean pierre attal";0;0;1;8
"galerie 127";0;0;1;7
"art nue";0;0;1;5
"alexey klimov";0;0;2;11.5;0;0;1;10
valencin;0;0;1;14
"les terrasses de cécile";0;0;1;50
"the zero point self-taught";0;0;1;106
"philippe charpentier";0;0;3;1
"modern art paintings savannah ga";0;0;2;415
"antoine rose";0;0;3;2
"james ireland artist";0;0;1;104
"kate knight art";0;0;1;3
"otto d'ambra";0;0;1;33
"how are you doing sale";0;0;1;314
"ruxandra papa";0;0;1;9
"asgar/ gabriel";0;0;2;10.5
"contemporary portrait photography";0;0;3;422.33333333333
fuger;0;0;1;349
"luca di filippo";0;0;3;7.6666666666667;0;0;1;9
"yanko tihov";0;0;13;8.1538461538462;0;0;12;8.9166666666667;0;0;2;9
"grateful dead artwork for sale";0;0;1;45
"robert elle";0;0;1;3
"jasper jones art";0;0;1;107
"armando rearte";0;0;1;41
"galerie w";0;0;1;7
mp333;0;0;1;29
"artist maurice";0;0;1;335
"freddie mercury artwork";0;0;1;25
"janis joplin artwork";0;0;1;311
"rudi pillen";0;0;3;1
"united states subtly";0;0;1;504
openyourmind;0;0;1;4
"jianguo beijing";0;0;1;173
"serge mendjisky";0;0;1;17
"jonone art";0;0;2;8.5
"agam art for sale";0;0;1;40
rayou;0;0;1;15
"la bascule upcoming events";0;0;1;56
"ahmed moustafa";0;0;1;53
"united states seventeen";0;0;1;201
"romain cadilhon";0;0;1;6
"e-gallerie french";0;0;1;8
pechane;0;0;1;6
"student sculpture projects";0;0;1;429
"marilyn minter";0;0;1;107
"denis darzacq";0;0;1;60
"richard hearns";0;0;1;9
"razvan hotel bucharest";0;0;1;73
"""andorra"" + ""contact"" ~modesty";0;0;1;299
"tangled up in blue";0;0;1;351
"jonone street art";0;0;2;6
"gautier deblonde atelier";0;0;1;12
"nguyen the dung";0;0;4;15.5
"fabien verschaere";0;0;1;3
jean-christophe;0;0;1;323
"jian guo beijing";0;0;1;167
"paulette tavormina";0;0;2;40
"is mariah carey black";0;0;1;46
"barbara stanley gallery";0;0;1;6;0;0;1;7
"uses of sculpture";0;0;1;437
"yoel benharrouche prices";0;0;2;5
wesselmann;0;0;1;45
"lotus diamond";0;0;1;3
"vip art's lisbonne";0;0;1;153
"entomological pins";0;0;1;316
"jonone artist";0;0;2;23
"haude bernabé";0;0;3;3
"nudes in france";0;0;1;139
"bluegrass edition andy warhol";0;0;1;1
"laurent maes";0;0;1;7
"peter blake's art";0;0;1;304
"mauro benetti";0;0;1;17
"chopin artist";0;0;1;6
mitz.at;0;0;2;25.5
"maxime ansiau";0;0;1;15
putov;0;0;1;1
"artist shyam";0;0;1;9
"guayasamin prints";0;0;1;36
"françoise pétrovitch";0;0;1;7
"henrik simonsen artist";0;0;1;10
"rak artist";0;0;2;7.5
"andreas leikauf";0;0;3;4
"ren hang wiki";0;0;1;7
"patrick cornillet";0;0;1;2
"onur painting";0;0;1;9
"janet lynch artist";0;0;1;10
calmets;0;0;2;5
"oswaldo guayasamín paintings";0;0;1;21
"francois morellet";0;0;3;11
shigong;0;0;1;15
"pierre schuster";0;0;1;1
"sculpture violon";0;0;2;8.5
"eric lapierre";0;0;1;9
carterpresents;0;0;1;11
"anna maria diaz";0;0;1;15
"la tour de bruxelles";0;0;3;2
"mel ramos art for sale";0;0;1;5
"xin tao";0;0;1;5
"sandra david";0;0;2;17
"art changes everything";0;0;1;30
"open your mond";0;0;1;4
"alex kizu";0;0;1;9
"anna bjerger paintings";0;0;1;6
"nojnoma paris";0;0;1;1
"matthew attard";0;0;2;9;0;0;1;9
"florence d'elle";0;0;4;7.5;0;0;2;7.5
artsper;0;0;3;1;0;0;2;1
"galerie depardieu";0;0;1;6
ideelart;0;0;1;6;0;0;1;7
"zhang wei artist";0;0;1;5
"lamy art";0;0;1;8
"michel belhomme";0;0;1;8
"mihai bara";0;0;1;13
leyto;0;0;1;4
"jon one";0;0;1;7
michel'le;0;0;1;182
rancinan;0;0;1;8
"vivian maier grenoble";0;0;3;6
"cara delevingne graffiti";0;0;1;1
"ivan plyusch";0;0;1;4
"costa artist";0;0;1;9
"thierry carrier";0;0;1;7
"muhanna durra";0;0;1;8
"michael meyersfeld";0;0;1;11
"tour de bruxelles";0;0;1;2;0;0;1;1
"charlelie couture gallery new york";0;0;1;10
"emma whispers";0;0;1;20
"madonna bambi";0;0;1;10
"anna bjerger";0;0;1;7
ebubedike;0;0;1;19
"jan pruski";0;0;1;27
"thomas müller artist";0;0;1;8
"xavier prieur";0;0;1;10
"jean helion";0;0;2;9
"murakami flower cushion";0;0;1;7
"cara de bambi";0;0;1;1
"jerome mesnager";0;0;3;5.3333333333333;0;0;1;6
"guy boyer";0;0;1;7
roch3;0;0;1;7
"jm robert";0;0;1;1
"galerie roy sfeir";0;0;1;7
"eliane larus";0;0;4;3.75
attal;0;0;1;204
"ren hang exhibition";0;0;1;5
"vincent hawkins art";0;0;1;8
"jean marie marion";0;0;2;10
"guy denning art";0;0;1;7
