"brno del zou";9;0.21428571428571;42;2.0238095238095;7;0.19444444444444;36;2.0277777777778;2;1;2;2;0;0;4;2
"jean paul moscovino";4;0.16666666666667;24;1.375;2;0.15384615384615;13;1;1;0.2;5;1.8;1;0.16666666666667;6;1.8333333333333
"guy denning biography";2;0.4;5;5;1;0.5;2;5;0;0;1;5;1;0.5;2;5
"li lihong";2;0.25;8;3.125;2;0.28571428571429;7;2.8571428571429;0;0;1;5
"art brut gallery";2;1;2;13.5;2;1;2;13.5
"benoit trimborn";2;0.66666666666667;3;5;2;0.66666666666667;3;5
"hiro ando";2;0.14285714285714;14;7;1;0.090909090909091;11;6.9090909090909;1;0.33333333333333;3;7.3333333333333
"jean faucheur";2;0.28571428571429;7;2.2857142857143;0;0;5;2.2;2;1;2;2.5
"sebastien bayet";2;0.5;4;2.25;2;0.5;4;2.25
"edouard buzon";1;0.33333333333333;3;1.3333333333333;0;0;1;2;1;0.5;2;1
"yvonne coomber facebook";1;1;1;25;1;1;1;25
"guy denning artist";1;0.125;8;8.875;1;0.125;8;8.875
"cigarette gainsbourg";1;1;1;1;1;1;1;1
"peter lippmann biography";1;0.5;2;1;1;0.5;2;1
"rafael gomez barros";1;0.25;4;6.5;1;0.5;2;7;0;0;2;6
"renaud delorme";1;0.090909090909091;11;5.9090909090909;1;0.090909090909091;11;5.9090909090909
"etienne rey";1;0.33333333333333;3;8;1;0.33333333333333;3;8
"peter lippmann";1;0.047619047619048;21;7.5714285714286;0;0;4;8;1;0.5;2;9
"simon von barloewen";1;1;1;2;1;1;1;2
"guy denning for sale";1;1;1;3;1;1;1;3
"guy denning bio";1;0.2;5;5.8;1;0.33333333333333;3;5.6666666666667;0;0;1;6;0;0;1;6
"άρης μεσσήνης";1;0.33333333333333;3;15;1;0.5;2;15;0;0;1;15
"louis nicolas darbon art";1;1;1;17;1;1;1;17
"marlene dumas";1;1;1;6;1;1;1;6
"yoel benharrouche";1;0.5;2;11;1;0.5;2;11
"ele pack artist";1;1;1;11;1;1;1;11
"philippe weisbecker";1;0.2;5;6.6;1;0.33333333333333;3;7;0;0;2;6
"charlelie couture paintings";1;1;1;4;1;1;1;4
"daan oude elferink";1;0.14285714285714;7;8.2857142857143;1;0.14285714285714;7;8.2857142857143
"john crash matos art";1;0.5;2;6;1;0.5;2;6
"fabrizio corneli";1;0.083333333333333;12;10.333333333333;1;0.083333333333333;12;10.333333333333
"pierre françois grimaldi";1;1;1;2;1;1;1;2
"jean faucheur photography";1;0.33333333333333;3;2;1;0.33333333333333;3;2
"michel le belhomme";1;1;1;7;1;1;1;7
"sergio moscona";1;0.25;4;4;1;0.33333333333333;3;4;0;0;1;4
"zhou hongbin";1;0.33333333333333;3;9;1;0.33333333333333;3;9
"charles guyot";1;0.5;2;1;1;0.5;2;1
"richard hudson artist";1;0.2;5;8;1;0.2;5;8
"christophe charbonnel";1;0.16666666666667;6;5.8333333333333;1;0.2;5;6;0;0;1;5
"nurcan giz";1;0.5;2;2.5;1;1;1;2
"len jessome";1;0.33333333333333;3;3;0;0;2;4;1;1;1;1
"aris messinis";1;0.055555555555556;18;9.6666666666667;1;0.0625;16;9.625;0;0;1;10;0;0;1;10
"andre cottavoz";1;0.16666666666667;6;7.8333333333333;0;0;4;8;1;0.5;2;7.5
"sen2 figueroa";1;0.16666666666667;6;4.6666666666667;1;1;1;3;0;0;5;5
"eva navarro paintings";1;0.5;2;5.5;1;0.5;2;5.5
artsper;1;0.037037037037037;27;1;0;0;2;1;1;0.5;2;1
"raymond hains";1;0.047619047619048;21;8.047619047619;1;0.052631578947368;19;8.0526315789474;0;0;2;8
"jeanne lorioz";1;0.1;10;9.4;1;0.16666666666667;6;9.1666666666667;0;0;1;9;0;0;3;10
"gordon hopkins";1;0.25;4;5;1;0.5;2;4;0;0;2;6
"dominique mulhem";1;1;1;7;1;1;1;7
"hanna nitsch";1;0.16666666666667;6;7.8333333333333;1;0.16666666666667;6;7.8333333333333
"alexandre joly";1;0.25;4;11;1;0.25;4;11
"arkiv vilmansa";1;0.16666666666667;6;9.3333333333333;1;0.2;5;9.2;0;0;1;10
"laurent cammal";1;0.5;2;1;1;0.5;2;1
"alain godon";1;0.33333333333333;3;3.6666666666667;1;0.33333333333333;3;3.6666666666667
"gerard schlosser";1;0.2;5;9.8;1;0.2;5;9.8
"li lihong artist";1;0.5;2;4.5;1;0.5;2;4.5
cochereau;0;0;1;43;0;0;1;43
"women heroines";0;0;1;403;0;0;1;403
"pop art still life";0;0;1;347;0;0;1;347
"antoine stevens";0;0;11;6.4545454545455;0;0;5;6.4;0;0;5;6;0;0;1;9
"henrik simonsen";0;0;2;19.5;0;0;1;27;0;0;1;12
"zhao bandi";0;0;2;10;0;0;2;10
"land up";0;0;1;537;0;0;1;537
"alberto rosselli";0;0;2;43;0;0;2;43
"jose manuel fors";0;0;6;11.666666666667;0;0;6;11.666666666667
"genevieve claisse";0;0;2;4.5;0;0;2;4.5
"figurative paintings for sale";0;0;1;33;0;0;1;33
"nyne factory";0;0;2;4.5;0;0;1;3;0;0;1;6
urbanium;0;0;1;27;0;0;1;27
"antoine poupel";0;0;1;26;0;0;1;26
"christian hornsleth";0;0;1;43;0;0;1;43
"jochem hendricks";0;0;1;44;0;0;1;44
"veronique rischard";0;0;2;1;0;0;2;1
"henni alftan";0;0;1;5;0;0;1;5
"nils udo artwork";0;0;1;9;0;0;1;9
"cornwall contemporary";0;0;1;5;0;0;1;5
"nick carter contemporary";0;0;12;7.5833333333333;0;0;4;5.75;0;0;8;8.5
"sergio ferro";0;0;2;11;0;0;2;11
"artwork milano";0;0;1;50;0;0;1;50
"juliette montier";0;0;1;6;0;0;1;6
motron;0;0;5;45.4;0;0;4;46.25;0;0;1;42
"colin guillemet";0;0;1;5;0;0;1;5
"reynald drouhin";0;0;1;13;0;0;1;13
"alex guofeng cao";0;0;2;15.5;0;0;2;15.5
"antoine rose";0;0;1;23;0;0;1;23
"guy de rougemont";0;0;1;10;0;0;1;10
"bruno vilela";0;0;1;88;0;0;1;88
"pierre tal coat";0;0;1;39;0;0;1;39
"gabriel bodnariu";0;0;2;3.5;0;0;2;3.5
"gijsbert hanekroot";0;0;3;1;0;0;3;1
"tom brown fine art";0;0;1;78;0;0;1;78
"hans withoos";0;0;1;10;0;0;1;10
"frederic deprun";0;0;1;4;0;0;1;4
"open you mind";0;0;3;2.3333333333333;0;0;3;2.3333333333333
"annette messager artwork";0;0;1;27;0;0;1;27
"jane emberson";0;0;4;5.25;0;0;1;5;0;0;3;5.3333333333333
"takashi murakami pillow";0;0;1;14;0;0;1;14
"takagi cm";0;0;1;58;0;0;1;58
"aris messinis photography";0;0;1;24;0;0;1;24
"jacques villegle artwork";0;0;2;8.5;0;0;1;9;0;0;1;8
"rivellino school of art";0;0;1;97;0;0;1;97
"perrier dita";0;0;1;30;0;0;1;30
tjok;0;0;1;49;0;0;1;49
"michele destarac";0;0;1;1;0;0;1;1
vagabondage;0;0;6;9.8333333333333;0;0;1;8;0;0;1;11;0;0;4;10
"juan camilo alvarez";0;0;2;8;0;0;2;8
"lucy & jorge orta";0;0;2;50.5;0;0;2;50.5
"favier philippe";0;0;1;8;0;0;1;8
"patrick bailly";0;0;1;48;0;0;1;48
"laurentiu feller";0;0;1;21;0;0;1;21
"raymond voinquel";0;0;2;11;0;0;2;11
"lolita nudist beach";0;0;1;7;0;0;1;7
"georges cabot";0;0;1;1;0;0;1;1
"bird barrier";0;0;1;96;0;0;1;96
"claude viallat";0;0;2;72;0;0;2;72
"pras bernard";0;0;1;4;0;0;1;4
"bernard quentin";0;0;5;8.8;0;0;1;8;0;0;4;9
"annette messager artist";0;0;1;28;0;0;1;28
"forum bkvb";0;0;1;338;0;0;1;338
"maxime frairot";0;0;1;3;0;0;1;3
"folly and muse";0;0;1;16;0;0;1;16
"david ferreira";0;0;1;36;0;0;1;36
"timothee talard";0;0;1;3;0;0;1;3
"nicolas de montaigut";0;0;1;6;0;0;1;6
"hopkins artist";0;0;1;8;0;0;1;8
"victor kastelic";0;0;3;10;0;0;1;9;0;0;2;10.5
"baudoin lebon";0;0;2;5;0;0;2;5
"peter doffine internet";0;0;2;156;0;0;2;156
levalet;0;0;1;26;0;0;1;26
"17th century paintings for sale";0;0;1;38;0;0;1;38
"kim sun hyuk";0;0;1;8
"jacques de la villeglé";0;0;5;9.4;0;0;1;7
"les terrasses de cécile";0;0;1;49;0;0;1;49
intra01;0;0;2;6.5;0;0;2;6.5
"raynaud julien";0;0;1;7;0;0;1;7
"olivier anicet";0;0;2;8;0;0;2;8
"gres emaille";0;0;2;28;0;0;2;28
"alex maclean";0;0;1;99;0;0;1;99
"helmut newton sumo";0;0;2;54;0;0;2;54
"self portrait photographers york";0;0;1;130;0;0;1;130
"martin kudlek";0;0;1;99;0;0;1;99
"nina urlichs";0;0;1;5;0;0;1;5
"gerry cranham";0;0;3;4.6666666666667;0;0;1;5;0;0;2;4.5
"portrait of gerti schiele";0;0;1;9;0;0;1;9
"musikmuseum barcelona";0;0;3;143.66666666667;0;0;3;143.66666666667
"taubert contemporary";0;0;1;146;0;0;1;146
"evelyne postic";0;0;2;5.5;0;0;2;5.5
"remi rough & crash";0;0;1;36;0;0;1;36
"nue gallery";0;0;1;4;0;0;1;4
"levalet street art";0;0;1;6;0;0;1;6
"gallery nue";0;0;2;5.5;0;0;2;5.5
"ilgin seymen";0;0;1;8;0;0;1;8
"telemaque peintre";0;0;1;71;0;0;1;71
"dain artist";0;0;1;43;0;0;1;43
"maarten stuer";0;0;1;10;0;0;1;10
"gazelli art house";0;0;3;27.666666666667;0;0;3;27.666666666667
"puzzle pulp fiction";0;0;1;1;0;0;1;1
"viveca koh";0;0;1;17;0;0;1;17
"andy hope 1930";0;0;1;94;0;0;1;94
"patrick letovsky";0;0;1;2;0;0;1;2
"la mri";0;0;2;9;0;0;2;9
"hervé lewis";0;0;4;1;0;0;4;1
"crystal wagner";0;0;1;43;0;0;1;43
"peter hoffer artist";0;0;2;7;0;0;2;7
"nieves mingueza";0;0;1;9;0;0;1;9
"jacques lacroix";0;0;1;10;0;0;1;10
"carlos cruz diez";0;0;1;60;0;0;1;60
"wadi finan";0;0;1;9;0;0;1;9
"art life gallery";0;0;1;8;0;0;1;8
"lagasse susan";0;0;1;247;0;0;1;247
"the storm painting";0;0;1;340;0;0;1;340
nowart;0;0;1;10;0;0;1;10
"maurice renoma";0;0;2;1;0;0;2;1
"kenneth noland prints";0;0;1;67;0;0;1;67
obalata;0;0;1;2;0;0;1;2
"george platt lynes";0;0;1;59;0;0;1;59
"jeanne susplugas";0;0;1;7;0;0;1;7
"caroline fraser";0;0;1;57;0;0;1;57
"nathalie harvey";0;0;2;10;0;0;2;10
"toma l";0;0;1;1;0;0;1;1
"davide boriani";0;0;3;8.3333333333333;0;0;3;8.3333333333333
daurios;0;0;2;9;0;0;2;9
"invisible layer";0;0;1;407;0;0;1;407
"matthew feyld";0;0;2;18;0;0;2;18
"graham dolphin";0;0;1;9;0;0;1;9
"yan pei ming";0;0;2;54.5;0;0;2;54.5
"dope! gallery";0;0;1;8;0;0;1;8
"la maja desnuda";0;0;2;70.5;0;0;2;70.5
hako;0;0;1;155;0;0;1;155
"isabelle keit parinaud";0;0;1;3;0;0;1;3
hirschfuß;0;0;1;46;0;0;1;46
"quentin shih dior";0;0;1;8;0;0;1;8
"mimi the clown artist";0;0;1;9;0;0;1;9
"henri lamy";0;0;5;8.2;0;0;5;8.2
"open your maind";0;0;1;1;0;0;1;1
"ronis france";0;0;1;33;0;0;1;33
"anne-valerie dupond";0;0;1;8;0;0;1;8
"gunter damisch";0;0;3;43.333333333333;0;0;3;43.333333333333
"louis blanc";0;0;2;104.5;0;0;2;104.5
"tadini emilio";0;0;1;49;0;0;1;49
"richard orlinski";0;0;2;17.5;0;0;2;17.5
sun7;0;0;1;56;0;0;1;56
"le galet";0;0;1;183;0;0;1;183
"ivan plusch";0;0;1;5;0;0;1;5
"alinka echeverria";0;0;1;33;0;0;1;33
"davide galbiati";0;0;1;9;0;0;1;9
"vincent breed";0;0;1;3;0;0;1;3
"bambi artist";0;0;1;1;0;0;1;1
"herb e concept";0;0;1;331;0;0;1;331
"hotel vuk";0;0;1;178;0;0;1;178
"mira maodus";0;0;2;3;0;0;2;3
jonone;0;0;8;13.5;0;0;6;15.666666666667;0;0;2;7
"klaus guingand";0;0;1;9;0;0;1;9
"port autonome de marseille";0;0;1;41;0;0;1;41
"curious duke gallery";0;0;1;58;0;0;1;58
"daniel lucien durand";0;0;1;41;0;0;1;41
artigasplanas;0;0;2;2;0;0;2;2
nojnoma;0;0;10;4;0;0;2;5;0;0;7;4;0;0;1;2
"paul bogaers";0;0;9;31.222222222222;0;0;9;31.222222222222
"eva jospin artist";0;0;13;6.0769230769231;0;0;4;7.25;0;0;7;5.7142857142857;0;0;2;5
"marit beer";0;0;2;10;0;0;2;10
"ephrem solomon artist";0;0;1;9;0;0;1;9
"bruno catalano for sale";0;0;1;4;0;0;1;4
"renoma street";0;0;1;26;0;0;1;26
"gabriel paris";0;0;1;42;0;0;1;42
"atlas weil am rhein";0;0;1;156;0;0;1;156
"rafael marquez";0;0;1;96;0;0;1;96
"forum cgac";0;0;1;207;0;0;1;207
hornsleth;0;0;2;134.5;0;0;2;134.5
laveri;0;0;1;9;0;0;1;9
grahamsweet;0;0;1;4;0;0;1;4
"norma bessieres";0;0;1;7;0;0;1;7
"peter mc lane";0;0;1;10;0;0;1;10
"mark mawson";0;0;1;68;0;0;1;68
"antoni tapies original prints worcester";0;0;1;51;0;0;1;51
"francois bard";0;0;8;7;0;0;7;7;0;0;1;7
"nicolas hugo";0;0;2;9.5;0;0;2;9.5
"eva jospin";0;0;31;1.9354838709677;0;0;26;1.7307692307692;0;0;3;1.3333333333333;0;0;2;5.5
"shepard fairey obey";0;0;1;42;0;0;1;42
"ilona granet";0;0;1;305;0;0;1;305
"jeremie lenoir";0;0;1;8;0;0;1;8
"aki kuroda";0;0;9;5;0;0;8;5.25;0;0;1;3
"valentin pons";0;0;1;20;0;0;1;20
"record shelf";0;0;1;98;0;0;1;98
"joseph marzolla";0;0;1;8;0;0;1;8
"jean-francois rauzier";0;0;1;32;0;0;1;32
"hotel ristorante camene";0;0;1;50;0;0;1;50
"by erro";0;0;1;2;0;0;1;2
"etiye dimma poulsen";0;0;1;9;0;0;1;9
"emmanuel flipo";0;0;2;5;0;0;2;5
"tobias putrih";0;0;2;43.5;0;0;2;43.5
hadida;0;0;2;87;0;0;2;87
"gilles capton";0;0;1;2;0;0;1;2
"forum bxma";0;0;1;148;0;0;1;148
"alexey klimov";0;0;1;14;0;0;1;14
"la madrague brigitte";0;0;1;4;0;0;1;4
"anthropomorphism in art";0;0;1;34;0;0;1;34
"caroline maurel";0;0;1;6;0;0;1;6
"open.your mind";0;0;1;2;0;0;1;2
"patrick moya artist";0;0;2;7.5;0;0;2;7.5
"marie finaz gallery";0;0;1;39;0;0;1;39
"maria torp";0;0;3;6.3333333333333;0;0;2;6.5;0;0;1;6
jingla;0;0;1;7;0;0;1;7
"nils udo biographie";0;0;1;14;0;0;1;14
ganzhu;0;0;2;8;0;0;2;8
"arthur tress";0;0;2;59.5;0;0;2;59.5
"keith tyson art";0;0;1;43;0;0;1;43
"charlotte cornaton";0;0;1;93;0;0;1;93
markus&koala;0;0;4;30;0;0;4;30
skateroom;0;0;2;28
truc-anh;0;0;2;2.5
"julia mangold artist";0;0;1;5
"phillippe pasqua";0;0;1;10;0;0;1;10
nicolette;0;0;1;344;0;0;1;344
saint-cyr;0;0;1;194;0;0;1;194
"batista born";0;0;1;65;0;0;1;65
"etienne gros";0;0;8;6.625;0;0;6;7;0;0;2;5.5
"john matos";0;0;3;9;0;0;2;9;0;0;1;9
"claude charlier";0;0;6;8;0;0;6;8
+bram+bogart;0;0;1;125;0;0;1;125
"florence d";0;0;2;8;0;0;2;8
"bernard pras biography";0;0;1;3;0;0;1;3
"kerry eggleton";0;0;3;2.3333333333333;0;0;3;2.3333333333333
onirose;0;0;1;28;0;0;1;28
"stiliana alexieva";0;0;4;10;0;0;1;10;0;0;3;10
hamey;0;0;1;8;0;0;1;8
"janet brooke";0;0;1;17;0;0;1;17
"ben silvertown";0;0;1;311;0;0;1;311
"pierre chazelat";0;0;1;10;0;0;1;10
"speedy graphito for sale";0;0;3;4.3333333333333;0;0;3;4.3333333333333
"hans hartung bilder";0;0;1;45;0;0;1;45
"razvan bucharest";0;0;1;192;0;0;1;192
"annya sand";0;0;1;13;0;0;1;13
"perino & vele";0;0;2;3;0;0;2;3
"molly sims";0;0;1;219;0;0;1;219
kartonn;0;0;1;4;0;0;1;4
"bruno catalano sculpture for sale";0;0;1;6;0;0;1;6
"raymon hains";0;0;1;8;0;0;1;8
orlinski;0;0;2;7.5;0;0;1;5;0;0;1;10
"kristian von hornsleth";0;0;14;29.357142857143;0;0;5;32.2;0;0;6;16.333333333333;0;0;3;50.666666666667
"abello collection";0;0;1;314;0;0;1;314
"troy henriksen art";0;0;2;3;0;0;2;3
"henrietta stuart";0;0;1;34;0;0;1;34
"kuroda aki";0;0;1;6;0;0;1;6
"david lachapelle diesel";0;0;1;1;0;0;1;1
"jean-françois jonvelle";0;0;3;9;0;0;3;9
colomina;0;0;1;7;0;0;1;7
"russell frampton";0;0;1;14;0;0;1;14
"madeleine dietz";0;0;1;24;0;0;1;24
"georges braque artworks";0;0;1;42;0;0;1;42
"scarlett o haras";0;0;1;349;0;0;1;349
lacquerer;0;0;1;406;0;0;1;406
mesnager;0;0;4;5.75;0;0;4;5.75
"sebastien micke";0;0;1;14;0;0;1;14
"jonatan maldonado";0;0;1;8;0;0;1;8
"romain tichit";0;0;1;10;0;0;1;10
"minoterie de matadi";0;0;1;10;0;0;1;10
misstic;0;0;2;29;0;0;2;29
rauzier;0;0;1;35;0;0;1;35
"subject matter art";0;0;1;89;0;0;1;89
"paul carey-kent";0;0;1;8;0;0;1;8
"vito hannibal acconci";0;0;1;83;0;0;1;83
"kavachnina contemporary";0;0;1;82;0;0;1;82
"ancient greek runner";0;0;1;321;0;0;1;321
chanoir;0;0;10;6;0;0;4;5;0;0;4;7.25;0;0;2;5.5
"philippe heurtaux";0;0;2;2;0;0;2;2
silaphan;0;0;1;10;0;0;1;10
"luc peire artist";0;0;1;9;0;0;1;9
"marcus egli";0;0;1;11;0;0;1;11
"spectacled owl";0;0;2;152;0;0;2;152
"oliver schwarzwald";0;0;1;39;0;0;1;39
"liu xiaofang";0;0;1;16;0;0;1;16
"open youre mind";0;0;1;2;0;0;1;2
"eugenio carmi";0;0;2;7.5;0;0;2;7.5
"les caprices de victoria";0;0;1;158;0;0;1;158
"laetitia wolf";0;0;1;324;0;0;1;324
tanc;0;0;4;23.75;0;0;4;23.75
"gerstein art";0;0;2;31.5;0;0;2;31.5
"narcose serie";0;0;1;10;0;0;1;10
"adek graffiti";0;0;1;45;0;0;1;45
"philippe berger";0;0;1;17;0;0;1;17
"petra wunderlich";0;0;4;9;0;0;3;9;0;0;1;9
"thomas jorion";0;0;7;3.4285714285714;0;0;5;3;0;0;2;4.5
"alfie goodrich";0;0;1;22;0;0;1;22
"murielle belin";0;0;1;8;0;0;1;8
"make your own pop art online free";0;0;1;27;0;0;1;27
"bicha gallery";0;0;1;95;0;0;1;95
"ren hang photography";0;0;2;10.5;0;0;2;10.5
"amandine levy";0;0;1;6;0;0;1;6
"jack otway";0;0;4;9;0;0;3;9;0;0;1;9
"florence d'elle paintings";0;0;1;6;0;0;1;6
renoma;0;0;1;94;0;0;1;94
"jan saudek gallery prague";0;0;1;24;0;0;1;24
"viet ha tran";0;0;2;8;0;0;2;8
latlas;0;0;1;93;0;0;1;93
"xin art";0;0;1;5;0;0;1;5
"colette levine";0;0;1;10;0;0;1;10
"cedric dequidt";0;0;1;10;0;0;1;10
"rob van hoek artist";0;0;1;7;0;0;1;7
yasse;0;0;1;40;0;0;1;40
"pierre artist french";0;0;1;41;0;0;1;41
"abie loy";0;0;1;16;0;0;1;16
"tatiana kourochkina contemporary art project";0;0;1;82;0;0;1;82
"""li wei""";0;0;1;1;0;0;1;1
"julian schnabel";0;0;1;348;0;0;1;348
"galerie galea";0;0;1;9;0;0;1;9
"françois bruetschy";0;0;1;10;0;0;1;10
"steven gagnon";0;0;1;54;0;0;1;54
"galerie rivière faiveley";0;0;1;5;0;0;1;5
"reinhard gorner";0;0;2;14;0;0;2;14
"philippe garnier";0;0;1;32;0;0;1;32
"loneliness viet";0;0;5;10.8;0;0;5;10.8
"magdalena lamri";0;0;3;4.3333333333333;0;0;2;4.5;0;0;1;4
"judy rifka";0;0;1;32;0;0;1;32
"antonio asis";0;0;1;65;0;0;1;65
"markowicz fine art";0;0;3;37;0;0;3;37
"sébastien layral";0;0;1;8;0;0;1;8
"thomas canto";0;0;1;8;0;0;1;8
"elisabeth von wrede";0;0;1;9;0;0;1;9
"irina starkova";0;0;2;9.5;0;0;2;9.5
"marc petit";0;0;1;55;0;0;1;55
"martin reyna";0;0;1;4;0;0;1;4
"charro skull";0;0;1;10;0;0;1;10
"tracey emin watercolours";0;0;1;40;0;0;1;40
"opus amsterdam";0;0;1;5;0;0;1;5
"pasqua philippe";0;0;1;103;0;0;1;103
"molin corvo gallery";0;0;1;9;0;0;1;9
"chris morin";0;0;2;3;0;0;2;3
"isabelle durand";0;0;3;26.333333333333;0;0;2;27;0;0;1;25
"sylvia katuszewski";0;0;1;1;0;0;1;1
"miro svolik";0;0;2;14.5;0;0;2;14.5
"open ur mind";0;0;1;4;0;0;1;4
"miss coco";0;0;1;76;0;0;1;76
aboudia;0;0;2;21.5;0;0;2;21.5
"richard di rosa";0;0;2;1;0;0;2;1
"antoine correia";0;0;1;5;0;0;1;5
"john isaac photographer";0;0;1;40;0;0;1;40
"pierre & gilles";0;0;1;37;0;0;1;37
"la lagune";0;0;1;161;0;0;1;161
"thierry alet";0;0;1;8;0;0;1;8
"land 7";0;0;1;311;0;0;1;311
"gerard mortier";0;0;1;48;0;0;1;48
"yann stofer";0;0;1;10;0;0;1;10
"loulou picasso";0;0;2;8.5;0;0;2;8.5
"corinne hotel";0;0;1;195;0;0;1;195
"segolene brossette";0;0;1;4;0;0;1;4
"jan saudek portrait";0;0;1;5;0;0;1;5
"amelie artwork";0;0;1;10;0;0;1;10
"claire trotignon";0;0;2;7.5;0;0;2;7.5
"jack robinson gallery";0;0;1;331;0;0;1;331
"benjamin spark";0;0;6;9.1666666666667;0;0;6;9.1666666666667
"m chat street art";0;0;1;9;0;0;1;9
"dam gallery";0;0;1;7;0;0;1;7
"chateau rothschild bordeaux";0;0;2;358;0;0;2;358
"land arts";0;0;1;411;0;0;1;411
fkdl;0;0;5;8.2;0;0;4;8;0;0;1;9
"braque obama";0;0;1;6;0;0;1;6
"sam phillips match 3";0;0;1;5;0;0;1;5
"gohar dashti";0;0;1;33;0;0;1;33
"silent flight";0;0;1;421;0;0;1;421
"michel jean basquiat";0;0;2;381;0;0;2;381
"cecile schall";0;0;2;1;0;0;2;1
"le petit parisien willy ronis";0;0;2;4.5;0;0;1;1;0;0;1;8
"herve telemaque";0;0;3;11.333333333333;0;0;3;11.333333333333
"denning guy";0;0;2;8.5;0;0;1;9;0;0;1;8
"frank horvat";0;0;1;48;0;0;1;48
"li wei";0;0;84;8.4642857142857;0;0;71;9.7042253521127;0;0;12;1.5833333333333;0;0;1;3
"inception gallery";0;0;1;5;0;0;1;5
"césar baldaccini";0;0;2;9;0;0;2;9
"fresh to death";0;0;2;171.5;0;0;1;182;0;0;1;161
"marek piasecki";0;0;2;24;0;0;2;24
"benjamin laurent aman";0;0;1;6;0;0;1;6
"herve lewis";0;0;12;5.4166666666667;0;0;6;8.8333333333333;0;0;1;5;0;0;5;1.4
"vuk vidor";0;0;1;9;0;0;1;9
echancrure;0;0;2;26;0;0;1;30;0;0;1;22
"ando haruka";0;0;1;26;0;0;1;26
guinio;0;0;1;10;0;0;1;10
"pius fox artist";0;0;1;1;0;0;1;1
"philippe vasseur";0;0;2;17.5;0;0;1;25;0;0;1;10
"frank fischer artist";0;0;2;2;0;0;2;2
"joanne corno";0;0;1;15;0;0;1;15
"pilar ortega";0;0;2;17.5;0;0;1;17;0;0;1;18
"murano lamper";0;0;1;33;0;0;1;33
"trudy xxx";0;0;1;6;0;0;1;6
"miss van";0;0;1;71;0;0;1;71
"charlotte aleman";0;0;1;10;0;0;1;10
"damir polic";0;0;1;2;0;0;1;2
"2 november 1982";0;0;1;6;0;0;1;6
"philippe berry";0;0;2;6;0;0;1;3;0;0;1;9
"ernest pignon-ernest";0;0;1;20;0;0;1;20
"john crash";0;0;1;10;0;0;1;10
"kongo artist";0;0;1;10;0;0;1;10
"fabrice galvani";0;0;1;108;0;0;1;108
"victor lope arte contemporaneo";0;0;1;83;0;0;1;83
sawtelle;0;0;1;178;0;0;1;178
palimpsestes;0;0;1;92;0;0;1;92
"william eggleston artwork";0;0;1;10;0;0;1;10
durix;0;0;2;10;0;0;2;10
"bousquet artist";0;0;1;8;0;0;1;8
"land cycle";0;0;1;408;0;0;1;408
"ren hang wikipedia";0;0;2;7.5;0;0;2;7.5
ulalai;0;0;2;4;0;0;2;4
"nude beach lolita";0;0;4;16;0;0;4;16
"verney carron";0;0;1;43;0;0;1;43
"adrian buba";0;0;4;4.5;0;0;4;4.5
takala;0;0;4;6;0;0;4;6
"andré cottavoz";0;0;1;6;0;0;1;6
"prisoners movie";0;0;1;197;0;0;1;197
"guy denning portraits";0;0;1;9;0;0;1;9
"yuval shaul";0;0;2;10;0;0;2;10
"monumental sculpture";0;0;2;35;0;0;2;35
"lyle carbajal artist";0;0;3;5.6666666666667;0;0;2;7;0;0;1;3
"lacroix artist";0;0;1;10;0;0;1;10
"tim flach biography";0;0;1;12;0;0;1;12
"jerome lagarrigue";0;0;2;8.5;0;0;2;8.5
"christos kalfas";0;0;1;3;0;0;1;3
"cédric dequidt";0;0;4;5.5;0;0;4;5.5
"asgar gabriel";0;0;4;10.25;0;0;3;10.333333333333;0;0;1;10
"emma forrester artist";0;0;1;9;0;0;1;9
"kamel yahiaoui";0;0;1;9;0;0;1;9
"open your min";0;0;2;4;0;0;2;4
"ekkehard altenburger";0;0;1;22;0;0;1;22
sandoga;0;0;1;4;0;0;1;4
"morellet francois";0;0;1;35;0;0;1;35
"sang oeil";0;0;1;14;0;0;1;14
lilihong;0;0;1;7;0;0;1;7
"3d secure credit card";0;0;1;510;0;0;1;510
"petit bonhomme blanc";0;0;2;9;0;0;2;9
liquidiv;0;0;1;48;0;0;1;48
"philippe croq";0;0;1;1;0;0;1;1
"pierre-françois grimaldi";0;0;1;2;0;0;1;2
"octave pixel";0;0;3;3.6666666666667;0;0;2;2;0;0;1;7
"paul treasure artist";0;0;1;9;0;0;1;9
"jean charles guyot";0;0;1;7;0;0;1;7
"jock sturges family";0;0;1;33;0;0;1;33
"1000 kisses";0;0;2;5;0;0;2;5
"annette messager biography";0;0;1;12;0;0;1;12
"greg carlin";0;0;1;33;0;0;1;33
"mc2 gallery";0;0;2;2.5;0;0;2;2.5
muckensturm;0;0;2;59.5;0;0;2;59.5
"finbarr dac";0;0;2;9.5;0;0;1;10;0;0;1;9
"massimo carasi";0;0;1;10;0;0;1;10
carabas;0;0;1;89;0;0;1;89
evelyn;0;0;2;157.5;0;0;2;157.5
"pasqua artist";0;0;1;5;0;0;1;5
"jock sturges";0;0;2;93.5;0;0;2;93.5
"carole duhayer";0;0;3;6.6666666666667;0;0;1;4;0;0;2;8
"forum cifo";0;0;1;227;0;0;1;227
"jm robert art";0;0;3;6.6666666666667;0;0;3;6.6666666666667
"li baoxun";0;0;3;2;0;0;3;2
"ladoo com";0;0;1;213;0;0;1;213
"set out";0;0;1;437;0;0;1;437
"jan saudek photographe";0;0;1;3;0;0;1;3
"omega house ii";0;0;1;401;0;0;1;401
"thierry bigaignon";0;0;1;3;0;0;1;3
"palazzo bembo venise";0;0;1;185;0;0;1;185
"kilian glasner";0;0;1;13;0;0;1;13
"gz gallery";0;0;1;7;0;0;1;7
"marc laffolay";0;0;1;3;0;0;1;3
"philippe jarrigeon";0;0;2;9;0;0;2;9
arvani;0;0;1;39;0;0;1;39
"crystal wagner installations";0;0;1;101;0;0;1;101
"li, wei";0;0;2;11;0;0;2;11
"navarro photography";0;0;1;217;0;0;1;217
"self portrait photographer york";0;0;1;149;0;0;1;149
"laurent durrey";0;0;1;6;0;0;1;6
"cyprien clement delmas";0;0;1;10;0;0;1;10
"jérôme mesnager";0;0;1;7;0;0;1;7
"jesper just";0;0;1;95;0;0;1;95
"yago partal";0;0;1;39;0;0;1;39
"jeff koons vase";0;0;1;54;0;0;1;54
"mist art";0;0;2;13;0;0;2;13
"lambermont bruxelles";0;0;1;181;0;0;1;181
"clara poupel";0;0;2;2;0;0;2;2
"david gerstein disco large";0;0;1;51;0;0;1;51
gijsbert;0;0;1;144;0;0;1;144
"galerie lebon";0;0;1;3;0;0;1;3
"garrett pruter";0;0;1;20;0;0;1;20
"robert combas";0;0;4;8;0;0;4;8
"vincent hawkins";0;0;3;9;0;0;2;8.5;0;0;1;10
"francois nielly";0;0;1;42;0;0;1;42
"mikael lafontan";0;0;1;8;0;0;1;8
"helder batista";0;0;3;14;0;0;2;9.5;0;0;1;23
"andré borderie";0;0;1;78;0;0;1;78
lemilo;0;0;1;7;0;0;1;7
"macadam gallery";0;0;1;8;0;0;1;8
"jerome zonder";0;0;1;29;0;0;1;29
"suling wang";0;0;1;17;0;0;1;17
"olivier debré";0;0;1;94;0;0;1;94
tichit;0;0;1;39
"keith tyson";0;0;1;88
"benjamin carbonne";0;0;1;1
"yaacov agam";0;0;1;92
"marc lelong";0;0;1;227
"galerie l'oeil du prince";0;0;1;7
"scanavino emilio";0;0;1;50;0;0;1;50
"gordon hopkins artist";0;0;2;4;0;0;2;4
"kenneth noland";0;0;2;81;0;0;2;81
"philippe huart";0;0;3;10.333333333333;0;0;3;10.333333333333
"contemporary metal art sculptures";0;0;1;229;0;0;1;229
"jean pierre schneider";0;0;2;1;0;0;2;1
nakedlittlegirls;0;0;1;89;0;0;1;89
"olivier widmaier picasso";0;0;3;18;0;0;3;18
"conrad marca relli";0;0;1;43
"bob carlos clarke masked blonde";0;0;1;1;0;0;1;1
"martín reyna";0;0;1;21;0;0;1;21
"robert zandvliet";0;0;1;35;0;0;1;35
"shirley jaffe artist";0;0;1;10;0;0;1;10
"pavel in xcess";0;0;1;119;0;0;1;119
"von hornsleth";0;0;2;35.5;0;0;1;50;0;0;1;21
"pauline dufour";0;0;1;8;0;0;1;8
"dan rawlings";0;0;6;4;0;0;6;4
"zao wou-ki";0;0;1;94;0;0;1;94
"hom nguyen";0;0;1;3;0;0;1;3
"concorde paris";0;0;1;180;0;0;1;180
"olivier megaton";0;0;1;90;0;0;1;90
"etienne cail";0;0;4;1.25;0;0;2;1.5;0;0;2;1
houtin;0;0;2;2;0;0;2;2
"bram bogart";0;0;1;35;0;0;1;35
"black and white 2 happiness";0;0;1;150
nils-udo;0;0;10;9.4;0;0;10;9.4
"david ferreira artist";0;0;1;3;0;0;1;3
"gerard schlosser artist";0;0;3;4.6666666666667;0;0;3;4.6666666666667
"patricia kinard";0;0;2;4.5;0;0;1;6;0;0;1;3
"marilyn prints";0;0;1;22;0;0;1;22
"paris france artwork";0;0;1;237;0;0;1;237
"jacques mahe de la villegle";0;0;1;10;0;0;1;10
"jonty levin";0;0;1;5;0;0;1;5
"elysées paris";0;0;1;178;0;0;1;178
"candle in the wind";0;0;2;168.5;0;0;1;161;0;0;1;176
"hervé di rosa";0;0;2;7;0;0;2;7
"vanity for sale";0;0;1;190;0;0;1;190
"annie berthet";0;0;2;8.5;0;0;2;8.5
"""moscona""";0;0;1;45;0;0;1;45
"richard hudson sculptor";0;0;1;8;0;0;1;8
"boom surfboards";0;0;3;6;0;0;1;6;0;0;2;6
"jef aérosol";0;0;2;7.5;0;0;2;7.5
"artist bambi";0;0;5;2.4;0;0;4;2.75;0;0;1;1
"speedy graphito";0;0;5;17.6;0;0;4;19.25;0;0;1;11
gammacurta;0;0;2;19.5;0;0;2;19.5
"tracey emin art";0;0;1;205;0;0;1;205
"pp art christeen";0;0;1;140;0;0;1;140
"gilles aillaud";0;0;5;8.4;0;0;4;8.25;0;0;1;9
"mortier gerard";0;0;1;50;0;0;1;50
"florence d'elle photographs";0;0;1;1;0;0;1;1
"open your minde";0;0;2;3.5;0;0;1;1;0;0;1;6
"johanne 8 facebook";0;0;1;6;0;0;1;6
"art de olivia";0;0;1;35;0;0;1;35
"anne lacouture";0;0;1;5;0;0;1;5
"grenville davey";0;0;1;16;0;0;1;16
"cecile plaisance";0;0;1;17;0;0;1;17
"yang yongliang artist";0;0;1;4;0;0;1;4
"nielly francoise";0;0;1;54;0;0;1;54
"jonas “sun7” bournat";0;0;1;4;0;0;1;4
"anna bocek prices";0;0;1;9;0;0;1;9
guillaumette;0;0;1;16;0;0;1;16
ribart;0;0;1;9;0;0;1;9
"sandra beccarelli";0;0;1;9;0;0;1;9
"griffin gallery";0;0;1;162;0;0;1;162
"patti smith artwork";0;0;1;42;0;0;1;42
"john monteith artist";0;0;1;9;0;0;1;9
"korosh ghazimorad";0;0;3;7.3333333333333;0;0;1;7;0;0;2;7.5
"wang shu hui";0;0;1;6;0;0;1;6
"open your mind to";0;0;1;7;0;0;1;7
"artwork for rent";0;0;1;127;0;0;1;127
"raphael artworks";0;0;1;10;0;0;1;10
"valerie honnart";0;0;1;9;0;0;1;9
"amaury mulliez";0;0;2;5
"jan saudek";0;0;5;45.6;0;0;5;45.6
"anne valerie dupond";0;0;4;8;0;0;1;8;0;0;2;8;0;0;1;8
"cara artist";0;0;3;2;0;0;2;2;0;0;1;2
begarat;0;0;6;4.1666666666667;0;0;2;4;0;0;4;4.25
"laurina paperina";0;0;2;22.5;0;0;2;22.5
"branding and logos";0;0;3;415;0;0;2;407.5;0;0;1;430
"valerie hadida biographie";0;0;1;5;0;0;1;5
"dominique clerc";0;0;1;8;0;0;1;8
aliot;0;0;5;53.8;0;0;5;53.8
"dominique clerc rhumatologue";0;0;1;31;0;0;1;31
"golden beach for sale";0;0;1;176;0;0;1;176
"paul stolper gallery";0;0;1;34;0;0;1;34
"benjamin goss";0;0;1;18;0;0;1;18
"jerzy piwowarczyk";0;0;1;25;0;0;1;25
"duong le thai";0;0;1;5;0;0;1;5
"pedro font alba";0;0;1;9;0;0;1;9
doia;0;0;2;57;0;0;2;57
"anna bocek";0;0;17;9.0588235294118;0;0;13;9.3076923076923;0;0;1;8;0;0;3;8.3333333333333
vevais;0;0;1;10;0;0;1;10
"fantasy art for sale";0;0;1;35;0;0;1;35
ardpg;0;0;2;6;0;0;2;6
"jimmy ruf";0;0;1;5;0;0;1;5
"cellai hotel florence";0;0;2;152;0;0;2;152
"joseph beuys";0;0;1;240;0;0;1;240
"audoin desforges";0;0;2;10;0;0;2;10
"crystal wagner biotica";0;0;1;29;0;0;1;29
"nicole wendel";0;0;1;1;0;0;1;1
"james mackeown";0;0;1;10;0;0;1;10
"laurence art";0;0;1;313;0;0;1;313
"luzia simons";0;0;5;26;0;0;5;26
deret;0;0;1;57;0;0;1;57
"parkett st.gallen";0;0;1;50
"george harrison artwork";0;0;1;17;0;0;1;17
"raigon stanley";0;0;1;2;0;0;1;2
"mustapha azeroual";0;0;1;10;0;0;1;10
"toxic mary";0;0;2;15;0;0;2;15
"kaiserslautern døren";0;0;1;72;0;0;1;72
"chris macauley";0;0;1;5;0;0;1;5
"cool artwork for sale";0;0;2;44;0;0;2;44
"jamel shabazz subway";0;0;1;6;0;0;1;6
"chu teh-chun";0;0;1;50;0;0;1;50
"alain josseau";0;0;1;3;0;0;1;3
"du beffroi calais";0;0;1;68;0;0;1;68
poligrafa;0;0;1;44;0;0;1;44
"john monteith";0;0;1;51;0;0;1;51
"ramon grimalt";0;0;1;8;0;0;1;8
"peter hoffer";0;0;1;19;0;0;1;19
"jonny green artist";0;0;1;8;0;0;1;8
"mehdi \lemoduledezeer\";0;0;1;18;0;0;1;18
"victoria klotz";0;0;1;10;0;0;1;10
"the little black gallery";0;0;1;36;0;0;1;36
"jean louis audibert";0;0;1;4;0;0;1;4
"hotel bobo";0;0;1;83;0;0;1;83
"annette messager";0;0;1;96;0;0;1;96
boisrond;0;0;1;4;0;0;1;4
"judith goldnadel";0;0;1;10;0;0;1;10
"max czertok";0;0;1;5;0;0;1;5
"arts galeries";0;0;1;18;0;0;1;18
"hiro ando artist";0;0;3;2.6666666666667;0;0;2;2;0;0;1;4
margeux;0;0;1;335;0;0;1;335
"taki 183";0;0;1;30;0;0;1;30
"galerie gz";0;0;1;7;0;0;1;7
"αρης μεσσηνης";0;0;1;16;0;0;1;16
"david harber sculpture";0;0;1;6;0;0;1;6
"herbert oehm";0;0;1;14;0;0;1;14
trovic;0;0;1;10;0;0;1;10
"jean gabriel";0;0;1;165;0;0;1;165
"li weisi";0;0;1;11;0;0;1;11
"maria jose concha";0;0;2;8;0;0;2;8
"laurent martinez";0;0;2;6.5;0;0;1;7;0;0;1;6
couettes;0;0;1;214;0;0;1;214
"branding logos";0;0;2;423.5;0;0;1;430;0;0;1;417
teisseire;0;0;1;100;0;0;1;100
romina;0;0;1;304;0;0;1;304
"stephane gautier";0;0;1;1;0;0;1;1
"weil am rhein atlas";0;0;1;151;0;0;1;151
"contemporary middle eastern art";0;0;4;395;0;0;4;395
"cony theis";0;0;1;22;0;0;1;22
"babajide olatunji";0;0;2;7.5;0;0;1;7;0;0;1;8
"misskiss_ nude";0;0;1;35;0;0;1;35
"michele maurin";0;0;1;6;0;0;1;6
"stone artwork for sale";0;0;1;25;0;0;1;25
"alain buyse";0;0;1;9;0;0;1;9
lianenspringer;0;0;1;30;0;0;1;30
"tom caldwell gallery";0;0;1;49;0;0;1;49
"jean paul lubliner";0;0;1;4;0;0;1;4
"voyage art";0;0;1;325;0;0;1;325
"cyprien clément-delmas";0;0;1;20;0;0;1;20
"anya gallaccio";0;0;1;78;0;0;1;78
"philippe parreno";0;0;2;91;0;0;2;91
"soleil bleu";0;0;1;177;0;0;1;177
"yves krief";0;0;1;8;0;0;1;8
kleiber;0;0;1;171;0;0;1;171
"open your mine";0;0;1;4;0;0;1;4
"jean hélion";0;0;1;49;0;0;1;49
"luca de gaetano";0;0;1;9;0;0;1;9
asgar/gabriel;0;0;4;6;0;0;4;6
"conrad marca-relli";0;0;1;43;0;0;1;43
"martine feipel & jean bechameil";0;0;1;51;0;0;1;51
"rafael canogar";0;0;2;63;0;0;2;63
"françois houtin";0;0;3;4.3333333333333;0;0;3;4.3333333333333
"deconstruction art";0;0;1;448;0;0;1;448
"thierry pelletier";0;0;1;8;0;0;1;8
"melanie bonajo";0;0;1;57;0;0;1;57
miss.tic;0;0;1;6;0;0;1;6
"kenny john";0;0;1;1;0;0;1;1
"olivier brouwers";0;0;1;10;0;0;1;10
"bastien cuenot";0;0;1;3;0;0;1;3
"paintings for sale";0;0;1;20;0;0;1;20
"aurelie nemours";0;0;1;51;0;0;1;51
villegle;0;0;3;7;0;0;1;7;0;0;2;7
"ando hiro";0;0;3;11.666666666667;0;0;1;15;0;0;2;10
"aboudia abdoulaye diarrassouba";0;0;1;33;0;0;1;33
"kenny hunter";0;0;1;52;0;0;1;52
"moz artist";0;0;1;7;0;0;1;7
haggai;0;0;1;192;0;0;1;192
"pierre riba";0;0;1;5;0;0;1;5
"chenaux gallery";0;0;2;6;0;0;2;6
"roman opalka";0;0;1;81;0;0;1;81
onemizer;0;0;4;8.75;0;0;4;8.75
"c'est pas rien";0;0;2;10;0;0;2;10
"marcio almeida";0;0;1;33;0;0;1;33
"annette messager photography";0;0;1;43;0;0;1;43
"arnaud liard";0;0;2;6;0;0;2;6
"stephane joannes";0;0;1;6;0;0;1;6
"angel duarte";0;0;14;3.0714285714286;0;0;10;2.8;0;0;1;3;0;0;3;4
"georges braque";0;0;2;170.5;0;0;1;163;0;0;1;178
schmite;0;0;1;8;0;0;1;8
"arthur tress biography";0;0;1;10;0;0;1;10
"michel graff";0;0;4;7.75;0;0;4;7.75
"dawit abebe";0;0;1;18;0;0;1;18
"sindika dokolo";0;0;2;32;0;0;2;32
"jana & js";0;0;1;9;0;0;1;9
"side x side for sale monroe la";0;0;1;90;0;0;1;90
"nature morte vivante";0;0;1;35;0;0;1;35
"keith coventry";0;0;1;44;0;0;1;44
"monika nowak";0;0;1;35;0;0;1;35
"art kube";0;0;1;244;0;0;1;244
"jacque villegle";0;0;2;10;0;0;2;10
"leopold rabus";0;0;1;36;0;0;1;36
"francois boisrond";0;0;2;6.5;0;0;2;6.5
"dibond signage in lagos";0;0;1;43;0;0;1;43
"clinton friedman";0;0;1;27;0;0;1;27
"marina cavazza";0;0;1;5;0;0;1;5
"tony bevan";0;0;1;54;0;0;1;54
accompli;0;0;1;337;0;0;1;337
"christian silvain";0;0;5;20;0;0;5;20
"richard heeps";0;0;3;8;0;0;1;8;0;0;1;8;0;0;1;8
"jean milo";0;0;1;7;0;0;1;7
"tracey emin art for sale";0;0;1;35;0;0;1;35
redxxx;0;0;1;98;0;0;1;98
"onur dinc";0;0;2;18.5;0;0;2;18.5
"mambo art for sale";0;0;1;8;0;0;1;8
"borys makary";0;0;1;32;0;0;1;32
"george bru";0;0;2;4;0;0;2;4
"joseph kfoury";0;0;1;9;0;0;1;9
"victor vasarely artwork";0;0;4;96.5;0;0;2;93;0;0;2;100
"pez artist";0;0;2;17.5;0;0;2;17.5
"chu teh chun";0;0;1;49;0;0;1;49
"raymond hains art";0;0;1;7;0;0;1;7
"rero art";0;0;2;25.5;0;0;2;25.5
"eva jospin biographie";0;0;1;2;0;0;1;2
"pierre tissier";0;0;1;10;0;0;1;10
"jethro buck";0;0;2;5;0;0;1;5;0;0;1;5
"anderson & low";0;0;1;37;0;0;1;37
bernardpras;0;0;1;8;0;0;1;8
totoche;0;0;1;49;0;0;1;49
"kennis chan";0;0;3;9.3333333333333;0;0;3;9.3333333333333
"andy warhol artwork";0;0;1;328;0;0;1;328
"by mambo";0;0;1;59;0;0;1;59
"wadi finan art gallery";0;0;1;8;0;0;1;8
"al held";0;0;1;56;0;0;1;56
stripart;0;0;1;35;0;0;1;35
korosh;0;0;1;46;0;0;1;46
"pedro correa";0;0;3;33.333333333333;0;0;3;33.333333333333
"anca cernoschi";0;0;1;23;0;0;1;23
"dali painting for sale";0;0;1;102;0;0;1;102
"jacek hazuka artist";0;0;2;4;0;0;1;1;0;0;1;7
"taki artist";0;0;1;8;0;0;1;8
"lamborghini fire extinguisher";0;0;1;31;0;0;1;31
"lelong car";0;0;1;22;0;0;1;22
"jacques villeglé";0;0;2;11.5;0;0;2;11.5
"chombart de lauwe noëlle";0;0;1;105;0;0;1;105
"galerie loft";0;0;1;19;0;0;1;19
"apocalypse parfum";0;0;2;8;0;0;2;8
"gérard rancinan";0;0;3;28.666666666667;0;0;3;28.666666666667
"alex factory pas de calais";0;0;1;159;0;0;1;159
"ran hwang";0;0;1;39;0;0;1;39
"ballon sculptures";0;0;1;508;0;0;1;508
raigon;0;0;1;18;0;0;1;18
"thomas muller art";0;0;2;5.5;0;0;2;5.5
"kumi sugaï";0;0;1;5;0;0;1;5
"hans-christian schink";0;0;1;49;0;0;1;49
"mb factory";0;0;1;42;0;0;1;42
"corine pagny";0;0;2;6;0;0;2;6
"no galerie";0;0;1;8;0;0;1;8
godon;0;0;21;2.952380952381;0;0;20;2.95;0;0;1;3
"sun-hyuk kim";0;0;1;9;0;0;1;9
"cara delevigne stencil";0;0;2;1;0;0;2;1
gluska;0;0;2;40;0;0;2;40
"henrietta dubrey";0;0;12;10.416666666667;0;0;11;11.272727272727;0;0;1;1
"peter liversidge";0;0;1;65;0;0;1;65
"mathieu mercier";0;0;1;84;0;0;1;84
"artist arno";0;0;1;10;0;0;1;10
"envie d'art";0;0;2;7;0;0;2;7
"patrizio di renzo";0;0;2;29;0;0;2;29
"rudolf hausner";0;0;1;71;0;0;1;71
"carmelo arden quin";0;0;1;73;0;0;1;73
"roberto battistini";0;0;3;1;0;0;2;1;0;0;1;1
"huit sale";0;0;2;47;0;0;1;48;0;0;1;46
"vishal art";0;0;1;18;0;0;1;18
"ted starkowski";0;0;1;4;0;0;1;4
"allan mccollum";0;0;1;74;0;0;1;74
"land for sale in waco texas";0;0;1;221;0;0;1;221
"rebelle watercolor";0;0;1;13;0;0;1;13
lassaâd;0;0;1;21;0;0;1;21
"marc ferrero";0;0;3;9.6666666666667;0;0;1;7;0;0;2;11
"charles fazzino";0;0;1;46;0;0;1;46
"alberto reguera";0;0;3;40.666666666667;0;0;2;19.5;0;0;1;83
agafia;0;0;1;38;0;0;1;38
"jessica leguillon";0;0;2;3;0;0;2;3
"anouk grinberg";0;0;2;40;0;0;2;40
"tom wesselmann";0;0;6;30.666666666667;0;0;6;30.666666666667
vanitas6;0;0;1;32;0;0;1;32
"namibian kids";0;0;1;318;0;0;1;318
"emmanuel barcilon";0;0;1;12;0;0;1;12
"mel ramos superman";0;0;1;30;0;0;1;30
fenx;0;0;1;54;0;0;1;54
"jorg doring";0;0;2;1;0;0;2;1
"lolita nudes";0;0;1;92;0;0;1;92
"yang yongliang";0;0;26;10.692307692308;0;0;24;11.416666666667;0;0;2;2
"rero artist";0;0;1;15;0;0;1;15
fuger.com;0;0;1;70;0;0;1;70
"polly ngale";0;0;2;31.5;0;0;2;31.5
"kathleen petyarre";0;0;2;38;0;0;2;38
"georgianna robertson";0;0;2;46;0;0;1;47;0;0;1;45
"animal beauty";0;0;1;30;0;0;1;30
"tracey emin artwork";0;0;1;1;0;0;1;1
"teppich st. gallen";0;0;2;80;0;0;2;80
"heiner meyer";0;0;1;55;0;0;1;55
"creepy art";0;0;2;52;0;0;2;52
"thomas ahl";0;0;1;22;0;0;1;22
"nils udo";0;0;34;9.9411764705882;0;0;29;10.068965517241;0;0;1;10;0;0;4;9
"lucien gilson";0;0;1;4;0;0;1;4
"sabine jeannot";0;0;1;2;0;0;1;2
"tom wesselmann pop art";0;0;2;30;0;0;2;30
"gerry halpin";0;0;1;13;0;0;1;13
"lego sailor";0;0;2;45.5;0;0;1;41;0;0;1;50
"hervé télémaque";0;0;1;9;0;0;1;9
"vincent richeux";0;0;1;6;0;0;1;6
"la place blanche";0;0;1;20;0;0;1;20
fubiz;0;0;4;40.5;0;0;4;40.5
"francesco libassi";0;0;1;9;0;0;1;9
"tour bruxelles";0;0;1;2;0;0;1;2
"kiki picasso";0;0;4;5.5;0;0;3;5;0;0;1;7
"mark demsteader bio";0;0;1;15;0;0;1;15
"the fun gallery by kevin young";0;0;1;302;0;0;1;302
"gérard schlosser";0;0;3;9.3333333333333;0;0;3;9.3333333333333
"yoel benharrouche for sale";0;0;1;5;0;0;1;5
"gyula sagi";0;0;2;5;0;0;2;5
"cara delevingne stencil";0;0;2;1;0;0;1;1;0;0;1;1
"olivier ribardiere";0;0;1;8;0;0;1;8
"nils udo art";0;0;4;10;0;0;2;10;0;0;1;10;0;0;1;10
"malta contemporary art";0;0;1;117;0;0;1;117
"oxford palace hotel and galleri";0;0;1;185;0;0;1;185
"louvier toronto";0;0;1;302;0;0;1;302
"bruno catalano prices";0;0;3;6.6666666666667;0;0;2;7;0;0;1;6
"cara delevingne artwork";0;0;1;1;0;0;1;1
"jacques mahé de la villeglé";0;0;7;6.5714285714286;0;0;2;8;0;0;1;6;0;0;4;6
"tout recommence";0;0;1;21;0;0;1;21
"artist victor vasarely";0;0;1;241;0;0;1;241
"takashi murakami for sale";0;0;2;12.5;0;0;2;12.5
"rodney place";0;0;1;23;0;0;1;23
"pax americana";0;0;1;321;0;0;1;321
femmejambes;0;0;1;10;0;0;1;10
"guy denning painting";0;0;6;6.5;0;0;4;7;0;0;1;6;0;0;1;5
"gold griot";0;0;1;22;0;0;1;22
"bruno catalano";0;0;2;34.5;0;0;1;30;0;0;1;39
"open your mind images";0;0;1;1;0;0;1;1
"the knut";0;0;1;220;0;0;1;220
"emilio scanavino";0;0;1;66;0;0;1;66
liwei;0;0;13;7.7692307692308;0;0;11;8.6363636363636;0;0;2;3
"mel ramos lola cola";0;0;1;22;0;0;1;22
"roger schall";0;0;1;11;0;0;1;11
"emeric chantier";0;0;3;8;0;0;2;7;0;0;1;10
"rebecca schuster debütroman tramp";0;0;1;45;0;0;1;45
"joanna glazer";0;0;1;9;0;0;1;9
"life of louis xvi";0;0;1;309;0;0;1;309
"francois houtin";0;0;4;6.25;0;0;3;7.6666666666667;0;0;1;2
"miguel chevalier";0;0;1;62;0;0;1;62
lagarconne;0;0;1;100;0;0;1;100
abcgallery;0;0;1;17;0;0;1;17
"quantum contemporary art";0;0;1;31;0;0;1;31
"olivier leroy";0;0;1;26;0;0;1;26
"big ben";0;0;1;346;0;0;1;346
"ii ta'";0;0;1;190;0;0;1;190
"marine art fair";0;0;1;105;0;0;1;105
"hideka tonomura";0;0;3;7.6666666666667;0;0;1;10;0;0;2;6.5
"navabi sale";0;0;1;40;0;0;1;40
"anthony clark artist";0;0;1;20;0;0;1;20
"banksy and blek le rat";0;0;1;84;0;0;1;84
"zao wou ki";0;0;2;89.5;0;0;2;89.5
"cold lamping";0;0;1;47;0;0;1;47
"philippe pasqua";0;0;9;9.3333333333333;0;0;9;9.3333333333333
"victori contemporary";0;0;1;55;0;0;1;55
faucheur;0;0;1;31;0;0;1;31
"philippe hiquily";0;0;1;21;0;0;1;21
"jimmy lawlor biography";0;0;1;5;0;0;1;5
chopplet;0;0;1;7;0;0;1;7
"breastfeeding african women";0;0;1;335;0;0;1;335
"jean georges inca";0;0;3;1.3333333333333;0;0;3;1.3333333333333
"bonhomme blanc";0;0;8;8.75;0;0;8;8.75
"sandro giordano";0;0;1;6;0;0;1;6
"alain riviere lecoeur";0;0;2;6.5;0;0;1;4;0;0;1;9
"simon liddiment";0;0;1;6;0;0;1;6
"john bulmer";0;0;29;11;0;0;29;11
"jean-pierre nadau";0;0;1;4;0;0;1;4
"29 levels of freedom";0;0;1;3;0;0;1;3
"galerie gabel";0;0;2;5;0;0;2;5
"patrick van der elst";0;0;3;6;0;0;3;6
topolino;0;0;1;131;0;0;1;131
"bambi art";0;0;1;24;0;0;1;24
altarf;0;0;1;46;0;0;1;46
"charlotte champion";0;0;3;6;0;0;3;6
mbfactory;0;0;2;8;0;0;2;8
"robert longo biography";0;0;1;6;0;0;1;6
"cesar baldaccini compression";0;0;2;5;0;0;2;5
"denis walter";0;0;1;38;0;0;1;38
"open our mind";0;0;1;2;0;0;1;2
"bernard pras";0;0;6;16.833333333333;0;0;4;21.75;0;0;2;7
"stephane gizard";0;0;2;8.5;0;0;2;8.5
"jin bo grand";0;0;1;192;0;0;1;192
"du zhenjun";0;0;1;31;0;0;1;31
"michael bevilacqua";0;0;1;60;0;0;1;60
"marvel artwork";0;0;1;222;0;0;1;222
"alberto martini artist";0;0;2;4.5;0;0;2;4.5
"anna marrow";0;0;1;20;0;0;1;20
"jacques villegle";0;0;11;7.4545454545455;0;0;8;7.375;0;0;2;8;0;0;1;7
"esther de bont";0;0;3;4;0;0;3;4
"manuel geerinck";0;0;1;25;0;0;1;25
"akira artist";0;0;1;10;0;0;1;10
"easy rider painting";0;0;1;23;0;0;1;23
"philippe artist";0;0;1;1;0;0;1;1
"dganit blechner";0;0;1;13;0;0;1;13
"cécile andrieu";0;0;1;9;0;0;1;9
"jim kazanjian";0;0;1;31;0;0;1;31
"loneliness poulsen";0;0;5;209.8;0;0;5;209.8
"cesar baldaccini artworks";0;0;1;9;0;0;1;9
"art diffusion";0;0;1;27;0;0;1;27
dionus;0;0;1;6;0;0;1;6
mygalo;0;0;2;7.5;0;0;1;9;0;0;1;6
"budget for sale";0;0;1;502;0;0;1;502
"eric deville";0;0;1;8;0;0;1;8
"taki 183 biography";0;0;1;5;0;0;1;5
"genevieve sawtelle";0;0;2;12.5;0;0;2;12.5
"cao marrakech";0;0;1;39;0;0;1;39
"ville du soleil";0;0;2;35;0;0;2;35
"djamel boucly";0;0;1;10;0;0;1;10
"claude champy";0;0;2;6;0;0;2;6
gladdy;0;0;2;119;0;0;2;119
"juliet ferguson";0;0;1;20;0;0;1;20
"jean michel voge";0;0;2;3;0;0;2;3
"laurence dreyfus";0;0;1;27;0;0;1;27
"reference validation mechanism";0;0;1;322;0;0;1;322
arietti;0;0;1;30;0;0;1;30
"hannah nitsch";0;0;1;4;0;0;1;4
"mor charpentier";0;0;1;69;0;0;1;69
"isabella espinoza";0;0;1;19;0;0;1;19
"karl lagasse";0;0;1;3;0;0;1;3
"galerie vevais";0;0;3;8.3333333333333;0;0;3;8.3333333333333
"charlie roberts artist";0;0;2;10;0;0;2;10
"galerie fluegel-roncak";0;0;1;12
"christian chapiron";0;0;2;7
"pierre schneider";0;0;1;37
"lance letscher";0;0;1;23
"ayline olukman";0;0;1;5
"sui jianguo";0;0;1;85
"peter klasen";0;0;5;8.6
"etienne buraud";0;0;2;1
"eugene begarat art";0;0;1;2
"sculptors monument";0;0;1;337
"sarah graham artwork";0;0;1;40
"coccinelle sale";0;0;1;90
"qualis sca";0;0;1;18
"rudolf hausner paintings";0;0;1;6;0;0;1;6
"psy art";0;0;1;150
"pierre francois grimaldi";0;0;2;1
"gohar dashti artist";0;0;1;10
"cricket fine art gallery";0;0;1;7
"uche okpa iroha";0;0;1;9;0;0;1;10
"oleg dou";0;0;1;42
"ando artist";0;0;1;44
nellisa;0;0;1;7;0;0;3;9.3333333333333
"gerard rancinan";0;0;2;13.5
"artistic fall collection";0;0;2;9.5;0;0;1;10
"la souris sur le gateau";0;0;2;15
"paris artist";0;0;1;41
http://intra01/;0;0;1;10
trucanh;0;0;3;8
"stéphanie nava";0;0;1;6
"annabelle art";0;0;1;14
"advanced graphics london";0;0;1;87
"nick walker artist";0;0;1;42
artyou;0;0;1;17
"valerie hadida";0;0;6;9.8333333333333
"tao zuo";0;0;2;5
"luciano polverigiani";0;0;1;6
"gwen schall nude";0;0;1;8;0;0;1;9
"willy ronis";0;0;4;44.5
"yves zurstrassen";0;0;1;15
"uche okpa-iroha";0;0;10;9.4
"le grand palais biarritz";0;0;1;188
"del zou";0;0;2;1
"eva maude tardif champoux";0;0;1;9
"thomas müller artist";0;0;3;6;0;0;1;6
"aleksey gromov";0;0;3;3.3333333333333;0;0;4;8
"philippe r";0;0;1;10
"uwe ommer";0;0;5;25.8;0;0;1;41
"zhou tiehai";0;0;1;15
"martin du louvre";0;0;1;334
"pollarded trees";0;0;1;328
"tiffany chung";0;0;1;44
lacrouix;0;0;1;211
"daniel darc arrow";0;0;1;6
"galerie taglialatella";0;0;2;8.5
"art nue";0;0;3;6.6666666666667
"david gerstein";0;0;6;49.666666666667
"claude mollard";0;0;1;5
"guayasamin prints";0;0;1;37
"matthew attard";0;0;4;8.75;0;0;4;8.5
"peter keizer";0;0;1;6
"pierre marie";0;0;1;247
"fabienne arietti";0;0;1;7
fulcrand;0;0;1;1
"claude closky";0;0;1;20;0;0;1;10
chubac;0;0;1;6;0;0;1;6
"miss tic";0;0;4;16.25
+william+sweetlove;0;0;1;113
"arthur movie maker";0;0;1;18
"isabelle cochereau";0;0;1;9
"yona friedman";0;0;1;76
estocade;0;0;2;85
"fernando garcía ponce";0;0;1;19
"davide cicolani";0;0;1;1;0;0;1;1
"marie marion";0;0;1;30
"planete serie";0;0;12;3.1666666666667
"truc anh";0;0;2;3
"michal lukasiewicz";0;0;1;34
awena;0;0;4;40.25
"john timberlake";0;0;1;34
"jonathan callan";0;0;1;44
"vue de la tour eiffel";0;0;1;49
"pakpoom silaphan";0;0;1;17
michaelsson;0;0;1;28;0;0;1;20
"léo caillard";0;0;1;27
"renata har";0;0;1;14
"ody saban";0;0;1;8
"by belie";0;0;1;5
"andy warhol mercedes";0;0;1;30
"open art galerie";0;0;1;29
"herve di rosa";0;0;1;16
"pixart printin";0;0;1;50
"thurle wright";0;0;2;9
"jean-pierre schneider";0;0;2;1;0;0;1;1
"waiting on weather";0;0;1;19
"guy denning paintings";0;0;2;9;0;0;1;5
"pret à porter artwork";0;0;1;6
"charlotte lelong";0;0;1;9
"sky mikesell";0;0;1;46
silaphane;0;0;1;10
"la place blanche paris";0;0;1;23
"julian opie for sale";0;0;1;29
"guy denning";0;0;18;9.1111111111111;0;0;6;7.3333333333333;0;0;1;10
"galerie delorme";0;0;1;4
bertelli;0;0;1;196
"lance letscher artist";0;0;1;35
"aboriginal art paintings";0;0;1;345
"sarah hardacre";0;0;1;19
"jean marie marion";0;0;1;8
"exhibition lille";0;0;1;44
"whitespace gallery";0;0;1;57
zambeaux;0;0;1;12
heze;0;0;1;315
"pignon ernest";0;0;1;9
"elin melberg";0;0;1;9
"peter lippmann photography";0;0;1;8;0;0;1;8
valencin;0;0;1;15
"raymond hains artwork";0;0;1;4
"modern art paintings savannah ga";0;0;2;417
"fleur de roeck";0;0;2;3
"shahabuddin artist";0;0;1;18
"ren hang";0;0;7;14
"sarah maple";0;0;1;1
"anna bjerger paintings";0;0;1;6
"irina ionesco";0;0;1;48
konichiwa;0;0;1;181
catelain;0;0;11;6.9090909090909;0;0;1;7
"giorgio dibitonto";0;0;1;15
"soma artwork";0;0;1;10
"takashi murakami flower sculpture";0;0;1;9
"sabyl ghoussoub";0;0;1;10
"john matos crash";0;0;1;1
"francois benoit lison";0;0;1;2
"yann houri";0;0;2;2.5
"christian bonnefoi";0;0;1;8
"john steel artist";0;0;2;7
"elisabeth lecourt";0;0;7;8;0;0;1;8
"duster graffiti artist";0;0;1;9
"li wey";0;0;1;1
"catherine lopes";0;0;1;25
"erin cone paintings";0;0;1;8
"niclas castello";0;0;1;22
"elizabeth lecourt";0;0;1;8;0;0;1;7
bbtoon;0;0;1;8
"michael meyersfeld";0;0;1;12
"guy denning art";0;0;2;9
sunhyuk;0;0;1;10
"dato lynette le mercier";0;0;2;23.5
"costa artist";0;0;1;8
"jean jacques surian";0;0;1;7
"eva navarro";0;0;1;3
saudek;0;0;1;43
"keith haring montreux";0;0;1;1
"ferreira david";0;0;1;4
"fabrice hyber";0;0;1;7
"artistic fall";0;0;1;7
"florence d'elle";0;0;8;8.125;0;0;2;7
"open your mind";0;0;62;2.1774193548387;0;0;12;2.3333333333333
"je s'aime";0;0;1;7
"antoine stevens bio";0;0;1;2
"yanko tihov";0;0;1;11
"xavier prieur";0;0;1;10
"gottfried salzmann artist";0;0;1;8
"marcin bialas";0;0;1;10
"ren hang prints";0;0;1;3
"shen jingdong";0;0;2;7
"lisman works";0;0;1;13
leyto;0;0;1;2;0;0;1;3
"lucien murat";0;0;1;8
keymi;0;0;1;7;0;0;2;9
"muhanna durra";0;0;1;10
"pascale morin";0;0;1;6
mariposas;0;0;1;174
"gz store";0;0;1;7
"mihai bara";0;0;1;5;0;0;3;9
"paris aka seduction";0;0;1;3
"bard artwork";0;0;2;6.5
"gabriela bodin";0;0;1;7
"pruski usd";0;0;1;6
ayline;0;0;1;10
"helmut newton for sale";0;0;2;35
"joelle troussier";0;0;1;10
"pez painting";0;0;1;9
"tof vanmarque";0;0;1;1
"arno artist";0;0;1;9
"gillet 500";0;0;1;104
"valerie hadida sculptures";0;0;3;9
"tour de bruxelles";0;0;1;2
"nils udo biography";0;0;1;4
"tall nudes";0;0;1;8
"didier hamey";0;0;1;5
"gemma cossey";0;0;2;10
"galerie sbk";0;0;1;10
"ahn sun mi";0;0;1;7
"thomas muller artist";0;0;1;6
"jm robert";0;0;2;1
"galerie cédric bacqueville";0;0;1;5
pechane;0;0;1;10
"anna bjerger";0;0;1;7
"ian mastin";0;0;1;5
"rudi pillen";0;0;1;1
"jacques renoir";0;0;1;9
