"brno del zou";6;0.28571428571429;21;2.1904761904762;5;0.27777777777778;18;2.1111111111111;0;0;2;3;1;1;1;2
"basto artist";2;1;2;3;2;1;2;3
"brno del zou biography";1;1;1;1;1;1;1;1
"valerie hadida sculptures";1;0.33333333333333;3;3;1;0.33333333333333;3;3
"ren hang photographer";1;0.33333333333333;3;9.6666666666667;1;0.33333333333333;3;9.6666666666667
"jean gaudaire thor";1;0.5;2;7;1;0.5;2;7
"charlie roberts artist";1;1;1;10;1;1;1;10
"albert chubac";1;0.33333333333333;3;6.6666666666667;1;0.33333333333333;3;6.6666666666667
"thomas müller artist";1;0.33333333333333;3;6.3333333333333;1;0.33333333333333;3;6.3333333333333
"alexis gorodine";1;1;1;16;1;1;1;16
"ren hang photography";1;0.066666666666667;15;8.5333333333333;1;0.090909090909091;11;8.1818181818182;0;0;2;8;0;0;2;11
"nasty artist";1;0.5;2;4;1;1;1;4;0;0;1;4
"carole duhayer";1;0.25;4;5.5;1;0.25;4;5.5
"francois morellet art";1;1;1;8;1;1;1;8
"guy denning art for sale";1;0.5;2;3;1;1;1;3;0;0;1;3
"alberto sanchez artist";1;0.2;5;7.6;1;0.5;2;6;0;0;3;8.6666666666667
"yayoi kusama pumpkin price";1;0.5;2;10;1;0.5;2;10
"valerie hadida sculpture";1;0.2;5;8.6;1;0.33333333333333;3;11.333333333333;0;0;1;4
artsper;1;0.028571428571429;35;1;0;0;27;1;1;0.14285714285714;7;1;0;0;1;1
"red nudes";1;0.5;2;52.5;1;0.5;2;52.5
"hiro ando";1;1;1;13;1;1;1;13
"matthew feyld";1;1;1;13;1;1;1;13
"scott gruppe";1;1;1;1;1;1;1;1
"francois morellet biography";1;0.33333333333333;3;6;1;0.33333333333333;3;6
"jean michel berts";1;0.25;4;24;0;0;3;23.666666666667;1;1;1;25
"francoise nielly buy";1;1;1;9;1;1;1;9
"vincent hawkins";1;0.125;8;8.5;0;0;5;8.2;1;0.33333333333333;3;9
"pierre marie brisson";1;1;1;4;1;1;1;4
"raymond moretti";1;0.5;2;13;1;0.5;2;13
"murakami cushion";1;0.25;4;9.5;1;0.5;2;9;0;0;2;10
"mathieu mercier artist";1;1;1;10;1;1;1;10
"stéphane gautier";1;0.33333333333333;3;7;1;0.33333333333333;3;7
"francoise danel";1;0.33333333333333;3;3.6666666666667;1;0.5;2;4;0;0;1;3
"luc chopplet";1;0.5;2;2;1;0.5;2;2
"li lihong";1;0.14285714285714;7;6;1;0.2;5;5.6;0;0;2;7
"guy denning biography";1;0.5;2;4;0;0;1;4;1;1;1;4
"toshimitsu imai";1;0.5;2;21;1;0.5;2;21
"jacques roch";1;0.33333333333333;3;5;1;0.33333333333333;3;5
zokatos;1;0.5;2;7;0;0;1;9;1;1;1;5
"gottfried salzmann";1;0.5;2;14.5;1;0.5;2;14.5
"edouard buzon";1;0.33333333333333;3;2.6666666666667;1;0.33333333333333;3;2.6666666666667
nils-udo;1;0.16666666666667;6;6.8333333333333;0;0;4;6.75;1;0.5;2;7
"mel ramos";1;0.011111111111111;90;11.844444444444;1;0.012987012987013;77;13.675324675325;0;0;8;1;0;0;5;1
"sarah staton artist";1;1;1;10;1;1;1;10
"fabien verschaere";1;0.33333333333333;3;6.3333333333333;1;0.33333333333333;3;6.3333333333333
"etienne gros";1;0.125;8;7.125;0;0;1;6;1;0.25;4;6
"florian jomain";1;0.2;5;3.4;1;1;1;6;0;0;3;2;0;0;1;5
"ren hang";1;0.14285714285714;7;18.714285714286;1;0.16666666666667;6;20.5;0;0;1;8
"jean faucheur";1;0.14285714285714;7;6.4285714285714;1;0.14285714285714;7;6.4285714285714
"antoine jossé";1;0.5;2;10.5;1;0.5;2;10.5
"zabou artist";1;1;1;19;1;1;1;19
"amy friend dare alla luce";1;1;1;14;1;1;1;14
"matthew feyld art";1;0.33333333333333;3;6.3333333333333;1;0.33333333333333;3;6.3333333333333
"juliette clovis";1;1;1;8;1;1;1;8
"anna bocek for sale";1;1;1;4;1;1;1;4
durand;0;0;1;350;0;0;1;350
"nue gallery";0;0;2;10;0;0;2;10
"self portrait photography york";0;0;1;146;0;0;1;146
"françoise nielly";0;0;2;48;0;0;2;48
"renata boero";0;0;1;33;0;0;1;33
"steven gagnon";0;0;2;44;0;0;2;44
"nurcan giz";0;0;2;6;0;0;2;6
"willy ronis";0;0;2;29;0;0;2;29
deprun;0;0;3;4.6666666666667;0;0;3;4.6666666666667
"jean marie marion mannequin";0;0;1;5;0;0;1;5
camen;0;0;1;47;0;0;1;47
hideka;0;0;2;15.5;0;0;2;15.5
burel;0;0;1;146;0;0;1;146
hermaphrodites;0;0;1;305;0;0;1;305
"galerie vevais";0;0;1;7;0;0;1;7
"antoni clavé";0;0;1;79
"michael jackson artwork";0;0;1;103;0;0;1;103
meschke;0;0;1;195;0;0;1;195
chanoir;0;0;3;7.6666666666667;0;0;2;6.5;0;0;1;10
brainwash;0;0;1;319;0;0;1;319
"viet ha";0;0;2;42.5;0;0;2;42.5
"gregoire guillemin";0;0;1;19;0;0;1;19
"bousquet artist";0;0;2;9;0;0;1;8;0;0;1;10
"je vous attendais";0;0;2;6;0;0;2;6
"hervé di rosa";0;0;2;4;0;0;2;4
"daniel paugam";0;0;1;7;0;0;1;7
"antoine correia";0;0;2;2;0;0;2;2
"kennis chan";0;0;2;9;0;0;1;8;0;0;1;10
"theo haggai";0;0;1;1;0;0;1;1
"lauren bacall";0;0;1;151;0;0;1;151
"lance letscher";0;0;3;52;0;0;3;52
"ama benjamin";0;0;1;11;0;0;1;11
"les dunes";0;0;1;162;0;0;1;162
irai;0;0;1;237;0;0;1;237
"jonone art";0;0;2;9.5;0;0;2;9.5
"hsbc photography prize";0;0;1;43;0;0;1;43
cortade;0;0;2;10;0;0;2;10
"nuit bleu";0;0;1;122;0;0;1;122
extramuros;0;0;1;321;0;0;1;321
"jean michel basquiat paintings for sale";0;0;1;36;0;0;1;36
"florence d'elle paintings";0;0;2;6;0;0;2;6
arfi;0;0;1;236;0;0;1;236
"raymond hains artwork";0;0;1;10;0;0;1;10
"hideka tonomura";0;0;5;1;0;0;3;1;0;0;2;1
"basquiat skull";0;0;1;23;0;0;1;23
"no galerie";0;0;2;8.5;0;0;1;8;0;0;1;9
"david harber";0;0;1;19;0;0;1;19
"eugene begarat";0;0;2;7;0;0;2;7
gammacurta;0;0;2;16;0;0;2;16
trichom;0;0;2;9.5;0;0;1;9;0;0;1;10
"sculpture for sale";0;0;1;335;0;0;1;335
isack;0;0;1;30;0;0;1;30
"tomas vu";0;0;1;9;0;0;1;9
"yvonne coomber";0;0;1;25;0;0;1;25
"galeries x";0;0;1;27;0;0;1;27
"francois houtin";0;0;7;2.7142857142857;0;0;4;3.5;0;0;3;1.6666666666667
clinamin;0;0;1;124;0;0;1;124
poplavsky;0;0;1;34;0;0;1;34
"jm robert";0;0;2;3;0;0;1;5;0;0;1;1
"ralf peters";0;0;3;43.666666666667;0;0;3;43.666666666667
"julien colombier";0;0;3;14.333333333333;0;0;3;14.333333333333
"elwin buchel";0;0;2;10.5;0;0;2;10.5
stoul;0;0;20;3.85;0;0;17;3.5882352941176;0;0;2;6;0;0;1;4
chrisostomou;0;0;1;17;0;0;1;17
"pierre-marie brisson";0;0;3;20.333333333333;0;0;3;20.333333333333
vagabondage;0;0;7;7.8571428571429;0;0;7;7.8571428571429
"le cerf";0;0;1;175;0;0;1;175
"anna bocek prices";0;0;2;7.5;0;0;2;7.5
"beetles and huxley";0;0;1;45;0;0;1;45
espen;0;0;1;243;0;0;1;243
"françois houtin";0;0;3;7.6666666666667;0;0;3;7.6666666666667
envol;0;0;1;313;0;0;1;313
borana;0;0;1;203;0;0;1;203
"imagine there's no heaven";0;0;1;64;0;0;1;64
"lenoir artist";0;0;1;9;0;0;1;9
"victoria benmussa";0;0;2;2;0;0;2;2
blanchot;0;0;1;227;0;0;1;227
"victor richardson";0;0;2;43.5;0;0;2;43.5
"henri matisse";0;0;4;191.75;0;0;2;187.5;0;0;2;196
"maison dauphine";0;0;1;10;0;0;1;10
yutao;0;0;3;3;0;0;3;3
abou;0;0;2;306.5;0;0;2;306.5
"kenny hunter";0;0;2;30.5;0;0;2;30.5
"paris artist";0;0;1;59;0;0;1;59
caroll;0;0;1;447;0;0;1;447
"bram bogart";0;0;4;20.75;0;0;4;20.75
"jean helion";0;0;2;40.5;0;0;2;40.5
franta;0;0;1;139;0;0;1;139
"eva hober";0;0;1;66;0;0;1;66
mariatorp;0;0;1;19;0;0;1;19
"mark demsteader prints";0;0;1;42;0;0;1;42
daurios;0;0;1;13;0;0;1;13
"by france";0;0;1;20;0;0;1;20
"priscilla moore";0;0;1;26;0;0;1;26
boomart;0;0;1;32;0;0;1;32
"hanna sidorowicz artist";0;0;1;6;0;0;1;6
"gold griot";0;0;1;11;0;0;1;11
banq;0;0;1;119;0;0;1;119
"roy sfeir";0;0;1;3;0;0;1;3
"jianguo beijing";0;0;1;169;0;0;1;169
"gwenael billaud";0;0;2;2.5;0;0;2;2.5
"georges-philippe & nathalie vallois";0;0;1;94;0;0;1;94
"charro skull";0;0;2;7;0;0;1;8;0;0;1;6
hangren;0;0;1;46;0;0;1;46
"fanny dubois";0;0;3;7.6666666666667;0;0;3;7.6666666666667
ngapa;0;0;1;44;0;0;1;44
"francois bard";0;0;5;7.2;0;0;2;7;0;0;3;7.3333333333333
hirschfuß;0;0;1;37;0;0;1;37
buchel;0;0;1;247;0;0;1;247
hurleur;0;0;1;112;0;0;1;112
"martin kudlek";0;0;3;52.333333333333;0;0;3;52.333333333333
"andré lanskoy";0;0;3;27.333333333333;0;0;3;27.333333333333
eitner;0;0;1;107;0;0;1;107
"apple or";0;0;1;8;0;0;1;8
"lord anthony cahn";0;0;1;4;0;0;1;4
graphem;0;0;1;10;0;0;1;10
gripe;0;0;1;311;0;0;1;311
"la fille et le chien";0;0;1;22;0;0;1;22
"street life painting";0;0;1;60;0;0;1;60
"nazi regalia";0;0;1;24;0;0;1;24
"fabrizio corneli";0;0;3;9.6666666666667;0;0;3;9.6666666666667
"paris troy";0;0;1;59;0;0;1;59
"chu teh chun";0;0;2;33;0;0;2;33
"marc le mené";0;0;1;1;0;0;1;1
"gilles soudry";0;0;1;1;0;0;1;1
+nitsch+hermann;0;0;1;137;0;0;1;137
nidzgorski;0;0;1;14;0;0;1;14
jea;0;0;2;201;0;0;2;201
"eva maude tardif champoux";0;0;3;7.3333333333333;0;0;3;7.3333333333333
"nils udo artwork";0;0;1;7;0;0;1;7
fullmäne;0;0;1;4;0;0;1;4
"marlon brando";0;0;1;248;0;0;1;248
myp;0;0;1;326;0;0;1;326
"ahmad nejad";0;0;1;11;0;0;1;11
"xiaogang zhang";0;0;1;42;0;0;1;42
"marko veselinovic";0;0;1;3;0;0;1;3
hyber;0;0;1;31;0;0;1;31
"raymond hains";0;0;3;43.666666666667;0;0;3;43.666666666667
faiblesse;0;0;1;308;0;0;1;308
"juliet ferguson";0;0;1;26;0;0;1;26
"a nous paris";0;0;1;36;0;0;1;36
"andrea michaelsson";0;0;3;9;0;0;3;9
"dominic harris";0;0;2;54;0;0;2;54
"venise palazzo bembo";0;0;1;166;0;0;1;166
descendre;0;0;1;232;0;0;1;232
"jean-francois rauzier";0;0;2;18;0;0;2;18
erotic.x;0;0;1;149;0;0;1;149
"jean gabriel";0;0;1;159;0;0;1;159
"nils udo artist";0;0;2;5;0;0;2;5
e-gallery;0;0;1;9;0;0;1;9
"top 10 graphic designers";0;0;2;411;0;0;2;411
"bonhomme blanc";0;0;1;10;0;0;1;10
"little queen";0;0;1;190;0;0;1;190
"pinocchio jim dine";0;0;1;38;0;0;1;38
"léopold rabus";0;0;1;15;0;0;1;15
"hamish fulton";0;0;2;119.5;0;0;2;119.5
"bert stern";0;0;2;97.5;0;0;2;97.5
elia;0;0;1;331;0;0;1;331
"pascal jacquot";0;0;7;3.1428571428571;0;0;6;2.8333333333333;0;0;1;5
zenoy;0;0;2;9;0;0;2;9
"polly ngale paintings";0;0;1;19;0;0;1;19
"art for sale";0;0;1;314;0;0;1;314
pcp;0;0;4;428.5;0;0;4;428.5
"tom wesselmann";0;0;5;33.6;0;0;5;33.6
"brigitte bardot la madrague";0;0;1;2;0;0;1;2
"henrik simonsen";0;0;2;26.5;0;0;2;26.5
"pas de bras, pas de chocolat";0;0;1;26;0;0;1;26
"alva bernadine";0;0;13;1.5384615384615;0;0;11;1.5454545454545;0;0;2;1.5
"sunday b morning";0;0;1;20;0;0;1;20
"walasse ting original paintings";0;0;1;4;0;0;1;4
coraux;0;0;1;238;0;0;1;238
"ivan tzonev";0;0;1;1;0;0;1;1
"denis rouvre";0;0;2;41.5;0;0;2;41.5
"philipe pasqua";0;0;1;10;0;0;1;10
"annette messager";0;0;3;48.666666666667;0;0;2;53;0;0;1;40
"ekkehard altenburger";0;0;2;13.5;0;0;2;13.5
"richard burel artist";0;0;1;9;0;0;1;9
carlotta;0;0;1;332;0;0;1;332
"hopkins painting";0;0;1;10;0;0;1;10
"christian renonciat";0;0;1;9;0;0;1;9
"wadi finan";0;0;1;6;0;0;1;6
"keep calm and change the world";0;0;1;10;0;0;1;10
"gerard rancinan prints";0;0;3;10;0;0;1;10;0;0;2;10
perlinpinpin;0;0;1;13;0;0;1;13
"lori field";0;0;5;24.6;0;0;5;24.6
chignon;0;0;1;312;0;0;1;312
"esther de bont";0;0;11;12;0;0;10;12;0;0;1;12
"banksy print";0;0;1;208;0;0;1;208
"veronica green artist";0;0;1;10;0;0;1;10
"takashi murakami sculpture";0;0;1;20;0;0;1;20
"jian guo beijing";0;0;1;159;0;0;1;159
"john kacere";0;0;2;35;0;0;2;35
"fabrice hyber";0;0;3;10.666666666667;0;0;3;10.666666666667
inna;0;0;1;212;0;0;1;212
"cormac o'leary";0;0;1;11;0;0;1;11
"francesco ferrante";0;0;1;84;0;0;1;84
"ten minutes from now";0;0;1;30;0;0;1;30
carapache;0;0;1;205;0;0;1;205
"mariah carey";0;0;1;44;0;0;1;44
"dent pour dent";0;0;1;133;0;0;1;133
"kongo graffiti artist";0;0;1;10;0;0;1;10
"anthony cahn";0;0;1;4;0;0;1;4
gitanes;0;0;1;144;0;0;1;144
"ohhh alright";0;0;1;48;0;0;1;48
"jacques renoir";0;0;5;8.2;0;0;4;7.75;0;0;1;10
shigong;0;0;2;7;0;0;2;7
"jean pierre attal";0;0;1;1;0;0;1;1
"cara delevingne stencil";0;0;1;1;0;0;1;1
"jacque villegle";0;0;1;6;0;0;1;6
tihov;0;0;2;7;0;0;2;7
"michael bastow";0;0;2;6;0;0;2;6
"campbells chicken and dumplings";0;0;1;202;0;0;1;202
"henni alftan";0;0;3;6;0;0;3;6
"kumi sugaï";0;0;2;3;0;0;2;3
"inception gallery";0;0;3;5.3333333333333;0;0;3;5.3333333333333
"greet helsen";0;0;1;16;0;0;1;16
"willy ronis le petit parisien";0;0;1;1;0;0;1;1
watin;0;0;1;69;0;0;1;69
"sculptures of light";0;0;1;510;0;0;1;510
tetraverse;0;0;1;20;0;0;1;20
"kenzo sale";0;0;1;147;0;0;1;147
extase;0;0;1;333;0;0;1;333
"pablito zago";0;0;1;8
"the souls";0;0;1;309;0;0;1;309
"system 3 acrylic paint";0;0;1;231
"lachapelle art";0;0;1;35;0;0;1;35
"prince and princess art gallery";0;0;1;7;0;0;1;7
vevais;0;0;1;10;0;0;1;10
"jacques lacroix";0;0;2;8;0;0;2;8
"blue night";0;0;1;322;0;0;1;322
"guy weladji";0;0;1;1
"kaws darth vader companion";0;0;1;1;0;0;1;1
"takashi murakami biography";0;0;1;17;0;0;1;17
bilala;0;0;1;301;0;0;1;301
"blanc photography";0;0;1;5;0;0;1;5
"oleg dou";0;0;2;35.5;0;0;2;35.5
nonsicle;0;0;2;7;0;0;1;8;0;0;1;6
agam;0;0;1;225;0;0;1;225
guydenning;0;0;1;9;0;0;1;9
incantation;0;0;1;308;0;0;1;308
"gagnon oil";0;0;1;39;0;0;1;39
"toshimitsu imai artist";0;0;1;18;0;0;1;18
"petros chrisostomou";0;0;2;8;0;0;2;8
"caroline yates";0;0;1;7;0;0;1;7
"maya hayuk";0;0;1;100;0;0;1;100
"jean paul moscovino";0;0;7;1;0;0;5;1;0;0;2;1
"mor charpentier";0;0;3;51.666666666667;0;0;3;51.666666666667
"duong le";0;0;1;14;0;0;1;14
"jonas “sun7” bournat";0;0;2;10.5;0;0;2;10.5
"peter wuthrich";0;0;1;6;0;0;1;6
gudny;0;0;1;133;0;0;1;133
"hilger modern / contemporary";0;0;2;73;0;0;2;73
"philippe vasseur artist";0;0;1;1;0;0;1;1
"louis nicolas darbon";0;0;1;9;0;0;1;9
"olivier debré";0;0;1;25
bani;0;0;1;304;0;0;1;304
"gérard schlosser";0;0;1;11;0;0;1;11
"richard caldicott";0;0;3;32;0;0;3;32
"ando haruka";0;0;1;22;0;0;1;22
gěa;0;0;1;9;0;0;1;9
"ren hang gallery";0;0;1;8;0;0;1;8
fabijani;0;0;1;235;0;0;1;235
"elizabeth gourlay";0;0;1;21;0;0;1;21
kokian;0;0;2;25;0;0;2;25
"thibault ehrengardt";0;0;1;1;0;0;1;1
awena;0;0;3;35;0;0;3;35
dormants;0;0;1;224;0;0;1;224
"alma haser";0;0;1;25;0;0;1;25
"george hughes artist";0;0;1;28;0;0;1;28
begarat;0;0;3;2.6666666666667;0;0;1;4;0;0;2;2
deplazieren;0;0;1;117;0;0;1;117
"ivan alifan";0;0;3;21.333333333333;0;0;3;21.333333333333
francky;0;0;1;150;0;0;1;150
"greg gorman";0;0;2;94.5;0;0;2;94.5
"felipe arri";0;0;1;4;0;0;1;4
daku;0;0;1;220;0;0;1;220
"nicolas dubreuille";0;0;2;7;0;0;1;7;0;0;1;7
"guy dennings";0;0;6;9.5;0;0;4;9;0;0;2;10.5
"patrick dumas";0;0;4;9.5;0;0;4;9.5
"romina de novellis";0;0;1;10;0;0;1;10
"andy warhol superman";0;0;2;41.5;0;0;2;41.5
"yiqiang wu";0;0;1;10;0;0;1;10
"decorative photo box";0;0;1;111;0;0;1;111
"miss van biography";0;0;3;5.3333333333333;0;0;3;5.3333333333333
"georges braque";0;0;2;166.5;0;0;1;163;0;0;1;170
"zelda art for sale";0;0;1;20;0;0;1;20
alben;0;0;2;81.5;0;0;2;81.5
ferni;0;0;1;45;0;0;1;45
"lelong car";0;0;1;15;0;0;1;15
"banksy choose your weapon";0;0;1;44;0;0;1;44
"gérard escougnou";0;0;2;2;0;0;2;2
gino;0;0;1;335;0;0;1;335
"hin chua";0;0;1;37;0;0;1;37
"bob carlos clarke prints for sale";0;0;1;4;0;0;1;4
"robert combas prezzo";0;0;1;21;0;0;1;21
"he nana";0;0;1;330;0;0;1;330
"brno del zou wiki";0;0;4;5.75;0;0;4;5.75
"guy denning";0;0;116;9.198275862069;0;0;78;8.8333333333333;0;0;29;9.8620689655172;0;0;9;10.222222222222
"peter brooke ball";0;0;1;10;0;0;1;10
effervescence;0;0;1;319;0;0;1;319
indiscrets;0;0;1;129;0;0;1;129
"ivan messac";0;0;1;1;0;0;1;1
"jock sturges";0;0;3;81.666666666667;0;0;3;81.666666666667
"jean michel vador";0;0;1;1;0;0;1;1
"adult females attack without provocation";0;0;1;5;0;0;1;5
agafia;0;0;1;37;0;0;1;37
"nathan chantob";0;0;1;1;0;0;1;1
"hornsleth deep storage project";0;0;1;61;0;0;1;61
"wolfgang krell";0;0;2;2;0;0;2;2
"pierre francois grimaldi";0;0;9;3.1111111111111;0;0;8;3;0;0;1;4
chasur;0;0;2;6;0;0;1;8;0;0;1;4
"rob van hoek artist";0;0;1;5;0;0;1;5
"nicolas ritter";0;0;1;28;0;0;1;28
merienne;0;0;1;7;0;0;1;7
"lou ros";0;0;2;24.5;0;0;2;24.5
"arno artist";0;0;2;10;0;0;2;10
deflagrates;0;0;1;206;0;0;1;206
"gz galerie";0;0;5;6.2;0;0;4;6;0;0;1;7
microgalerie;0;0;1;5;0;0;1;5
"romero britto nyc";0;0;1;32;0;0;1;32
"mauro benetti";0;0;1;12;0;0;1;12
"art & language";0;0;3;60.666666666667;0;0;3;60.666666666667
chaperon;0;0;1;343;0;0;1;343
"hanns peter krafft";0;0;1;1;0;0;1;1
chir;0;0;1;101;0;0;1;101
"cindy peters photography";0;0;1;3;0;0;1;3
"bambi art";0;0;2;10;0;0;2;10
budet;0;0;1;36;0;0;1;36
"la palette";0;0;1;186;0;0;1;186
"henrietta dubrey";0;0;3;14;0;0;3;14
"casey baugh static";0;0;1;40;0;0;1;40
"jan saudek gallery";0;0;2;43;0;0;1;45;0;0;1;41
remaissance;0;0;1;10;0;0;1;10
"florence d'elle";0;0;4;5;0;0;1;5;0;0;2;5;0;0;1;5
"nude painting sale";0;0;1;114;0;0;1;114
"guy denning artist";0;0;2;7;0;0;2;7
bluesy;0;0;1;328;0;0;1;328
"renaud delorme";0;0;4;6;0;0;4;6
franklinia;0;0;1;138;0;0;1;138
"a la bardot";0;0;2;4;0;0;2;4
boxeur;0;0;1;207;0;0;1;207
"expression 101";0;0;1;15;0;0;1;15
"aris messinis";0;0;7;8.7142857142857;0;0;4;8.5;0;0;3;9
"pierre pignon";0;0;1;2;0;0;1;2
"emilio scanavino";0;0;2;48;0;0;2;48
"tal coat";0;0;1;45;0;0;1;45
"helen frik";0;0;1;10;0;0;1;10
"denis robert art";0;0;1;5;0;0;1;5
"gabriel paris";0;0;1;25;0;0;1;25
"dolorès marat";0;0;1;3;0;0;1;3
"june lee";0;0;1;125;0;0;1;125
"hank china";0;0;2;4;0;0;1;1;0;0;1;7
"fred calmets";0;0;4;5.25;0;0;4;5.25
"karuna panumes";0;0;3;8;0;0;3;8
"francesca pompei";0;0;1;18;0;0;1;18
"du zhenjun";0;0;2;21;0;0;2;21
"antonio segui artist";0;0;1;9;0;0;1;9
"benjamin carbonne";0;0;9;1.1111111111111;0;0;5;1.2;0;0;3;1;0;0;1;1
"obey dove";0;0;1;43;0;0;1;43
"georges poncet";0;0;1;9;0;0;1;9
fastuous;0;0;1;201;0;0;1;201
"sophie besson";0;0;1;23;0;0;1;23
"inventaire 53 dali";0;0;1;5;0;0;1;5
"paolo cavinato";0;0;1;34;0;0;1;34
"nudes oil paintings";0;0;1;316;0;0;1;316
"philippe pasquot";0;0;1;7;0;0;1;7
"żan milo";0;0;1;17;0;0;1;17
"valérie hadida";0;0;1;3;0;0;1;3
"rouge noir fond";0;0;1;10;0;0;1;10
"bruno catalano prices";0;0;1;3;0;0;1;3
"kha ly";0;0;1;109;0;0;1;109
nebay;0;0;1;10;0;0;1;10
gabi;0;0;1;309;0;0;1;309
"mikhail lezin";0;0;3;6.3333333333333;0;0;3;6.3333333333333
"brno art";0;0;1;40;0;0;1;40
"artist bambi";0;0;1;5;0;0;1;5
"robert zandvliet artist";0;0;1;8;0;0;1;8
"marie laure gerard becuwe";0;0;1;2;0;0;1;2
"corno artist";0;0;1;28;0;0;1;28
"chris morin";0;0;5;3;0;0;4;2.5;0;0;1;5
impermanence;0;0;1;404;0;0;1;404
chevalie;0;0;1;329;0;0;1;329
bosquet;0;0;1;328;0;0;1;328
hitherto;0;0;1;342;0;0;1;342
jadikan;0;0;1;7;0;0;1;7
"louise balaam";0;0;2;19;0;0;2;19
"mel ramos vintage peekaboo";0;0;1;46;0;0;1;46
"piccadilly circus";0;0;1;188;0;0;1;188
"tigre artwork";0;0;1;9;0;0;1;9
"sex kitten";0;0;1;194;0;0;1;194
"georgianna robertson";0;0;2;35.5;0;0;2;35.5
"bruno del zou";0;0;1;2;0;0;1;2
"gallerie bettina";0;0;1;6;0;0;1;6
"jieun park";0;0;2;23.5;0;0;2;23.5
"christopher schulz";0;0;3;61.333333333333;0;0;3;61.333333333333
"thomas jorion";0;0;1;8;0;0;1;8
+hans+hartung;0;0;1;118;0;0;1;118
"liu xiaofang";0;0;1;21;0;0;1;21
miss.tic;0;0;2;9.5;0;0;1;7;0;0;1;12
"antoine stevens art";0;0;1;6;0;0;1;6
"yona friedman";0;0;2;58;0;0;2;58
"capital culture gallery";0;0;1;5;0;0;1;5
calot;0;0;1;101;0;0;1;101
ijen;0;0;1;220;0;0;1;220
"buy helmut newton prints";0;0;1;31;0;0;1;31
grudzinski;0;0;1;107;0;0;1;107
"peter klasen artist";0;0;1;9;0;0;1;9
complaisance;0;0;1;226;0;0;1;226
"gérard alary";0;0;2;7.5;0;0;2;7.5
dimanches;0;0;1;328;0;0;1;328
"ella prien nackt";0;0;1;15;0;0;1;15
"guy dennig";0;0;2;8.5;0;0;2;8.5
"stéphanie nava";0;0;1;19;0;0;1;19
"campbells scotch broth";0;0;1;33;0;0;1;33
catcheurs;0;0;1;133;0;0;1;133
"jerome lagarrigue";0;0;5;10;0;0;5;10
"lola cola";0;0;16;1.4375;0;0;11;1.6363636363636;0;0;5;1
"alexander in his tent";0;0;7;5.2857142857143;0;0;1;6;0;0;6;5.1666666666667
"bastien cuenot";0;0;1;3;0;0;1;3
"graham dolphin";0;0;2;9;0;0;2;9
"ben french artist";0;0;1;5;0;0;1;5
"park ryu sook gallery";0;0;1;35;0;0;1;35
"ernest pignon";0;0;1;6;0;0;1;6
"galerie garnier delaporte";0;0;1;8;0;0;1;8
immortalize;0;0;1;529;0;0;1;529
"orlinda lavergne";0;0;2;9;0;0;2;9
"ernest pignon ernest";0;0;5;10;0;0;2;10;0;0;3;10
inexistente;0;0;1;311;0;0;1;311
cammal;0;0;5;10.2;0;0;4;9.5;0;0;1;13
bezt;0;0;1;103;0;0;1;103
"espace meyer zafra";0;0;1;99;0;0;1;99
"pete doherty paintings";0;0;1;21;0;0;1;21
"""mel ramos""";0;0;1;11;0;0;1;11
ipso;0;0;1;215;0;0;1;215
"jean hélion";0;0;4;40;0;0;3;40.333333333333;0;0;1;39
"art cube gallery";0;0;1;41;0;0;1;41
"julia mangold artist";0;0;1;11;0;0;1;11
"montmartre 1930";0;0;1;15;0;0;1;15
conjonction;0;0;1;226;0;0;1;226
lelong;0;0;1;87;0;0;1;87
millimètres;0;0;2;43;0;0;2;43
rero;0;0;1;104;0;0;1;104
fabricee;0;0;1;415;0;0;1;415
chenyi;0;0;1;113;0;0;1;113
"paulette tavormina";0;0;3;30.666666666667;0;0;3;30.666666666667
"liquid iv";0;0;1;68;0;0;1;68
"santini artist";0;0;1;41;0;0;1;41
cyclobes;0;0;2;10;0;0;1;10;0;0;1;10
calmejane;0;0;1;9;0;0;1;9
"gloria petyarre";0;0;1;79;0;0;1;79
"notting hill carnival 2004";0;0;1;132;0;0;1;132
bories;0;0;1;180;0;0;1;180
"lottie jackson";0;0;1;18;0;0;1;18
"miguel ortiz berrocal";0;0;3;22.666666666667;0;0;1;48;0;0;2;10
"margaret dearing";0;0;4;7;0;0;4;7
+robert+combas;0;0;1;13;0;0;1;13
"takashi murakami pillow";0;0;1;15;0;0;1;15
kijno;0;0;5;11;0;0;4;7;0;0;1;27
"francois bard paintings";0;0;1;8;0;0;1;8
"the art orn";0;0;1;9;0;0;1;9
"artist shazz switzerland";0;0;2;43;0;0;2;43
"snoopy ski";0;0;1;9;0;0;1;9
"alex guofeng cao";0;0;2;12.5;0;0;2;12.5
"april gornik";0;0;1;59;0;0;1;59
"caroline poulet";0;0;1;2;0;0;1;2
dufresne;0;0;1;325;0;0;1;325
enki;0;0;1;237;0;0;1;237
"lolita nudes";0;0;1;77;0;0;1;77
enrouleur;0;0;1;214;0;0;1;214
"nudes art";0;0;1;131;0;0;1;131
"maple collab";0;0;1;10;0;0;1;10
halpin;0;0;1;428;0;0;1;428
"sans titre paint";0;0;1;20;0;0;1;20
"james ostrer";0;0;2;27;0;0;2;27
doucet;0;0;1;226;0;0;1;226
"michel le belhomme";0;0;2;6;0;0;1;5;0;0;1;7
"baldaccini cesar";0;0;2;8.5;0;0;2;8.5
be2;0;0;2;284.5;0;0;2;284.5
"joan saló";0;0;3;8.3333333333333;0;0;3;8.3333333333333
"arnaud rabier";0;0;2;55.5;0;0;2;55.5
"shen jing dong";0;0;1;6;0;0;1;6
"louis blanc";0;0;1;110;0;0;1;110
"peter lippman architect";0;0;1;126;0;0;1;126
mitz.at;0;0;2;27;0;0;2;27
"motobecane maroc casablanca";0;0;1;44;0;0;1;44
"soasig chamaillard";0;0;2;15;0;0;2;15
hoffmann;0;0;1;428;0;0;1;428
"sean cheetham";0;0;4;29.75;0;0;4;29.75
"magdalena artist";0;0;1;43;0;0;1;43
"elsa guillaume";0;0;6;2;0;0;6;2
depardieu;0;0;1;245;0;0;1;245
defer;0;0;1;515;0;0;1;515
"dieter mammel artist";0;0;1;7;0;0;1;7
flamboiement;0;0;1;35;0;0;1;35
"francois bard prices";0;0;1;3;0;0;1;3
guayasamin;0;0;1;43;0;0;1;43
"eckart hahn";0;0;1;19;0;0;1;19
"jonone artist";0;0;2;14;0;0;2;14
"tilt art";0;0;1;36;0;0;1;36
henceforth;0;0;1;339;0;0;1;339
"julian schnabel";0;0;1;216;0;0;1;216
"banksy copied blek le rat";0;0;1;22;0;0;1;22
"olivier ribardière";0;0;1;7;0;0;1;7
"brno del zou info";0;0;1;1;0;0;1;1
"crystal wagner";0;0;1;53;0;0;1;53
"jean claude deutsch";0;0;1;4
"bambi paintings";0;0;1;15;0;0;1;15
zoxx;0;0;3;18.333333333333;0;0;3;18.333333333333
"carlos cruz-diez";0;0;2;52;0;0;2;52
"natalia rak";0;0;1;35;0;0;1;35
"tea for two";0;0;1;343;0;0;1;343
"roberta molin corvo";0;0;1;10;0;0;1;10
lapinthur;0;0;2;9;0;0;2;9
"greg leon guillemin";0;0;1;2;0;0;1;2
"jesper just";0;0;1;81;0;0;1;81
"kaws black";0;0;1;1;0;0;1;1
"art paris";0;0;1;183;0;0;1;183
interstice;0;0;1;242;0;0;1;242
"guy de rougemont";0;0;3;9.6666666666667;0;0;2;9.5;0;0;1;10
granites;0;0;1;414;0;0;1;414
henni;0;0;1;250
jaunery;0;0;1;5;0;0;1;5
"des moines art show";0;0;1;341;0;0;1;341
"galerie depypere";0;0;1;25;0;0;1;25
"kenneth noland";0;0;2;89.5;0;0;2;89.5
"lubomír typlt";0;0;1;44;0;0;1;44
"anna bocek art";0;0;4;9.25;0;0;4;9.25
"fabio coruzzi";0;0;3;9.6666666666667
dumas;0;0;1;413;0;0;1;413
"leroy winter";0;0;1;35;0;0;1;35
"peter klasen";0;0;4;8.5;0;0;3;9.3333333333333;0;0;1;6
"912 arty gallery";0;0;1;10;0;0;1;10
cordelette;0;0;1;226;0;0;1;226
"la tour eiffel";0;0;1;180;0;0;1;180
dooze;0;0;1;49;0;0;1;49
"yanko tihov";0;0;1;4;0;0;1;4
"banksy virgin mary";0;0;1;9;0;0;1;9
lassaâd;0;0;1;7;0;0;1;7
"petit nu";0;0;1;9;0;0;1;9
"roberto greco";0;0;2;19;0;0;2;19
"claude closky";0;0;10;8.9;0;0;9;8.6666666666667;0;0;1;11
liquidiv;0;0;1;42;0;0;1;42
"superman andy warhol";0;0;1;22;0;0;1;22
couchant;0;0;1;310;0;0;1;310
"rhonegletscher eisgrotte";0;0;3;26;0;0;3;26
colomina;0;0;1;101;0;0;1;101
fauve;0;0;1;304;0;0;1;304
"julie de waroquier";0;0;1;28;0;0;1;28
dickie;0;0;1;302;0;0;1;302
frolicking;0;0;1;340;0;0;1;340
"paul carey kent";0;0;3;5;0;0;2;5.5;0;0;1;4
juliendurix;0;0;1;2;0;0;1;2
"juha arvid helminen";0;0;1;22;0;0;1;22
"hervé perdriel";0;0;1;3;0;0;1;3
"longmen art projects";0;0;1;35;0;0;1;35
"olivier widmaier picasso";0;0;1;20;0;0;1;20
"serge roux";0;0;1;19;0;0;1;19
"roca azul";0;0;1;45;0;0;1;45
"clothilde lasserre";0;0;1;6;0;0;1;6
"robert indiana love print";0;0;1;44;0;0;1;44
"chen yidan";0;0;1;2;0;0;1;2
"bruno gadenne";0;0;1;4;0;0;1;4
"sara sammakia";0;0;1;9;0;0;1;9
guet;0;0;1;234;0;0;1;234
"jörg döring price";0;0;3;4;0;0;3;4
dubailand;0;0;3;167.33333333333;0;0;1;159;0;0;1;185;0;0;1;158
"alex kizu";0;0;1;8;0;0;1;8
"takashi murakami flower";0;0;2;17;0;0;1;18;0;0;1;16
"viveca koh";0;0;2;17;0;0;2;17
"raymond moretti artist";0;0;1;7;0;0;1;7
"alinka echeverria";0;0;5;19.2;0;0;5;19.2
"orlinski crocodile";0;0;2;1.5;0;0;2;1.5
goldnadel;0;0;1;25;0;0;1;25
"garrett pruter";0;0;1;18;0;0;1;18
"sylvie guyomard";0;0;1;5;0;0;1;5
"kristian von hornsleth";0;0;2;24.5;0;0;1;24;0;0;1;25
"sara ingleby mackenzie";0;0;1;2;0;0;1;2
"franck bernhard";0;0;1;5;0;0;1;5
"dennis nona biography";0;0;1;10;0;0;1;10
bernadine;0;0;2;6.5;0;0;2;6.5
"takashi murakami buy";0;0;2;11;0;0;1;13;0;0;1;9
"sandy skoglund";0;0;1;70;0;0;1;70
grisor;0;0;1;5;0;0;1;5
"lucian the dream";0;0;1;8;0;0;1;8
"nava france";0;0;1;10;0;0;1;10
"mark mawson";0;0;3;43.333333333333;0;0;3;43.333333333333
"peter keizer";0;0;1;10;0;0;1;10
"herve di rosa";0;0;2;6.5;0;0;2;6.5
"adel abdessemed";0;0;1;92;0;0;1;92
"charlie roberts art";0;0;2;9.5;0;0;1;9;0;0;1;10
"george platt lynes";0;0;2;68.5;0;0;2;68.5
chatouiller;0;0;1;119;0;0;1;119
"taj mahal artwork";0;0;1;49;0;0;1;49
"duong le thai";0;0;1;10;0;0;1;10
"alain clement";0;0;2;9.5;0;0;1;10;0;0;1;9
posticles;0;0;1;8;0;0;1;8
"kilian glasner";0;0;2;7;0;0;2;7
"la cascade";0;0;1;188;0;0;1;188
enchute;0;0;1;132;0;0;1;132
"hervé télémaque";0;0;1;9;0;0;1;9
"vincent peters";0;0;2;35.5;0;0;1;37;0;0;1;34
"linda blackstone";0;0;2;9;0;0;1;8;0;0;1;10
"zeng li";0;0;2;61;0;0;2;61
"grand hotel greta garbo";0;0;1;46;0;0;1;46
"joseph chiaramonte";0;0;1;2;0;0;1;2
"givenchy hat";0;0;1;40;0;0;1;40
"françois morellet";0;0;3;32;0;0;3;32
"jean georges inca";0;0;4;1.75;0;0;4;1.75
"claude viallat artist";0;0;1;7;0;0;1;7
delphine;0;0;1;340;0;0;1;340
deifications;0;0;1;45;0;0;1;45
bertelli;0;0;1;189;0;0;1;189
"isabelle bartoli";0;0;1;10;0;0;1;10
"baudoin lebon";0;0;1;6;0;0;1;6
"jean pierre nadau";0;0;1;2;0;0;1;2
"gasiorowski artist";0;0;1;10;0;0;1;10
"italianlady 2";0;0;2;3;0;0;2;3
"tom wesselmann werke";0;0;1;63;0;0;1;63
"romain cadilhon";0;0;3;6.6666666666667;0;0;3;6.6666666666667
"frank horvat";0;0;4;24.75;0;0;4;24.75
drakkar;0;0;1;333;0;0;1;333
"thomas muller art";0;0;2;5.5;0;0;2;5.5
"olivier courty";0;0;1;8;0;0;1;8
"adeline spengler";0;0;1;1;0;0;1;1
http://www.basementizid.com/;0;0;2;170;0;0;2;170
"nathalie rock";0;0;1;326;0;0;1;326
"richard hudson";0;0;1;91;0;0;1;91
"david gerstein art";0;0;2;32;0;0;2;32
"qui est libre";0;0;1;8;0;0;1;8
cordeau;0;0;1;232;0;0;1;232
"gianni colosimo";0;0;1;5;0;0;1;5
"charlotte lepelletier";0;0;3;9;0;0;3;9
"fredrik raddum";0;0;2;7;0;0;2;7
"alex katz for sale";0;0;1;49;0;0;1;49
"jean michel basquiat kunst";0;0;1;9;0;0;1;9
"stephen andrews";0;0;2;98.5;0;0;2;98.5
"enki photography";0;0;1;48;0;0;1;48
"jean marie oger";0;0;3;8.6666666666667;0;0;3;8.6666666666667
"gael davrinche";0;0;1;10;0;0;1;10
"thomas muller artist";0;0;2;4.5;0;0;2;4.5
"miss. tic";0;0;1;12;0;0;1;12
"nude painting for sale";0;0;1;124;0;0;1;124
gousset;0;0;1;132;0;0;1;132
"alain clément";0;0;1;10;0;0;1;10
"ruta jusionyte";0;0;1;7;0;0;1;7
dolomitic;0;0;1;305;0;0;1;305
"julia mangold";0;0;1;6;0;0;1;6
"philippe pasqua";0;0;12;12.833333333333;0;0;10;13.4;0;0;2;10
"fernando garcía ponce";0;0;3;10.666666666667;0;0;3;10.666666666667
kooj;0;0;2;16;0;0;2;16
"john duffin prints";0;0;1;45;0;0;1;45
"sigune hamann";0;0;4;6.5;0;0;1;8;0;0;3;6
"artist warhol";0;0;1;330;0;0;1;330
"el buque fantasma";0;0;1;137;0;0;1;137
"erik salin";0;0;1;6;0;0;1;6
amey;0;0;1;223;0;0;1;223
"nude paintings for sale";0;0;1;125;0;0;1;125
imre;0;0;1;321;0;0;1;321
bullfigh;0;0;1;328;0;0;1;328
"thierry carrier";0;0;1;4;0;0;1;4
"sam phillips match 3";0;0;1;3;0;0;1;3
intelligenz;0;0;1;220;0;0;1;220
touami;0;0;1;9;0;0;1;9
"malika mokadem";0;0;1;13;0;0;1;13
dbcg;0;0;1;37;0;0;1;37
"sabine jeannot";0;0;1;4;0;0;1;4
"eva navarro";0;0;8;4.25;0;0;6;4.1666666666667;0;0;1;5;0;0;1;4
"victoria klotz";0;0;1;2;0;0;1;2
"antoine josse";0;0;3;11;0;0;3;11
friedhelm;0;0;1;303;0;0;1;303
coabiter;0;0;1;330;0;0;1;330
"philippe huart";0;0;2;13.5;0;0;2;13.5
belgrand;0;0;1;62;0;0;1;62
"obey lotus";0;0;1;1;0;0;1;1
"rakel wajnberg";0;0;1;6;0;0;1;6
"shirley jaffe";0;0;2;16;0;0;2;16
"contemporary art gallery";0;0;1;409;0;0;1;409
"alex folla";0;0;4;5.5;0;0;2;5;0;0;2;6
dubure;0;0;1;10;0;0;1;10
"julie navarro";0;0;2;10;0;0;2;10
"gallery sun contemporary";0;0;1;86;0;0;1;86
"reinhard görner";0;0;1;40;0;0;1;40
desprez;0;0;1;105;0;0;1;105
carton;0;0;1;402;0;0;1;402
cubique;0;0;1;240;0;0;1;240
"geisha profil";0;0;1;35;0;0;1;35
sitbon;0;0;1;108;0;0;1;108
daniella;0;0;1;320;0;0;1;320
fenx;0;0;2;37;0;0;1;45;0;0;1;29
femmejambes;0;0;1;15;0;0;1;15
levrette;0;0;1;86;0;0;1;86
"simon liddiment";0;0;3;5.6666666666667;0;0;2;6;0;0;1;5
"el studio";0;0;1;42;0;0;1;42
cristallerie;0;0;1;337;0;0;1;337
"karl lagasse";0;0;1;6;0;0;1;6
"gyula sagi";0;0;1;3;0;0;1;3
"sylvia alva";0;0;1;55;0;0;1;55
"yasemin senel";0;0;4;9.75;0;0;3;9.3333333333333;0;0;1;11
"damir polic";0;0;1;2;0;0;1;2
"serge nyfeler";0;0;1;9;0;0;1;9
ajee;0;0;1;41;0;0;1;41
"hollis dunlap";0;0;2;18.5;0;0;2;18.5
"yann houri";0;0;5;5.6;0;0;2;5;0;0;3;6
"griffin londres";0;0;1;93;0;0;1;93
endormi;0;0;1;235;0;0;1;235
olukman;0;0;1;4;0;0;1;4
comptait;0;0;1;47;0;0;1;47
trovic;0;0;1;8;0;0;1;8
"walasse ting";0;0;1;7;0;0;1;7
vidaii;0;0;1;38;0;0;1;38
"maurice renoma";0;0;1;10;0;0;1;10
"julian opie bio";0;0;1;29;0;0;1;29
"pierre & gilles";0;0;3;27.666666666667;0;0;3;27.666666666667
"converse bleue";0;0;1;15;0;0;1;15
"bubble shooter";0;0;2;168;0;0;1;169;0;0;1;167
"oyester stew";0;0;1;316;0;0;1;316
ghoussoub;0;0;1;41;0;0;1;41
"miami vice";0;0;2;184.5;0;0;1;175;0;0;1;194
"sabine danzé";0;0;1;9;0;0;1;9
fabiani;0;0;1;230;0;0;1;230
"adam binder";0;0;1;45;0;0;1;45
"bush banana";0;0;1;35;0;0;1;35
ych;0;0;3;231;0;0;3;231
"cara delevingne artwork";0;0;1;1;0;0;1;1
frik;0;0;1;109;0;0;1;109
"tom wesselmann art";0;0;1;37;0;0;1;37
shaka;0;0;1;243;0;0;1;243
"kristian hornsleth";0;0;1;41;0;0;1;41
impracticable;0;0;1;532;0;0;1;532
"sun hyuk kim";0;0;4;10;0;0;2;10;0;0;2;10
"torrick ablack";0;0;2;9;0;0;2;9
"maxime ansiau";0;0;5;10;0;0;4;10.25;0;0;1;9
jonone;0;0;10;16.2;0;0;9;17;0;0;1;9
guinio;0;0;1;9;0;0;1;9
cony;0;0;3;195.33333333333;0;0;3;195.33333333333
irrelation;0;0;1;311;0;0;1;311
takala;0;0;3;4;0;0;3;4
keymi;0;0;4;8;0;0;3;8;0;0;1;8
"design expression";0;0;1;446;0;0;1;446
"nigel cox artist";0;0;1;10;0;0;1;10
"asgar/ gabriel";0;0;2;5;0;0;2;5
"contemporary african art";0;0;4;356;0;0;4;356
cornet;0;0;1;325;0;0;1;325
"gerard schlosser";0;0;5;9.6;0;0;3;10;0;0;2;9
"guayasamin prints";0;0;1;23;0;0;1;23
"yan pei-ming";0;0;2;50.5;0;0;2;50.5
pradino;0;0;1;4;0;0;1;4
"christian zeimert";0;0;1;6;0;0;1;6
"tanc artist";0;0;1;5;0;0;1;5
"peter hoffer artist";0;0;3;11;0;0;3;11
"shane couch";0;0;1;10;0;0;1;10
"car gia";0;0;2;41;0;0;2;41
sotill;0;0;1;4;0;0;1;4
"leonardo ulian";0;0;2;34.5;0;0;2;34.5
"omada international okc";0;0;1;56;0;0;1;56
foetus;0;0;1;310;0;0;1;310
xaipe;0;0;1;14;0;0;1;14
"alex maclean";0;0;2;92.5;0;0;2;92.5
"muhanna durra";0;0;2;8.5;0;0;2;8.5
codesquare;0;0;20;43.35;0;0;20;43.35
deplus;0;0;1;10;0;0;1;10
"buddha bar arno elias";0;0;1;44;0;0;1;44
"peter wüthrich";0;0;1;14;0;0;1;14
intrication;0;0;1;103;0;0;1;103
"roger schall";0;0;12;1;0;0;7;1;0;0;5;1
mannuella;0;0;1;11;0;0;1;11
bicolore;0;0;1;205;0;0;1;205
"helmut middendorf artist";0;0;1;10;0;0;1;10
"manolo chretien";0;0;2;8;0;0;1;7;0;0;1;9
"plate lips";0;0;1;30;0;0;1;30
"jacques mahé de la villeglé";0;0;4;6.75;0;0;4;6.75
"oswaldo guayasamin";0;0;2;39.5;0;0;2;39.5
"guy boyer";0;0;5;8.6;0;0;1;8;0;0;3;8.6666666666667;0;0;1;9
haradah;0;0;1;312;0;0;1;312
cieu;0;0;1;20;0;0;1;20
"valerio adami";0;0;3;52;0;0;3;52
"eduardo kac";0;0;1;86;0;0;1;86
poinat;0;0;1;10;0;0;1;10
"sabyl ghoussoub";0;0;2;1.5;0;0;2;1.5
epigyny;0;0;1;210;0;0;1;210
"aiguille du chardonnet";0;0;1;49;0;0;1;49
"rive gauche paris";0;0;1;167;0;0;1;167
"original pop art for sale";0;0;1;220;0;0;1;220
"ruxandra papa";0;0;1;12;0;0;1;12
ellwood;0;0;1;343;0;0;1;343
"audoin desforges";0;0;4;6.25;0;0;3;6.3333333333333;0;0;1;6
"taki 183";0;0;1;39;0;0;1;39
"ivan plusch";0;0;2;1.5;0;0;2;1.5
"bozena bosko";0;0;2;38;0;0;2;38
compoint;0;0;1;75;0;0;1;75
psyckoze;0;0;6;9.3333333333333;0;0;6;9.3333333333333
"daniel gottin";0;0;1;17;0;0;1;17
"max czertok";0;0;2;10.5;0;0;1;10;0;0;1;11
"egon schiele";0;0;1;158;0;0;1;158
cailloux;0;0;1;324;0;0;1;324
"cello for sale";0;0;1;242;0;0;1;242
onemizer;0;0;1;7;0;0;1;7
mamies;0;0;1;218;0;0;1;218
"peter doig";0;0;2;128.5;0;0;2;128.5
"pentecost artwork";0;0;1;42;0;0;1;42
bodnariu;0;0;10;18;0;0;3;16.666666666667;0;0;5;18.2;0;0;2;19.5
fishman;0;0;1;439;0;0;1;439
"antonio asis";0;0;2;24;0;0;2;24
"anna bjerger";0;0;9;6.7777777777778;0;0;9;6.7777777777778
"marcelli france";0;0;1;5;0;0;1;5
"anri sala";0;0;1;74;0;0;1;74
"luzia simons";0;0;2;33;0;0;2;33
"sarah hardacre";0;0;3;18.666666666667;0;0;3;18.666666666667
"david ratcliff";0;0;1;39;0;0;1;39
"iain andrews artist";0;0;1;29;0;0;1;29
"alain bonnefoit";0;0;2;17;0;0;2;17
"francoise nielly for sale";0;0;1;7;0;0;1;7
"flower delivery bilbao";0;0;1;55;0;0;1;55
"contemporary portrait photography";0;0;3;430;0;0;3;430
"birdy kids";0;0;1;36;0;0;1;36
"massa art";0;0;1;60;0;0;1;60
"arthur dorval";0;0;1;5;0;0;1;5
"la banane";0;0;1;194;0;0;1;194
"claire trotignon";0;0;1;9;0;0;1;9
doig;0;0;1;307;0;0;1;307
"roland cat";0;0;1;4;0;0;1;4
"yan pei ming";0;0;1;38;0;0;1;38
bodin;0;0;1;217;0;0;1;217
"by belie";0;0;1;7;0;0;1;7
inhabitant;0;0;1;408;0;0;1;408
"mel ramos artist";0;0;2;11;0;0;2;11
"xavier veilhan";0;0;1;52;0;0;1;52
"a pledge of silence";0;0;1;510;0;0;1;510
"justine nicolaiev";0;0;1;14;0;0;1;14
"isabel espinoza";0;0;2;4.5;0;0;2;4.5
zevs;0;0;2;86.5;0;0;2;86.5
"tabish khan";0;0;1;24;0;0;1;24
yde;0;0;1;207;0;0;1;207
fourbe;0;0;1;132;0;0;1;132
"le valet";0;0;1;8;0;0;1;8
chantier;0;0;1;338;0;0;1;338
"jacques de la villegle";0;0;2;6.5;0;0;2;6.5
"bank autria";0;0;1;404;0;0;1;404
"polly ngale";0;0;3;26.666666666667;0;0;3;26.666666666667
"armando rearte";0;0;2;48;0;0;2;48
"philippe pasqua information";0;0;1;7;0;0;1;7
"markowicz fine art";0;0;2;48;0;0;2;48
blanchisseur;0;0;1;308;0;0;1;308
"boom art";0;0;1;43;0;0;1;43
toroptsov;0;0;1;19;0;0;1;19
"bio modernity";0;0;1;91;0;0;1;91
"henri lamy";0;0;1;7;0;0;1;7
interferences;0;0;1;319;0;0;1;319
"eugenio carmi";0;0;2;9.5;0;0;1;9;0;0;1;10
"jérémy chabaud";0;0;1;4;0;0;1;4
"gerstein art";0;0;2;27;0;0;2;27
"muay thai artwork";0;0;1;26;0;0;1;26
"home alone artwork";0;0;2;8;0;0;1;7;0;0;1;9
"jean michel basquiat untitled skull";0;0;1;39;0;0;1;39
"galerie fluegel-roncak";0;0;2;13.5;0;0;2;13.5
"zao wou ki";0;0;3;89;0;0;3;89
lorioz;0;0;1;10;0;0;1;10
"dominique rayou";0;0;2;8;0;0;2;8
"ayline olukman";0;0;4;7;0;0;3;6.3333333333333;0;0;1;9
"painting bronx";0;0;1;322;0;0;1;322
"nicole wendel";0;0;2;3;0;0;2;3
"redhaired women";0;0;1;230;0;0;1;230
"marc asnin";0;0;2;37.5;0;0;2;37.5
holmenkollen;0;0;1;205;0;0;1;205
hanekroot;0;0;1;12;0;0;1;12
"personalised sundials for sale";0;0;1;44;0;0;1;44
"galerie bob van orsouw";0;0;2;96.5;0;0;2;96.5
dinovalls;0;0;1;29;0;0;1;29
"marc petit";0;0;1;49;0;0;1;49
"pierre schuster";0;0;1;11;0;0;1;11
"shaka artist";0;0;7;9.8571428571429;0;0;2;10;0;0;4;9.75;0;0;1;10
charro;0;0;1;223;0;0;1;223
"peter downsbrough";0;0;1;96;0;0;1;96
"desserle cecile";0;0;1;9;0;0;1;9
"dan carabas";0;0;3;2;0;0;2;2;0;0;1;2
"charlotte champion";0;0;2;4;0;0;2;4
"murakami mr dob";0;0;1;37;0;0;1;37
"christian bonnefoi";0;0;3;20;0;0;3;20
"nathalie grall";0;0;1;4;0;0;1;4
"michele mikesell";0;0;1;17;0;0;1;17
"miguel chevalier";0;0;2;30;0;0;2;30
"jean michel basquiat art for sale";0;0;1;27;0;0;1;27
"philippe hiquily";0;0;2;16.5;0;0;2;16.5
"rob and nick carter prices";0;0;1;10;0;0;1;10
"luis gordillo";0;0;2;54.5;0;0;2;54.5
"stephane joannes";0;0;2;5.5;0;0;1;1;0;0;1;10
"sun mi ahn";0;0;3;6.3333333333333;0;0;3;6.3333333333333
"sky westcott nude";0;0;2;10;0;0;2;10
misstic;0;0;2;13;0;0;2;13
"liquid i.v.";0;0;1;65;0;0;1;65
plusch;0;0;1;8;0;0;1;8
"belgian artists";0;0;1;45;0;0;1;45
tanc;0;0;2;17.5;0;0;1;29;0;0;1;6
combas;0;0;1;24;0;0;1;24
"pipaluk lake";0;0;4;9;0;0;4;9
cavin;0;0;1;238;0;0;1;238
christelle;0;0;1;318;0;0;1;318
"jonone street art";0;0;2;17.5;0;0;2;17.5
2artangels;0;0;2;4;0;0;2;4
courbes;0;0;1;336;0;0;1;336
"galerie hus";0;0;5;3.2;0;0;5;3.2
"keith haring crack down";0;0;7;2.1428571428571;0;0;6;2;0;0;1;3
"michael bevilacqua";0;0;2;67;0;0;2;67
sopho;0;0;1;88;0;0;1;88
javanesa;0;0;1;20;0;0;1;20
"jeremy chabaud";0;0;1;10;0;0;1;10
klasen;0;0;1;9;0;0;1;9
"jean faucheur photography";0;0;1;6;0;0;1;6
"christophe charbonnel sculpture";0;0;1;6;0;0;1;6
"pierre kroll";0;0;1;25;0;0;1;25
"banksy born";0;0;2;43;0;0;2;43
"sutkus sartre";0;0;1;1;0;0;1;1
"hus gallery";0;0;1;83;0;0;1;83
"léo caillard";0;0;2;23.5;0;0;2;23.5
"eva jospin artist";0;0;2;3;0;0;1;3;0;0;1;3
"heiner meyer";0;0;4;10.5;0;0;4;10.5
"benoit lemercier";0;0;2;8;0;0;2;8
zwy;0;0;1;43;0;0;1;43
"monsieur chat";0;0;2;7;0;0;2;7
"isabelle cochereau";0;0;2;9;0;0;2;9
"bruno fontana";0;0;1;31;0;0;1;31
"kim westcott";0;0;1;40;0;0;1;40
"flamboyant nürnberg";0;0;1;56;0;0;1;56
"chuck elliott";0;0;3;39.666666666667;0;0;3;39.666666666667
"xin art";0;0;1;6;0;0;1;6
caillard;0;0;2;124.5;0;0;2;124.5
"marina cavazza";0;0;2;2;0;0;2;2
"zhang wei";0;0;1;96;0;0;1;96
brainwas;0;0;1;319;0;0;1;319
"un nouvel espoir";0;0;1;129;0;0;1;129
unkuri;0;0;1;62;0;0;1;62
"tal coat artist";0;0;2;9;0;0;2;9
"thierry feuz";0;0;1;34;0;0;1;34
"miguel vallinas";0;0;1;38;0;0;1;38
mafioso;0;0;1;240;0;0;1;240
"saint cyr";0;0;1;179;0;0;1;179
demure;0;0;1;323;0;0;1;323
"francine van hove";0;0;4;13;0;0;3;13.666666666667;0;0;1;11
"these city walls";0;0;1;38;0;0;1;38
"deborah partington";0;0;1;17;0;0;1;17
"red balloon dog";0;0;1;10;0;0;1;10
"ta kala";0;0;1;10;0;0;1;10
catapulte;0;0;1;210;0;0;1;210
"david harber sculpture";0;0;1;42;0;0;1;42
"judy rifka";0;0;2;21;0;0;2;21
"césar baldaccini";0;0;2;15
"galerie rx";0;0;1;2
"stephane gautier";0;0;2;7
"knut eckstein";0;0;1;9
design+and+decoration;0;0;1;250
"sarah hinckley";0;0;2;23
"pont arts";0;0;1;314
"crash artwork";0;0;1;9
coquelicots;0;0;1;327
friture;0;0;1;301
dominantes;0;0;1;244
+li+wei;0;0;1;3
"jean pierre schneider";0;0;2;5
"philippe parreno";0;0;1;85
"peter hoffer";0;0;2;14
"vincent peters biography";0;0;1;14
"philippe pasqua price";0;0;1;10
exemplar;0;0;1;429
"lavi carlotte";0;0;2;4
"rafael canogar";0;0;3;40
"claude venard";0;0;2;20.5
gambino;0;0;1;216
"philippe gronon";0;0;1;10
"karl martens";0;0;2;45
"richard orlinski";0;0;3;11.666666666667;0;0;3;9.6666666666667
euphorie;0;0;1;247
"catherine haro";0;0;1;1
jambe;0;0;1;249
"clinton friedman";0;0;2;21
glaciaire;0;0;1;250
"mireille arbellot";0;0;1;1
"claire louria";0;0;8;7.75
"benjamin spark";0;0;3;9.3333333333333
"galleria michela rizzo";0;0;1;91
"mikael lafontan";0;0;2;8
"invest in art";0;0;1;92
hermaphrodite;0;0;1;247
"duong thai";0;0;1;48
"shen jingdong";0;0;3;7.6666666666667;0;0;1;7
"robert combas information";0;0;1;18
"jose manuel fors";0;0;3;5.6666666666667
"vanessa notley";0;0;2;6
fillette;0;0;1;119
"kiki picasso";0;0;3;8.3333333333333;0;0;1;4;0;0;3;11
"мел рамос";0;0;1;11
"peter liversidge";0;0;2;56.5
nuhomme;0;0;1;40
conosciuta;0;0;1;232
"paris concorde";0;0;1;199
"mehdi \lemoduledezeer\";0;0;2;12.5
"galerie tschudi";0;0;3;79.333333333333
"alain séchas";0;0;1;63
couettes;0;0;2;210
cyrille;0;0;1;207
renoma;0;0;2;78.5
"buddy artist";0;0;1;27
trapeziste;0;0;1;43
kleiber;0;0;1;156
"art dog london";0;0;1;7
"leonida de filippi";0;0;1;13
"ren hang artist";0;0;1;6
janka;0;0;1;338
"gijsbert hanekroot";0;0;2;2
"soly cissé";0;0;1;24
"cool artwork for sale";0;0;2;42.5
"catherine ahnell gallery";0;0;2;74.5
"slick art";0;0;1;27
"le glacier";0;0;1;167
marre;0;0;1;205
cargaison;0;0;1;145
"jeanne lorioz";0;0;15;7.5333333333333;0;0;1;8
staubfinger;0;0;1;26
"alexey klimov";0;0;3;7.3333333333333;0;0;1;8
latlas;0;0;2;54
"didier avril";0;0;4;2
"denis darzacq";0;0;2;56
cockerel;0;0;1;422
"petra wunderlich";0;0;1;9;0;0;1;10
"hanna sidorowicz";0;0;1;10
"gros artist";0;0;2;9
"induction chromatique";0;0;1;8
namasta;0;0;1;33
"vincent hawkins artist";0;0;1;8
"beauty 4 all";0;0;1;47
georgianna;0;0;1;322
"jeff koons";0;0;1;194
"dani olivier";0;0;1;8
endormir;0;0;1;242
"jonathan huxley";0;0;1;10;0;0;6;5
"galerie art 83";0;0;2;3
"wouter hoste";0;0;2;7.5
"fernando costa artist";0;0;1;10
"benjamin laurent";0;0;1;10
"sen2 figueroa";0;0;1;4
"manuel geerinck";0;0;4;19.5
"casey reas";0;0;3;72
"mariah carey gold";0;0;1;1;0;0;1;1
"alina bliumis";0;0;1;12
"sarah hardacre artist";0;0;1;15
"nude artwork";0;0;1;249
"thomas gromas";0;0;1;10
brumes;0;0;1;245
"jean faucheur artist";0;0;1;5
"olivier devignaud";0;0;1;5
"madeleine dietz";0;0;2;29
"zhao min";0;0;1;39
fardeau;0;0;1;126
"robe tapisserie";0;0;1;3
"roberto battistini";0;0;1;22
diesis;0;0;1;138
"paris 1930";0;0;1;43
"elisabeth taylor";0;0;1;140
calmets;0;0;1;6
disperata;0;0;1;226
"cologne exhibition";0;0;1;413
"valerie marty";0;0;1;8
"le sphinx";0;0;1;154
schechle;0;0;1;8
"bernard rancillac";0;0;2;8
"luca di filippo";0;0;2;8.5;0;0;1;8
emoticons;0;0;1;185;0;0;1;190
"rob van hoek";0;0;1;7;0;0;2;6
"self portrait photographers york";0;0;1;101
"alex cao photography";0;0;1;31
"bengt lindström";0;0;1;67
"antoine stevens";0;0;4;5.75;0;0;1;6
"norman rockwell boy on stilts";0;0;1;3
"aurélie bauer";0;0;1;6
durix;0;0;3;1.3333333333333
"keith haring montreux";0;0;1;2;0;0;2;2
цедки;0;0;2;4
"patrick villas sculpteur";0;0;1;7
"charlotte perrot";0;0;2;3
"ahmad zakii anwar artwork";0;0;1;9
ciprana;0;0;3;10
"raphaël denis";0;0;1;2
"inca art";0;0;1;158
cessieux;0;0;1;9
"zoo portraits koala";0;0;1;1
takalala;0;0;1;50
"catherine klein";0;0;1;21
"batista artist";0;0;1;10
"guy denning prints";0;0;2;8
"herve lewis";0;0;1;7;0;0;1;11
"aubade sale";0;0;1;76
"olivier sultan";0;0;1;10
"juliette vivier";0;0;1;8
"valerie hadida";0;0;8;5.125
"geraldine morin";0;0;1;9
gzstore;0;0;1;7
iemza;0;0;1;8
"pdp gallery";0;0;1;4
"lorioz prints";0;0;2;6
"stephen forbes artist";0;0;2;6
"katrin bremermann";0;0;1;3
"wifredo lam";0;0;1;195
"guy denning artwork";0;0;1;10;0;0;1;9
"ready to die artwork";0;0;1;7
cumbone;0;0;1;2
"jean marie marion";0;0;1;5
"wadi finan art gallery";0;0;1;4
silaphane;0;0;1;10
"michael alford artist";0;0;2;7
"rafael navarro";0;0;5;3.6;0;0;2;2.5
"amy judd art for sale";0;0;1;36
"christine mathieu";0;0;1;10
leyto;0;0;4;5.5;0;0;2;6
"john crash matos";0;0;1;14
"julien durix";0;0;11;1.3636363636364;0;0;3;1
"davíð örn halldórsson";0;0;1;10
"tony frank";0;0;4;11
talard;0;0;1;9
baldaccini;0;0;2;40.5
"kowit wattanarach";0;0;3;9
"bernard pras";0;0;1;9
dtone;0;0;1;10;0;0;3;2
rafiy;0;0;1;6
"emeric chantier";0;0;3;9
"zhao bandi";0;0;1;10
"miss tic";0;0;4;11
"compression cesar";0;0;1;8
"san zi";0;0;1;20
"sandra david";0;0;1;10
"jacques de la villeglé";0;0;1;8
"li wei";0;0;10;4.1;0;0;3;4.3333333333333
"badri lomsianidze";0;0;1;6;0;0;1;7
"jacques villegle";0;0;2;10
"les loups garous de shade";0;0;1;108
chubac;0;0;10;6.5
"marin kasimir";0;0;2;9
"octave pixel";0;0;5;7.6;0;0;2;7
"jamin artist";0;0;1;8
"crystal wagner art";0;0;1;32
"etienne cail";0;0;1;1
"kaws darth vader";0;0;2;1
"hervé lewis";0;0;1;7
"ki to la gloire";0;0;1;6
bernadinism;0;0;1;8
"alberto martini artist";0;0;1;9
mel.ramos;0;0;1;1
"eva jospin";0;0;2;9.5
babuchka;0;0;1;8
liwei;0;0;1;4
"dollar bleu";0;0;1;10;0;0;1;6
"keith haring lucky strike";0;0;2;2;0;0;1;2
"ren hang wiki";0;0;2;7
"santander bewertungen in waldkraiburg";0;0;4;32
"nils udo";0;0;5;6.4;0;0;4;9.75
"shahabuddin artist";0;0;1;11
silaphan;0;0;2;9.5
doolon;0;0;1;2
erro.us;0;0;1;39
"thomas canto";0;0;1;9
bbtoon;0;0;1;10
"wang yan cheng";0;0;2;7.5
"gordon hopkins";0;0;2;4.5
"djinane alsuwayeh";0;0;1;13
"in caelo et in terra";0;0;1;6
houtin;0;0;2;7;0;0;1;2
"marc ferrero";0;0;1;11
"thomas tramp";0;0;2;11
villegle;0;0;1;9
"timur novikov";0;0;1;10;0;0;2;9
"elise oudin gilles";0;0;1;6
"sophie cavalie";0;0;1;5
"bruno catalano biography";0;0;1;5
"prisoners movie";0;0;1;200
"peter lippmann";0;0;3;9.3333333333333;0;0;2;5.5
godon;0;0;3;1
"anna bocek";0;0;2;9;0;0;3;9.3333333333333
"montreux jazz festival 1986";0;0;1;1
"cynthia nudes";0;0;1;20
picka;0;0;1;77
"linda blackstone gallery";0;0;1;6;0;0;2;6
"silaphan paper";0;0;1;8
"thierry pelletier";0;0;1;8
"john matos";0;0;1;9
orlinski;0;0;3;9.6666666666667
"ronald dupont";0;0;3;8
"bambi artist";0;0;1;6
mesnager;0;0;1;4
"dana gordon artist";0;0;1;8
girlsnu;0;0;1;9
"foot fetish";0;0;1;274
"galerie art jingle";0;0;1;9
"peter lippmann biography";0;0;1;1
"cesar compression";0;0;1;7
"shepard fairey peace dove";0;0;1;1
fanny;0;0;1;317
"jeanne lorioz prints";0;0;1;3
"artdog london";0;0;2;6
"david lynch artwork";0;0;1;55
"gabriela bodin";0;0;1;5
"alexandre devals";0;0;1;4
"mel ramos lola cola";0;0;2;1
"christof monnin";0;0;3;7
"francois pompon sculpture";0;0;1;34
"bertrand gregoire";0;0;1;8
"christophe charbonnel";0;0;3;8
"victor richardson artist";0;0;1;9
"the kinks";0;0;1;263
"marius bodnariu norway";0;0;1;158
"pretty portal";0;0;1;7
"lion skull for sale";0;0;1;34
"mimmo rotella";0;0;2;157
"david ferreira artist";0;0;1;1
"alberto reguera";0;0;1;80
"stéphane joannes";0;0;2;5
emmanuelle;0;0;1;201
"claude closky artist";0;0;1;5
"melanie bonajo";0;0;1;47
"ele pack artist";0;0;1;7
dysform;0;0;1;4
"didier marien";0;0;1;9
"barbara stanley gallery";0;0;1;6
"john bulmer";0;0;1;1
