"jean faucheur";5;0.29411764705882;17;3.1764705882353;5;0.29411764705882;17;3.1764705882353
"stephen forbes artist";2;0.33333333333333;6;6.5;0;0;4;7.25;2;1;2;5
"kiki picasso";2;0.16666666666667;12;6.5;1;0.11111111111111;9;5.8888888888889;1;0.33333333333333;3;8.3333333333333
"brno del zou";2;0.16666666666667;12;2.4166666666667;1;0.1;10;2.5;1;1;1;2;0;0;1;2
"ayline olukman";2;0.4;5;4.8;1;0.25;4;5;1;1;1;4
"guy denning";2;0.016806722689076;119;9.2773109243697;1;0.01010101010101;99;9.040404040404;1;0.0625;16;10.4375;0;0;4;10.5
"benjamin carbonne";2;0.33333333333333;6;1;2;0.4;5;1;0;0;1;1
"robin gerris";1;1;1;14;1;1;1;14
morin;1;0.5;2;286;1;0.5;2;286
cumbone;1;0.5;2;7;1;0.5;2;7
"martha cooper photography for sale";1;1;1;14;1;1;1;14
cottavoz;1;1;1;6;1;1;1;6
"galerie galea";1;1;1;1;1;1;1;1
"richard orlinski";1;0.0625;16;9.625;1;0.083333333333333;12;9.4166666666667;0;0;3;10;0;0;1;11
"henri sarla";1;1;1;10;1;1;1;10
"gabriela bodin";1;0.2;5;3.4;1;0.2;5;3.4
"catherine seher";1;0.33333333333333;3;7.3333333333333;1;1;1;6;0;0;2;8
"brno del zou biography";1;0.5;2;1;1;0.5;2;1
"bruno catalano sculpture prices";1;0.16666666666667;6;9.5;0;0;1;7;1;0.2;5;10
"françois mendras";1;0.5;2;5;1;0.5;2;5
"damir polic";1;0.16666666666667;6;6.5;1;1;1;6;0;0;3;6;0;0;2;7.5
"peter lippmann photographer";1;1;1;6;1;1;1;6
"romain cadilhon";1;0.5;2;6;1;0.5;2;6
"béatrice terra";1;0.5;2;2;1;0.5;2;2
"arnaud liard";1;1;1;2;1;1;1;2
"alexandre devals";1;1;1;4;1;1;1;4
"petra wunderlich photography";1;0.5;2;6;1;1;1;6
"jean baptiste dumont";1;1;1;16;1;1;1;16
"peter hoffer";1;0.25;4;15;1;0.25;4;15
"vincent hawkins artist";1;0.33333333333333;3;5.6666666666667;0;0;2;4;1;1;1;9
"jean charles millepied";1;0.5;2;5;1;1;1;5
"brno del zou info";1;1;1;1;1;1;1;1
"afar woman";1;1;1;29;1;1;1;29
"charles thiefaine";1;1;1;2;1;1;1;2
"antoine stevens bio";1;0.5;2;2;1;0.5;2;2
"evelyne postic";1;1;1;6;1;1;1;6
"ren hang";1;0.11111111111111;9;23.666666666667;1;0.11111111111111;9;23.666666666667
"guy denning artwork";1;0.02;50;5.38;1;0.020408163265306;49;5.2857142857143;0;0;1;10
"jean-marie oger";1;1;1;11;1;1;1;11
"haude bernabé";1;1;1;9;1;1;1;9
"boreas john william waterhouse";1;1;1;45;1;1;1;45
"brisson peintre";1;1;1;5;1;1;1;5
"ralph gibson biography";0;0;1;23;0;0;1;23
putov;0;0;2;4.5;0;0;2;4.5
mafiawars;0;0;1;110;0;0;1;110
chanoir;0;0;6;7.1666666666667;0;0;2;8;0;0;4;6.75
"jean claude deutsch";0;0;1;5;0;0;1;5
"haiying zhang";0;0;1;45;0;0;1;45
"bousquet artist";0;0;2;11.5;0;0;1;7;0;0;1;16
"sara sammakia";0;0;3;9.6666666666667;0;0;1;9;0;0;2;10
"dollar bill yo";0;0;1;31;0;0;1;31
bayet;0;0;1;47;0;0;1;47
"charpentier louise";0;0;1;430;0;0;1;430
pechane;0;0;1;8
astonishment;0;0;1;418;0;0;1;418
"david lachapelle photography";0;0;1;142;0;0;1;142
"batista art";0;0;1;10;0;0;1;10
watin;0;0;1;69;0;0;1;69
"jacque villegle";0;0;1;9;0;0;1;9
"castle galleries sale";0;0;1;13;0;0;1;13
ref102;0;0;1;55;0;0;1;55
"rose stapleton";0;0;2;10;0;0;2;10
nonsicle;0;0;3;8;0;0;1;9;0;0;2;7.5
liquidiv;0;0;1;44;0;0;1;44
+jock+sturges;0;0;1;107;0;0;1;107
mimi;0;0;1;434;0;0;1;434
"bagnolet paris";0;0;1;302;0;0;1;302
"cerulean discover card";0;0;1;126;0;0;1;126
"joachim monvoisin";0;0;1;5;0;0;1;5
"mark mawson";0;0;1;53;0;0;1;53
"david gerstein art";0;0;2;17;0;0;2;17
"alain clement";0;0;1;9;0;0;1;9
"adrian fernandez artist";0;0;1;7;0;0;1;7
"lyle & scott contemporary";0;0;1;321;0;0;1;321
"jordan boss damien michaels";0;0;1;25;0;0;1;25
"mel ramos art";0;0;2;25.5;0;0;2;25.5
"fredrik raddum";0;0;1;12;0;0;1;12
"linda blackstone";0;0;2;9;0;0;1;9;0;0;1;9
"michael aaron art";0;0;1;30;0;0;1;30
hdgallery;0;0;1;43;0;0;1;43
"people's everyday life";0;0;1;524;0;0;1;524
+nitsch+hermann;0;0;1;134;0;0;1;134
nyne;0;0;1;10;0;0;1;10
"bruno catalano buy";0;0;1;9;0;0;1;9
"mor charpentier";0;0;1;51;0;0;1;51
"hideka tonomura";0;0;20;7.15;0;0;19;7.2105263157895;0;0;1;6
"franco banco";0;0;2;3.5;0;0;2;3.5
"obey lotus";0;0;1;1;0;0;1;1
"chu teh chun";0;0;1;35;0;0;1;35
"home alone7";0;0;3;31.666666666667;0;0;1;45;0;0;2;25
"francois houtin";0;0;2;1;0;0;2;1
"lou ros";0;0;1;7;0;0;1;7
"bear galerie";0;0;1;5;0;0;1;5
dugave;0;0;2;45;0;0;2;45
"x art password";0;0;1;5;0;0;1;5
olukman;0;0;1;7;0;0;1;7
"senorita rio";0;0;1;30;0;0;1;30
"galerie roy sfeir";0;0;1;5;0;0;1;5
"la palette";0;0;1;187;0;0;1;187
guinio;0;0;2;9;0;0;2;9
"graham dolphin artist";0;0;2;8;0;0;2;8
"baudoin lebon";0;0;7;6.7142857142857;0;0;6;6.6666666666667;0;0;1;7
keymi;0;0;8;8.25;0;0;5;9;0;0;3;7
"whitespace gallery";0;0;1;48;0;0;1;48
"drop the mambo";0;0;1;5;0;0;1;5
"asgar/ gabriel";0;0;1;7;0;0;1;7
"sabine gaffron tattoo artist";0;0;1;40;0;0;1;40
"martine feipel & jean bechameil";0;0;1;66;0;0;1;66
bustor;0;0;2;12;0;0;1;14;0;0;1;10
"colour dust";0;0;1;215;0;0;1;215
"renk graffiti";0;0;2;9;0;0;2;9
"giulio parini";0;0;1;9;0;0;1;9
"sabyl ghoussoub";0;0;2;5;0;0;2;5
"thomas müller stuttgart";0;0;1;6;0;0;1;6
"max czertok";0;0;3;6.6666666666667;0;0;1;8;0;0;2;6
bodnariu;0;0;15;16.866666666667;0;0;10;15.4;0;0;3;17.666666666667;0;0;2;23
"contemporary art gallery";0;0;1;426;0;0;1;426
eillen;0;0;2;49;0;0;2;49
"no name gallery";0;0;1;9;0;0;1;9
"blanc et bleu";0;0;1;33;0;0;1;33
"bellas menu";0;0;1;405;0;0;1;405
"jacques renoir";0;0;2;9;0;0;1;9;0;0;1;9
"peter blake for sale";0;0;1;34;0;0;1;34
"saint cyr";0;0;1;184;0;0;1;184
"y gallerie";0;0;1;10;0;0;1;10
deprun;0;0;5;3.8;0;0;4;4;0;0;1;3
"margherita cesaretti";0;0;1;9;0;0;1;9
"nkechi ebubedike";0;0;1;1;0;0;1;1
"kenneth noland";0;0;1;79;0;0;1;79
jaunery;0;0;2;5.5;0;0;1;5;0;0;1;6
"kami artist";0;0;1;10;0;0;1;10
"johanna heeg";0;0;2;5;0;0;2;5
"annabelle artist";0;0;1;20;0;0;1;20
"modern gallery art fort lauderdale fl";0;0;6;444.16666666667;0;0;3;442.33333333333;0;0;3;446
"luger nazi";0;0;1;23;0;0;1;23
"wilfred lang";0;0;1;16;0;0;1;16
whitespace;0;0;1;7;0;0;1;7
"orlinski crocodile";0;0;1;1;0;0;1;1
"people's republic of korea";0;0;1;234;0;0;1;234
prenating;0;0;1;30;0;0;1;30
"yoel benharrouche";0;0;1;10;0;0;1;10
"jean georges inca";0;0;3;1.6666666666667;0;0;1;2
"victoria seres";0;0;1;34;0;0;1;34
"mist artist";0;0;1;2;0;0;1;2
"charlotte lelong";0;0;1;7;0;0;1;7
"hollis dunlap paintings";0;0;2;20;0;0;2;20
sorane;0;0;19;23.052631578947;0;0;9;24.444444444444;0;0;10;21.8
"max parisot";0;0;1;5;0;0;1;5
kokian;0;0;1;7;0;0;1;7
"biography of andy warhol";0;0;1;220;0;0;1;220
absolutart;0;0;1;43;0;0;1;43
"marie anne thieffry";0;0;7;3.8571428571429;0;0;7;3.8571428571429
"rue poissonniere";0;0;1;45;0;0;1;45
"seon kang wolter";0;0;1;7;0;0;1;7
"anya spielman";0;0;1;6;0;0;1;6
"regnier dominique";0;0;1;6;0;0;1;6
"bastardoz patrick";0;0;1;6;0;0;1;6
"l'homme aux valises";0;0;1;17;0;0;1;17
"carlos lopez";0;0;1;9;0;0;1;9
"oui fm";0;0;1;46;0;0;1;46
"miro svolik";0;0;2;7;0;0;2;7
"isabelle levistre";0;0;1;6;0;0;1;6
"takagi yuriko";0;0;1;20;0;0;1;20
"simon von barloewen";0;0;3;2;0;0;3;2
"one fine day";0;0;1;301;0;0;1;301
"huston ripley";0;0;1;11;0;0;1;11
"sumo helmut newton";0;0;1;44;0;0;1;44
"2012 contemporary";0;0;1;831;0;0;1;831
"yayoi kusama pumpkin price";0;0;1;27;0;0;1;27
"pierre & gilles";0;0;1;22;0;0;1;22
r-och3;0;0;1;9;0;0;1;9
"sculpture for sale";0;0;1;310;0;0;1;310
"gilles soudry";0;0;2;1;0;0;2;1
"cara delevingne artwork";0;0;1;1;0;0;1;1
"yasemin senel";0;0;7;10.428571428571;0;0;4;9;0;0;3;12.333333333333
"louis briane";0;0;1;3;0;0;1;3
"buonarroti david";0;0;1;215;0;0;1;215
"jo lynch artist information";0;0;3;8;0;0;3;8
chaperon;0;0;1;347;0;0;1;347
"brigitte bardot today";0;0;1;310;0;0;1;310
"history of serigraphy";0;0;1;504;0;0;1;504
"venise palazzo bembo";0;0;1;200;0;0;1;200
"joan artigas planas";0;0;1;1;0;0;1;1
"claire fahys";0;0;1;12;0;0;1;12
"plexiglass columns";0;0;1;331;0;0;1;331
denovellis;0;0;1;21;0;0;1;21
"guayasamin prints";0;0;2;26;0;0;2;26
"bronze sculptures";0;0;1;444;0;0;1;444
luodan;0;0;1;38;0;0;1;38
"audrey the artist french";0;0;1;8;0;0;1;8
"pascal jacquot";0;0;2;4.5;0;0;2;4.5
"malika mokadem";0;0;1;17;0;0;1;17
"guy boyer";0;0;2;10;0;0;2;10
"robert sgarra";0;0;1;1;0;0;1;1
"helmut middendorf";0;0;1;23;0;0;1;23
pcp;0;0;2;428.5;0;0;2;428.5
onemizer;0;0;2;8;0;0;2;8
"point to point painting";0;0;1;45;0;0;1;45
"ekkehard altenburger";0;0;1;14;0;0;1;14
"miami vice";0;0;1;193;0;0;1;193
carlotta;0;0;1;327;0;0;1;327
"annette messager";0;0;5;53;0;0;5;53
"claire trotignon";0;0;3;4;0;0;3;4
"les amants painting";0;0;1;31;0;0;1;31
"hanae sabir";0;0;1;2;0;0;1;2
"galerie oneiro";0;0;1;4;0;0;1;4
jadikan;0;0;1;10;0;0;1;10
"m chat";0;0;8;496.625;0;0;8;496.625
"by belie";0;0;2;7;0;0;2;7
"brooklyn decker";0;0;1;202;0;0;1;202
marruecos;0;0;2;25;0;0;2;25
"vrais rêves";0;0;3;43.666666666667;0;0;3;43.666666666667
"dino valls";0;0;1;32;0;0;1;32
olegdou;0;0;1;43;0;0;1;43
+hans+hartung;0;0;1;132;0;0;1;132
"zao wou ki";0;0;2;84;0;0;2;84
"kilmany jo";0;0;4;7;0;0;4;7
"nicole wendel";0;0;1;1;0;0;1;1
"dou art";0;0;1;24;0;0;1;24
"piccadilly circus";0;0;1;178;0;0;1;178
"hotel du dragon paris";0;0;1;183;0;0;1;183
"i contemporary";0;0;1;891;0;0;1;891
"marc petit";0;0;1;52;0;0;1;52
"kerry eggleton";0;0;3;2.3333333333333;0;0;3;2.3333333333333
"shaka artist";0;0;3;9.6666666666667;0;0;2;10;0;0;1;9
"colette levine";0;0;1;6;0;0;1;6
cécilia;0;0;1;115;0;0;1;115
"people with warm hands";0;0;1;507;0;0;1;507
"hans christian schink";0;0;1;65;0;0;1;65
ideelart;0;0;2;2;0;0;2;2
"anna marrow";0;0;8;18.5;0;0;8;18.5
"park ryu sook gallery";0;0;2;49;0;0;2;49
"ernest pignon ernest";0;0;9;9.6666666666667;0;0;6;9.6666666666667;0;0;3;9.6666666666667
"saint giles londres";0;0;1;151;0;0;1;151
"philippe hiquily";0;0;1;15;0;0;1;15
"sun mi ahn";0;0;1;4;0;0;1;4
"yona friedman";0;0;1;61;0;0;1;61
"garrett pruter";0;0;2;21.5;0;0;2;21.5
"enrique morte";0;0;1;18;0;0;1;18
"frédéric prat";0;0;1;7;0;0;1;7
"kristina kostadinova";0;0;1;6;0;0;1;6
"keith haring crack down";0;0;9;2.4444444444444;0;0;7;2.2857142857143;0;0;2;3
"history of vanitas";0;0;1;409;0;0;1;409
"anri sala";0;0;1;95;0;0;1;95
"lola cola";0;0;27;5.8518518518519;0;0;22;6.9545454545455;0;0;4;1;0;0;1;1
"galerie duret";0;0;3;7.6666666666667;0;0;3;7.6666666666667
cornillet;0;0;1;10;0;0;1;10
"brisson painting";0;0;1;16;0;0;1;16
"l contemporary";0;0;1;887;0;0;1;887
"nick walker moona lisa";0;0;1;39;0;0;1;39
shup;0;0;1;44;0;0;1;44
"peter blake art for sale";0;0;1;29;0;0;1;29
"arnaud rabier";0;0;1;40;0;0;1;40
"ysl loader";0;0;1;10;0;0;1;10
"blad gave";0;0;1;340;0;0;1;340
"philippe doh";0;0;1;313;0;0;1;313
mitz.at;0;0;2;23;0;0;2;23
"jesper just";0;0;1;96;0;0;1;96
kijno;0;0;4;8;0;0;3;8;0;0;1;8
"art paris";0;0;1;165;0;0;1;165
"australian aboriginal art for sale";0;0;1;36;0;0;1;36
"antoni clavé";0;0;2;81;0;0;2;81
"francois morellet paintings";0;0;1;6;0;0;1;6
"guy denning painting";0;0;3;5.3333333333333;0;0;3;5.3333333333333
"x natation";0;0;2;245;0;0;2;245
"jerome mesnager";0;0;2;5;0;0;2;5
"jan davidz de heen";0;0;1;2;0;0;1;2
"berlin gardens poly furniture buffalo ny";0;0;1;90;0;0;1;90
"i natation";0;0;2;588.5;0;0;2;588.5
"jpg4 nude";0;0;1;29;0;0;1;29
"galerie artima";0;0;1;41;0;0;1;41
"box matisse";0;0;1;3;0;0;1;3
"claude closky";0;0;1;22;0;0;1;22
"jean helion";0;0;3;25.333333333333;0;0;3;25.333333333333
"james mackeown";0;0;3;3;0;0;3;3
incantation;0;0;1;321;0;0;1;321
"olivier widmaier picasso";0;0;2;8.5;0;0;1;9;0;0;1;8
"jacqueline roberts";0;0;1;19;0;0;1;19
"x contemporary";0;0;4;764
"claude champy";0;0;1;7;0;0;1;7
"shiori amano";0;0;1;4;0;0;1;4
"hervé di rosa";0;0;2;5;0;0;2;5
"paris artist";0;0;1;47;0;0;1;47
"gregoire dalle";0;0;2;2;0;0;2;2
"fluxus box";0;0;1;20;0;0;1;20
mrjago;0;0;3;40;0;0;3;40
"armando rearte";0;0;1;46;0;0;1;46
"jörg döring price";0;0;2;3.5;0;0;1;4
posticles;0;0;2;8;0;0;2;8
"paysage fantastique";0;0;1;27;0;0;1;27
pelmont;0;0;1;20;0;0;1;20
"when was georges braque born";0;0;1;48;0;0;1;48
bertelli;0;0;1;186;0;0;1;186
"antoine correia";0;0;1;5;0;0;1;5
ьшкщ;0;0;1;7
"victori contemporary";0;0;1;81;0;0;1;81
"emma levine";0;0;1;24;0;0;1;24
"aris messinis photography";0;0;2;8.5;0;0;2;8.5
barbier;0;0;1;324;0;0;1;324
"lora black";0;0;1;112;0;0;1;112
"frank horvat";0;0;2;38;0;0;2;38
"basquiat paintings for sale";0;0;1;27;0;0;1;27
"galerie depardieu";0;0;1;7;0;0;1;7
derrier;0;0;1;39;0;0;1;39
"absolut art";0;0;1;48;0;0;1;48
"d pierre";0;0;1;679;0;0;1;679
"sgarra robert";0;0;1;2;0;0;1;2
"kilian glasner";0;0;2;8;0;0;2;8
"caroline cossey";0;0;1;347;0;0;1;347
"vincent peters";0;0;1;44;0;0;1;44
ruff;0;0;1;255;0;0;1;255
"bambi puerto de la cruz";0;0;1;189;0;0;1;189
"liberty gallery";0;0;1;10;0;0;1;10
"nicolas touron";0;0;2;16;0;0;2;16
"ando haruka";0;0;3;8;0;0;3;8
"ivan alifan";0;0;1;16;0;0;1;16
"markus indrani";0;0;1;31;0;0;1;31
"jean pierre nadau";0;0;1;2;0;0;1;2
"pierre david";0;0;2;20;0;0;2;20
http://www.basementizid.com/;0;0;2;167;0;0;2;167
"philippe pasqua";0;0;3;11.666666666667;0;0;2;14;0;0;1;7
chauchet;0;0;3;10;0;0;3;10
tardif;0;0;1;195;0;0;1;195
gastineau;0;0;1;214;0;0;1;214
"principia college";0;0;1;190;0;0;1;190
"marie maertens";0;0;1;8;0;0;1;8
"banksy silver flag";0;0;1;10;0;0;1;10
"david harber";0;0;3;15.666666666667;0;0;3;15.666666666667
"z contemporary";0;0;2;876.5;0;0;2;876.5
"mr big";0;0;1;229;0;0;1;229
"depuis si longtemps";0;0;1;13;0;0;1;13
"yasemin şenel";0;0;1;20;0;0;1;20
"christian silvain";0;0;1;10;0;0;1;10
"alvaro petritoli";0;0;1;8;0;0;1;8
"combas art";0;0;1;6;0;0;1;6
"dominique mulhem";0;0;1;7;0;0;1;7
"mohamed lekleti";0;0;1;9;0;0;1;9
"matthew feyld";0;0;1;19;0;0;1;19
"françoise pétrovitch";0;0;1;9;0;0;1;9
"pink phanter";0;0;1;8;0;0;1;8
kyliss;0;0;1;1;0;0;1;1
bauermeister;0;0;1;149;0;0;1;149
"kiddy citny";0;0;2;11;0;0;2;11
"fabrizio corneli";0;0;3;6.6666666666667;0;0;2;6.5;0;0;1;7
"benedicte serre";0;0;1;211;0;0;1;211
"wolfgang krell";0;0;2;11.5;0;0;2;11.5
graphem;0;0;1;9;0;0;1;9
"rūta jusionytė";0;0;1;9;0;0;1;9
"reinhard paper sculpture";0;0;1;25;0;0;1;25
"bette davis";0;0;1;323;0;0;1;323
dubailand;0;0;3;188;0;0;1;186;0;0;1;190;0;0;1;188
"tobias putrih";0;0;1;49;0;0;1;49
"henrietta dubrey";0;0;2;11.5;0;0;2;11.5
"masha shubina";0;0;1;4;0;0;1;4
"claude mollard";0;0;4;5.25;0;0;1;5;0;0;1;6;0;0;2;5
"gyula sagi";0;0;1;6;0;0;1;6
"cedric bacqueville";0;0;1;4;0;0;1;4
"k contemporary";0;0;1;429;0;0;1;429
"burano italy";0;0;1;221;0;0;1;221
stoul;0;0;6;4.1666666666667;0;0;5;4;0;0;1;5
"art tune";0;0;1;11;0;0;1;11
"griffin londres";0;0;1;94;0;0;1;94
beillet;0;0;1;1;0;0;1;1
righo;0;0;1;10;0;0;1;10
"moretti raymond";0;0;1;17;0;0;1;17
"fabre australia";0;0;1;342;0;0;1;342
"elizabeth gourlay";0;0;1;21;0;0;1;21
"bambi art";0;0;1;2;0;0;1;2
arc2;0;0;1;239;0;0;1;239
"brokeback mountain";0;0;3;190.66666666667;0;0;2;197;0;0;1;178
dalmasso;0;0;1;43;0;0;1;43
hyber;0;0;1;32;0;0;1;32
"creepy art for sale";0;0;4;7;0;0;4;7
"raymond hains";0;0;13;7.2307692307692;0;0;12;7.1666666666667;0;0;1;8
"death in art";0;0;1;17;0;0;1;17
"pierre alex";0;0;2;5;0;0;2;5
schmite;0;0;1;10;0;0;1;10
"francisco sepulveda";0;0;1;9;0;0;1;9
"lie wei";0;0;1;11;0;0;1;11
"jaja mode";0;0;5;9.2;0;0;1;10;0;0;4;9
"allegro for sale";0;0;1;161;0;0;1;161
"abstract stone sculptures";0;0;1;197;0;0;1;197
"francine van hove art";0;0;1;5;0;0;1;5
"shane couch";0;0;1;18;0;0;1;18
bouguereau;0;0;1;228;0;0;1;228
"norwegian contemporary artists";0;0;1;33;0;0;1;33
"peter wüthrich";0;0;1;18;0;0;1;18
"sandra poulet";0;0;1;346;0;0;1;346
"basquiat public image";0;0;1;2;0;0;1;2
"arbre de la paix";0;0;1;12;0;0;1;12
"jock sturges";0;0;2;86.5;0;0;2;86.5
lortiwa;0;0;1;10;0;0;1;10
"philippe hérard";0;0;1;10;0;0;1;10
"art for sale";0;0;1;306;0;0;1;306
"newton sumo";0;0;1;47;0;0;1;47
"taki 183";0;0;2;44;0;0;2;44
"galerie brugier";0;0;1;7;0;0;1;7
"alva bernadine";0;0;8;5;0;0;7;5.2857142857143;0;0;1;3
"vincent fillon";0;0;2;2;0;0;2;2
"żan milo";0;0;2;9.5;0;0;1;9;0;0;1;10
"pas de bras, pas de chocolat";0;0;1;37;0;0;1;37
"denis rouvre";0;0;1;44;0;0;1;44
"yvonne cheng";0;0;1;313;0;0;1;313
"lindsay garreau";0;0;2;1;0;0;2;1
"cello for sale";0;0;2;238.5;0;0;2;238.5
"lu quet";0;0;1;44;0;0;1;44
"lori field";0;0;1;30;0;0;1;30
"benoit trimborn artist";0;0;1;6;0;0;1;6
"banksy krakow";0;0;1;9;0;0;1;9
"phare du minou";0;0;1;37;0;0;1;37
"david ratcliff";0;0;2;31.5;0;0;2;31.5
"oan kim";0;0;1;10;0;0;1;10
"ewan david eason";0;0;2;10;0;0;2;10
"en regard de";0;0;1;15;0;0;1;15
"karl lagasse";0;0;3;3.3333333333333;0;0;2;3;0;0;1;4
"mel ramos vintage peekaboo";0;0;1;44;0;0;1;44
"jacques pellegrin";0;0;2;5.5;0;0;1;5;0;0;1;6
paradisebird;0;0;1;5;0;0;1;5
"vincent richeux";0;0;1;9;0;0;1;9
"jon one artist";0;0;1;9;0;0;1;9
"crash graffiti artist";0;0;1;9;0;0;1;9
"kafka artwork";0;0;2;26;0;0;2;26
"ryan hewitt artist";0;0;1;26;0;0;1;26
"galerie capazza";0;0;1;8;0;0;1;8
"janet lynch artist";0;0;1;7;0;0;1;7
"vusi kunene";0;0;1;38;0;0;1;38
"anne-catherine becker-echivard";0;0;1;16;0;0;1;16
"marc asnin";0;0;1;49;0;0;1;49
"raymond moretti";0;0;1;12;0;0;1;12
"bombardieri stefano";0;0;1;38;0;0;1;38
"karl martens artist";0;0;1;34;0;0;1;34
"pauline tonglet";0;0;1;8;0;0;1;8
"galerie fluegel-roncak";0;0;1;15;0;0;1;15
"jerome lagarrigue";0;0;2;10.5;0;0;2;10.5
"jieun park";0;0;1;32;0;0;1;32
"peter downsbrough";0;0;1;76;0;0;1;76
"desserle cecile";0;0;4;6.75;0;0;4;6.75
"pink panther";0;0;1;155;0;0;1;155
"olivier debré";0;0;1;43;0;0;1;43
"chez tony toulouse";0;0;1;171;0;0;1;171
cammal;0;0;8;10.625;0;0;7;9.5714285714286;0;0;1;18
"famous fire painting";0;0;1;403;0;0;1;403
"hawkbill turtle";0;0;1;332;0;0;1;332
"luis gordillo";0;0;1;58;0;0;1;58
"liquid iv";0;0;1;67;0;0;1;67
"vanity of vanities";0;0;1;17;0;0;1;17
"nicolette jelen";0;0;1;10;0;0;1;10
plusch;0;0;1;8;0;0;1;8
"heiner meyer";0;0;3;9.6666666666667;0;0;3;9.6666666666667
"sean cheetham";0;0;2;33.5;0;0;2;33.5
ascaso;0;0;1;235;0;0;1;235
sopho;0;0;1;90;0;0;1;90
"mel ramos";0;0;120;8.2916666666667;0;0;93;10.376344086022;0;0;15;1.2;0;0;12;1
"ava gardner";0;0;1;247;0;0;1;247
"valérie hadida";0;0;1;4;0;0;1;4
"shirley jaffe";0;0;1;16;0;0;1;16
"césar baldaccini";0;0;1;9;0;0;1;9
"si longtemps";0;0;1;50;0;0;1;50
"eva jospin artist";0;0;1;6;0;0;1;6
"huang yan";0;0;1;89;0;0;1;89
"le glacier";0;0;1;166;0;0;1;166
"leonardo ulian";0;0;1;31;0;0;1;31
nirons;0;0;1;43;0;0;1;43
"kongo artist";0;0;2;7;0;0;2;7
"la soubrette";0;0;1;28;0;0;1;28
"jeanne lorioz gallery";0;0;1;8;0;0;1;8
"raymond voinquel photography";0;0;1;10;0;0;1;10
"pete doherty paintings";0;0;1;21;0;0;1;21
"rafael canogar";0;0;2;44.5;0;0;2;44.5
r-o-ch3;0;0;1;4;0;0;1;4
"anne decup";0;0;1;3;0;0;1;3
"lucie bennett";0;0;1;17;0;0;1;17
"el grito 2";0;0;2;30;0;0;2;30
"denis fompeyrine";0;0;1;73;0;0;1;73
corcia;0;0;1;43;0;0;1;43
"john kacere";0;0;6;28;0;0;6;28
agnis;0;0;1;202;0;0;1;202
"victor vasarely for sale";0;0;1;26;0;0;1;26
"miguel ortiz berrocal";0;0;1;49;0;0;1;49
"lavi carlotte";0;0;1;9;0;0;1;9
"keith tyson";0;0;1;78;0;0;1;78
"avallon france";0;0;1;135;0;0;1;135
"contemporary portrait photography";0;0;1;403;0;0;1;403
"jacques de la villegle";0;0;1;6;0;0;1;6
"jonone street art";0;0;2;11.5;0;0;2;11.5
"le cerf";0;0;1;164;0;0;1;164
"mats bäcker";0;0;1;62;0;0;1;62
"jonvelle: the 100 best photographs";0;0;1;1;0;0;1;1
"roland topor";0;0;1;48;0;0;1;48
"michel four";0;0;1;5;0;0;1;5
laocoon;0;0;2;307.5;0;0;2;307.5
"léo caillard";0;0;1;28;0;0;1;28
"enki bilal";0;0;1;8;0;0;1;8
"denis darzacq";0;0;1;56;0;0;1;56
"sarah hinckley";0;0;1;30;0;0;1;30
"alex guofeng cao";0;0;1;13;0;0;1;13
"ben goossens artwork";0;0;1;12;0;0;1;12
namasta;0;0;1;34;0;0;1;34
natanaël;0;0;1;8;0;0;1;8
"markowicz fine art";0;0;2;46;0;0;2;46
"caroline poulet";0;0;2;2.5;0;0;2;2.5
"amandine levy";0;0;1;1;0;0;1;1
"jean marie marion mannequin";0;0;2;7;0;0;1;7;0;0;1;7
mrsex;0;0;1;49;0;0;1;49
"rudolf hausner";0;0;3;20.666666666667;0;0;3;20.666666666667
"benoit lemercier";0;0;1;10;0;0;1;10
"eckart hahn";0;0;1;15;0;0;1;15
"jan pruski";0;0;1;1;0;0;1;1
"david gerstein art for sale";0;0;1;19;0;0;1;19
bwana;0;0;1;244;0;0;1;244
"michel le belhomme";0;0;2;9;0;0;2;9
camen;0;0;1;50;0;0;1;50
*#0011;0;0;2;5.5;0;0;2;5.5
"rob van hoek art";0;0;1;5;0;0;1;5
excroissance;0;0;1;38;0;0;1;38
"henri matisse";0;0;3;188.33333333333;0;0;2;188.5;0;0;1;188
"jean pierre attal";0;0;5;1;0;0;1;1;0;0;4;1
verdier;0;0;1;243;0;0;1;243
"ligne de vie serie";0;0;1;40;0;0;1;40
burel;0;0;1;148;0;0;1;148
"isabelle bonzom";0;0;3;5.6666666666667;0;0;2;6.5;0;0;1;4
"goanna dreaming";0;0;1;32;0;0;1;32
"franck mercky";0;0;1;2;0;0;1;2
yutao;0;0;3;5.6666666666667;0;0;1;5;0;0;2;6
"eric herrmann artist";0;0;1;5;0;0;1;5
"elisabeth lecourt";0;0;1;13;0;0;1;13
"willy ronis le petit parisien";0;0;3;1;0;0;2;1;0;0;1;1
"ahmad najad";0;0;1;9;0;0;1;9
boero;0;0;1;135;0;0;1;135
"guy de rougemont";0;0;4;9.75;0;0;3;9.6666666666667;0;0;1;10
"kenzo sale";0;0;1;136;0;0;1;136
vevais;0;0;3;39;0;0;3;39
"angel ortiz";0;0;1;20;0;0;1;20
"arno elias prints";0;0;1;1;0;0;1;1
"greg leon guillemin";0;0;2;9.5;0;0;2;9.5
"kenny hunter";0;0;1;44;0;0;1;44
"anna bocek prices";0;0;1;8;0;0;1;8
"blue night";0;0;1;195;0;0;1;195
"wilfred lang prints";0;0;1;13;0;0;1;13
"polly ngale aboriginal art";0;0;3;55.333333333333;0;0;2;55;0;0;1;56
"ryan cabrera nude";0;0;1;211;0;0;1;211
"mixed media mandala";0;0;1;79;0;0;1;79
"jacques lacroix";0;0;2;13;0;0;1;9;0;0;1;17
"carles valverde";0;0;2;2;0;0;2;2
"louis blanc";0;0;2;94;0;0;2;94
"helmut newton sumo book";0;0;1;33;0;0;1;33
"bram bogart";0;0;1;10;0;0;1;10
"la tour eiffel";0;0;1;174;0;0;1;174
"maison dauphine";0;0;2;10;0;0;2;10
mpah;0;0;2;29;0;0;2;29
"envie d'art";0;0;2;8;0;0;1;7;0;0;1;9
"oleg dou";0;0;2;23.5;0;0;2;23.5
"elsa guillaume";0;0;5;2;0;0;5;2
flotants;0;0;1;6;0;0;1;6
"history of the photograph";0;0;1;329;0;0;1;329
saudek;0;0;3;53;0;0;3;53
"nils udo biography";0;0;1;4;0;0;1;4
"nudes lolita";0;0;2;100;0;0;2;100
"juha arvid helminen";0;0;1;27;0;0;1;27
"shane couch paintings for sale";0;0;1;15;0;0;1;15
"jonone artist";0;0;5;9.4;0;0;4;10.25;0;0;1;6
"eva hober";0;0;1;63;0;0;1;63
"adrian buba";0;0;1;3;0;0;1;3
bernabe;0;0;1;223;0;0;1;223
"isabel espinoza";0;0;3;5.6666666666667;0;0;2;4.5
juliendurix;0;0;1;2;0;0;1;2
"jonas “sun7” bournat";0;0;1;2;0;0;1;2
"dganit blechner";0;0;1;10;0;0;1;10
artsper;0;0;24;1;0;0;22;1;0;0;1;1;0;0;1;1
"serge roux";0;0;1;25;0;0;1;25
"philippe vasseur artist";0;0;2;1.5;0;0;2;1.5
"t contemporary";0;0;1;837;0;0;1;837
"je suis retourne";0;0;1;20;0;0;1;20
"philippe mougin";0;0;1;23;0;0;1;23
"gérard schlosser";0;0;3;9.3333333333333;0;0;3;9.3333333333333
heartgalerie;0;0;1;5;0;0;1;5
"peter klasen";0;0;6;14.333333333333;0;0;4;18.5;0;0;2;6
"signe astral";0;0;1;23;0;0;1;23
ostinato;0;0;1;309;0;0;1;309
"hiro ando";0;0;3;7.6666666666667;0;0;2;8;0;0;1;7
"fabio coruzzi";0;0;1;8;0;0;1;8
"peter wuthrich";0;0;1;8
"gottfried salzmann";0;0;5;6.8;0;0;5;6.8
"moi image";0;0;1;9;0;0;1;9
"bamby art";0;0;1;3;0;0;1;3
zakii;0;0;1;32;0;0;1;32
"mel gibson art";0;0;1;414;0;0;1;414
"art nue";0;0;1;6;0;0;1;6
"hilger modern / contemporary";0;0;1;74;0;0;1;74
"braque georges";0;0;1;146;0;0;1;146
"alinka echeverria";0;0;1;28;0;0;1;28
"woodcuts of women";0;0;1;114
"duy nhan";0;0;1;96;0;0;1;96
"petros chrisostomou";0;0;4;10.25;0;0;3;10.333333333333;0;0;1;10
"yayoi kusama pumpkin";0;0;1;52;0;0;1;52
"alain sutter";0;0;1;317;0;0;1;317
warlukurlangu;0;0;1;35;0;0;1;35
"givenchy hat";0;0;2;42;0;0;2;42
"quartier latin";0;0;1;220;0;0;1;220
"kai schäfer";0;0;1;27;0;0;1;27
"ripolles artist";0;0;1;35;0;0;1;35
"sunny ives";0;0;1;174;0;0;1;174
"petit bonhomme blanc";0;0;1;9;0;0;1;9
"ama benjamin";0;0;3;9;0;0;2;8.5;0;0;1;10
"thierry pelletier";0;0;3;8.6666666666667;0;0;3;8.6666666666667
"herve di rosa";0;0;2;8;0;0;1;5;0;0;1;11
"hotel fashion busan";0;0;1;178;0;0;1;178
"large format painting";0;0;1;10;0;0;1;10
"chen yidan";0;0;2;3
"vernon trent";0;0;1;39;0;0;1;39
"nasty artist";0;0;2;5;0;0;2;5
"les dunes";0;0;1;160;0;0;1;160
pookky;0;0;1;9;0;0;1;9
"gael charbeau";0;0;1;18;0;0;1;18
"to be or not to be painting";0;0;1;9;0;0;1;9
"nature morte vivante";0;0;1;20;0;0;1;20
attendais;0;0;1;247;0;0;1;247
"cecile durand";0;0;1;9;0;0;1;9
"georges braque";0;0;1;180;0;0;1;180
"gwenael billaud";0;0;1;3;0;0;1;3
"richard melloul";0;0;1;10;0;0;1;10
awena;0;0;4;33;0;0;4;33
"geert lemmers";0;0;1;3;0;0;1;3
"jonone art";0;0;2;10.5;0;0;2;10.5
"raymond moretti artist";0;0;1;9;0;0;1;9
"johanne 8 instagram";0;0;4;1;0;0;4;1
sezam;0;0;1;52;0;0;1;52
"g w bot australian artist";0;0;1;20;0;0;1;20
"puzzle pulp fiction";0;0;1;1
"bill blast";0;0;1;10;0;0;1;10
"rafael gomezbarros";0;0;1;20;0;0;1;20
"charro skull";0;0;2;7;0;0;2;7
"valérie vaubourg";0;0;1;2;0;0;1;2
begarat;0;0;4;4.75;0;0;1;4;0;0;3;5
"flexo zed";0;0;2;3;0;0;2;3
"galerie w";0;0;1;6;0;0;1;6
"inception gallery";0;0;2;6.5;0;0;2;6.5
"françois morellet";0;0;2;28.5;0;0;2;28.5
"thomas muller artist";0;0;2;5;0;0;1;5;0;0;1;5
bartoli;0;0;1;224;0;0;1;224
"peter keizer";0;0;2;7;0;0;2;7
acanthephippium;0;0;2;29;0;0;2;29
"alain clément";0;0;1;5;0;0;1;5
"francois bard";0;0;16;7.4375;0;0;8;7;0;0;5;7.8;0;0;3;8
guydenning;0;0;2;10;0;0;2;10
"dani olivier";0;0;3;10.666666666667;0;0;3;10.666666666667
"apple or";0;0;1;5;0;0;1;5
"von hornsleth";0;0;1;11;0;0;1;11
"sarah staton";0;0;1;29;0;0;1;29
"gianni colosimo";0;0;1;11;0;0;1;11
"bogena galerie";0;0;1;95;0;0;1;95
"alexey klimov";0;0;1;7;0;0;1;7
"erin cone";0;0;2;9;0;0;1;9;0;0;1;9
"mel ramos coco";0;0;2;1;0;0;2;1
"portrait of gerti schiele";0;0;1;21;0;0;1;21
"martin kudlek";0;0;1;48;0;0;1;48
artiane;0;0;4;7.5;0;0;3;7.3333333333333;0;0;1;8
"by nieves";0;0;1;37;0;0;1;37
"art jingle";0;0;1;9;0;0;1;9
"aslan pin up";0;0;1;39;0;0;1;39
"sabine jeannot";0;0;1;7;0;0;1;7
"michelle jankowski";0;0;1;413;0;0;1;413
"busan korea";0;0;1;406;0;0;1;406
"jon one";0;0;1;7;0;0;1;7
belgrand;0;0;1;65;0;0;1;65
"julia mangold";0;0;1;8;0;0;1;8
"kristian von hornsleth galleri";0;0;1;6;0;0;1;6
"fernando garcía ponce";0;0;1;11;0;0;1;11
"pierre francois grimaldi";0;0;7;2.4285714285714;0;0;5;3;0;0;2;1
"lord anthony cahn";0;0;1;7;0;0;1;7
"laurent roux";0;0;1;9;0;0;1;9
"laurence dreyfus";0;0;1;28;0;0;1;28
"lachute weather";0;0;1;222;0;0;1;222
"bianca amor winnipeg";0;0;1;143;0;0;1;143
"bagno vignoni";0;0;1;328;0;0;1;328
"roy lichtenstein girl with ball";0;0;2;35.5;0;0;2;35.5
"sharon drew artist";0;0;1;7;0;0;1;7
"valerie le merrer";0;0;1;1;0;0;1;1
"john crash";0;0;1;7;0;0;1;7
"yoel benharrouche for sale";0;0;1;8;0;0;1;8
"barbara stanley";0;0;1;29;0;0;1;29
"marc josse";0;0;1;15;0;0;1;15
"saudek art";0;0;1;32;0;0;1;32
ajee;0;0;1;50;0;0;1;50
"vogtland arena";0;0;1;48;0;0;1;48
"paul carey kent";0;0;1;6;0;0;1;6
"victoria klotz";0;0;1;2;0;0;1;2
"elwin buchel";0;0;1;13;0;0;1;13
"jeff koons red balloon dog plate";0;0;1;2;0;0;1;2
"isabella dan";0;0;1;3;0;0;1;3
"sculpture deesse";0;0;1;4;0;0;1;4
desperator;0;0;2;13.5;0;0;2;13.5
"philippe huart";0;0;8;9;0;0;8;9
"botticelli artwork";0;0;1;107;0;0;1;107
"thierry dussac";0;0;1;1;0;0;1;1
"ronald dupont artist";0;0;1;2;0;0;1;2
"edouard buzon";0;0;1;3;0;0;1;3
"the grand hotel daegu";0;0;1;177;0;0;1;177
"hierarchy culture";0;0;1;429;0;0;1;429
"zhang wei art";0;0;1;11;0;0;1;11
"4 propagation";0;0;1;748;0;0;1;748
"jm robert art";0;0;1;4;0;0;1;4
"nain porte quoi";0;0;1;17;0;0;1;17
"zeus artwork";0;0;1;50;0;0;1;50
"bernard chauchet contemporary art";0;0;2;5.5;0;0;2;5.5
"sam phillips match 3";0;0;1;4;0;0;1;4
"buffalo hunt";0;0;1;331;0;0;1;331
"cecile colombo";0;0;2;5;0;0;2;5
"people's democratic republic of korea";0;0;1;225;0;0;1;225
"martine antoine";0;0;1;22;0;0;1;22
"braque paintings";0;0;1;133;0;0;1;133
"john matos crash";0;0;3;6;0;0;1;6;0;0;2;6
femmejambes;0;0;2;12;0;0;2;12
miss-tic;0;0;1;8;0;0;1;8
"simon liddiment";0;0;2;5.5;0;0;1;4;0;0;1;7
"carole laure";0;0;1;332;0;0;1;332
"clara poupel";0;0;1;2;0;0;1;2
grisor;0;0;1;8;0;0;1;8
"favela carioca";0;0;1;36;0;0;1;36
"art works";0;0;1;321;0;0;1;321
"carlos tite";0;0;1;3;0;0;1;3
"jimmy lawlor art sale";0;0;2;9;0;0;2;9
"fernando garcia ponce";0;0;1;10;0;0;1;10
"kenza blog";0;0;1;54;0;0;1;54
"stephane jacob";0;0;2;9;0;0;1;10;0;0;1;8
"hollis dunlap";0;0;1;49;0;0;1;49
"galerie leadouze";0;0;1;2;0;0;1;2
"étienne gros";0;0;1;7;0;0;1;7
fkdl;0;0;1;10;0;0;1;10
glineur;0;0;1;8;0;0;1;8
"marko veselinovic";0;0;2;8;0;0;2;8
"pete doherty biography";0;0;1;27;0;0;1;27
"silver birch artwork";0;0;1;31;0;0;1;31
"eva maude tardif champoux";0;0;1;7;0;0;1;7
"florence d'elle";0;0;7;7.4285714285714;0;0;5;7.6;0;0;2;7
trovic;0;0;1;10;0;0;1;10
"rx gallery";0;0;1;11;0;0;1;11
"keith haring montreux jazz festival 1983";0;0;3;1;0;0;3;1
"maxime ansiau";0;0;1;11;0;0;1;11
"horde artwork";0;0;1;8;0;0;1;8
"sans titre paint";0;0;1;9;0;0;1;9
"philippe parreno";0;0;1;76;0;0;1;76
"bubble shooter";0;0;2;175.5;0;0;1;176;0;0;1;175
"le carre beauchene sainte maxime";0;0;1;192;0;0;1;192
cedki;0;0;1;2;0;0;1;2
fullmäne;0;0;1;4;0;0;1;4
"sabine danzé";0;0;1;3;0;0;1;3
"renaud delorme";0;0;2;3.5;0;0;1;6;0;0;1;1
"history of plexiglass";0;0;1;548;0;0;1;548
"la cascade";0;0;1;197;0;0;1;197
"adam binder";0;0;1;45;0;0;1;45
"gerard schlosser";0;0;2;11.5;0;0;2;11.5
"painting in bronx";0;0;1;308;0;0;1;308
"vito hannibal acconci";0;0;1;69;0;0;1;69
"buba france";0;0;5;9;0;0;4;9;0;0;1;9
"jean gabriel";0;0;1;155;0;0;1;155
jonone;0;0;16;8.125;0;0;13;7.6923076923077;0;0;3;10
"richard hudson sculptor";0;0;1;8;0;0;1;8
cony;0;0;1;173;0;0;1;173
"alain godon";0;0;1;11;0;0;1;11
takala;0;0;2;4.5;0;0;1;5;0;0;1;4
"markus and koala";0;0;1;3;0;0;1;3
cicolani;0;0;1;35;0;0;1;35
"the bez";0;0;1;338;0;0;1;338
"chantal guillon";0;0;1;311;0;0;1;311
"patrick dumas";0;0;1;23;0;0;1;23
"luke newton artist";0;0;1;9;0;0;1;9
"alain clement artist";0;0;2;6;0;0;2;6
"gz store";0;0;3;5;0;0;1;5;0;0;2;5
"yan pei-ming";0;0;2;48;0;0;2;48
"jean-francois rauzier";0;0;1;25;0;0;1;25
"plaster sculptures for sale";0;0;1;38;0;0;1;38
"aris messinis";0;0;6;9.6666666666667;0;0;5;9.8;0;0;1;9
"andré lanskoy";0;0;1;42;0;0;1;42
"port autonome de marseille";0;0;1;20;0;0;1;20
"paul e nina";0;0;1;22;0;0;1;22
"unique gallery dubai";0;0;2;8.5;0;0;1;8;0;0;1;9
"matthew attard";0;0;1;10;0;0;1;10
"alex maclean";0;0;1;92;0;0;1;92
"top 10 graphic designers";0;0;2;413.5;0;0;2;413.5
"gabriel paris";0;0;1;21;0;0;1;21
"laurent troude";0;0;1;7;0;0;1;7
bicolore;0;0;1;222;0;0;1;222
"roger schall";0;0;1;1;0;0;1;1
"fred calmets";0;0;1;4;0;0;1;4
"hedva ser";0;0;3;5.3333333333333;0;0;2;7.5;0;0;1;1
"history of timur";0;0;1;422;0;0;1;422
"helmut middendorf artist";0;0;1;15;0;0;1;15
"bassetti france";0;0;1;20;0;0;1;20
"david caroll";0;0;1;407;0;0;1;407
"jacques mahé de la villeglé";0;0;2;8.5;0;0;1;8;0;0;1;9
"fela kuti artwork";0;0;1;10;0;0;1;10
"e gallery french";0;0;1;7;0;0;1;7
"jean michel berts";0;0;1;22;0;0;1;22
"polly ngale paintings";0;0;3;37.333333333333;0;0;2;37;0;0;1;38
"le grand palais biarritz";0;0;1;192;0;0;1;192
"guillaume piens";0;0;1;5;0;0;1;5
"haruka ando";0;0;2;38;0;0;2;38
"tom wesselmann";0;0;13;29.230769230769;0;0;13;29.230769230769
"decoration design";0;0;1;339;0;0;1;339
"du zhenjun";0;0;1;25;0;0;1;25
"bozena bosko";0;0;1;40;0;0;1;40
"cesar sculptor";0;0;1;10;0;0;1;10
"mr jago art for sale";0;0;1;16;0;0;1;16
"jm robert";0;0;1;7;0;0;1;7
"grand soleil";0;0;1;221;0;0;1;221
"ivan plusch";0;0;2;5;0;0;1;5;0;0;1;5
"richard avedon album";0;0;1;37;0;0;1;37
"david mesguich";0;0;1;15;0;0;1;15
"gloria petyarre for sale";0;0;3;68.333333333333;0;0;2;68;0;0;1;69
"x mythology";0;0;1;648;0;0;1;648
"kate moss artwork";0;0;1;40;0;0;1;40
roy;0;0;2;1;0;0;2;1
"kha ly";0;0;1;167;0;0;1;167
"lourdes da silva";0;0;1;24;0;0;1;24
"marcelli france";0;0;1;5;0;0;1;5
80415;0;0;1;45;0;0;1;45
"luzia simons";0;0;1;33;0;0;1;33
"alistair taylor young photography";0;0;1;29;0;0;1;29
"loulou picasso";0;0;1;9;0;0;1;9
dhio;0;0;1;126;0;0;1;126
"paysage dhiver";0;0;1;39;0;0;1;39
"anna bjerger";0;0;21;6.4761904761905;0;0;13;6.6153846153846;0;0;8;6.25
"matchbox cars sale";0;0;1;221;0;0;1;221
baltzer;0;0;1;145;0;0;1;145
"tom dale artist";0;0;1;16;0;0;1;16
"emma forrester artist";0;0;1;7;0;0;1;7
"wadi finan";0;0;1;8;0;0;1;8
aurelie;0;0;1;308;0;0;1;308
gregos;0;0;1;6;0;0;1;6
"sarah hardacre";0;0;2;20;0;0;2;20
"gerard schlosser artist";0;0;2;6;0;0;1;5;0;0;1;7
"arnaud puig";0;0;3;3;0;0;3;3
"lin felton";0;0;1;4;0;0;1;4
"vincent hawkins";0;0;4;9.25;0;0;2;8.5;0;0;1;10;0;0;1;10
fleurion;0;0;1;6;0;0;1;6
"guy denning artist";0;0;3;8.3333333333333;0;0;2;8;0;0;1;9
"catarina bravo";0;0;1;5;0;0;1;5
"money art fort lauderdale fl";0;0;3;349;0;0;3;349
"αρησ μεσσηνησ";0;0;1;15;0;0;1;15
"la banane";0;0;1;195;0;0;1;195
"polly ngale";0;0;3;27;0;0;3;27
"maggie matthews artist";0;0;2;11.5;0;0;1;13;0;0;1;10
"georgianna robertson";0;0;1;36;0;0;1;36
"ralf peters";0;0;1;40;0;0;1;40
"henri lamy";0;0;3;5;0;0;3;5
"badri painter";0;0;2;8;0;0;2;8
"christopher schulz";0;0;1;52;0;0;1;52
"chris morin";0;0;3;14.666666666667;0;0;3;14.666666666667
"thomas jorion";0;0;3;7.6666666666667;0;0;3;7.6666666666667
"francoise danel";0;0;1;2;0;0;1;2
"zhang wei";0;0;2;57.5;0;0;2;57.5
"anna bocek for sale";0;0;2;6;0;0;1;7;0;0;1;5
miss.tic;0;0;1;7;0;0;1;7
"abie loy paintings";0;0;3;47.666666666667;0;0;2;48.5;0;0;1;46
"antoine stevens art";0;0;3;7;0;0;3;7
"mel ramos artist";0;0;1;1;0;0;1;1
"yves krief";0;0;1;9;0;0;1;9
"melissa kretschmer";0;0;1;217;0;0;1;217
"grand hotel daegu";0;0;1;194;0;0;1;194
"baton dynamite";0;0;3;92;0;0;3;92
+paul+van+hoeydonck;0;0;1;32;0;0;1;32
"beau rivage nice";0;0;1;153;0;0;1;153
"guy dennig";0;0;5;8.6;0;0;5;8.6
"banksy print";0;0;1;232;0;0;1;232
"louise numina";0;0;1;37;0;0;1;37
"gerstein art";0;0;2;29.5;0;0;2;29.5
"echoes heidelberg";0;0;1;23;0;0;1;23
"so the theory goes";0;0;1;10;0;0;1;10
"stéphanie nava";0;0;1;17;0;0;1;17
"liu xiaofang";0;0;1;18;0;0;1;18
billaud-simon;0;0;1;416;0;0;1;416
"ernest pignon-ernest";0;0;2;12;0;0;2;12
"smallest professional soccer player";0;0;1;305;0;0;1;305
"diesel jeans san francisco";0;0;1;15;0;0;1;15
"barracuda for sale";0;0;1;215;0;0;1;215
"muhanna durra";0;0;1;10;0;0;1;10
"people photographer";0;0;1;511;0;0;1;511
"eugenio carmi";0;0;2;17;0;0;2;17
"gérard alary";0;0;1;7;0;0;1;7
brochette;0;0;1;205;0;0;1;205
"bianca amor edmonton";0;0;1;217;0;0;1;217
"claire louria";0;0;1;8;0;0;1;8
"graham dolphin";0;0;1;9;0;0;1;9
"dan carabas";0;0;1;3;0;0;1;3
"jacqueline roberts photography";0;0;2;7;0;0;2;7
"andy ii";0;0;1;331;0;0;1;331
"ramos art";0;0;2;2;0;0;1;2;0;0;1;2
26438;0;0;1;534;0;0;1;534
"george bru";0;0;1;5;0;0;1;5
"el diablo hip hop";0;0;1;32;0;0;1;32
bigbug;0;0;1;318;0;0;1;318
"beatrice terra";0;0;1;2;0;0;1;2
"silvia calmejane";0;0;2;7.5;0;0;2;7.5
"belgian paintings";0;0;3;80.666666666667;0;0;3;80.666666666667
"leila amat ortega";0;0;2;8;0;0;2;8
cavin;0;0;1;239;0;0;1;239
ipso;0;0;1;141;0;0;1;141
"by mambo";0;0;1;40;0;0;1;40
"jean hélion";0;0;1;43;0;0;1;43
atomiseur;0;0;1;208;0;0;1;208
misstic;0;0;2;7.5;0;0;2;7.5
"henrietta dubrey artist";0;0;1;10;0;0;1;10
"stephanie dingle";0;0;1;12;0;0;1;12
"alex folla";0;0;5;6.4;0;0;2;5;0;0;3;7.3333333333333
"paulette tavormina";0;0;2;28;0;0;2;28
"nani champy schott";0;0;1;14;0;0;1;14
"oksana yambykh";0;0;1;4;0;0;1;4
"money artwork";0;0;1;349;0;0;1;349
nils-udo;0;0;6;7.5;0;0;6;7.5
"benedicte delorme";0;0;1;339;0;0;1;339
"aurelie deplus";0;0;1;4;0;0;1;4
"be gallery";0;0;1;29;0;0;1;29
"rafael gomez barros";0;0;4;7.25;0;0;4;7.25
"painting bronx";0;0;1;324;0;0;1;324
"carlos betancourt";0;0;1;56;0;0;1;56
sun7;0;0;1;43;0;0;1;43
"adeline spengler";0;0;6;3;0;0;6;3
"duane michals art";0;0;1;42;0;0;1;42
"david gouny";0;0;1;8;0;0;1;8
"cool artwork for sale";0;0;2;56;0;0;2;56
"sculpture rouge";0;0;1;4;0;0;1;4
"charlotte champion";0;0;2;5;0;0;1;4;0;0;1;6
"french artists";0;0;1;36;0;0;1;36
"catherine ahnell gallery";0;0;1;93;0;0;1;93
"beijing jianguo";0;0;1;178;0;0;1;178
awenasa;0;0;1;34;0;0;1;34
"brel valse";0;0;1;48;0;0;1;48
"stephane gautier";0;0;2;5.5;0;0;2;5.5
"marie cecile thijs";0;0;1;13;0;0;1;13
"herve telemaque";0;0;1;7;0;0;1;7
"frederic deprun";0;0;1;4;0;0;1;4
"jeanne lorioz";0;0;4;10.25;0;0;2;10.5;0;0;2;10
"takashi murakami";0;0;3;107;0;0;3;107
"bettina von arnim";0;0;1;29;0;0;1;29
"a very special christmas 1987";0;0;1;42;0;0;1;42
"didier avril";0;0;1;1;0;0;1;1
"nobuyoshi araki shino";0;0;1;34;0;0;1;34
"liquid i.v.";0;0;1;67;0;0;1;67
"galerie hus";0;0;3;2.6666666666667;0;0;1;2;0;0;1;3;0;0;1;3
cyclobes;0;0;1;4;0;0;1;4
noja;0;0;1;155;0;0;1;155
"yan pei ming";0;0;1;53;0;0;1;53
"artworks cali";0;0;1;10;0;0;1;10
"pierre-marie brisson";0;0;1;17;0;0;1;17
"people portaits";0;0;1;327;0;0;1;327
"yves carbonne";0;0;1;327;0;0;1;327
design+and+decoration;0;0;1;247;0;0;1;247
"darco artist";0;0;1;3;0;0;1;3
moyoshi;0;0;2;2;0;0;2;2
"michel bastien";0;0;1;416;0;0;1;416
goddog;0;0;1;9;0;0;1;9
pananka;0;0;1;10;0;0;1;10
dune;0;0;1;344;0;0;1;344
latlas;0;0;1;61;0;0;1;61
"laurent nielly";0;0;1;1;0;0;1;1
"claude venard";0;0;1;26;0;0;1;26
kartonn;0;0;1;6;0;0;1;6
"banksy of england note";0;0;1;23;0;0;1;23
boero.it;0;0;1;130;0;0;1;130
"petra wunderlich";0;0;12;7.5833333333333;0;0;6;7.3333333333333;0;0;6;7.8333333333333
"ren hang photo";0;0;1;9;0;0;1;9
"charles kwang";0;0;1;327;0;0;1;327
quik;0;0;1;2;0;0;1;2
chignon;0;0;1;310;0;0;1;310
"charlize theron";0;0;2;175.5;0;0;2;175.5
"documenta 8";0;0;1;408;0;0;1;408
"terry watts";0;0;1;31;0;0;1;31
"judy rifka";0;0;2;18.5;0;0;2;18.5
"crash artist";0;0;6;8.1666666666667;0;0;4;8.25;0;0;2;8
"eisgrotte rhonegletscher";0;0;1;37;0;0;1;37
"jean pierre schneider";0;0;3;5.6666666666667;0;0;3;5.6666666666667
"nielly francoise";0;0;1;49;0;0;1;49
"rougemont france";0;0;1;37;0;0;1;37
"brisson artist";0;0;1;10;0;0;1;10
"jonathan huxley";0;0;2;6;0;0;2;6
"gros artist";0;0;1;7;0;0;1;7
"clinton friedman";0;0;1;24;0;0;1;24
"8 contemporary";0;0;1;453;0;0;1;453
matryochka;0;0;1;5;0;0;1;5
"hermann nitsch";0;0;1;96;0;0;1;96
"snoopy ski";0;0;2;8;0;0;1;7;0;0;1;9
"manuel geerinck";0;0;1;17;0;0;1;17
"carlos cruz diez";0;0;1;58;0;0;1;58
"jean philippe";0;0;1;257;0;0;1;257
"irina ionesco";0;0;2;72.5;0;0;2;72.5
"mariah carey gold";0;0;1;1;0;0;1;1
"people's architecture";0;0;1;407;0;0;1;407
"buonarroti home";0;0;1;421;0;0;1;421
"yves zurstrassen";0;0;1;8;0;0;1;8
"fred ebami";0;0;1;6;0;0;1;6
"fabrice hyber";0;0;5;7.8;0;0;5;7.8
"julian opie biography";0;0;1;35;0;0;1;35
"mikael lafontan";0;0;3;8.6666666666667;0;0;3;8.6666666666667
"cs 1.9";0;0;1;29;0;0;1;29
"françois houtin";0;0;9;11;0;0;9;11
"john isaac artist";0;0;1;4;0;0;1;4
vagabondage;0;0;12;8.9166666666667;0;0;12;8.9166666666667
"nurcan giz";0;0;2;2;0;0;2;2
"joan saló";0;0;2;9.5;0;0;2;9.5
"tom wesselmann pop art";0;0;1;33
bazanova;0;0;1;28
"jose manuel fors";0;0;3;9
"massimo carasi";0;0;1;8
"anna bocek artist";0;0;2;9
artsper.com;0;0;1;1
"self portrait photography york";0;0;1;149
litao;0;0;2;38.5
"cesar baldaccini compression";0;0;1;3
bullfighting;0;0;1;320
"stephane joannes artist";0;0;1;8
"anna bocek paintings";0;0;1;11
"xun guan";0;0;1;21
"mehdi \lemoduledezeer\";0;0;1;13
couettes;0;0;1;208
"lhomme arbre";0;0;1;28
kleiber;0;0;1;158
wallpepper;0;0;1;3
"ren hang artist";0;0;1;10
"bengt lindström";0;0;1;65
"splash art arnhem";0;0;1;244
schicht;0;0;1;309
beccarelli;0;0;1;43
"johanne 8 facebook";0;0;2;7
"jack otway";0;0;6;10;0;0;2;10
"baudin & baudin";0;0;1;301
"riccardo simonutti";0;0;1;11
"tease me";0;0;1;233
"canopies for sale";0;0;1;310
"sans culotte";0;0;1;240
+robert+combas;0;0;2;15.5
"hopkins artist painter";0;0;1;4
"uche okpa iroha";0;0;1;8
"shen jingdong";0;0;2;7.5
"mariah carey black";0;0;1;38
"guillon france";0;0;1;44
"peter liversidge";0;0;1;55
"denning guy";0;0;1;10
"no curves";0;0;1;43
croq;0;0;2;136.5
"onur dinc";0;0;4;5.5
"galerie tschudi";0;0;1;89
"alain séchas";0;0;1;71
"le sphinx";0;0;1;154
yilduz;0;0;1;20;0;0;1;9
"la palla";0;0;1;237
"self portrait photographers york";0;0;1;101
janka;0;0;1;339
"georges autard";0;0;1;3
"petra wunderlich facebook";0;0;1;10
"people potraits";0;0;1;328
"philippe heurtaux";0;0;2;2
"miss tic street art";0;0;1;6
"chu teh-chun";0;0;1;39
"emeric chantier";0;0;6;1;0;0;2;2
"dong seoul hotel seoul";0;0;2;164
"don bruno fontana";0;0;1;24
"jonathan callan";0;0;1;41
"laurent maes";0;0;1;7
"paintings by famous artists";0;0;1;312
dubitatif;0;0;1;45
"antoine stevens";0;0;3;8;0;0;1;7
"peter brouwers";0;0;1;214
"charlie roberts artist";0;0;2;10
"adam et eve";0;0;1;134
"anca cernoschi";0;0;1;18
"ana maria diaz perez";0;0;1;8;0;0;1;11
"g-people lelong";0;0;1;42
"1000 euros";0;0;1;34
"the dude company";0;0;2;3
"annie berthet";0;0;1;2
"cockatoo for sale";0;0;1;213
"springsteen artwork";0;0;1;32
"philippe berry";0;0;5;4.8;0;0;1;1
"patrizio di renzo";0;0;1;27
"dan hays artist";0;0;1;18
"li wie";0;0;1;11
"pierre bernard artist";0;0;3;2;0;0;1;3
"michael bevilacqua";0;0;1;53
"yayoi kusama soft sculpture";0;0;1;9
"willy ronis";0;0;4;30.25
sawtelle;0;0;1;153
"serigraphy print";0;0;1;44
"iemza street artist";0;0;2;9.5
"galerie wallpepper";0;0;2;3
"bock luxembourg";0;0;1;336
"invest in art";0;0;1;93
"grano lithograph";0;0;1;10
"hamann for sale";0;0;2;129
bailon;0;0;1;120
"mel ramos pop art";0;0;1;1
sandra;0;0;1;412
planas;0;0;1;177
"eva maria kupfer";0;0;1;3
"robert rauschenberg";0;0;1;312
"cesar baldiccini";0;0;1;9
"del infinito arte";0;0;1;93
"thomas dolphin";0;0;1;340
nuhomme;0;0;1;30
ciprana;0;0;1;10
jorion;0;0;1;36
"elisabeth taylor";0;0;1;140
"de lauwe";0;0;1;14
renoir;0;0;1;176
"stefano bombardieri";0;0;1;35
renoma;0;0;1;79
"office tourisme lourdes";0;0;1;96
"luca di filippo";0;0;2;6;0;0;2;11
"lauryn hill";0;0;1;179
"charlotte perrot";0;0;1;3
withoos;0;0;2;49
"guinness artwork";0;0;1;44
"gijsbert hanekroot";0;0;4;1.75;0;0;1;3
brice;0;0;1;402
"mr brainwash exhibit nyc";0;0;1;133
"bard artwork";0;0;1;8
onyme;0;0;1;28
"greg carlin";0;0;2;31
"hans-christian schink";0;0;1;65
"juliette clovis";0;0;3;7
"absolut art gallery";0;0;1;13
"françois bard";0;0;1;9
"absolut official";0;0;1;37
"eva jospin";0;0;4;9.25;0;0;1;10;0;0;1;9
"gerard rancinan";0;0;1;6;0;0;3;10.333333333333
"keith haring lucky strike";0;0;3;1
champoux;0;0;1;205
"stefan bircheneder";0;0;1;25
"udo nils";0;0;1;8
"ernest breleur";0;0;1;8
"best florist dorval";0;0;1;82
valentin;0;0;1;422
butz;0;0;1;420
"art sculptures for sale";0;0;1;306
"ki to la gloire";0;0;1;6;0;0;8;6.875
ballesta;0;0;1;97
"gerry cranham";0;0;1;3
"lucy orta artist";0;0;1;39
"rero artist";0;0;2;36
"filippo minelli";0;0;1;36
"toxic graffiti artist";0;0;1;10
"ville du soleil";0;0;1;31
"philippe pasqua skull";0;0;1;10
"sutton gallery melbourne";0;0;1;343
"valery barykin";0;0;2;11.5
"zhang wei artist";0;0;1;9;0;0;1;10
"moretti artist";0;0;1;36
"christine muller";0;0;1;21
"guy denning bio";0;0;2;4.5
"chris macauley";0;0;2;9;0;0;2;7
"etienne gros";0;0;2;5
"gordon hopkins";0;0;5;4.6
"caroline veith";0;0;1;10
ribart;0;0;1;7
"galerie ko21";0;0;1;7
"kathleen ngale";0;0;1;69
iemza;0;0;1;9
"mick jagger";0;0;1;178
"quik art";0;0;1;6
"jimmy ruf";0;0;3;1.6666666666667
villegle;0;0;3;7
"bilal bahir";0;0;2;4
"valerie hadida";0;0;1;4
"onur painting";0;0;3;8
"keith haring montreux";0;0;2;2
"onur artist";0;0;1;8
"troy henriksen";0;0;3;3.3333333333333
"hero ando";0;0;1;7;0;0;1;9
"seychelles x";0;0;1;129
redgorilla;0;0;1;56
"takashi murakami flower pillow";0;0;1;16
"raymond voinquel";0;0;3;7
"axel rhod";0;0;1;5
"jada pinkett smith artwork";0;0;1;6
"alexandre joly";0;0;1;6
"ronald dupont";0;0;1;9
leyto;0;0;5;3.6
"galerie dorval";0;0;1;5
rancinan;0;0;1;6
"christophe duhayer";0;0;1;39
"fred astaire";0;0;1;165
dtone;0;0;2;7;0;0;2;6
"silaphan paper";0;0;1;8
"keith sharp";0;0;1;60
"smart gallery jar";0;0;1;90
takalale;0;0;1;6
"sergio moscona";0;0;1;4
"jacques villeglé";0;0;1;9
"benoit lison";0;0;1;6
durix;0;0;5;4.8;0;0;1;3
"badri lomsianidze";0;0;1;4
emoticons;0;0;1;194
lolacola;0;0;1;1
"chat artwork";0;0;1;5
"babajide olatunji";0;0;2;6.5
"guy denning biography";0;0;2;5
"el pradino";0;0;4;3
"rob van hoek";0;0;4;6;0;0;1;9
"didier majewski";0;0;1;3
sgarra;0;0;1;6
"laurent martinez";0;0;1;8
"claude azoulay";0;0;1;11
"christine mathieu";0;0;2;10
"nieves mingueza";0;0;1;8
"mist graffiti";0;0;1;10
"patrick braoudé";0;0;1;11
homealone6;0;0;3;21.333333333333
"john matos";0;0;3;6.6666666666667
"edmond li";0;0;1;10
"cécile plaisance";0;0;1;7
"cecile plaisance";0;0;2;7.5
"helene de saint lager";0;0;1;9
doulat;0;0;1;20
"kolaj art";0;0;1;10
"christof monnin";0;0;1;6
"envie d art";0;0;1;4
"miss tic";0;0;1;8;0;0;2;9.5
"bruno catalano biography";0;0;1;5
"guy denning art";0;0;2;6.5
deret;0;0;1;19
"jacques villegle";0;0;3;8.6666666666667
"cricket fine art";0;0;1;8
"thierry lo";0;0;3;10.333333333333;0;0;1;10
djeziri;0;0;1;10
"chat graffiti";0;0;1;9
"mr lolo";0;0;1;6
"liu xiaofang artist";0;0;1;10
dysform;0;0;1;4
chubac;0;0;3;6.6666666666667
"olivier sultan";0;0;1;15
"li wei";0;0;30;2.1333333333333;0;0;4;2.25
"kate barry artist";0;0;2;7
"under construction gallery";0;0;1;5
gzstore;0;0;2;6.5
"octave pixel";0;0;3;8.6666666666667
"kolaj work";0;0;6;10
buraud;0;0;1;9
"wood wall sculptures";0;0;2;234
"mist art";0;0;1;4
"monika nowak";0;0;1;11
gesiha;0;0;2;8
"monica bellucci en jeans";0;0;1;10
liwei;0;0;1;3
artist;0;0;1;6
"francine van hove artist";0;0;1;16
"nils udo";0;0;3;9.3333333333333;0;0;3;9.3333333333333
"akira asakura";0;0;1;11
"frank de mulder";0;0;1;43
"rafael navarro";0;0;3;3.6666666666667;0;0;2;3
"mario y ruth bodnariu";0;0;1;27
"santander bewertungen in waldkraiburg";0;0;2;34
"stephane ducatteau";0;0;1;8;0;0;1;2
"michael alford artist";0;0;1;7
"john crash matos";0;0;1;9
"asgar gabriel";0;0;2;10
anorexic;0;0;1;194
"amy judd prints";0;0;1;15
"julien poupart";0;0;1;14
"panda jiji";0;0;1;1
"etienne cail";0;0;1;2
hankson;0;0;1;1
"kilmany-jo liversage";0;0;1;8
"le déjeuner sur l'herbe";0;0;1;1
"gloria petyarre artworks";0;0;1;86
"anna bocek";0;0;3;8.6666666666667;0;0;1;9
"caroline dubreuil";0;0;1;288
"thomas canto";0;0;1;17
"macadam gallery";0;0;1;6
"christophe charbonnel";0;0;1;6
homealone7;0;0;2;21
"kim sun hyuk";0;0;1;6
"lyle carbajal";0;0;3;7
"guy denning paintings";0;0;2;8
"alberto sanchez photography";0;0;1;19
rafiy;0;0;1;5
"banksy toxic mary unsigned";0;0;1;13
"peter lippmann";0;0;1;7
"toma l";0;0;1;4
baldaccini;0;0;1;42
ladoo;0;0;1;138
"jean cosentino";0;0;1;2
"monnin christof";0;0;1;5
"anthony murphy";0;0;2;7
bosh;0;0;1;200
"bard painting";0;0;1;8
skunkdog;0;0;1;3
"ren hang wiki";0;0;1;6
"thomas bossard";0;0;1;7
"fabienne arietti";0;0;1;7
"gabriela tolomei";0;0;1;3
ravagnani;0;0;1;127
"jerome lagarrigue technique";0;0;1;6
"lisa roberts artist";0;0;1;4
"schoony artist";0;0;1;10
godon;0;0;1;1
"patrick fauconnier";0;0;1;8
"abc gallery";0;0;1;5
"mil ramos";0;0;1;1
"corine pagny";0;0;1;3
"guy denning for sale";0;0;1;4
"david gerstein";0;0;2;11
"john bulmer";0;0;1;1
"marc ferrero";0;0;1;9
"claire bianchi";0;0;1;8
"le diamantaire";0;0;1;15
"ronda haberer facebook";0;0;1;26
"richard levine artist";0;0;1;10
"didier triglia";0;0;1;3
"benoit trimborn";0;0;1;6
"genevieve claisse";0;0;1;3
"aki kuroda";0;0;1;7
"lampe murano";0;0;1;8
"linda blackstone gallery";0;0;1;5
alnasi;0;0;1;9
"le petit parisien willy ronis";0;0;1;1
"gerry cranham photography";0;0;1;13
"valentin caro";0;0;1;11
"jonvelle photographer";0;0;1;3
"adrien leguay";0;0;1;3
"richard burel";0;0;2;14
"bambi artist";0;0;2;6
"nguyen the dung";0;0;1;8
"david ferreira artist";0;0;1;4
"christophe charbonel";0;0;1;8
