"brno del zou";4;0.19047619047619;21;2.047619047619;3;0.15789473684211;19;2.0526315789474;1;0.5;2;2
artsper;2;0.04;50;1.04;1;0.022727272727273;44;1.0454545454545;1;0.16666666666667;6;1
"jm robert";2;0.33333333333333;6;1.5;2;0.5;4;1.75;0;0;2;1
"jack otway artist";2;0.4;5;5.2;1;0.33333333333333;3;5.3333333333333;1;0.5;2;5
"brno del zou biography";2;1;2;1;2;1;2;1
"silvia calmejane";2;0.66666666666667;3;1;2;0.66666666666667;3;1
"eva jospin artist";1;0.5;2;6.5;1;0.5;2;6.5
"patrick letovsky";1;0.5;2;2;1;0.5;2;2
"stephen forbes artist";1;1;1;2;1;1;1;2
"fabienne arietti";1;0.33333333333333;3;6.6666666666667;1;0.33333333333333;3;6.6666666666667
"magdalena lamri";1;0.090909090909091;11;4.0909090909091;0;0;6;4.1666666666667;1;0.2;5;4
pencreac'h;1;1;1;21;1;1;1;21
"corine pagny";1;1;1;5;1;1;1;5
"cedrix crespel";1;1;1;8;1;1;1;8
"valerie hadida";1;0.125;8;7.75;1;0.14285714285714;7;7.5714285714286;0;0;1;9
"nils udo artist";1;1;1;9;1;1;1;9
"guy denning for sale";1;0.5;2;3;1;0.5;2;3
"rob van hoek";1;0.2;5;7.6;1;0.33333333333333;3;8;0;0;2;7
"francois bard painter";1;1;1;6;1;1;1;6
"jean pierre nadau";1;1;1;1;1;1;1;1
"elisabeth lecourt";1;1;1;8;1;1;1;8
"scott gruppe";1;0.25;4;3;1;0.25;4;3
"patrick delaunay";1;0.5;2;2;1;0.5;2;2
"bruno catalano sculpture for sale";1;0.25;4;4.75;0;0;1;4;1;0.33333333333333;3;5
"jean faucheur";1;0.090909090909091;11;3;1;0.11111111111111;9;3;0;0;1;3;0;0;1;3
"gordon hopkins";1;0.1;10;4.7;1;0.14285714285714;7;4.8571428571429;0;0;2;4;0;0;1;5
"helen frik";1;0.25;4;17;1;0.25;4;17
"raymond hains artwork";1;0.33333333333333;3;5.6666666666667;1;0.5;2;6;0;0;1;5
"jeff koons for sale";1;0.5;2;33.5;1;0.5;2;33.5
"eva navarro paintings";1;0.5;2;5;1;0.5;2;5
"torrick ablack";1;0.5;2;10;1;0.5;2;10
"pakpoom silaphan";1;0.5;2;14.5;1;1;1;14;0;0;1;15
"ahn sun mi";1;0.125;8;9;1;0.25;4;9.5;0;0;4;8.5
"gz galerie";1;0.2;5;6.8;1;0.25;4;6.5;0;0;1;8
"thomas muller art";1;1;1;5;1;1;1;5
"philippe vasseur artist";1;0.33333333333333;3;1;1;0.33333333333333;3;1
"catherine seher";1;1;1;4;1;1;1;4
"jonone art for sale";1;0.2;5;3.6;0;0;2;4.5;0;0;2;3;1;1;1;3
"ilona kiss";1;1;1;37;1;1;1;37
"shepard fairey peace dove";1;0.5;2;10.5;0;0;1;1;1;1;1;20
"bernard pras bio";1;1;1;2;1;1;1;2
"john matos";1;0.1;10;9.1;0;0;6;8.3333333333333;1;0.33333333333333;3;10.333333333333;0;0;1;10
"jm robert art";1;0.5;2;5.5;1;0.5;2;5.5
"emmanuel albaret";1;1;1;24;1;1;1;24
"annina roescheisen";1;1;1;16;1;1;1;16
"yoel benharrouche";1;1;1;10;1;1;1;10
"gabriele viertel";1;1;1;33;1;1;1;33
"christophe charbonnel";1;0.16666666666667;6;6.6666666666667;1;0.16666666666667;6;6.6666666666667
"valery barykin art";1;1;1;11;1;1;1;11
"robert indiana for sale";1;1;1;35;1;1;1;35
"thomas jorion";1;1;1;7;1;1;1;7
"anne valerie dupond";1;0.25;4;9;0;0;2;9;1;0.5;2;9
"fredrik raddum";1;0.5;2;8;1;0.5;2;8
"antoine stevens bio";1;0.33333333333333;3;2;1;0.33333333333333;3;2
"philippe weisbecker";1;0.16666666666667;6;7.8333333333333;1;0.16666666666667;6;7.8333333333333
"patrick van der elst";1;0.5;2;6;1;0.5;2;6
"babajide olatunji";1;0.33333333333333;3;3;0;0;1;1;1;0.5;2;4
"onur art";1;0.5;2;5.5;1;0.5;2;5.5
"didier triglia";1;0.33333333333333;3;3;1;0.33333333333333;3;3
"tommaso ottieri";1;1;1;5;1;1;1;5
"jerome mesnager";1;0.33333333333333;3;4.3333333333333;1;1;1;5;0;0;2;4
"fabrizio corneli";1;0.071428571428571;14;7.4285714285714;1;0.071428571428571;14;7.4285714285714
"uffe weiland";1;0.5;2;1;1;0.5;2;1
"pierre budet";1;1;1;6;1;1;1;6
baldaccini;0;0;1;43;0;0;1;43
"helene de saint lager";0;0;1;9;0;0;1;9
"etienne gros";0;0;9;6;0;0;6;6;0;0;3;6
"zhao min";0;0;1;62;0;0;1;62
"federico fellini drawings";0;0;1;35;0;0;1;35
"jerome lagarrigue art";0;0;1;8;0;0;1;8
"prince's school of traditional arts";0;0;1;44;0;0;1;44
"jef aérosol";0;0;2;6;0;0;2;6
"huet france";0;0;1;45;0;0;1;45
"florence d'elle photographs";0;0;2;1;0;0;2;1
"frédéric prat";0;0;2;8;0;0;2;8
"gerry cranham";0;0;1;7;0;0;1;7
"fantasy art for sale";0;0;1;30;0;0;1;30
"graham dolphin artist";0;0;2;9;0;0;2;9
"bruno mallart";0;0;1;7;0;0;1;7
"branding and logos";0;0;4;421.75;0;0;3;420;0;0;1;427
diamantaire;0;0;1;43
"duong le thai";0;0;1;1;0;0;1;1
"nicole wendel";0;0;2;1;0;0;2;1
"nothing is important";0;0;1;238;0;0;1;238
"gabriel bodnariu";0;0;2;3.5;0;0;2;3.5
"kai schäfer";0;0;1;28;0;0;1;28
"sergio moscona";0;0;4;4.25;0;0;1;5;0;0;3;4
"la mri";0;0;2;10.5;0;0;1;10;0;0;1;11
tanc;0;0;2;5.5;0;0;2;5.5
bustor;0;0;1;16;0;0;1;16
"philippe heurtaux";0;0;1;2;0;0;1;2
"branding logos";0;0;1;432;0;0;1;432
"blek le rat";0;0;3;47;0;0;2;48.5;0;0;1;44
"budapest gallery";0;0;1;124;0;0;1;124
"jean gabriel";0;0;1;168;0;0;1;168
vagabondage;0;0;7;8.5714285714286;0;0;7;8.5714285714286
"oeuf sale";0;0;1;38;0;0;1;38
nowart;0;0;4;5;0;0;1;5;0;0;2;5;0;0;1;5
"open your mine";0;0;1;4;0;0;1;4
chaph;0;0;1;10;0;0;1;10
villegle;0;0;1;9;0;0;1;9
farzane;0;0;1;28;0;0;1;28
"wilfred artist";0;0;1;2;0;0;1;2
"herb ritts prints for sale";0;0;1;6;0;0;1;6
"envie d art";0;0;1;6;0;0;1;6
"marc petit";0;0;2;60;0;0;2;60
"murakami pillow";0;0;1;46;0;0;1;46
"thomas canto";0;0;4;10.5;0;0;3;10;0;0;1;12
"side x side for sale monroe la";0;0;1;81;0;0;1;81
"francoise nielly for sale";0;0;1;23;0;0;1;23
"jace graffiti";0;0;1;17;0;0;1;17
"peter lippmann biography";0;0;1;4;0;0;1;4
"richard orlinski";0;0;3;6.3333333333333;0;0;1;5;0;0;2;7
"ready to die artwork";0;0;1;10;0;0;1;10
"polly ngale aboriginal art";0;0;3;53;0;0;2;53;0;0;1;53
"louise balaam";0;0;1;20;0;0;1;20
corregan;0;0;1;22;0;0;1;22
"yvonne coomber";0;0;1;25;0;0;1;25
"roland topor art";0;0;4;9.5;0;0;2;10;0;0;2;9
"envie d'art";0;0;4;7.75;0;0;3;7.6666666666667;0;0;1;8
"benjamin carbonne";0;0;8;1.25;0;0;7;1.2857142857143;0;0;1;1
levalet;0;0;1;7;0;0;1;7
saint-cyr;0;0;1;199;0;0;1;199
pagart;0;0;1;40;0;0;1;40
"kerry eggleton";0;0;9;3;0;0;9;3
"cat vinton";0;0;1;9;0;0;1;9
"chantal dugave";0;0;1;2;0;0;1;2
"douche sale";0;0;1;149;0;0;1;149
ioye;0;0;1;9;0;0;1;9
lesjo;0;0;1;40;0;0;1;40
"la garrigue";0;0;1;152;0;0;1;152
"paula parrish";0;0;1;34;0;0;1;34
"mathilde c. art & creation";0;0;2;9.5;0;0;2;9.5
"candle in the wind";0;0;2;182;0;0;1;180;0;0;1;184
accomodera;0;0;1;6;0;0;1;6
"tom wesselmann paintings";0;0;1;33;0;0;1;33
"landscape canvases";0;0;1;406;0;0;1;406
"nicolas paris artist";0;0;1;35;0;0;1;35
"bernard chauchet";0;0;1;8;0;0;1;8
planeteserie;0;0;1;3;0;0;1;3
"utopie tangible";0;0;1;3;0;0;1;3
"audoin desforges";0;0;3;10;0;0;3;10
"mathieu nozieres";0;0;1;6;0;0;1;6
aliot;0;0;2;71
"oxana ukraine";0;0;1;14;0;0;1;14
jadikan;0;0;1;9;0;0;1;9
"galerie nicolas hugo";0;0;1;5;0;0;1;5
"chanoir artist";0;0;1;5;0;0;1;5
"misskiss_ naked";0;0;1;31;0;0;1;31
"bernard rancillac";0;0;1;9;0;0;1;9
"jacques villegle artist";0;0;3;5.3333333333333;0;0;3;5.3333333333333
"gallery huit";0;0;1;7
"1000 euros";0;0;1;45;0;0;1;45
"nue art";0;0;1;4;0;0;1;4
"jim dine pinocchio";0;0;2;35.5;0;0;2;35.5
"françois houtin";0;0;2;6;0;0;1;11;0;0;1;1
"yves krief";0;0;2;9;0;0;1;9;0;0;1;9
"thierry pelletier";0;0;1;9;0;0;1;9
"diffusion sale";0;0;1;21;0;0;1;21
onemizer;0;0;4;8.75;0;0;3;9;0;0;1;8
"jan saudek biography";0;0;1;17;0;0;1;17
"peter lippman";0;0;1;9;0;0;1;9
"hearts and dreams";0;0;1;47;0;0;1;47
"ivan tzonev";0;0;1;1;0;0;1;1
"dawit abebe";0;0;1;14;0;0;1;14
"vikram kushwah";0;0;1;10;0;0;1;10
"catalano bruno";0;0;1;34;0;0;1;34
"markus & koala";0;0;2;2.5;0;0;2;2.5
"guillaume guérin";0;0;1;16;0;0;1;16
"annabelle tattu";0;0;2;3.5;0;0;1;2;0;0;1;5
"pez artist";0;0;1;30;0;0;1;30
"ken spooner";0;0;1;33;0;0;1;33
planete-serie;0;0;1;3;0;0;1;3
"anthony murphy artist";0;0;3;6.6666666666667;0;0;3;6.6666666666667
"lelong car";0;0;1;22;0;0;1;22
"hervé perdriel";0;0;1;1;0;0;1;1
"clement alain";0;0;1;5;0;0;1;5
+nitsch+hermann;0;0;1;132;0;0;1;132
"henrietta dubrey";0;0;6;6.5;0;0;3;11;0;0;3;2
"martin bez";0;0;1;6;0;0;1;6
"valérie hadida";0;0;1;7;0;0;1;7
"jacques villeglé";0;0;3;7;0;0;2;5.5;0;0;1;10
"mary j blige fur";0;0;1;29;0;0;1;29
"alberto reguera";0;0;3;9.3333333333333;0;0;3;9.3333333333333
"willy ronis le petit parisien";0;0;7;1;0;0;6;1;0;0;1;1
"petra wunderlich";0;0;6;7;0;0;5;7.2;0;0;1;6
"aki kuroda";0;0;9;4.2222222222222;0;0;7;5.1428571428571;0;0;2;1
"polly ngale";0;0;3;31.333333333333;0;0;3;31.333333333333
"al held";0;0;1;43;0;0;1;43
"lyle carbajal";0;0;1;4;0;0;1;4
"le petit parisien willy ronis";0;0;1;1;0;0;1;1
"jorg doring";0;0;1;1;0;0;1;1
"drm galerie";0;0;3;2.6666666666667;0;0;3;2.6666666666667
makiko;0;0;1;317;0;0;1;317
"li wei";0;0;109;7.6238532110092;0;0;77;10.090909090909;0;0;29;1.6896551724138;0;0;3;1.6666666666667
"gerard mortier";0;0;1;46;0;0;1;46
"patrizio di renzo";0;0;1;35;0;0;1;35
"francois bard";0;0;16;7;0;0;10;7;0;0;1;7;0;0;5;7
"barnetts furniture";0;0;1;322;0;0;1;322
"justine smith artist";0;0;1;15;0;0;1;15
"villa panthere";0;0;1;12;0;0;1;12
fubiz;0;0;2;35.5;0;0;1;34;0;0;1;37
"li lihong";0;0;3;4;0;0;3;4
mitrofanoff;0;0;1;70;0;0;1;70
"rero artist";0;0;2;20.5;0;0;2;20.5
"charles thiefaine";0;0;2;2;0;0;2;2
"francois bard artist";0;0;5;7;0;0;4;7;0;0;1;7
"arielle d";0;0;1;17;0;0;1;17
"yoel benharrouche for sale";0;0;1;9;0;0;1;9
yutao;0;0;2;5.5;0;0;2;5.5
agafia;0;0;1;44;0;0;1;44
"fausto marci";0;0;2;2.5;0;0;1;1;0;0;1;4
"jacques mahé de la villeglé";0;0;2;5;0;0;1;6;0;0;1;4
"chris morin-eitner";0;0;3;1;0;0;3;1
"antoine josse";0;0;1;15;0;0;1;15
grisor;0;0;3;7;0;0;2;6;0;0;1;9
"raymond hains artist";0;0;3;8;0;0;3;8
"molly white artist";0;0;3;15;0;0;3;15
"patrick loste artist";0;0;1;1;0;0;1;1
"cara delevingne artwork";0;0;1;1;0;0;1;1
"jerome romain";0;0;1;41;0;0;1;41
"bill blast graffiti";0;0;1;7;0;0;1;7
"leobardo perez";0;0;1;2;0;0;1;2
"gérard schlosser";0;0;2;8.5;0;0;2;8.5
"sale nue";0;0;1;10;0;0;1;10
"nobuyoshi araki biography";0;0;1;46;0;0;1;46
durix;0;0;4;4.25;0;0;4;4.25
"leila amat";0;0;1;10;0;0;1;10
"open your min";0;0;3;3;0;0;3;3
"jean georges inca";0;0;2;1;0;0;2;1
"marius bodnariu";0;0;1;2;0;0;1;2
"elvis presley artwork";0;0;1;61;0;0;1;61
"finbarr dac";0;0;1;10;0;0;1;10
"julie graves";0;0;1;45;0;0;1;45
"tim flach biography";0;0;1;12;0;0;1;12
"sienna on the coast";0;0;1;167;0;0;1;167
ciprana;0;0;1;10;0;0;1;10
qitete;0;0;1;9;0;0;1;9
"melon jsc";0;0;1;8;0;0;1;8
"misskiss_ nude";0;0;1;25;0;0;1;25
"sun-hyuk kim";0;0;2;1.5;0;0;2;1.5
liquidiv;0;0;1;55;0;0;1;55
"gautier deblonde";0;0;1;14;0;0;1;14
sokrate;0;0;1;29;0;0;1;29
"obey lotus";0;0;1;1;0;0;1;1
"abie loy paintings";0;0;3;52.333333333333;0;0;2;54;0;0;1;49
"jeff koons red balloon dog plate";0;0;1;1;0;0;1;1
"lachapelle photographe";0;0;1;9;0;0;1;9
"marino marini cavaliere";0;0;1;49;0;0;1;49
"timur novikov";0;0;5;5.2;0;0;5;5.2
"renata boero";0;0;1;31;0;0;1;31
"pierre dubrunquez";0;0;2;1;0;0;2;1
"jose manuel fors";0;0;1;10;0;0;1;10
intra01;0;0;2;8.5;0;0;2;8.5
"toxic artist";0;0;1;6;0;0;1;6
"claude charlier";0;0;1;8;0;0;1;8
"galerie l'oeil du prince";0;0;3;7.3333333333333;0;0;2;7;0;0;1;8
"concorde paris";0;0;1;194;0;0;1;194
"cecile desserle";0;0;3;7.3333333333333;0;0;1;10;0;0;2;6
"etienne cail";0;0;1;1;0;0;1;1
+jock+sturges;0;0;1;104;0;0;1;104
"cold lampin with flavor";0;0;1;35;0;0;1;35
"fred astair";0;0;1;37;0;0;1;37
"nina urlichs";0;0;2;2;0;0;2;2
"bertram stern";0;0;1;44;0;0;1;44
"gabriella bodin";0;0;1;1;0;0;1;1
"mist graffiti";0;0;2;9;0;0;2;9
"deep blue artwork";0;0;1;48;0;0;1;48
houtin;0;0;1;5;0;0;1;5
"gilles aillaud";0;0;2;11;0;0;2;11
liwey;0;0;1;3;0;0;1;3
"huston ripley";0;0;5;9.2;0;0;3;9;0;0;2;9.5
"césar baldaccini oeuvre";0;0;1;1;0;0;1;1
"anna bocek prices";0;0;1;9;0;0;1;9
"paul stolper gallery";0;0;1;30;0;0;1;30
+paul+van+hoeydonck;0;0;1;34;0;0;1;34
"lucy jorge orta";0;0;1;46;0;0;1;46
"renaud delorme";0;0;5;6.4;0;0;3;6.6666666666667;0;0;2;6
"boom surfboards";0;0;1;8;0;0;1;8
colomina;0;0;2;5.5;0;0;2;5.5
"mel ramos coco";0;0;1;23;0;0;1;23
"francoise nielly information";0;0;1;11;0;0;1;11
"jeff koons split rocker vase for sale";0;0;1;16;0;0;1;16
"dominique clerc";0;0;2;7;0;0;1;5;0;0;1;9
"nue gallery";0;0;1;5;0;0;1;5
"takashi murakami bio";0;0;1;41
"kolaj work";0;0;2;10;0;0;2;10
"attache moi";0;0;1;48;0;0;1;48
"bert prins";0;0;1;1;0;0;1;1
"paul carey-kent";0;0;1;9;0;0;1;9
derrier;0;0;1;63;0;0;1;63
chanoir;0;0;5;7.8;0;0;5;7.8
"golden beach for sale";0;0;1;180;0;0;1;180
"alain clément";0;0;2;7;0;0;2;7
"yang yongliang artist";0;0;1;4
bluesy;0;0;1;337;0;0;1;337
"jimmy ruf";0;0;1;5;0;0;1;5
"hervé lewis";0;0;1;8;0;0;1;8
"edwin apps actor";0;0;1;4;0;0;1;4
"takashi murakami flower cushion";0;0;1;8;0;0;1;8
"""manuel mesa""";0;0;1;38;0;0;1;38
"dissection artwork";0;0;1;8;0;0;1;8
"joseph beuys";0;0;2;237;0;0;2;237
"max czertok";0;0;4;4.5;0;0;3;3;0;0;1;9
"eva jospin art";0;0;2;8;0;0;2;8
"garage pfäffikon";0;0;1;34;0;0;1;34
"hugh turvey";0;0;1;40;0;0;1;40
"taki 183";0;0;1;55;0;0;1;55
dokoupil;0;0;1;103;0;0;1;103
"herbert oehm";0;0;1;6;0;0;1;6
"a nous paris";0;0;1;25;0;0;1;25
liuliu;0;0;1;236;0;0;1;236
"francesco ferrante";0;0;1;99;0;0;1;99
"antoni tapies artwork";0;0;1;53;0;0;1;53
"no curves";0;0;1;28;0;0;1;28
"robert schad";0;0;1;74;0;0;1;74
renoma;0;0;1;93;0;0;1;93
"anton f";0;0;1;38;0;0;1;38
dubrey;0;0;3;3.3333333333333;0;0;3;3.3333333333333
"jean paul lubliner";0;0;2;7.5;0;0;1;7;0;0;1;8
"medium serie";0;0;1;6;0;0;1;6
"graphic opsession";0;0;1;37;0;0;1;37
"lacroix jacques";0;0;1;44;0;0;1;44
"florence d’elle";0;0;4;4.75;0;0;4;4.75
compoint;0;0;1;23;0;0;1;23
"mr brainwash prints for sale";0;0;2;39;0;0;2;39
"monica dalmasso";0;0;1;9;0;0;1;9
"geert kollau";0;0;1;18;0;0;1;18
"davide boriani";0;0;1;9;0;0;1;9
"julian schnabel";0;0;1;327;0;0;1;327
"top 10 graphic designers";0;0;1;437;0;0;1;437
"arno bani";0;0;1;16;0;0;1;16
"jean-michel voge";0;0;2;3;0;0;2;3
"nasty artist";0;0;1;7;0;0;1;7
"keith coventry";0;0;1;41;0;0;1;41
"kenza sadoun";0;0;1;15;0;0;1;15
"sophie sigorel";0;0;2;3;0;0;2;3
"blue orchids for sale";0;0;1;78;0;0;1;78
"bernard quentin";0;0;2;11;0;0;1;11;0;0;1;11
"mayank shyam";0;0;1;6;0;0;1;6
"boccara gallery";0;0;1;6;0;0;1;6
"pauline ohrel";0;0;2;10;0;0;2;10
"ana popescu";0;0;1;35;0;0;1;35
"absolut art gallery";0;0;1;43;0;0;1;43
"frédéric deprun";0;0;1;5;0;0;1;5
"onur dinc";0;0;4;6.75;0;0;3;6;0;0;1;9
"jacques villeglé artist";0;0;1;7;0;0;1;7
"wilfred lang artist";0;0;1;19;0;0;1;19
"oude elferink";0;0;1;36;0;0;1;36
"bodnariu marius";0;0;1;35;0;0;1;35
"open yout mind";0;0;1;2;0;0;1;2
"richard di rosa";0;0;1;1;0;0;1;1
"chris morin";0;0;7;2.7142857142857;0;0;7;2.7142857142857
carbonell;0;0;1;305;0;0;1;305
"stephane ducatteau";0;0;1;9;0;0;1;9
"tabish khan";0;0;1;24;0;0;1;24
"anne-valerie dupond";0;0;1;10;0;0;1;10
"valery barykin";0;0;1;10;0;0;1;10
"jonone artiste";0;0;3;7;0;0;1;7;0;0;2;7
"juergen teller contax g2";0;0;1;36;0;0;1;36
yumari;0;0;1;45;0;0;1;45
"hans-christian schink";0;0;1;54;0;0;1;54
"david mesguich";0;0;2;10;0;0;1;14;0;0;1;6
artigasplanas;0;0;3;2.6666666666667;0;0;1;2;0;0;2;3
"bernard gaume";0;0;2;7;0;0;2;7
streichenberger;0;0;1;8;0;0;1;8
"chateau rothschild bordeaux";0;0;2;357;0;0;2;357
"rudolf hausner";0;0;3;11.333333333333;0;0;2;11.5;0;0;1;11
"thierry alet";0;0;5;8.8;0;0;4;8.5;0;0;1;10
"roberto battistini";0;0;1;2;0;0;1;2
"takashi murakami art for sale";0;0;2;7;0;0;2;7
"damien hirst for the love of god print";0;0;1;40;0;0;1;40
"kilmany jo liversage";0;0;2;8.5;0;0;2;8.5
hornsleth;0;0;2;131.5;0;0;2;131.5
"jorg brauer";0;0;2;9;0;0;2;9
"guayasamin print";0;0;2;20;0;0;2;20
"miguel vallinas";0;0;1;38;0;0;1;38
fifaxx;0;0;1;8;0;0;1;8
"canto art";0;0;1;48;0;0;1;48
"young al pacino";0;0;1;45;0;0;1;45
"thomas muller drawing";0;0;2;10;0;0;2;10
"césar baldaccini";0;0;1;19;0;0;1;19
"fresh to death";0;0;2;189.5;0;0;1;186;0;0;1;193
"marek piasecki";0;0;3;26;0;0;3;26
"bruno catalano for sale";0;0;1;7;0;0;1;7
"herve lewis";0;0;6;3.5;0;0;6;3.5
jonone;0;0;13;9.1538461538462;0;0;10;9.3;0;0;3;8.6666666666667
"mona lisa painting for sale";0;0;1;97;0;0;1;97
"bruno fontana";0;0;1;19;0;0;1;19
"monica maci nude";0;0;1;6;0;0;1;6
"wood contact";0;0;1;615;0;0;1;615
"dario puggioni";0;0;1;26;0;0;1;26
"nous n'irons plus au bois";0;0;1;44;0;0;1;44
poitrine;0;0;1;194;0;0;1;194
"ted starkowski";0;0;1;1;0;0;1;1
"cara delevingne stencil";0;0;3;1;0;0;3;1
"tuning fork contact";0;0;1;103;0;0;1;103
"ahmad nejad";0;0;1;11;0;0;1;11
takala;0;0;1;3;0;0;1;3
"frank demulder";0;0;1;38;0;0;1;38
"eva jospin";0;0;5;6;0;0;5;6
"gold griot";0;0;1;19;0;0;1;19
"jean-michel basquiat paintings for sale";0;0;1;25;0;0;1;25
"anatoly rudakov";0;0;1;10;0;0;1;10
"giorgio laveri";0;0;3;1;0;0;3;1
liwei;0;0;5;9.4;0;0;5;9.4
"unique artwork for sale";0;0;1;51;0;0;1;51
"roger schall";0;0;6;1.1666666666667;0;0;5;1.2;0;0;1;1
teenagehood;0;0;1;30;0;0;1;30
"antoine desailly";0;0;2;9.5;0;0;2;9.5
"guy denning painting";0;0;2;8.5;0;0;2;8.5
poulat;0;0;1;62;0;0;1;62
"thierry dussac";0;0;2;7;0;0;2;7
"mischa keijser";0;0;1;3;0;0;1;3
"el pez artist";0;0;1;14;0;0;1;14
"jan saudek photos";0;0;1;8;0;0;1;8
"galerie nue";0;0;1;5;0;0;1;5
pookky;0;0;1;7;0;0;1;7
"andré cottavoz";0;0;1;1;0;0;1;1
"abstract art savannah ga";0;0;2;334;0;0;2;334
"kilmany-jo liversage";0;0;1;10;0;0;1;10
"andre cottavoz";0;0;1;4;0;0;1;4
"annette messager biography";0;0;1;12;0;0;1;12
"stéphane gizard";0;0;1;10;0;0;1;10
sawtelle;0;0;1;177;0;0;1;177
"l'atlas artist";0;0;1;10;0;0;1;10
"david gerstein art for sale";0;0;1;7;0;0;1;7
"fantasmes x";0;0;1;219;0;0;1;219
"navabi sale";0;0;1;42;0;0;1;42
"philippe pasqua skull";0;0;2;10;0;0;2;10
"makiko furuichi";0;0;1;9;0;0;1;9
"eric deville";0;0;1;3;0;0;1;3
"alain riviere lecoeur";0;0;1;4;0;0;1;4
"claude champy";0;0;2;9.5;0;0;1;10;0;0;1;9
"mc2 gallery";0;0;1;35;0;0;1;35
"by nieves";0;0;1;40;0;0;1;40
ballesta;0;0;1;74;0;0;1;74
"hannah nitsch";0;0;1;4;0;0;1;4
"mel ac";0;0;1;2;0;0;1;2
"conrad marca relli";0;0;1;48;0;0;1;48
"rero art";0;0;2;19;0;0;2;19
"galerie djeziri-bonn";0;0;1;5;0;0;1;5
euroflag;0;0;1;41;0;0;1;41
"jin bo grand";0;0;1;183;0;0;1;183
"charlie roberts artist";0;0;1;14;0;0;1;14
chubac;0;0;4;5.5;0;0;3;5.6666666666667;0;0;1;5
makhloufi;0;0;1;32;0;0;1;32
marlagoutsos;0;0;1;22;0;0;1;22
"émeric chantier";0;0;2;5.5;0;0;2;5.5
"gregoire leon guillemin";0;0;1;4;0;0;1;4
"dganit blechner";0;0;1;14;0;0;1;14
"sági gyula";0;0;3;5;0;0;3;5
"patrick villas";0;0;1;39;0;0;1;39
"davide cicolani";0;0;4;1;0;0;4;1
"death in art";0;0;1;33;0;0;1;33
"frank fischer";0;0;1;107;0;0;1;107
"mikhail lezin";0;0;1;5;0;0;1;5
"pasqua artist";0;0;2;4.5;0;0;1;4;0;0;1;5
"anouk grinberg";0;0;1;29;0;0;1;29
zeimert;0;0;1;1;0;0;1;1
lamri;0;0;5;2;0;0;5;2
"oleg dou";0;0;4;40;0;0;4;40
"leonardo art works";0;0;1;339;0;0;1;339
"crash artist";0;0;1;8;0;0;1;8
"knut eckstein";0;0;1;5;0;0;1;5
"mark hopkins sculpture for sale";0;0;1;36;0;0;1;36
"tom wesselmann";0;0;5;36;0;0;4;36.5;0;0;1;34
"christophe artist";0;0;1;69;0;0;1;69
"gerard schlosser";0;0;2;10;0;0;1;10;0;0;1;10
"esther de bont";0;0;1;3;0;0;1;3
"moby dick artwork";0;0;1;37;0;0;1;37
"oswaldo guayasamin painting";0;0;1;19;0;0;1;19
"zed flexo";0;0;1;4;0;0;1;4
"emmanuel flipo";0;0;2;3;0;0;1;5;0;0;1;1
"david gery";0;0;1;8;0;0;1;8
"takashi murakami flower pillow";0;0;2;9;0;0;2;9
"liliane lijn";0;0;1;3;0;0;1;3
"jeanne lorioz";0;0;8;8.375;0;0;4;8;0;0;3;9;0;0;1;8
"tim flach animal photography";0;0;1;45;0;0;1;45
"keith haring christmas album";0;0;1;30;0;0;1;30
"mr snop";0;0;1;9;0;0;1;9
"georges dumas";0;0;1;24;0;0;1;24
"planete serie";0;0;3;3.3333333333333;0;0;3;3.3333333333333
"john matos crash";0;0;2;3;0;0;2;3
"willy ronis";0;0;1;32;0;0;1;32
"black katz";0;0;1;303;0;0;1;303
"shepard fairey paintings for sale";0;0;1;87;0;0;1;87
"yves zurstrassen";0;0;3;8;0;0;1;4;0;0;2;10
"manu perez";0;0;2;26;0;0;2;26
"ayline olukman";0;0;8;5.25;0;0;6;5.3333333333333;0;0;2;5
fassianos;0;0;1;26;0;0;1;26
"yuriko takagi";0;0;2;20;0;0;2;20
"uche okpa-iroha";0;0;1;8;0;0;1;8
"tiger rock";0;0;1;97;0;0;1;97
"ren hang art";0;0;1;8;0;0;1;8
"del zou";0;0;1;2;0;0;1;2
"carole duhayer";0;0;1;5;0;0;1;5
"galerie sylvie lepage";0;0;1;3;0;0;1;3
"guy denning";0;0;20;9.1;0;0;15;9.3333333333333;0;0;2;9;0;0;3;8
"by joanne";0;0;1;37;0;0;1;37
"philippe baudelocque";0;0;1;31;0;0;1;31
bertelli;0;0;1;189;0;0;1;189
"riccardo simonutti";0;0;2;8;0;0;2;8
+hans+hartung;0;0;2;128.5;0;0;2;128.5
truc-anh;0;0;3;3;0;0;3;3
"""pierre schneider""";0;0;5;38.2;0;0;5;38.2
"jacques de la villeglé";0;0;4;8.75;0;0;3;8;0;0;1;11
"robert combas";0;0;3;6.6666666666667;0;0;2;5;0;0;1;10
"cécile desserle";0;0;2;8.5;0;0;2;8.5
"ruby anemic";0;0;1;193;0;0;1;193
"anna bocek artist";0;0;1;10;0;0;1;10
"helder batista";0;0;1;10;0;0;1;10
"les bories";0;0;1;84;0;0;1;84
"truc truc et truc";0;0;1;7;0;0;1;7
"julia mangold artist";0;0;1;15;0;0;1;15
"stephane dauthuille";0;0;2;7;0;0;2;7
cadeo;0;0;1;47;0;0;1;47
"olivier widmaier picasso";0;0;11;8.7272727272727;0;0;5;8.2;0;0;6;9.1666666666667
"philippe de saint lager";0;0;6;8.1666666666667;0;0;2;6.5;0;0;4;9
"is pharrell williams asian";0;0;1;28;0;0;1;28
"speedy graphito for sale";0;0;3;4.3333333333333;0;0;3;4.3333333333333
mercky;0;0;1;10;0;0;1;10
"les terrasses de cécile";0;0;1;47;0;0;1;47
"david harber artist";0;0;1;7;0;0;1;7
hamey;0;0;4;5.75;0;0;4;5.75
"oswaldo guayasamin sculpture";0;0;1;9;0;0;1;9
nakedlittlegirls;0;0;1;61;0;0;1;61
nils-udo;0;0;1;9;0;0;1;9
barray;0;0;1;40;0;0;1;40
"gerard schlosser artist";0;0;2;7;0;0;2;7
"toblerone sale";0;0;1;50;0;0;1;50
"allegro for sale";0;0;1;152;0;0;1;152
"nicolette jelen";0;0;1;12;0;0;1;12
"nils udo artwork";0;0;3;9.3333333333333;0;0;1;8;0;0;2;10
+bram+bogart;0;0;1;34;0;0;1;34
"guy ferrer";0;0;2;16.5;0;0;2;16.5
"romina de novellis";0;0;2;10;0;0;1;9;0;0;1;11
"olivier long";0;0;1;9;0;0;1;9
"roland topor";0;0;2;39.5;0;0;2;39.5
"uwe ommer";0;0;2;42;0;0;2;42
"wrinkles of the city";0;0;1;75;0;0;1;75
"folly and muse";0;0;3;8.3333333333333;0;0;3;8.3333333333333
"mayank kumar";0;0;1;44;0;0;1;44
"le fleurs du mal";0;0;1;326;0;0;1;326
"matthew tyson";0;0;1;9;0;0;1;9
"polly ngale paintings";0;0;3;42.666666666667;0;0;2;43;0;0;1;42
"bernard chauchet contemporary art";0;0;2;8;0;0;2;8
"speedy graphito";0;0;6;21.833333333333;0;0;6;21.833333333333
"francois glineur";0;0;1;6;0;0;1;6
"david ferreira artist";0;0;1;1;0;0;1;1
"dope gallery";0;0;3;8;0;0;3;8
"peter keizer";0;0;3;6;0;0;1;3;0;0;2;7.5
"amor design";0;0;1;32;0;0;1;32
"ilse verstraete";0;0;2;2;0;0;2;2
"cecile plaisance";0;0;3;8;0;0;1;8;0;0;2;8
"jan saudek galerie";0;0;1;50;0;0;1;50
"nielly francoise";0;0;1;52;0;0;1;52
"geneviève claisse";0;0;4;5;0;0;3;3;0;0;1;11
"anthony lietart";0;0;5;10;0;0;5;10
"filippo minelli";0;0;2;31;0;0;2;31
"""moscona""";0;0;1;4;0;0;1;4
"chris morin eitner";0;0;1;1;0;0;1;1
"folly & muse";0;0;1;6;0;0;1;6
"g w bot australian artist";0;0;1;8;0;0;1;8
"bertrand grégoire";0;0;1;6;0;0;1;6
"gordon hopkins art";0;0;2;4;0;0;1;4;0;0;1;4
"esso oil can";0;0;1;25;0;0;1;25
"michèle destarac";0;0;1;1;0;0;1;1
"kristian von hornsleth";0;0;1;15;0;0;1;15
"francois lefranc";0;0;1;9;0;0;1;9
"arman venus";0;0;1;8;0;0;1;8
"jan saudek";0;0;2;53.5;0;0;2;53.5
"takashi murakami artwork";0;0;1;37;0;0;1;37
"thomas gromas";0;0;1;10;0;0;1;10
"rob van hoek art";0;0;3;9;0;0;3;9
mesnager;0;0;3;6.6666666666667;0;0;3;6.6666666666667
"takashi murakami dob";0;0;1;38;0;0;1;38
"jeff koons lips";0;0;1;23;0;0;1;23
"helmut newton death";0;0;1;47;0;0;1;47
"valerio adami oeuvres";0;0;1;10;0;0;1;10
"lottie jackson";0;0;1;15;0;0;1;15
"bernard pras artist";0;0;1;9;0;0;1;9
"foot fetish";0;0;3;161.33333333333;0;0;3;161.33333333333
"yayoi kusama pumpkin price";0;0;1;15;0;0;1;15
"gijsbert hanekroot";0;0;1;11;0;0;1;11
"spectacled owl";0;0;1;180;0;0;1;180
vevais;0;0;3;38;0;0;3;38
"guy de rougemont";0;0;1;9;0;0;1;9
olanier;0;0;1;8;0;0;1;8
"jean michel basquiat paintings for sale";0;0;2;24;0;0;2;24
"jim dine artwork";0;0;2;57.5;0;0;1;41;0;0;1;74
bodnariu;0;0;15;8.9333333333333;0;0;5;8.6;0;0;8;9.5;0;0;2;7.5
"du beffroi calais";0;0;1;75
"open you mind";0;0;6;2.6666666666667;0;0;5;2.6;0;0;1;3
"stephane jacob";0;0;7;8.7142857142857;0;0;3;7;0;0;4;10
"gallery nue";0;0;2;3;0;0;2;3
"palazzo bembo venise";0;0;1;186;0;0;1;186
"charbonnel paris";0;0;1;10;0;0;1;10
"anna bocek";0;0;16;8.1875;0;0;11;7.7272727272727;0;0;3;8.6666666666667;0;0;2;10
"jean michel turpin";0;0;1;6;0;0;1;6
"hotel bobo";0;0;2;81;0;0;2;81
"romero britto";0;0;1;40;0;0;1;40
"puzzle pulp fiction";0;0;1;6;0;0;1;6
"ludovic pessin";0;0;1;9;0;0;1;9
misstic;0;0;1;23;0;0;1;23
"les caprices de victoria";0;0;1;190;0;0;1;190
"raigon stanley";0;0;1;3;0;0;1;3
"gerstein art";0;0;2;34.5;0;0;2;34.5
"edition galerie vevais";0;0;1;7;0;0;1;7
"onur artist";0;0;1;9;0;0;1;9
"sell star n8";0;0;1;41;0;0;1;41
"basquiat paintings for sale";0;0;1;32;0;0;1;32
"reynald drouhin";0;0;1;12;0;0;1;12
"art jingle paris";0;0;1;8;0;0;1;8
"melanie peduzzi";0;0;2;1.5;0;0;2;1.5
litao;0;0;1;40;0;0;1;40
fugam;0;0;1;49;0;0;1;49
"mwenze kibwanga";0;0;1;1;0;0;1;1
yiling;0;0;1;117;0;0;1;117
morisse;0;0;1;39;0;0;1;39
"alva bernadine";0;0;1;42;0;0;1;42
"jean marc paris";0;0;1;204;0;0;1;204
"adela burdujanu";0;0;1;5;0;0;1;5
"famous contemporary artists";0;0;1;67;0;0;1;67
"tiffany chung";0;0;1;59;0;0;1;59
"tanc artist";0;0;1;3;0;0;1;3
dagada;0;0;3;4.6666666666667;0;0;3;4.6666666666667
"gerard alary";0;0;2;5;0;0;2;5
trovic;0;0;1;8;0;0;1;8
"philippe assalit";0;0;1;3;0;0;1;3
chardu;0;0;1;32;0;0;1;32
"кристина костадинова";0;0;1;1;0;0;1;1
"stephane gautier";0;0;6;2;0;0;6;2
"viet ha tran";0;0;3;4.6666666666667;0;0;3;4.6666666666667
grateau;0;0;1;9;0;0;1;9
"cony theis";0;0;1;65;0;0;1;65
5c;0;0;1;184;0;0;1;184
"jack otway";0;0;6;6.1666666666667;0;0;5;6.2;0;0;1;6
"jean charles millepied";0;0;4;4.5;0;0;3;4.3333333333333;0;0;1;5
"this life loader";0;0;22;27.409090909091;0;0;22;27.409090909091
"jean marie marion mannequin";0;0;5;7.2;0;0;4;7;0;0;1;8
kleiber;0;0;1;179;0;0;1;179
chasur;0;0;1;3;0;0;1;3
"maurice renoma";0;0;1;2;0;0;1;2
"tag fine arts";0;0;1;40;0;0;1;40
"classical oil painting -china -b2b -forum -blog -wikipedia -.cn -.gov -alibaba";0;0;3;159.66666666667;0;0;3;159.66666666667
"jean paul artist";0;0;1;55;0;0;1;55
"kolaj art";0;0;1;14;0;0;1;14
"davood koochaki";0;0;1;6;0;0;1;6
"murakami dob";0;0;1;38;0;0;1;38
"tree whispers";0;0;1;4;0;0;1;4
"françois bard peintre";0;0;1;4;0;0;1;4
"bat yam israel";0;0;1;205;0;0;1;205
miss.tic;0;0;2;8.5;0;0;2;8.5
"jean claude deutsch";0;0;1;5;0;0;1;5
"""li wei""";0;0;1;3;0;0;1;3
"dollar dollar bill yo";0;0;1;33;0;0;1;33
"christoff debusschere";0;0;1;10;0;0;1;10
"el glaoui";0;0;1;34;0;0;1;34
"george platt lynes";0;0;1;49;0;0;1;49
"cyril olanier";0;0;1;9;0;0;1;9
"grateful dead art for sale";0;0;1;49;0;0;1;49
"warhol mao for sale";0;0;1;1;0;0;1;1
"galerie nuances et lumière";0;0;1;2;0;0;1;2
"viet ha";0;0;2;29;0;0;2;29
"tim flach photography for sale";0;0;1;13;0;0;1;13
"mark jenkins";0;0;1;86;0;0;1;86
"minelli italy";0;0;1;48;0;0;1;48
"pras bernard";0;0;1;11;0;0;1;11
"pierre riba";0;0;3;5;0;0;3;5
"angel duarte";0;0;3;2.3333333333333;0;0;3;2.3333333333333
"blek le rat art";0;0;1;41;0;0;1;41
"reinhard gorner";0;0;2;9;0;0;2;9
"garnier colors";0;0;1;70;0;0;1;70
"john short artist";0;0;1;14;0;0;1;14
"artist crash";0;0;2;7.5;0;0;2;7.5
"les dunes";0;0;1;164;0;0;1;164
"art nue";0;0;1;6;0;0;1;6
"sylvain dress code";0;0;1;6;0;0;1;6
"mesnager jerome";0;0;1;6;0;0;1;6
"rutger brandt gallery";0;0;1;6;0;0;1;6
"jean-charles millepied";0;0;5;4.4;0;0;2;5;0;0;3;4
"""musical circumstance""";0;0;1;27;0;0;1;27
"markowicz fine art";0;0;2;35.5;0;0;2;35.5
"jaws artwork";0;0;1;65;0;0;1;65
"anna zuber";0;0;1;28;0;0;1;28
"flamboyant nürnberg";0;0;1;87;0;0;1;87
couet;0;0;1;83;0;0;1;83
tuxon;0;0;1;45;0;0;1;45
vray;0;0;1;79;0;0;1;79
"charro skull";0;0;2;9;0;0;1;9;0;0;1;9
"aqueous fluoreau";0;0;1;17;0;0;1;17
"georges braque paintings for sale";0;0;1;27;0;0;1;27
talard;0;0;1;10;0;0;1;10
"scotch broth soup campbells";0;0;1;41;0;0;1;41
"muay thai artwork";0;0;1;10;0;0;1;10
"la maja desnuda";0;0;1;85;0;0;1;85
"venus in art";0;0;1;17;0;0;1;17
"pavel brat";0;0;1;9;0;0;1;9
"francine van hove";0;0;3;18.333333333333;0;0;3;18.333333333333
"open your maind";0;0;1;4;0;0;1;4
"borys makary";0;0;1;10;0;0;1;10
"dibond signage in lagos";0;0;1;40;0;0;1;40
"henri lamy";0;0;4;6.75;0;0;4;6.75
"gaspard uiel";0;0;1;5;0;0;1;5
"john mainstone";0;0;1;40;0;0;1;40
hako;0;0;1;172;0;0;1;172
"miro svolik";0;0;1;18;0;0;1;18
"david gerstein";0;0;3;44;0;0;3;44
gzstore;0;0;1;12;0;0;1;12
"george bru";0;0;1;2;0;0;1;2
"pius fox";0;0;1;14;0;0;1;14
"alexandre joly";0;0;2;6.5;0;0;1;8;0;0;1;5
"bruno catalano biography";0;0;5;5.6;0;0;2;5.5;0;0;3;5.6666666666667
"babydollsxxx capture";0;0;1;48;0;0;1;48
"alinka echeverria";0;0;1;36;0;0;1;36
"amy friend dare alla luce";0;0;1;2;0;0;1;2
"taki artist";0;0;1;8;0;0;1;8
"graff france";0;0;1;20;0;0;1;20
"catherine lopes curval";0;0;1;8;0;0;1;8
"pasqua philippe";0;0;1;9;0;0;1;9
"aillaud gilles";0;0;1;10;0;0;1;10
+robert+combas;0;0;1;12;0;0;1;12
"dominique rayou";0;0;1;8;0;0;1;8
+al+held;0;0;1;105;0;0;1;105
"bambi artist";0;0;4;12.5;0;0;4;12.5
nebay;0;0;1;11;0;0;1;11
"jan saudek gallery";0;0;1;50;0;0;1;50
"vinyl pop art";0;0;1;6;0;0;1;6
"sam szafran";0;0;1;16;0;0;1;16
"cesar compression";0;0;1;9;0;0;1;9
moscona;0;0;3;7;0;0;3;7
"fairy artwork for sale";0;0;1;38;0;0;1;38
"raymond hains";0;0;13;9.3076923076923;0;0;13;9.3076923076923
gluska;0;0;1;7;0;0;1;7
"etienne rey";0;0;2;9.5;0;0;2;9.5
davidz;0;0;1;68;0;0;1;68
"le duong";0;0;1;41;0;0;1;41
"viet ha menu";0;0;1;30;0;0;1;30
"bob verschueren artist";0;0;2;5.5;0;0;2;5.5
"fazzino for sale";0;0;1;65;0;0;1;65
"open yuor mind";0;0;1;1;0;0;1;1
bouilhou;0;0;1;4;0;0;1;4
"dam gallery";0;0;1;7;0;0;1;7
"lelong gallery";0;0;1;8;0;0;1;8
"marit beer";0;0;1;9;0;0;1;9
"lilian lijn";0;0;1;4;0;0;1;4
"peter doig london";0;0;1;42;0;0;1;42
cernoski;0;0;1;35;0;0;1;35
"nue galerie";0;0;1;5;0;0;1;5
"liu tingting";0;0;1;3;0;0;1;3
"nicolas touron";0;0;1;19;0;0;1;19
"dokoupil artist";0;0;1;27;0;0;1;27
"marc ferrero";0;0;4;9.25;0;0;3;9;0;0;1;10
aboudia;0;0;1;33;0;0;1;33
"gabriel paris";0;0;1;33;0;0;1;33
"mel ramos vintage";0;0;1;83;0;0;1;83
pecson;0;0;1;56;0;0;1;56
"olivier lecoeur";0;0;1;17;0;0;1;17
"daniel lucien durand";0;0;1;33;0;0;1;33
"flower delivery bilbao";0;0;1;65;0;0;1;65
"le galet";0;0;1;155;0;0;1;155
"la butte";0;0;1;193;0;0;1;193
+li+wei;0;0;1;127;0;0;1;127
"yang yongliang";0;0;35;10.714285714286;0;0;35;10.714285714286
"jean fautrier";0;0;1;42;0;0;1;42
"bernard pras artwork";0;0;5;7;0;0;5;7
"alexis gorodine";0;0;1;2;0;0;1;2
"lamborghini fire extinguisher";0;0;1;41;0;0;1;41
"progress gallery";0;0;2;6;0;0;2;6
"sandy skoglund essay";0;0;1;46;0;0;1;46
"creepy art";0;0;2;33;0;0;2;33
"takashi murakami for sale";0;0;3;7;0;0;3;7
"nils udo";0;0;17;9.9411764705882;0;0;9;9.2222222222222;0;0;1;9;0;0;7;11
toroptsov;0;0;1;16;0;0;1;16
"claude mollard";0;0;6;3.8333333333333;0;0;5;3.8;0;0;1;4
"yasemin senel";0;0;1;10;0;0;1;10
"gareth edwards";0;0;1;264;0;0;1;264
"nicolas hugo";0;0;5;8.6;0;0;3;8.3333333333333;0;0;2;9
"guy denning biography";0;0;2;5;0;0;2;5
"sculptural couturier";0;0;11;63.545454545455;0;0;11;63.545454545455
"creutzberg van dun";0;0;1;6;0;0;1;6
"william mackrell artist";0;0;2;10;0;0;2;10
fenx;0;0;2;35;0;0;2;35
echancrure;0;0;1;20;0;0;1;20
"sous bock";0;0;1;44;0;0;1;44
"pierre marie brisson";0;0;3;4.3333333333333;0;0;3;4.3333333333333
"miss van art";0;0;1;37;0;0;1;37
psyckoze;0;0;2;10.5;0;0;1;10;0;0;1;11
"madonna purple";0;0;1;42;0;0;1;42
"store street gallery";0;0;2;28.5;0;0;2;28.5
"dawn's awakening";0;0;1;9;0;0;1;9
"vincent ruffin";0;0;1;9;0;0;1;9
"paul bogaers";0;0;1;35;0;0;1;35
"francis latreille";0;0;1;10;0;0;1;10
"antoni tapies original prints worcester";0;0;1;49;0;0;1;49
"philippe vasseur";0;0;4;12.25;0;0;3;12.333333333333;0;0;1;12
"the linda blackstone gallery";0;0;1;6;0;0;1;6
"eric de ville";0;0;1;7;0;0;1;7
"dominique regnier";0;0;1;7;0;0;1;7
"lou ros biography";0;0;1;6;0;0;1;6
"sam phillips match 3";0;0;4;3.25;0;0;3;3.3333333333333;0;0;1;3
artofobia.nl;0;0;1;42;0;0;1;42
"ye xing";0;0;1;7;0;0;1;7
"bruno catalano prices";0;0;4;5.75;0;0;2;5.5;0;0;2;6
"philippe pasqua";0;0;8;8.625;0;0;5;10.2;0;0;3;6
"philippe berry";0;0;6;7.3333333333333;0;0;4;7;0;0;1;8;0;0;1;8
shuhui;0;0;2;3;0;0;1;2;0;0;1;4
"murano lamper";0;0;1;35;0;0;1;35
femmejambes;0;0;2;9;0;0;1;7;0;0;1;11
"johanna heeg";0;0;1;6;0;0;1;6
"fantasy arts";0;0;1;135;0;0;1;135
"pablito zago";0;0;3;8.3333333333333;0;0;3;8.3333333333333
"yago partal biography";0;0;3;7.6666666666667;0;0;3;7.6666666666667
"olivier courty";0;0;1;8;0;0;1;8
"gottfried salzmann";0;0;2;26.5;0;0;2;26.5
fifax;0;0;1;8;0;0;1;8
biez;0;0;1;51;0;0;1;51
"emerge gallery";0;0;1;34;0;0;1;34
"ren hang wikipedia";0;0;1;6;0;0;1;6
"pius fox artist";0;0;1;1;0;0;1;1
"jacques germain";0;0;1;41;0;0;1;41
"kiki picasso";0;0;4;4.75;0;0;2;5;0;0;2;4.5
"silas marder gallery";0;0;1;104;0;0;1;104
"john crash";0;0;1;9;0;0;1;9
"gifts dorval";0;0;1;183;0;0;1;183
"joseph marzolla";0;0;1;9;0;0;1;9
"alison wilding";0;0;1;44;0;0;1;44
"greg carlin";0;0;1;31;0;0;1;31
"lyle carbajal artist";0;0;3;5.6666666666667;0;0;3;5.6666666666667
"grigori dor";0;0;3;8;0;0;3;8
"oksana yambykh";0;0;1;4;0;0;1;4
"nudist beach lolita";0;0;1;9;0;0;1;9
"artigasplanas priser";0;0;1;5;0;0;1;5
"dominique piveteaud";0;0;1;9;0;0;1;9
smael;0;0;1;40;0;0;1;40
"pulp fiction puzzle";0;0;2;4.5;0;0;1;1;0;0;1;8
"lady jday";0;0;1;9;0;0;1;9
dooze;0;0;2;40;0;0;2;40
"philippe hiquily";0;0;1;18;0;0;1;18
"jean christophe ballot";0;0;1;5;0;0;1;5
"claire dorsett";0;0;8;9;0;0;5;9.2;0;0;2;8.5;0;0;1;9
"emeric chantier";0;0;5;1;0;0;5;1
"puig france";0;0;1;29;0;0;1;29
"damir polic";0;0;4;5.75;0;0;1;6;0;0;3;5.6666666666667
"antoine geiger";0;0;1;6;0;0;1;6
"mel ramos prints";0;0;1;55;0;0;1;55
"octave pixel";0;0;4;4;0;0;1;3;0;0;2;5.5;0;0;1;2
envied'art;0;0;1;9;0;0;1;9
"takashi murakami mr dob";0;0;1;27;0;0;1;27
"taki 183 graffiti artist";0;0;1;9;0;0;1;9
"public love affair";0;0;1;41;0;0;1;41
mbfactory;0;0;2;19;0;0;1;20;0;0;1;18
"ferrero art";0;0;1;8;0;0;1;8
"cesar baldaccini compression";0;0;1;4;0;0;1;4
"la treille";0;0;1;194;0;0;1;194
"sabine danze";0;0;1;10;0;0;1;10
"widin tools";0;0;1;63;0;0;1;63
couettes;0;0;1;222;0;0;1;222
"bruno catalano";0;0;5;28.4;0;0;4;28.5;0;0;1;28
"kim sun-hyuk";0;0;2;2;0;0;2;2
"ripolles artist";0;0;1;43;0;0;1;43
"du zhenjun";0;0;1;27;0;0;1;27
"jerome lagarrigue";0;0;2;10;0;0;2;10
"richard heeps";0;0;3;20.666666666667;0;0;2;27.5;0;0;1;7
"schiele gerti";0;0;1;29;0;0;1;29
"dan dailey artist";0;0;1;40;0;0;1;40
"asgar gabriel";0;0;1;6;0;0;1;6
"rodney place";0;0;1;9;0;0;1;9
"alasdair lindsay";0;0;1;3;0;0;1;3
"angelica wiik";0;0;2;11.5;0;0;1;13;0;0;1;10
"reservoir dogs stormtroopers";0;0;4;8.75;0;0;4;8.75
"john bulmer";0;0;8;11;0;0;8;11
"ville du soleil";0;0;1;34;0;0;1;34
shanshui;0;0;1;200;0;0;1;200
"house for sale dorval";0;0;1;204;0;0;1;204
"junky graffiti";0;0;1;5;0;0;1;5
"james ostrer";0;0;1;32;0;0;1;32
"henri matisse original prints worcester";0;0;1;25;0;0;1;25
"laurence dreyfus";0;0;1;31;0;0;1;31
"charlotte champion";0;0;4;8;0;0;3;7.6666666666667;0;0;1;9
"galerie vevais";0;0;1;8;0;0;1;8
"paul treasure artist";0;0;1;10;0;0;1;10
"jean francois jonvelle";0;0;1;16;0;0;1;16
"matthew attard";0;0;3;9.6666666666667;0;0;2;9.5;0;0;1;10
"miss tic";0;0;4;7.25;0;0;4;7.25
"29 levels of freedom";0;0;1;3;0;0;1;3
triglia;0;0;1;75;0;0;1;75
"aism mauritius";0;0;1;9;0;0;1;9
"lou ros artist";0;0;4;7.75;0;0;3;7.3333333333333;0;0;1;9
"marilyn monroe portraits for sale";0;0;1;83;0;0;1;83
"isabelle cochereau";0;0;1;8;0;0;1;8
"nick walker artist";0;0;1;42;0;0;1;42
"grégoire guillemin";0;0;1;18;0;0;1;18
begarat;0;0;3;5.6666666666667;0;0;1;6;0;0;2;5.5
"tiphaine gilson";0;0;3;3;0;0;3;3
"cédrix crespel";0;0;1;6;0;0;1;6
"peter klasen";0;0;4;4.75;0;0;4;4.75
"bernard pras";0;0;11;8.1818181818182;0;0;8;8.375;0;0;3;7.6666666666667
"truc anh";0;0;1;3;0;0;1;3
"jerry zeniuk";0;0;1;62;0;0;1;62
awena;0;0;3;37.333333333333;0;0;3;37.333333333333
"modern art paintings savannah ga";0;0;2;416;0;0;2;416
"jacques villegle";0;0;10;7.4;0;0;9;7.3333333333333;0;0;1;8
"masmonteil olivier";0;0;2;10;0;0;2;10
li-wei;0;0;2;7;0;0;2;7
"mimmo rotella";0;0;1;84;0;0;1;84
"open.your mind";0;0;1;4;0;0;1;4
"fleur de roeck";0;0;1;4;0;0;1;4
"christof monnin";0;0;1;9;0;0;1;9
godon;0;0;25;3.36;0;0;17;1.7058823529412;0;0;3;5.6666666666667;0;0;5;7.6
"keith haring montreux";0;0;7;1.5714285714286;0;0;3;1;0;0;4;2
"gkm gallery";0;0;1;10;0;0;1;10
"la souris sur le gateau";0;0;2;8;0;0;2;8
"taglialatella gallery";0;0;2;12.5;0;0;2;12.5
"paris artist";0;0;1;56;0;0;1;56
"christophe dugied";0;0;1;7;0;0;1;7
"thierry lo";0;0;1;4;0;0;1;4
"djamel boucly";0;0;2;7.5;0;0;1;6;0;0;1;9
"thurle wright";0;0;1;11;0;0;1;11
"patrick dumas";0;0;1;32;0;0;1;32
"karl lagasse";0;0;1;3;0;0;1;3
"olivier moriette";0;0;1;1;0;0;1;1
"paintings of flowers for sale";0;0;1;141;0;0;1;141
"jada pinkett smith artwork";0;0;1;2;0;0;1;2
"jacques de la villegle";0;0;7;8.4285714285714;0;0;6;8.1666666666667;0;0;1;10
"toshimitsu imai artist";0;0;1;15;0;0;1;15
http://www.basementizid.com/;0;0;2;175;0;0;2;175
"gabriela bodin";0;0;3;6;0;0;2;6.5;0;0;1;5
"uche okpa iroha";0;0;1;18;0;0;1;18
"rudolf hausner paintings";0;0;1;6;0;0;1;6
"john steel artist";0;0;1;8;0;0;1;8
"pippa young";0;0;3;4;0;0;3;4
"jean-pierre schneider";0;0;1;1;0;0;1;1
deprun;0;0;1;5;0;0;1;5
"hotel ristorante camene";0;0;1;55;0;0;1;55
"le grand palais biarritz";0;0;1;185;0;0;1;185
carabas;0;0;1;94;0;0;1;94
"hiro ando";0;0;2;7.5;0;0;2;7.5
"egor bogachev";0;0;1;9;0;0;1;9
"david gerstein 5th avenue";0;0;2;9;0;0;2;9
"jeff koons split rocker";0;0;1;51;0;0;1;51
"sun hyuk";0;0;1;1;0;0;1;1
"oswaldo guayasamin paintings";0;0;1;23;0;0;1;23
elepack;0;0;1;10;0;0;1;10
design+and+decoration;0;0;1;248;0;0;1;248
"evelyne deret";0;0;1;4;0;0;1;4
"daniela huerta";0;0;3;10;0;0;3;10
"sutkus sartre";0;0;1;1;0;0;1;1
"by belie";0;0;3;6.3333333333333;0;0;3;6.3333333333333
"sarah hardacre";0;0;1;32;0;0;1;32
"li wein";0;0;1;1;0;0;1;1
"alain bonnefoit";0;0;2;21;0;0;2;21
"""monika nowak""";0;0;10;20.1;0;0;10;20.1
bbtoon;0;0;1;9;0;0;1;9
"louis pons artist";0;0;2;10;0;0;2;10
"christopher barnekow";0;0;1;5;0;0;1;5
"young pink lips";0;0;1;16;0;0;1;16
"gz gallery";0;0;4;4.25;0;0;4;4.25
"pignon ernest";0;0;1;10;0;0;1;10
hadida;0;0;1;67;0;0;1;67
"beluga whale for sale";0;0;1;38;0;0;1;38
"thomas tramp";0;0;1;6;0;0;1;6
"baudoin lebon";0;0;3;4.6666666666667;0;0;3;4.6666666666667
"ren hang";0;0;1;22;0;0;1;22
"spanish galleries";0;0;1;10;0;0;1;10
"philippe charpentier";0;0;1;1;0;0;1;1
"jeff kunst";0;0;1;39;0;0;1;39
"cityscape lighting works nightlight -";0;0;1;444;0;0;1;444
"pharrell williams asian";0;0;1;22;0;0;1;22
"bernard buffet print";0;0;1;75;0;0;1;75
"contemporary photography";0;0;1;447;0;0;1;447
"roxane stroobant";0;0;1;5;0;0;1;5
"mist art";0;0;1;5;0;0;1;5
"m endormir";0;0;1;37;0;0;1;37
"""open your mind""";0;0;1;2;0;0;1;2
"antoine stevens";0;0;13;7.0769230769231;0;0;7;7;0;0;6;7.1666666666667
kacere;0;0;1;49;0;0;1;49
"alma haser biography";0;0;1;2;0;0;1;2
shigong;0;0;2;37;0;0;2;37
"nkechi ebubedike";0;0;1;1;0;0;1;1
moriette;0;0;1;8;0;0;1;8
"jean-michel berts paris";0;0;1;35;0;0;1;35
"marcelli france";0;0;1;7;0;0;1;7
"claas gutsche";0;0;1;10;0;0;1;10
"li, wei";0;0;1;11;0;0;1;11
"basquiat untitled skull";0;0;1;23;0;0;1;23
"paris by night 95";0;0;1;67;0;0;1;67
"herve di rosa";0;0;1;9;0;0;1;9
"bettina von arnim";0;0;1;40;0;0;1;40
adrait;0;0;1;4;0;0;1;4
"deux chevaux for sale";0;0;1;39;0;0;1;39
"pierre schuster";0;0;1;1;0;0;1;1
"arthur lanyon";0;0;1;15;0;0;1;15
"gregory watin";0;0;1;5;0;0;1;5
"clara poupel";0;0;1;2;0;0;1;2
"gordon hopkins artist";0;0;4;4;0;0;1;4;0;0;1;4;0;0;2;4
lemilo;0;0;2;9.5;0;0;1;10;0;0;1;9
"shai dahan";0;0;1;27;0;0;1;27
"zhuo qi";0;0;1;1;0;0;1;1
"je s'aime";0;0;1;10
"gz store";0;0;2;19.5;0;0;1;6;0;0;1;7
"aris messinis";0;0;10;9.3;0;0;1;12
"vincent hawkins";0;0;3;10.333333333333;0;0;1;10
"anna bjerger paintings";0;0;1;5
"inca painting";0;0;1;44
"francoise nielly biography in english";0;0;1;37
"ephrem solomon";0;0;1;17
roch3;0;0;4;6.75;0;0;1;4
"bard artwork";0;0;1;8;0;0;1;9
"jenna haugmard";0;0;1;10
"david gerstein disco large";0;0;1;54
"bertrand noel";0;0;1;12
"porcelaine bleu et blanc";0;0;1;104
"mohamed lekleti";0;0;3;10
catbalou;0;0;1;47
kijno;0;0;2;9.5
"julian opie u2";0;0;1;40
"adam binder";0;0;2;43.5
"kim sun hyuk";0;0;1;2
"ruta jusionyte";0;0;1;9;0;0;2;8.5
"xavier blondeau";0;0;1;8
"richard melloul";0;0;1;11
"keith haring crack down";0;0;7;4.4285714285714;0;0;5;5
"bard artist";0;0;1;6;0;0;1;4
"yann houri";0;0;13;6.3846153846154
"rafael gomez barros";0;0;3;9.6666666666667
havahavana;0;0;2;38.5
rafiy;0;0;4;4.5;0;0;1;2
"crash street artist";0;0;1;8
meetic;0;0;1;145
"fabrice hyber";0;0;5;8.8;0;0;1;10
"odile decq";0;0;1;63
"natalia rak";0;0;2;18;0;0;2;7
"barnett furniture";0;0;1;332
"artistic fall";0;0;2;9
"bernard plossu";0;0;2;40;0;0;1;36
"lady gaga hello kitty";0;0;1;39
"chen yidan";0;0;1;2;0;0;2;2.5
"jianguo beijing";0;0;1;162
"jonone art";0;0;2;8
zalez;0;0;1;10
"la bascule upcoming events";0;0;1;48
"francoise nielly biography";0;0;1;15
"lucie bennett";0;0;1;20
"valerie hadida sculptures";0;0;1;9;0;0;2;8
"harold muñoz";0;0;1;14
tithonos;0;0;1;43
"lionel arnaudie";0;0;1;10
guyodo;0;0;2;3
"marilyn minter";0;0;1;113
"gabriel jones";0;0;1;45;0;0;1;9
durrey;0;0;1;11
"razvan hotel bucharest";0;0;1;76
"obey peace dove";0;0;1;1
"jonone street art";0;0;2;16;0;0;1;7
"gautier deblonde atelier";0;0;2;10
"nguyen the dung";0;0;1;4
"yvonne coomber art";0;0;1;46
"niclas castello";0;0;1;2
yvonnecoomber;0;0;1;28
"don quixote artwork";0;0;1;36
"sunday b morning";0;0;2;23.5
"lucien murat";0;0;6;4.3333333333333;0;0;1;1
"lolita galleries";0;0;1;40
calmets;0;0;3;6.6666666666667;0;0;2;5
velodrama;0;0;1;37
tihov;0;0;1;10
"ki to la gloire";0;0;2;6
"alechinsky portrait";0;0;1;4
"open your mind";0;0;185;2.3405405405405;0;0;59;2.2203389830508;0;0;4;1.75
"alain clement";0;0;3;8
"andrew mcattee";0;0;1;43
"galerie vivendi";0;0;1;7
"alexander tente";0;0;2;18
yarps;0;0;1;38
"ali berg";0;0;1;9
"best florist dorval";0;0;1;70
renonciat;0;0;1;6;0;0;1;8
"diane arbus artwork";0;0;2;24;0;0;1;26;0;0;1;24
mitz.at;0;0;2;28.5
"per sur";0;0;1;64
"katrin bremermann";0;0;6;1.6666666666667;0;0;2;8.5;0;0;7;3
zenoy;0;0;1;1
"francois morellet biography";0;0;1;5
"charles fazzino for sale";0;0;2;42
"bernard artist pictures";0;0;1;59
guofeng;0;0;1;111
"cabaret nudes";0;0;1;98
"dimitri tolstoi";0;0;2;9
fuger;0;0;1;338
"luca di filippo";0;0;1;8
"17th century paintings for sale";0;0;1;43
"yanko tihov";0;0;2;31
"raining colors";0;0;1;22
"genevieve claisse";0;0;5;6.2;0;0;1;4
"zhao bandi";0;0;2;1.5
"galerie hus";0;0;2;5.5
"fizz artwork";0;0;1;32
"shen jing dong";0;0;1;11
"yan morvan";0;0;1;12
smash137;0;0;1;51
"art works";0;0;1;343
"arte grosse vestments";0;0;1;134
"monsieur chat";0;0;2;6.5;0;0;4;7.75;0;0;1;7
"masha shubina";0;0;1;7
"rudi pillen";0;0;2;1;0;0;1;1
rancinan;0;0;1;23
"mel ramos";0;0;1;11;0;0;3;7
"yvonne coomber artist";0;0;1;38
"li kewei";0;0;1;11
"vasseur philippe";0;0;1;9
"passage du silence";0;0;1;13
openyourmind;0;0;3;5.3333333333333
"open your mind art";0;0;1;1
"monsieur serge";0;0;1;34
"maria perello";0;0;1;26
"monica denevan";0;0;1;18
"nils udo biography";0;0;1;4;0;0;1;4
"barry cawston";0;0;2;9.5;0;0;1;8
"shepard obey";0;0;1;38
"sun hyuk kim";0;0;1;1
"eva navarro";0;0;9;7.6666666666667
"wesselmann paintings";0;0;1;36
"ren hang wiki";0;0;2;7
+helmut+newton;0;0;1;140
"alex kizu";0;0;1;9
besher;0;0;1;8
"gruppe artist";0;0;1;32
quatrebarbes;0;0;1;22
"thomas bossard";0;0;1;6;0;0;1;5
"sarah lynn nudes";0;0;1;17
"kindred artwork";0;0;1;43
"florence d'elle";0;0;5;5.4;0;0;2;7.5;0;0;2;4
"le cerf";0;0;1;160
"blackstone gallery";0;0;1;34
"guy denning artist";0;0;1;10
"jeff koons art for sale";0;0;1;28
"manu perez france";0;0;1;10
"di rosa";0;0;1;10
"the bottom of the sea (2003)";0;0;1;20
onyme;0;0;1;30
guillemé;0;0;1;3
"lisa sartorio";0;0;1;6
"alex folla";0;0;1;4
"philippe azema";0;0;2;4
"miguel vallinas prieto";0;0;1;9
"jonone artist";0;0;3;12.666666666667;0;0;12;10.666666666667
"natalia rak art";0;0;1;7
"kyungwoo chun";0;0;1;21
"daan oude elferink";0;0;2;9;0;0;1;9;0;0;2;9
"jonathan huxley";0;0;5;5.6;0;0;3;4
"francoise nielly";0;0;1;42
"peikwen cheng";0;0;1;8
"tetsuo harada";0;0;1;11
"florence d elle photographs";0;0;1;1
"elise oudin gilles";0;0;2;7
"lie wei";0;0;3;3
"guy boyer";0;0;1;9
"atila biro";0;0;2;7
"reeve schumacher";0;0;2;8
"artigas planas";0;0;1;2
"francois houtin";0;0;1;1
"zhou hongbin";0;0;1;7
"bernard moninot";0;0;1;7
"the painters project";0;0;1;2
"anna żuber";0;0;1;32
"αρης μεσσινης";0;0;2;10
"michelle hold";0;0;1;10
"li wey";0;0;1;1
"kathleen ngale";0;0;1;67
"ama benjamin";0;0;3;20
"laurent maes";0;0;1;2
"mahe x";0;0;1;20
"ferro artist";0;0;1;6
pipet;0;0;1;163
keymi;0;0;1;8
"jon one";0;0;1;7
"kool koor";0;0;2;4
"niclas castello fire extinguisher";0;0;1;3
"peter lippmann";0;0;1;7;0;0;2;9
"brian neish";0;0;1;16
"juliette clovis";0;0;1;1
"marie cecile thijs";0;0;1;2
"bambi street artist";0;0;1;2
"antoine schneck";0;0;1;9
"peter wüthrich artist";0;0;1;8
"julie de waroquier";0;0;1;15
"arkiv vilmansa";0;0;1;9
"sarah maple";0;0;1;1
"shen jingdong";0;0;2;8
leyto;0;0;3;3
putov;0;0;1;9;0;0;3;2
"isabel espinoza";0;0;1;8
"eric lapierre";0;0;1;9
"tieri trademark";0;0;1;1
mariposas;0;0;1;178
"keith haring montreux jazz festival 1983";0;0;1;1
"nasty artwork";0;0;1;4
"anna bjerger";0;0;4;6.5
"keith haring lucky strike";0;0;1;1
"leah beggs";0;0;1;18
"thomas muller artist";0;0;1;5
"ronald dupont artist";0;0;1;4
"caroline yates artist";0;0;1;8
"jock sturges art";0;0;1;33
"peter krafft";0;0;2;35.5
"thibault brunet";0;0;1;9
"henri sarla";0;0;1;2
rayou;0;0;1;14
