nojnoma;5;0.3125;16;1.6875;0;0;1;2;5;0.33333333333333;15;1.6666666666667
"gallery nue";3;1;3;3.3333333333333;3;1;3;3.3333333333333
"timothee talard";2;0.66666666666667;3;5;2;0.66666666666667;3;5
"rakel wajnberg";1;0.5;2;1;1;0.5;2;1
"murakami flower cushion";1;0.33333333333333;3;7.3333333333333;0;0;1;8;1;0.5;2;7
"arnaud liard";1;1;1;4;1;1;1;4
"georges cabot";1;0.25;4;3.25;0;0;2;2;1;0.5;2;4.5
"peter lippmann";1;0.11111111111111;9;7.3333333333333;1;0.125;8;7.125;0;0;1;9
"jacques renoir";1;0.14285714285714;7;10.428571428571;0;0;4;9.75;1;0.33333333333333;3;11.333333333333
"mahjoub ben bella";1;0.25;4;5.75;1;0.25;4;5.75
"jean milo";1;1;1;5;1;1;1;5
"panda jiji";1;1;1;2;1;1;1;2
"jean faucheur";1;0.25;4;5;1;0.25;4;5
"nicolas dubreuille";1;0.14285714285714;7;3.4285714285714;1;0.16666666666667;6;3.1666666666667;0;0;1;5
"brigitte pénicaud";1;1;1;7;1;1;1;7
"under construction gallery";1;0.33333333333333;3;4.6666666666667;0;0;1;4;1;0.5;2;5
"francois bard";1;0.14285714285714;7;8.4285714285714;1;0.2;5;8.8;0;0;2;7.5
"brno del zou";1;0.14285714285714;7;2;0;0;4;2;1;0.5;2;2;0;0;1;2
"tatiana plotnikova";1;0.5;2;17.5;1;1;1;25;0;0;1;10
"aris messinis";1;0.013157894736842;76;9.1184210526316;0;0;34;9.1470588235294;1;0.029411764705882;34;9.2352941176471;0;0;8;8.5
"eugene begarat art";1;1;1;2;1;1;1;2
chanoir;1;0.33333333333333;3;4.3333333333333;1;0.5;2;2;0;0;1;9
"thomas gromas";1;1;1;11;1;1;1;11
"jerome mesnager";1;1;1;5;1;1;1;5
"άρης μεσσήνης";1;0.5;2;19.5;1;0.5;2;19.5
"speedy graphito";1;1;1;6;1;1;1;6
"guy denning artist";1;0.33333333333333;3;9.6666666666667;1;1;1;9;0;0;2;10
"banksy tenner for sale";1;1;1;18;1;1;1;18
"jimmy lawlor artist";1;0.2;5;9.8;0;0;1;9;1;0.25;4;10
"eva jospin artist";1;0.33333333333333;3;8.3333333333333;0;0;1;7;0;0;1;8;1;1;1;10
"anna bocek prices";1;0.5;2;8;1;0.5;2;8
"pierre francois grimaldi";1;1;1;2;1;1;1;2
"philippe pasqua";1;0.25;4;11;1;0.25;4;11
"arnaud paillard";1;1;1;5;1;1;1;5
"julian opie price";1;1;1;25;1;1;1;25
"bruno catalano prices";1;0.25;4;9;0;0;1;5;0;0;1;9;1;0.5;2;11
"simon von barloewen";1;0.2;5;4.4;1;0.33333333333333;3;2.6666666666667;0;0;2;7
"hiro ando artist";1;0.5;2;2;1;1;1;2;0;0;1;2
kokian;1;0.5;2;6;1;0.5;2;6
"charles guyot";1;0.33333333333333;3;1;1;0.33333333333333;3;1
"raymond hains";1;0.05;20;8.15;1;0.083333333333333;12;7.8333333333333;0;0;6;8.8333333333333;0;0;2;8
"aris messinis photography";1;0.14285714285714;7;10.714285714286;1;0.2;5;11.4;0;0;2;9
"valerie hadida";1;1;1;3;1;1;1;3
"florence d'elle";1;0.076923076923077;13;6.7692307692308;0;0;6;6.5;0;0;5;6.6;1;0.5;2;8
"christophe charbonnel artiste";1;0.33333333333333;3;2.3333333333333;0;0;1;1;1;1;1;5;0;0;1;1
"valerio adami";1;1;1;68;1;1;1;68
"yz artist";0;0;1;15;0;0;1;15
"razvan bucharest";0;0;1;165;0;0;1;165
"delphine brochand";0;0;5;9;0;0;5;9
"huston ripley";0;0;3;5.6666666666667;0;0;3;5.6666666666667
"hotel bobo";0;0;1;79;0;0;1;79
"e gallerie french";0;0;1;7;0;0;1;7
mesnager;0;0;1;13;0;0;1;13
ardpg;0;0;3;10;0;0;3;10
jadikan;0;0;5;9.2;0;0;1;6
"shepard fairey peace dove";0;0;1;1;0;0;1;1
"hiro x ando";0;0;1;9;0;0;1;9
"hom nguyen";0;0;1;10;0;0;1;10
mercky;0;0;1;9;0;0;1;9
"paris burel";0;0;1;2;0;0;1;2
"gilles aillaud";0;0;3;4.6666666666667;0;0;2;6.5;0;0;1;1
"jonas “sun7” bournat";0;0;1;4;0;0;1;4
"bruno mallart";0;0;1;8;0;0;1;8
"branding logos";0;0;2;417.5;0;0;1;421;0;0;1;414
"galerie giraudeau";0;0;1;9;0;0;1;9
"jerzy piwowarczyk";0;0;1;23;0;0;1;23
"open you mind";0;0;1;2;0;0;1;2
"vinz feel free";0;0;1;87;0;0;1;87
"sell tom wesselmann";0;0;1;41;0;0;1;41
"roman poem";0;0;1;316;0;0;1;316
litao;0;0;1;50;0;0;1;50
"louis stettner";0;0;1;29;0;0;1;29
"artist crash";0;0;1;8;0;0;1;8
"pierre & gilles";0;0;1;53;0;0;1;53
"sell jim dine";0;0;1;82;0;0;1;82
renoma;0;0;1;68;0;0;1;68
"christopher schulz";0;0;1;55;0;0;1;55
"keith haring watch";0;0;1;311;0;0;1;311
"clint eastwood artwork";0;0;1;30;0;0;1;30
"gw bots";0;0;1;48;0;0;1;48
nowart;0;0;1;10;0;0;1;10
"catherine klein artist";0;0;1;13;0;0;1;13
"bossard france";0;0;1;46;0;0;1;46
"braque sculpture";0;0;1;48;0;0;1;48
"conrad marca-relli";0;0;1;55;0;0;1;55
"belgique roi";0;0;1;45;0;0;1;45
"jan saudek biography";0;0;1;18;0;0;1;18
"pirate art for sale";0;0;1;28;0;0;1;28
"li lihong";0;0;3;3.3333333333333;0;0;2;2;0;0;1;6
"anna bocek paintings";0;0;1;27;0;0;1;27
"skateboard for sale";0;0;1;230;0;0;1;230
"christian frank rose";0;0;1;2;0;0;1;2
"catalano bruno";0;0;1;33;0;0;1;33
"ced lyon";0;0;1;23;0;0;1;23
"onur dinc";0;0;1;47;0;0;1;47
"allez la france";0;0;1;38;0;0;1;38
julianas;0;0;1;236;0;0;1;236
"mel ramos vintage";0;0;2;72.5;0;0;2;72.5
"kiss a wookie";0;0;1;18;0;0;1;18
"creepy art for sale";0;0;2;8.5;0;0;2;8.5
"yue minjun execution";0;0;1;241;0;0;1;241
"jack artist";0;0;1;432;0;0;1;432
"benjamin spark";0;0;1;24;0;0;1;24
"tokyo tower series";0;0;1;21;0;0;1;21
"takashi murakami for sale";0;0;2;11;0;0;2;11
"isabelle levistre";0;0;1;1;0;0;1;1
"oreille sale chat";0;0;1;25;0;0;1;25
"charles fazzino";0;0;1;47;0;0;1;47
"sell nick walker";0;0;1;74;0;0;1;74
"damien hirst for the love of god print";0;0;1;34;0;0;1;34
"antoni tapies original prints worcester";0;0;1;47;0;0;1;47
"gabriel paris";0;0;1;35;0;0;1;35
"yang yongliang";0;0;1;11;0;0;1;11
"ahmed moustafa artist";0;0;1;18;0;0;1;18
"hotel domaine saint hilaire roiffe";0;0;1;153;0;0;1;153
"animal beauty";0;0;1;25;0;0;1;25
maohuang;0;0;4;2;0;0;4;2
"cyril kongo";0;0;1;17;0;0;1;17
guinio;0;0;3;8.6666666666667;0;0;2;8.5;0;0;1;9
"charbonnel christophe";0;0;3;5.3333333333333;0;0;2;7.5;0;0;1;1
namasta;0;0;1;41;0;0;1;41
"tracey emin young";0;0;1;48;0;0;1;48
"paul stolper gallery";0;0;1;26;0;0;1;26
"charlelie couture new york";0;0;1;7;0;0;1;7
"sell shepard fairey / obey";0;0;1;73;0;0;1;73
"gerard mortier painter";0;0;2;2;0;0;2;2
"joseph beuys";0;0;1;136;0;0;1;136
"jef aérosol";0;0;1;14;0;0;1;14
"kristian von hornsleth";0;0;1;10;0;0;1;10
"florence d'elle photographs";0;0;1;1;0;0;1;1
"bambi cara";0;0;1;1;0;0;1;1
"remi rough & crash";0;0;1;41;0;0;1;41
"australian aboriginals art";0;0;1;310;0;0;1;310
"fashion photographer santa monica";0;0;1;170;0;0;1;170
"sell jeff koons";0;0;1;92;0;0;1;92
"guinness artwork";0;0;1;39;0;0;1;39
"christmas gift for guy";0;0;1;414;0;0;1;414
rauzier;0;0;1;32;0;0;1;32
"lin felton";0;0;2;3;0;0;2;3
"jaques villegle";0;0;1;5;0;0;1;5
"jimmy ruf";0;0;2;4;0;0;2;4
"guy denning bio";0;0;1;5
"guy denning artwork";0;0;1;5;0;0;1;5
"cali rezo";0;0;1;12;0;0;1;12
"jonny green artist";0;0;4;9;0;0;4;9
tanc;0;0;1;6;0;0;1;6
"blek le rat";0;0;1;76;0;0;1;76
"mwenze kibwanga";0;0;2;1;0;0;1;1;0;0;1;1
"saudek gallery";0;0;1;42;0;0;1;42
"awena chat";0;0;1;35;0;0;1;35
"hotel the ore";0;0;1;155;0;0;1;155
"wolf from 300";0;0;1;315;0;0;1;315
"wadi finan";0;0;4;10.25;0;0;4;10.25
"murielle belin";0;0;2;7.5;0;0;1;8;0;0;1;7
"reinhard gorner";0;0;1;16;0;0;1;16
"henri lamy artist";0;0;2;9;0;0;2;9
sirck;0;0;1;27;0;0;1;27
"el koor";0;0;2;6;0;0;2;6
"fresh to death";0;0;2;175.5;0;0;1;181;0;0;1;170
"colette levine";0;0;1;2;0;0;1;2
"galerie michael sturm";0;0;1;88;0;0;1;88
"dani olivier";0;0;1;9;0;0;1;9
"la maja desnuda";0;0;1;66;0;0;1;66
"benoit trimborn";0;0;1;5;0;0;1;5
"pavel brat";0;0;1;9;0;0;1;9
"magdalena lamri";0;0;2;6;0;0;2;6
"philippe weisbecker";0;0;2;6.5;0;0;1;4;0;0;1;9
"flor garduno";0;0;2;2.5;0;0;2;2.5
"andre masson";0;0;1;53;0;0;1;53
"robert indiana prints";0;0;1;78;0;0;1;78
"jamie hewlett kid";0;0;1;11;0;0;1;11
"henri lamy";0;0;4;8.75;0;0;4;8.75
"jacques villeglé";0;0;3;6.6666666666667;0;0;1;10;0;0;2;5
"richard orlinski";0;0;3;9;0;0;3;9
takala;0;0;20;5.75;0;0;10;6.2;0;0;10;5.3
"daniel göttin";0;0;1;14;0;0;1;14
"daniel lucien durand";0;0;1;38;0;0;1;38
"cornette de";0;0;1;14;0;0;1;14
"ran hwang";0;0;1;53;0;0;1;53
"etienne rey";0;0;1;20;0;0;1;20
fkdl;0;0;1;21;0;0;1;21
"mathieu mercier";0;0;1;90;0;0;1;90
"thomas muller art";0;0;2;6.5;0;0;1;6;0;0;1;7
"gwen marseille";0;0;1;4;0;0;1;4
"art callegari";0;0;1;9;0;0;1;9
"renoma street";0;0;1;28;0;0;1;28
"david capocci";0;0;1;228;0;0;1;228
"mel ramos superman";0;0;1;29;0;0;1;29
planas;0;0;1;88;0;0;1;88
"jean fautrier";0;0;1;25;0;0;1;25
"mel ramos prints";0;0;1;78;0;0;1;78
"nils udo";0;0;5;12;0;0;3;12.333333333333;0;0;2;11.5
"takashi murakami prints for sale";0;0;1;20;0;0;1;20
"pierre marie brisson";0;0;2;1;0;0;2;1
"francesco libassi";0;0;1;8;0;0;1;8
"yrjö edelmann";0;0;1;46;0;0;1;46
"ana bocek";0;0;1;10;0;0;1;10
"whang shu";0;0;1;10;0;0;1;10
"miss van";0;0;1;89;0;0;1;89
"annette messager biography";0;0;1;13;0;0;1;13
"evelyne jacques";0;0;1;8;0;0;1;8
"murano lamper";0;0;1;33;0;0;1;33
"bruno catalano";0;0;1;32;0;0;1;32
"jacques mahé de la villeglé";0;0;4;8.5;0;0;3;8.6666666666667;0;0;1;8
"shirley smith artist";0;0;1;227;0;0;1;227
"jerome lagarrigue";0;0;1;3;0;0;1;3
garnier;0;0;1;236;0;0;1;236
liwei;0;0;10;10.2;0;0;10;10.2
"bernard chauveau";0;0;1;8;0;0;1;8
"philippe croq";0;0;2;1;0;0;2;1
"en plastique contact dunkirk -";0;0;1;155;0;0;1;155
"amercian gothic";0;0;1;404;0;0;1;404
shanshui;0;0;1;194;0;0;1;194
"arthur tress dream collector";0;0;1;43;0;0;1;43
"sell jean-michel basquiat";0;0;1;87;0;0;1;87
hominium;0;0;1;11;0;0;1;11
durix;0;0;1;4;0;0;1;4
"henri matisse original prints worcester";0;0;1;35;0;0;1;35
"jan saudek photos";0;0;1;30;0;0;1;30
"basquiat art for sale";0;0;2;28;0;0;2;28
danzé;0;0;1;29;0;0;1;29
"murakami art for sale";0;0;1;19;0;0;1;19
"tulum for sale";0;0;1;249;0;0;1;249
"david gerstein art for sale";0;0;1;5;0;0;1;5
cédrix;0;0;1;4;0;0;1;4
"sandro giordano";0;0;3;15.333333333333;0;0;2;17;0;0;1;12
"stephanie dingle";0;0;2;18;0;0;2;18
"bernard pras";0;0;2;2;0;0;2;2
"andre cottavoz";0;0;1;7;0;0;1;7
"marie piselli";0;0;1;3;0;0;1;3
"peter keizer";0;0;1;10;0;0;1;10
"jm robert art";0;0;1;5;0;0;1;5
"bettina von arnim";0;0;1;36;0;0;1;36
"anouk grinberg";0;0;3;42.333333333333;0;0;3;42.333333333333
godon;0;0;14;2.7857142857143;0;0;9;3;0;0;3;2.3333333333333;0;0;2;2.5
"sunday b morning marilyn";0;0;1;18;0;0;1;18
couettes;0;0;1;244;0;0;1;244
"open your mind images";0;0;1;1;0;0;1;1
"mel ramos vantage";0;0;2;1;0;0;2;1
"""etching,"" + ""contact"" ~lagos";0;0;1;436;0;0;1;436
"christophe dugied";0;0;1;1;0;0;1;1
"takashi murakami flower pillow";0;0;1;6;0;0;1;6
"jan saudek photo";0;0;1;35;0;0;1;35
"françoise nielly";0;0;2;6;0;0;2;6
"claude champy";0;0;1;5;0;0;1;5
roynette;0;0;1;13;0;0;1;13
"benjamin carbonne";0;0;9;1.3333333333333;0;0;5;1;0;0;1;1;0;0;3;2
"paul lubliner";0;0;1;11;0;0;1;11
"anna bocek artist";0;0;1;10;0;0;1;10
"cara artist";0;0;1;1;0;0;1;1
saint-cyr;0;0;1;194;0;0;1;194
"jacqueline roberts photography";0;0;1;9;0;0;1;9
"etienne gros";0;0;11;6.1818181818182;0;0;8;6.375;0;0;2;4.5;0;0;1;8
aliot;0;0;3;59.333333333333;0;0;3;59.333333333333
"claude charlier";0;0;2;8.5;0;0;1;10;0;0;1;7
houtin;0;0;2;10;0;0;1;11;0;0;1;9
"hotel ristorante le camene";0;0;1;83;0;0;1;83
"maarten stuer";0;0;1;3;0;0;1;3
"etienne cail";0;0;11;1.0909090909091;0;0;4;1;0;0;5;1.2;0;0;2;1
"david ferreira artist";0;0;1;7;0;0;1;7
"nils udo artwork";0;0;1;9;0;0;1;9
"bernard pras artist";0;0;1;10;0;0;1;10
"li wei artist";0;0;2;13.5;0;0;1;18;0;0;1;9
"julian opie interview";0;0;1;38;0;0;1;38
"polly ngale paintings";0;0;3;37;0;0;2;37;0;0;1;37
"becuwe contact";0;0;1;27;0;0;1;27
"artwork milano";0;0;1;48;0;0;1;48
"aviva brooks";0;0;1;7;0;0;1;7
"how loader works";0;0;1;315;0;0;1;315
"eugenio carmi";0;0;1;24;0;0;1;24
"cecile plaisance";0;0;1;4;0;0;1;4
"nue gallery";0;0;1;3;0;0;1;3
"lyle carbajal art";0;0;1;5;0;0;1;5
nidzgorski;0;0;1;31;0;0;1;31
"les mouettes";0;0;1;195;0;0;1;195
"corno artist";0;0;1;9;0;0;1;9
"levalet street art";0;0;1;7;0;0;1;7
"john matos";0;0;6;8.1666666666667;0;0;1;7;0;0;5;8.4
"kac eduardo";0;0;1;44;0;0;1;44
"three pools mirroring the moon";0;0;2;37;0;0;2;37
"minimalism art for sale";0;0;1;24;0;0;1;24
"gerstein art";0;0;1;41;0;0;1;41
"gijsbert hanekroot";0;0;4;1.5;0;0;4;1.5
"serge labegorre";0;0;1;6;0;0;1;6
"jett pink";0;0;1;27;0;0;1;27
miss.tic;0;0;1;9;0;0;1;9
suficate;0;0;1;345;0;0;1;345
"gabriel bodnariu";0;0;1;8;0;0;1;8
alet;0;0;1;214;0;0;1;214
fugam;0;0;1;45;0;0;1;45
"kai schäfer";0;0;1;32;0;0;1;32
"crystal wagner biotica";0;0;1;24;0;0;1;24
"francky boy";0;0;1;5;0;0;1;5
"mehdi \lemoduledezeer\";0;0;1;13;0;0;1;13
"damien hirst biographie";0;0;1;13;0;0;1;13
"chris macauley";0;0;2;4;0;0;2;4
"takashi murakami pillow";0;0;1;25;0;0;1;25
"li weisi";0;0;1;1;0;0;1;1
"la grimaldi";0;0;1;167;0;0;1;167
"adek graffiti";0;0;1;45;0;0;1;45
"oliver dorfer";0;0;1;16;0;0;1;16
"murakami pillow";0;0;1;53;0;0;1;53
"anna borowy";0;0;1;13;0;0;1;13
"кристина костадинова";0;0;2;6;0;0;2;6
"narcose serie";0;0;4;8.75;0;0;2;8.5;0;0;2;9
"françois houtin";0;0;3;7.6666666666667;0;0;3;7.6666666666667
"taki 183";0;0;1;9;0;0;1;9
"nue art";0;0;1;3;0;0;1;3
"adeline spengler";0;0;1;4;0;0;1;4
"bernard szajner";0;0;1;40;0;0;1;40
"thomas jorion";0;0;1;2;0;0;1;2
"oeuf sale";0;0;1;52;0;0;1;52
"jean gabriel";0;0;1;152;0;0;1;152
"urban toile";0;0;1;341;0;0;1;341
沈敬东;0;0;3;5.6666666666667;0;0;1;11;0;0;2;3
"elle en veut";0;0;1;49;0;0;1;49
"stephane gautier";0;0;1;2;0;0;1;2
"liu tingting";0;0;1;20;0;0;1;20
"how old is aboriginal art";0;0;1;333;0;0;1;333
"thierry pelletier";0;0;1;10;0;0;1;10
"octavian florescu";0;0;1;28;0;0;1;28
"roy sfeir";0;0;1;5;0;0;1;5
"jack otway art";0;0;1;3;0;0;1;3
"raymond voinquel";0;0;193;7.979274611399;0;0;193;7.979274611399
"philippe parreno";0;0;1;71;0;0;1;71
"anca cernoschi";0;0;1;16;0;0;1;16
"franck lundangi";0;0;1;5;0;0;1;5
"le pont neuf";0;0;1;181;0;0;1;181
"patrick bailly";0;0;1;2;0;0;1;2
"bernard quentin";0;0;1;15;0;0;1;15
"melanie bonajo";0;0;2;70.5;0;0;2;70.5
"jasmine black and white";0;0;1;10;0;0;1;10
dubailand;0;0;3;194.33333333333;0;0;1;191;0;0;1;194;0;0;1;198
"litao zhang";0;0;1;34;0;0;1;34
"david harber sculpture prices";0;0;1;9;0;0;1;9
"benjamin laurent";0;0;1;15;0;0;1;15
"arno bani";0;0;1;20;0;0;1;20
"alexandre joly";0;0;1;22;0;0;1;22
"lego batista";0;0;1;9;0;0;1;9
"dibond signage in lagos";0;0;3;44;0;0;3;44
lachesis;0;0;1;244;0;0;1;244
"petra wunderlich";0;0;9;7.3333333333333;0;0;6;7.5;0;0;3;7
"annette messager sculpture";0;0;1;10;0;0;1;10
"anthony murphy artist";0;0;1;7;0;0;1;7
"clinton friedman";0;0;3;34.333333333333;0;0;2;32;0;0;1;39
"anderson & low";0;0;2;60.5;0;0;2;60.5
quir;0;0;1;47;0;0;1;47
"galerie brugier rigail";0;0;1;7;0;0;1;7
"buy tom wesselmann";0;0;1;65;0;0;1;65
"ernest pignon-ernest";0;0;1;31;0;0;1;31
"borys makary";0;0;1;33;0;0;1;33
"roland topor art";0;0;1;10;0;0;1;10
"carlos betancourt artist";0;0;1;32;0;0;1;32
"hazuka jacek";0;0;1;19;0;0;1;19
"artlife gallery";0;0;1;14;0;0;1;14
"how old was henri matisse when he died";0;0;1;343;0;0;1;343
"nature artwork for sale";0;0;1;33;0;0;1;33
"levalet art";0;0;1;9;0;0;1;9
"ready to die artwork";0;0;2;10;0;0;2;10
"lyle carbajal";0;0;2;10;0;0;2;10
"sell julian opie";0;0;1;73;0;0;1;73
"hiroshima mon amor";0;0;1;318;0;0;1;318
"bambi artist";0;0;1;1;0;0;1;1
iemza;0;0;1;16;0;0;1;16
"""etching"" + ""contact"" ~lagos";0;0;5;476.6;0;0;5;476.6
"greg carlin";0;0;1;35;0;0;1;35
"yvonne coomber";0;0;1;60;0;0;1;60
"dok art";0;0;1;44;0;0;1;44
gromas;0;0;1;42;0;0;1;42
"sous bock";0;0;1;50;0;0;1;50
"bob verschueren artist";0;0;1;7;0;0;1;7
"bruno catalano for sale";0;0;2;3;0;0;2;3
"envie d'art";0;0;2;6.5;0;0;1;4;0;0;1;9
"maria diaz perez";0;0;1;9;0;0;1;9
"barnebys auction";0;0;1;47;0;0;1;47
"peter downsbrough";0;0;1;72;0;0;1;72
"sigune hamann";0;0;1;27;0;0;1;27
"paul bogaers";0;0;1;35;0;0;1;35
"leonida de filippi";0;0;1;14;0;0;1;14
"herve telemaque";0;0;1;9;0;0;1;9
"marc ferrero";0;0;2;8.5;0;0;1;10;0;0;1;7
"luzia simons photography";0;0;1;9;0;0;1;9
".wang/ passe";0;0;1;300;0;0;1;300
"jan saudek photographs";0;0;1;48;0;0;1;48
"'40 x";0;0;1;128;0;0;1;128
"helmut newton sumo for sale";0;0;2;27;0;0;2;27
"lonely road";0;0;1;317;0;0;1;317
"sandrine france";0;0;1;246;0;0;1;246
"kathleen petyarre";0;0;1;53;0;0;1;53
dooze;0;0;1;32;0;0;1;32
"vincent fillon";0;0;4;7.5;0;0;4;7.5
"giorgio laveri";0;0;1;10;0;0;1;10
"yasemin senel";0;0;1;18;0;0;1;18
"mark mawson";0;0;1;44;0;0;1;44
"vincent richeux";0;0;1;8;0;0;1;8
"artist jp";0;0;1;6;0;0;1;6
"vitam impedere vero";0;0;1;7;0;0;1;7
"francois bard artist";0;0;1;9;0;0;1;9
"jean-francois rauzier";0;0;1;31;0;0;1;31
"galerie du marais";0;0;1;11;0;0;1;11
"cara delevingne stencil";0;0;4;2.25;0;0;3;1;0;0;1;6
"fela kuti artwork";0;0;1;9;0;0;1;9
kontakthof;0;0;1;46;0;0;1;46
"gianni colosimo";0;0;1;6;0;0;1;6
"oxford palace hotel and galleri";0;0;1;193;0;0;1;193
"1000 kisses";0;0;4;6.5;0;0;2;8;0;0;1;3;0;0;1;7
haedus;0;0;1;50;0;0;1;50
"gordon locksley";0;0;1;313;0;0;1;313
"victor lope arte contemporaneo";0;0;1;68;0;0;1;68
"richard orlinski prices";0;0;1;4;0;0;1;4
"gottfried salzmann";0;0;3;7.3333333333333;0;0;3;7.3333333333333
"asgar gabriel";0;0;3;6.6666666666667;0;0;3;6.6666666666667
"autumn atkinson";0;0;1;135;0;0;1;135
"nick walker artist";0;0;1;48;0;0;1;48
"yuval shaul";0;0;1;5;0;0;1;5
"philippe bonan";0;0;1;3;0;0;1;3
"kate boxer";0;0;1;24;0;0;1;24
"francois giraudeau";0;0;1;16;0;0;1;16
"hermann nitsch video";0;0;1;44;0;0;1;44
"abie loy paintings";0;0;3;58.666666666667;0;0;2;59.5;0;0;1;57
"open your min";0;0;4;5;0;0;3;5.3333333333333;0;0;1;4
"alberto martini artist";0;0;1;6;0;0;1;6
"artwork capelli";0;0;1;25;0;0;1;25
"stephen forbes artist";0;0;2;3.5;0;0;2;3.5
"soasig chamaillard";0;0;1;19;0;0;1;19
"andré cottavoz";0;0;1;5;0;0;1;5
"jean georges inca";0;0;1;1;0;0;1;1
begarat;0;0;4;2.75;0;0;3;3;0;0;1;2
"andrea michaelsson";0;0;1;9;0;0;1;9
"david gerstein 5th avenue";0;0;3;7.6666666666667;0;0;1;8;0;0;1;8;0;0;1;7
"simon liddiment";0;0;2;7;0;0;1;7;0;0;1;7
"gabriela tolomei";0;0;1;4;0;0;1;4
"takashi murakami mr dob";0;0;1;42;0;0;1;42
"john bulmer";0;0;7;11;0;0;7;11
mbfactory;0;0;1;42;0;0;1;42
"indo artist";0;0;1;10;0;0;1;10
"art supplies paris";0;0;1;336;0;0;1;336
"de ruyter";0;0;1;332;0;0;1;332
"robert bradford";0;0;1;6;0;0;1;6
"tom wesselmann";0;0;1;35;0;0;1;35
"misskiss_ nude";0;0;1;36;0;0;1;36
"naive art for sale";0;0;1;58;0;0;1;58
gardol;0;0;1;68;0;0;1;68
"jim morrison artwork";0;0;1;36;0;0;1;36
"vuk vidor art history";0;0;4;6;0;0;4;6
"ours polaire";0;0;1;195;0;0;1;195
"nielly francoise prints";0;0;1;26;0;0;1;26
"marc figueras paintings";0;0;1;9;0;0;1;9
"ville du soleil";0;0;1;31;0;0;1;31
nkechi;0;0;1;45;0;0;1;45
"planete serie";0;0;2;13;0;0;2;13
"dendura ""profession""";0;0;1;130;0;0;1;130
"by nieves";0;0;1;43;0;0;1;43
"one fine day";0;0;1;322;0;0;1;322
"norman rockwell sports prints";0;0;1;64;0;0;1;64
"juanita cruz";0;0;1;40;0;0;1;40
"vabien 2";0;0;1;167;0;0;1;167
melramos;0;0;2;11;0;0;2;11
"art supplies paris france";0;0;1;303;0;0;1;303
chubac;0;0;2;6;0;0;2;6
"pakpoom silaphan";0;0;2;20.5;0;0;2;20.5
"how morphine works";0;0;1;249;0;0;1;249
makhloufi;0;0;3;37.333333333333;0;0;3;37.333333333333
"ayline olukman";0;0;2;5;0;0;2;5
nellisa;0;0;1;7;0;0;1;7
"émeric chantier";0;0;1;16;0;0;1;16
"patrick villas";0;0;2;1.5;0;0;1;2;0;0;1;1
uburen;0;0;1;48;0;0;1;48
"gohar dashti artist";0;0;2;8;0;0;1;8;0;0;1;8
autard;0;0;1;30;0;0;1;30
"olivier megaton";0;0;1;70;0;0;1;70
carabas;0;0;1;93;0;0;1;93
cornillet;0;0;1;5;0;0;1;5
katzler;0;0;1;44;0;0;1;44
awena;0;0;1;41;0;0;1;41
"jan saudek prague";0;0;1;31;0;0;1;31
"jonathan callan";0;0;1;52;0;0;1;52
"yuzu jam";0;0;1;33;0;0;1;33
"sell mel ramos";0;0;1;40;0;0;1;40
erró;0;0;1;50;0;0;1;50
"""geometric"" + ""contact"" ~lagos";0;0;3;549.66666666667;0;0;3;549.66666666667
"harold munoz";0;0;1;16;0;0;1;16
"gbp 130";0;0;1;302;0;0;1;302
"gerard rancinan";0;0;2;19.5;0;0;2;19.5
"coccinelle sale";0;0;1;43;0;0;1;43
"guerin artist";0;0;1;39;0;0;1;39
"matthew tyson";0;0;2;6;0;0;2;6
"cornwall contemporary";0;0;1;7;0;0;1;7
"gros artist";0;0;1;14;0;0;1;14
"palazzo bembo venise";0;0;1;181;0;0;1;181
"la souris sur le gateau";0;0;1;6;0;0;1;6
"alain godon";0;0;1;2;0;0;1;2
"shipping cars by train";0;0;1;328;0;0;1;328
fratrie;0;0;1;36;0;0;1;36
"studios petros";0;0;1;90;0;0;1;90
"christophe colomb";0;0;1;194;0;0;1;194
"famous contemporary artists";0;0;1;27;0;0;1;27
"jeanne lorioz";0;0;5;9.2;0;0;3;10;0;0;2;8
"keith haring christmas album";0;0;1;30;0;0;1;30
"vincent corpet";0;0;1;6;0;0;1;6
uqulele;0;0;1;8;0;0;1;8
morocoo;0;0;1;76;0;0;1;76
"berry ha";0;0;2;3;0;0;2;3
"timur novikov";0;0;1;42;0;0;1;42
"antoine rose";0;0;10;5;0;0;10;5
baldaccini;0;0;1;45;0;0;1;45
"grimoire for sale";0;0;1;35;0;0;1;35
"scanavino emilio";0;0;1;42;0;0;1;42
seher;0;0;1;151;0;0;1;151
"figurative paintings for sale";0;0;1;16;0;0;1;16
"relton marine";0;0;1;4;0;0;1;4
"art fairs";0;0;1;315;0;0;1;315
"sebastien micke";0;0;1;3;0;0;1;3
"jean pierre schneider";0;0;1;23;0;0;1;23
"maldonado artist";0;0;1;31;0;0;1;31
nouna;0;0;1;85;0;0;1;85
"florian rosier";0;0;1;9;0;0;1;9
"tom wesselman";0;0;1;46;0;0;1;46
"george braque prints";0;0;1;88;0;0;1;88
"wiesmann gt mf5 for sale";0;0;1;24;0;0;1;24
"catherine houard";0;0;4;7;0;0;4;7
"galerie charron";0;0;1;4;0;0;1;4
"alexander then";0;0;1;418;0;0;1;418
"linda blackstone gallery";0;0;2;8;0;0;2;8
misstic;0;0;1;10;0;0;1;10
"concorde paris";0;0;1;178;0;0;1;178
"obey skate";0;0;1;53;0;0;1;53
"stiliana alexieva";0;0;2;9;0;0;2;9
"kongo graffiti";0;0;1;13;0;0;1;13
"césar baldaccini compression";0;0;1;8;0;0;1;8
"candle in the wind";0;0;2;183;0;0;1;180;0;0;1;186
"elysées paris";0;0;1;163;0;0;1;163
"lambermont bruxelles";0;0;1;172;0;0;1;172
"hervé di rosa";0;0;1;6;0;0;1;6
"la tour eiffel";0;0;1;177;0;0;1;177
"galerie c";0;0;1;7;0;0;1;7
"zhao bandi";0;0;2;7.5;0;0;2;7.5
"les dunes";0;0;1;158;0;0;1;158
"gabriela bodin";0;0;3;5;0;0;3;5
"scarabee 1";0;0;1;28;0;0;1;28
paumelle;0;0;1;32;0;0;1;32
"bruno catalano sculpture for sale";0;0;1;7;0;0;1;7
"cricket fine art";0;0;1;8;0;0;1;8
koleć;0;0;1;3;0;0;1;3
"christy lee";0;0;1;174;0;0;1;174
"mark demsteader";0;0;1;42;0;0;1;42
"fantasy art for sale";0;0;1;33;0;0;1;33
"pons x";0;0;1;47;0;0;1;47
"layryn hill";0;0;1;226;0;0;1;226
"patrick loste";0;0;1;6;0;0;1;6
"escudo for sale";0;0;1;118;0;0;1;118
"nicolas paris artist";0;0;1;94;0;0;1;94
"filippo minelli";0;0;1;31;0;0;1;31
"spectacled owl";0;0;1;157;0;0;1;157
"renaud delorme";0;0;2;5.5;0;0;2;5.5
"eric great rex";0;0;1;6;0;0;1;6
nude;0;0;1;5;0;0;1;5
"aboriginal budapest";0;0;1;174;0;0;1;174
"korosh ghazimorad";0;0;1;10;0;0;1;10
"prince and princess art gallery";0;0;1;9;0;0;1;9
"du beffroi calais";0;0;1;55;0;0;1;55
gielczynski;0;0;1;1;0;0;1;1
"john steel artist";0;0;1;7;0;0;1;7
"branding and logos";0;0;3;407.33333333333;0;0;2;407.5;0;0;1;407
"obey artwork for sale";0;0;3;15;0;0;3;15
"jeff koons lips";0;0;1;19;0;0;1;19
"loader sur roue";0;0;1;43;0;0;1;43
"obey poster for sale";0;0;1;80;0;0;1;80
"yellow artwork for sale";0;0;2;21
"le point";0;0;1;184;0;0;1;184
"guy de rougemont";0;0;5;8.6;0;0;4;8.5;0;0;1;9
"quik art";0;0;1;1;0;0;1;1
"jack otway";0;0;2;9;0;0;2;9
"millésime gallery";0;0;1;8;0;0;1;8
"christophe charbonnel";0;0;16;5.625;0;0;13;6.2307692307692;0;0;2;4;0;0;1;1
doia;0;0;1;59;0;0;1;59
"anke van iersel";0;0;1;16;0;0;1;16
沈敬東;0;0;1;3;0;0;1;3
"golden beach for sale";0;0;1;169;0;0;1;169
plisson;0;0;1;218;0;0;1;218
"andy warhol flowers";0;0;1;1;0;0;1;1
"cellai hotel florence";0;0;2;155;0;0;2;155
"hello kitty artwork";0;0;1;132;0;0;1;132
"audoin desforges";0;0;1;7;0;0;1;7
shuck2;0;0;1;9;0;0;1;9
"jean michel basquiat paintings for sale";0;0;1;42;0;0;1;42
"anna bocek";0;0;3;9.3333333333333;0;0;1;12;0;0;1;6;0;0;1;10
"philippe charpentier";0;0;1;1;0;0;1;1
"sand artwork";0;0;1;320;0;0;1;320
"pras bernard";0;0;1;1;0;0;1;1
"peter klasen artist";0;0;1;4;0;0;1;4
"nathalie borst";0;0;2;14;0;0;2;14
"woda voss alma";0;0;1;45;0;0;1;45
"henry lamy";0;0;1;9;0;0;1;9
"francoise nielly art";0;0;1;30;0;0;1;30
"luzia simons";0;0;3;6.3333333333333;0;0;3;6.3333333333333
"marcus egli";0;0;1;2;0;0;1;2
"chu teh-chun";0;0;1;45;0;0;1;45
"stéphane cattaneo";0;0;1;3;0;0;1;3
"peter hoffer";0;0;1;33;0;0;1;33
"jacques villegle artwork";0;0;1;8;0;0;1;8
"shen artwork";0;0;1;7;0;0;1;7
"j ibert";0;0;1;33;0;0;1;33
"gerstein up to date";0;0;1;7;0;0;1;7
"keith coventry";0;0;1;57;0;0;1;57
"onur artist";0;0;3;8;0;0;1;8;0;0;2;8
"bernard rancillac";0;0;3;9.6666666666667;0;0;1;9;0;0;2;10
cottavoz;0;0;1;10;0;0;1;10
"gainsbourg dali";0;0;1;12;0;0;1;12
boisrond;0;0;3;11;0;0;3;11
"chata m";0;0;1;17;0;0;1;17
"max czertok";0;0;5;6.2;0;0;5;6.2
"jimmy lawlor paintings for sale";0;0;1;10;0;0;1;10
"herve lewis photo";0;0;1;1;0;0;1;1
"david crismon";0;0;2;11.5;0;0;1;9;0;0;1;14
"cédric teisseire";0;0;1;10;0;0;1;10
kleiber;0;0;1;184;0;0;1;184
"jean-christophe ballot";0;0;1;41;0;0;1;41
"julian opie for sale";0;0;2;41;0;0;2;41
"pierre attal";0;0;1;5;0;0;1;5
"ji eun park";0;0;1;46;0;0;1;46
"vincent hawkins artist";0;0;1;12;0;0;1;12
"murielle vanhove";0;0;1;7;0;0;1;7
"jacques lacroix";0;0;2;9;0;0;1;10;0;0;1;8
"cony theis";0;0;1;17;0;0;1;17
"art attat";0;0;1;220;0;0;1;220
"murakami dob";0;0;1;29;0;0;1;29
"αρης μεσσηνης";0;0;2;17;0;0;2;17
"alain buyse";0;0;1;9;0;0;1;9
"mel ramos virnaburger";0;0;2;6;0;0;2;6
"""dixitais"" + ""contact"" ~amusement";0;0;1;205;0;0;1;205
"nathalie paul";0;0;1;321;0;0;1;321
"burnt siena";0;0;1;333;0;0;1;333
"buzon e";0;0;1;33;0;0;1;33
"lacroix jacques";0;0;1;11;0;0;1;11
"spengler france";0;0;1;26;0;0;1;26
"soleil bleu";0;0;1;162;0;0;1;162
"mira maodus";0;0;3;4.3333333333333;0;0;3;4.3333333333333
"maria jose concha";0;0;1;18;0;0;1;18
"yo marchand";0;0;1;4;0;0;1;4
"oleg dou artist";0;0;3;8.6666666666667;0;0;1;10;0;0;2;8
"bicha gallery";0;0;1;95;0;0;1;95
"jean hélion";0;0;2;37.5;0;0;1;44;0;0;1;31
"saudek photography";0;0;1;50;0;0;1;50
"kamasutra 1";0;0;1;18;0;0;1;18
"pei power";0;0;1;215;0;0;1;215
"nick walker prints";0;0;1;75;0;0;1;75
"contemporary middle eastern art";0;0;2;398;0;0;2;398
"silvia calmejane";0;0;3;5.6666666666667;0;0;2;6;0;0;1;5
"jean marie marion mannequin";0;0;1;9;0;0;1;9
"jeanne susplugas";0;0;1;13;0;0;1;13
pradino;0;0;1;2;0;0;1;2
"polly ngale";0;0;3;27.666666666667;0;0;3;27.666666666667
"jean paul lubliner";0;0;1;10;0;0;1;10
"el glaoui";0;0;1;29;0;0;1;29
"marine cattaneo";0;0;1;8;0;0;1;8
"messalina x";0;0;1;29;0;0;1;29
"elan credit card";0;0;1;80;0;0;1;80
"steven gagnon";0;0;1;68;0;0;1;68
btoy;0;0;1;38;0;0;1;38
"art traffik";0;0;1;3;0;0;1;3
"dollar bill artist";0;0;1;322;0;0;1;322
"mr brainwash prints";0;0;2;78;0;0;2;78
"jean claude deutsch";0;0;2;7;0;0;2;7
"mr brainwash artwork";0;0;1;76;0;0;1;76
"buy andrew mcattee";0;0;1;36;0;0;1;36
"angel duarte";0;0;3;2.3333333333333;0;0;3;2.3333333333333
"diffusion sale";0;0;1;20;0;0;1;20
"abrazo de luz";0;0;1;49;0;0;1;49
"mr brainwash prints for sale";0;0;1;35;0;0;1;35
"john short artist";0;0;1;16;0;0;1;16
"christine characters";0;0;1;301;0;0;1;301
"moya art";0;0;1;71;0;0;1;71
"sandrine gousset";0;0;1;1;0;0;1;1
"markowicz fine art";0;0;2;38;0;0;2;38
"pol_grafa obra gr_fica";0;0;1;92;0;0;1;92
"newton flowers";0;0;1;99;0;0;1;99
"thomas müller artist";0;0;2;7.5;0;0;2;7.5
"ren hang photographer";0;0;1;6;0;0;1;6
"muay thai artwork";0;0;1;32;0;0;1;32
"aykaz arzumanyan";0;0;2;10;0;0;1;10;0;0;1;10
"kate barry";0;0;1;49;0;0;1;49
"pierre riba";0;0;2;6.5;0;0;1;7;0;0;1;6
"graham dolphin";0;0;3;10.333333333333;0;0;1;13;0;0;2;9
"roman opalka";0;0;1;73;0;0;1;73
lardanchet;0;0;1;8;0;0;1;8
"irina starkova";0;0;4;9.5;0;0;4;9.5
"stephane joannes";0;0;1;5;0;0;1;5
"polly ngale aboriginal art";0;0;3;48.666666666667;0;0;2;48;0;0;1;50
"georges braque";0;0;2;165;0;0;1;159;0;0;1;171
hako;0;0;1;177;0;0;1;177
"matthew feyld";0;0;1;19;0;0;1;19
"hotel le domaine du palais des eveques saint-lizier";0;0;1;156;0;0;1;156
"yan pei ming";0;0;1;67;0;0;1;67
"chu teh chun";0;0;1;42;0;0;1;42
"jacque villegle";0;0;1;7;0;0;1;7
"kurt cobain artwork for sale";0;0;1;27;0;0;1;27
"marc petit";0;0;1;62;0;0;1;62
"jan saudek pictures";0;0;1;18;0;0;1;18
tuxon;0;0;1;38;0;0;1;38
"eric liot";0;0;2;9.5;0;0;1;9;0;0;1;10
"charro skull";0;0;1;10;0;0;1;10
"catherine seher";0;0;1;8;0;0;1;8
"givenchy hat";0;0;8;25;0;0;8;25
seaty;0;0;1;18;0;0;1;18
"francoise nielly for sale";0;0;1;19;0;0;1;19
"uwe ommer";0;0;2;18;0;0;2;18
"andy warhol art movement";0;0;1;440;0;0;1;440
"aki kuroda";0;0;7;1.7142857142857;0;0;2;3.5;0;0;4;1;0;0;1;1
"francine van hove";0;0;1;19;0;0;1;19
"antoine correia";0;0;2;6;0;0;2;6
"jean tinguely";0;0;1;74;0;0;1;74
"takashi murakami art for sale";0;0;2;12.5;0;0;2;12.5
"sabrina van den heuvel";0;0;1;48;0;0;1;48
"jacek hazuka artist";0;0;1;1;0;0;1;1
"john mainstone";0;0;1;32;0;0;1;32
"emilio scanavino";0;0;2;37.5;0;0;2;37.5
"gunter damisch";0;0;1;15;0;0;1;15
jpunk;0;0;1;38;0;0;1;38
"laurence piens";0;0;1;1;0;0;1;1
aboudia;0;0;1;38;0;0;1;38
dan23;0;0;1;6;0;0;1;6
polic;0;0;1;78;0;0;1;78
gzstore;0;0;2;13.5;0;0;2;13.5
"unique artwork for sale";0;0;1;23;0;0;1;23
"la lagune";0;0;1;161;0;0;1;161
"antoine rose prints";0;0;2;6.5;0;0;1;6;0;0;1;7
"tabish khan";0;0;1;26;0;0;1;26
"lamborghini fire extinguisher";0;0;1;28;0;0;1;28
"gustave singier";0;0;2;8;0;0;2;8
"galerie martine ehmer";0;0;1;4;0;0;1;4
"erin cone";0;0;2;11;0;0;2;11
"alejandra franco";0;0;1;18;0;0;1;18
"havana art gallery";0;0;1;344;0;0;1;344
"galerie tschudi";0;0;1;96;0;0;1;96
yumari;0;0;1;44;0;0;1;44
"antoni clavé";0;0;1;75;0;0;1;75
"anne brunet";0;0;1;29;0;0;1;29
"serenade from the stars";0;0;1;30;0;0;1;30
"clement alain";0;0;1;5;0;0;1;5
levrette;0;0;1;79;0;0;1;79
zakii;0;0;1;36;0;0;1;36
"patrizio di renzo";0;0;1;15;0;0;1;15
jonone;0;0;5;10.8;0;0;5;10.8
"gerry cranham";0;0;2;4.5;0;0;2;4.5
"cecile desserle";0;0;1;9;0;0;1;9
"robert combas";0;0;2;12;0;0;1;16;0;0;1;8
"jean francois jonvelle";0;0;2;15;0;0;2;15
"alain bonnefoit";0;0;2;17;0;0;2;17
"huit sale";0;0;1;48;0;0;1;48
artigasplanas;0;0;1;4;0;0;1;4
"geraldine morin";0;0;2;10;0;0;1;10;0;0;1;10
"henrietta dubrey";0;0;6;10;0;0;4;14;0;0;1;2;0;0;1;2
"blind impression";0;0;1;38;0;0;1;38
dejeune;0;0;1;307;0;0;1;307
"daphne navarre";0;0;6;5;0;0;6;5
"huang yan artist";0;0;2;12;0;0;2;12
"nobuyoshi araki artist";0;0;1;37;0;0;1;37
"amaury mulliez";0;0;1;6;0;0;1;6
"eduardo art";0;0;1;206;0;0;1;206
"fr alfonse";0;0;1;31;0;0;1;31
"bram van velde";0;0;1;44;0;0;1;44
"artist arno";0;0;1;2;0;0;1;2
"guy denning biography";0;0;1;5;0;0;1;5
"hotel le vernay";0;0;1;189;0;0;1;189
mingmao;0;0;1;39;0;0;1;39
"jean michel basquiat paintings price";0;0;1;48;0;0;1;48
"bruno fontana";0;0;2;22.5;0;0;2;22.5
"arnaud puig";0;0;3;8;0;0;3;8
"kenny scharf art for sale";0;0;1;17;0;0;1;17
"phillipe weisbecker";0;0;1;4;0;0;1;4
"rero artist";0;0;2;39;0;0;2;39
"alberto reguera";0;0;4;29.75;0;0;3;8;0;0;1;95
"edouard buzon";0;0;1;1;0;0;1;1
"dominique regnier";0;0;1;11;0;0;1;11
hornsleth;0;0;2;245;0;0;2;245
"memento mori artwork";0;0;1;23;0;0;1;23
"darco artist";0;0;1;9;0;0;1;9
"rubens artist";0;0;1;311;0;0;1;311
"flower delivery bilbao";0;0;1;57;0;0;1;57
"cesar baldaccini artworks";0;0;6;8.3333333333333;0;0;5;8.2;0;0;1;9
"herbarium for sale";0;0;1;46;0;0;1;46
"chealsea hotel";0;0;1;321;0;0;1;321
"buy mel ramos";0;0;1;73;0;0;1;73
"capital culture gallery";0;0;1;5;0;0;1;5
"mazel galerie";0;0;2;3;0;0;2;3
"sell jamie hewlett";0;0;1;48;0;0;1;48
"li wei";0;0;70;8.0285714285714;0;0;52;9.8461538461538;0;0;14;2.9285714285714;0;0;4;2.25
"francois houtin";0;0;1;1;0;0;1;1
rydet;0;0;1;50;0;0;1;50
"suling wang artist";0;0;2;10;0;0;2;10
"bronze frog gallery";0;0;1;232;0;0;1;232
"frank horvat";0;0;1;38;0;0;1;38
"marek piasecki";0;0;2;26;0;0;2;26
"kiki picasso";0;0;8;4.875;0;0;5;4.8;0;0;2;5;0;0;1;5
"herve lewis";0;0;3;2.3333333333333;0;0;3;2.3333333333333
"shirley jaffe";0;0;1;23;0;0;1;23
hannaka;0;0;1;17;0;0;1;17
"cart new nick work";0;0;2;27.5;0;0;2;27.5
"louis-nicolas darbon";0;0;1;20;0;0;1;20
"vuk vidor";0;0;3;4;0;0;2;1.5;0;0;1;9
"monica maci nude";0;0;1;9;0;0;1;9
"once upon a time artwork";0;0;1;60;0;0;1;60
"renaud painter";0;0;1;7;0;0;1;7
"marcelli france";0;0;2;6;0;0;2;6
"louis pons artist";0;0;2;4;0;0;1;4;0;0;1;4
"wolf vostell";0;0;1;4;0;0;1;4
"guillaume bourquin";0;0;1;6;0;0;1;6
"jan davidz de heen";0;0;1;3;0;0;1;3
"francois benoit";0;0;1;18;0;0;1;18
"yoel benharrouche for sale";0;0;1;3;0;0;1;3
"damir polic";0;0;2;5;0;0;2;5
"maria callas";0;0;2;188.5;0;0;1;183;0;0;1;194
"ripolles artist";0;0;1;40;0;0;1;40
"dachshunds for sale";0;0;1;231;0;0;1;231
"public love affair";0;0;2;8.5;0;0;2;8.5
"pilar ortega";0;0;1;23;0;0;1;23
"gyula sagi";0;0;1;5;0;0;1;5
sawtelle;0;0;1;191;0;0;1;191
"barry singer gallery";0;0;1;150;0;0;1;150
"patrick van der elst";0;0;2;6;0;0;2;6
"philippe berry";0;0;3;8;0;0;2;7;0;0;1;10
"bousquet artist";0;0;1;10;0;0;1;10
"pierre terrasson";0;0;1;8;0;0;1;8
"jean-michel basquiat paintings for sale";0;0;1;48;0;0;1;48
"gordon hopkins";0;0;5;5;0;0;2;5.5;0;0;3;4.6666666666667
"prisoners movie";0;0;2;160;0;0;1;163;0;0;1;157
femmejambes;0;0;1;13;0;0;1;13
"mor charpentier";0;0;1;53;0;0;1;53
"anatoly rudakov";0;0;2;5.5;0;0;2;5.5
"alex klimov nude";0;0;1;8;0;0;1;8
"raymond hains artist";0;0;2;6;0;0;1;5;0;0;1;7
"cara delevingne artwork";0;0;1;1;0;0;1;1
"ren hang wikipedia";0;0;2;8.5;0;0;2;8.5
"helmut newton art";0;0;1;26;0;0;1;26
"jacques germain";0;0;1;34;0;0;1;34
"david lachapelle biography";0;0;1;45;0;0;1;45
"brigitte bardot collection";0;0;1;41;0;0;1;41
"gautier deblonde";0;0;1;13;0;0;1;13
"gerard escougnou";0;0;1;4;0;0;1;4
"inca art";0;0;1;194;0;0;1;194
"surrealist photography";0;0;1;110;0;0;1;110
"angelica wiik";0;0;1;9;0;0;1;9
"lyle carbajal artist";0;0;2;5;0;0;2;5
"emmanuel flipo";0;0;1;5;0;0;1;5
"mischa keijser";0;0;1;4;0;0;1;4
"murakami flower";0;0;1;59;0;0;1;59
"emma forrester artist";0;0;2;3;0;0;2;3
"guy denning painting";0;0;1;10;0;0;1;10
"original blek le rat";0;0;1;93;0;0;1;93
"antoine rose up in the air";0;0;4;7.5;0;0;4;7.5
"kami france";0;0;1;50;0;0;1;50
"large format painting";0;0;1;9;0;0;1;9
"claire dorsett";0;0;1;13;0;0;1;13
ballesta;0;0;1;90;0;0;1;90
"aquagirl occasion";0;0;1;37;0;0;1;37
"emeric chantier";0;0;8;9.25;0;0;6;8.6666666666667;0;0;2;11
chopplet;0;0;1;7;0;0;1;7
"""galerie"" + ""contact"" ~lagos";0;0;1;155;0;0;1;155
dtone;0;0;3;9.6666666666667;0;0;3;9.6666666666667
sebright;0;0;1;234;0;0;1;234
"obey art for sale";0;0;1;31;0;0;1;31
"sági gyula";0;0;2;5;0;0;1;3;0;0;1;7
"open in your mind";0;0;1;3;0;0;1;3
"san lucas jeans";0;0;1;42;0;0;1;42
"xavier veilhan";0;0;1;73;0;0;1;73
baoxun;0;0;1;6;0;0;1;6
dellarosa;0;0;1;192;0;0;1;192
"eduardo kac";0;0;2;61;0;0;2;61
"octave pixel";0;0;5;6.6;0;0;1;2;0;0;3;10;0;0;1;1
"alain cl";0;0;1;8;0;0;1;8
"how to become a bullfighter";0;0;1;321;0;0;1;321
"schiele gerti";0;0;1;20;0;0;1;20
"bordeaux lafite";0;0;2;368;0;0;2;368
"julien raynaud";0;0;1;6;0;0;1;6
"buddha artwork for sale";0;0;1;40;0;0;1;40
"anna bocek art";0;0;2;9;0;0;2;9
"laurina paperina";0;0;2;37;0;0;2;37
"berge panossian";0;0;1;3;0;0;1;3
poplavsky;0;0;1;41;0;0;1;41
"cathy andrieu nude";0;0;1;20;0;0;1;20
"france arno";0;0;1;41;0;0;1;41
"noe two graffiti";0;0;1;45;0;0;1;45
"j punk";0;0;1;41;0;0;1;41
"galerie sbk";0;0;1;12;0;0;1;12
qitete;0;0;1;7;0;0;1;7
"conrad marca relli";0;0;1;54;0;0;1;54
"jim kazanjian";0;0;4;26.5;0;0;4;26.5
"franta artist";0;0;1;3;0;0;1;3
"jacques villegle";0;0;7;8.2857142857143;0;0;6;8.5;0;0;1;7
"stephane gizard";0;0;2;8.5;0;0;1;8;0;0;1;9
dionus;0;0;1;10;0;0;1;10
"du zhenjun";0;0;2;19;0;0;2;19
"arthur tress";0;0;1;88;0;0;1;88
"esther de bont";0;0;3;16;0;0;3;16
"philippe artist";0;0;1;3;0;0;1;3
stoul;0;0;1;29;0;0;1;29
".hk/ breed";0;0;1;426;0;0;1;426
arietti;0;0;1;38;0;0;1;38
"art diffusion";0;0;1;23;0;0;1;23
"baudoin lebon";0;0;5;6;0;0;4;4.75;0;0;1;11
"genevieve sawtelle";0;0;1;8;0;0;1;8
"takashi murakami prints";0;0;1;67;0;0;1;67
"obey lotus";0;0;1;1;0;0;1;1
"galerie fluegel-roncak";0;0;2;11;0;0;2;11
"manuel geerinck";0;0;1;17;0;0;1;17
".wang/ mistrustful";0;0;3;117;0;0;3;117
"kim sun hyuk";0;0;1;9;0;0;1;9
".wang/ loader";0;0;2;254.5;0;0;2;254.5
"yago partal";0;0;3;45.333333333333;0;0;3;45.333333333333
"christie lee rogers";0;0;1;9;0;0;1;9
"sui jianguo";0;0;1;60;0;0;1;60
"jan saudek art";0;0;1;19;0;0;1;19
"lucio fontana for sale";0;0;1;30;0;0;1;30
"laurence dreyfus";0;0;1;32;0;0;1;32
"mur lumiere";0;0;1;42;0;0;1;42
"galerie vevais";0;0;1;6;0;0;1;6
"kilian glasner";0;0;1;7;0;0;1;7
"charlie roberts artist";0;0;1;9;0;0;1;9
"gitan x";0;0;1;21;0;0;1;21
"yona friedman";0;0;1;54;0;0;1;54
mendjisky;0;0;1;35;0;0;1;35
"poisson séché";0;0;1;34;0;0;1;34
triglia;0;0;1;11;0;0;1;11
"bernard pras biography";0;0;1;4;0;0;1;4
"isabelle cochereau";0;0;1;9;0;0;1;9
"hotel ristorante camene";0;0;1;46;0;0;1;46
"lance letscher";0;0;1;64;0;0;1;64
benaroch;0;0;1;8;0;0;1;8
"peter klasen";0;0;1;9;0;0;1;9
"anne et patrick poirier";0;0;1;68;0;0;1;68
"truc anh";0;0;3;3.6666666666667;0;0;2;4;0;0;1;3
hamey;0;0;3;5.6666666666667;0;0;3;5.6666666666667
"jean-francois debongnie";0;0;1;35;0;0;1;35
"egor bogachev";0;0;1;8;0;0;1;8
"oleg dou";0;0;2;44.5;0;0;2;44.5
"reine des fleurs";0;0;1;55;0;0;1;55
"sell takashi murakami";0;0;1;57;0;0;1;57
"monique roux";0;0;1;44;0;0;1;44
gliga;0;0;1;109;0;0;1;109
"speedy graphito for sale";0;0;2;5;0;0;2;5
"jackson art fair";0;0;1;413;0;0;1;413
jazzu;0;0;1;97;0;0;1;97
"léo caillard";0;0;1;31;0;0;1;31
"sam szafran";0;0;1;17;0;0;1;17
"ody saban";0;0;1;27;0;0;1;27
"li wein";0;0;2;3;0;0;2;3
"loup artwork";0;0;2;10;0;0;2;10
"emma levine artist";0;0;1;8;0;0;1;8
"gerard schlosser";0;0;1;10;0;0;1;10
"orlinski crocodile";0;0;1;1;0;0;1;1
"stéphanie nava";0;0;1;18;0;0;1;18
"seduction paris";0;0;1;5;0;0;1;5
"guy denning prints";0;0;1;7;0;0;1;7
"lihong li";0;0;1;28;0;0;1;28
"100euros in gbp";0;0;1;46;0;0;1;46
gammacurta;0;0;1;16;0;0;1;16
"john crash matos";0;0;3;8.3333333333333;0;0;2;9;0;0;1;7
"obey artwork";0;0;1;33;0;0;1;33
"jerome zonder";0;0;1;52;0;0;1;52
"garrett pruter";0;0;1;26;0;0;1;26
xaipe;0;0;1;14;0;0;1;14
"rayon gamma";0;0;1;26;0;0;1;26
alpinism;0;0;1;329;0;0;1;329
"john matos crash";0;0;2;4;0;0;1;2;0;0;1;6
"gz gallery";0;0;1;6;0;0;1;6
"charlotte lelong";0;0;1;8;0;0;1;8
"veruschka art";0;0;1;43;0;0;1;43
"willy ronis";0;0;2;55;0;0;2;55
"thomas tramp";0;0;1;26;0;0;1;26
"yves zurstrassen";0;0;1;13;0;0;1;13
"shup shup";0;0;1;45;0;0;1;45
"hiro ando";0;0;7;10;0;0;2;10;0;0;2;10;0;0;3;10
"daniella zalcman";0;0;1;38;0;0;1;38
"edmond van dooren";0;0;1;6;0;0;1;6
"yoda art";0;0;1;220;0;0;1;220
"guy denning";0;0;9;9.1111111111111;0;0;7;9.5714285714286;0;0;1;10;0;0;1;5
"cerrone marc";0;0;1;41;0;0;1;41
"eva maude tardif champoux";0;0;1;8;0;0;1;8
"marino marini cavaliere";0;0;1;46;0;0;1;46
bertelli;0;0;1;189;0;0;1;189
"lind abstraction: documents of contemporary art (epub|lit|mob)";0;0;1;48;0;0;1;48
"sarah hardacre";0;0;1;27;0;0;1;27
"maria torp";0;0;1;9;0;0;1;9
"charbonnel paris";0;0;1;17;0;0;1;17
"open.your mind";0;0;2;1;0;0;2;1
"andrew mcneile jones";0;0;2;3;0;0;2;3
"idées série";0;0;1;6;0;0;1;6
"rak artist";0;0;2;8;0;0;1;8;0;0;1;8
"jérôme mesnager";0;0;1;6;0;0;1;6
"aude carré";0;0;1;4;0;0;1;4
"arno elias";0;0;1;20;0;0;1;20
"galerie capazza";0;0;2;8;0;0;1;7;0;0;1;9
"galerie lacroix";0;0;2;6;0;0;1;6;0;0;1;6
"jose manuel fors";0;0;1;19;0;0;1;19
"vincent hawkins";0;0;1;10;0;0;1;10
"odile decq macro";0;0;1;49;0;0;1;49
"jurgen ots";0;0;1;26;0;0;1;26
"galerie l'oeil du prince";0;0;3;7;0;0;3;7
"feng jie";0;0;1;222;0;0;1;222
"artist onur";0;0;1;10
"sébastien micke";0;0;1;9
"katrin bremermann";0;0;1;2
inkfinity;0;0;1;48
melkart;0;0;1;45
"yann houri";0;0;3;1;0;0;2;5.5
"minelli italy";0;0;1;44
"raymond hains artwork";0;0;1;3;0;0;1;3
"17th century paintings for sale";0;0;1;30
"henri iglesis";0;0;1;9
"asgar/ gabriel";0;0;1;8
"luca di filippo";0;0;1;11
"chut 44";0;0;1;129
"marilyn in art";0;0;1;5
"bertrand noel";0;0;1;15
"sell robert indiana";0;0;1;59
"easy rider artwork";0;0;1;24
"mel ramos";0;0;24;9.75;0;0;4;1;0;0;4;1
"eckstein berlin";0;0;1;153
"david rodriguez photography";0;0;1;41
"vasseur philippe";0;0;1;10
"open your mind art";0;0;1;1
"monsieur serge";0;0;1;28
"francoise nielly biography";0;0;1;17
"fabio coruzzi";0;0;1;17
"yan pei-ming";0;0;1;65
"gabriel jones";0;0;1;42
"razvan hotel bucharest";0;0;1;92
"frank de mulder";0;0;1;48
"jean michel basquiat skull";0;0;1;13
"david gerstein";0;0;1;62;0;0;2;6.5
fournier;0;0;1;413
"le merrer";0;0;1;30
"christian zeimert";0;0;1;6
"agnès dubart";0;0;1;9
"gauche art";0;0;1;18
"asakura akira";0;0;1;10
"ruxandra papa";0;0;1;1
"sonia aniceto";0;0;2;2
"kenneth noland";0;0;1;87
"keith haring crack down";0;0;1;5
"jean marie drouet";0;0;1;5
"misskiss_ sex";0;0;1;50
"mimi the clown";0;0;1;22
"vasarely for sale";0;0;1;54
"tom wesselmann prints";0;0;1;45
"natalia rak";0;0;5;16.6
"henri lamy paintings";0;0;1;9;0;0;1;7
"love robert indiana";0;0;1;316
"shen jingdong";0;0;1;7;0;0;1;7
openyourmind;0;0;5;3.8
"priscilla attal nude";0;0;1;7
"lucie bennett";0;0;1;22
"art maisons";0;0;1;172
"e gallery";0;0;1;6
"pierre-marie brisson";0;0;2;15.5
"david lachapelle bio";0;0;1;41
"thomas bossard";0;0;2;8;0;0;1;12
"rent artwork";0;0;1;329
"nguyen the dung";0;0;1;3
"le cerf";0;0;1;173
"niclas castello";0;0;1;24
"michael meyersfeld";0;0;1;12
"paulette tavormina";0;0;1;58
"mike hall artist";0;0;1;28
"galerie baudoin lebon";0;0;1;3
"yoel benharrouche prices";0;0;1;3
"edwin apps";0;0;1;6
"max ernst";0;0;1;228
"jonone artist";0;0;2;20;0;0;1;6
"natalia rak art";0;0;1;14
"cellai hotel";0;0;1;156
"steel artist";0;0;1;420
"jonathan huxley";0;0;1;7;0;0;2;7
"damien hirst";0;0;1;234
"chambourcy yvelines";0;0;1;126
"voss woda alma";0;0;1;45
"perino e vele";0;0;1;30
"david drebin";0;0;2;50.5
"claude mollard";0;0;1;4
"x pons";0;0;1;50
goddog;0;0;1;10
"nancy fontaine artist";0;0;1;79
"matthew attard";0;0;5;7.4
"rx gallery";0;0;1;10
"araki art";0;0;1;49
"ren hang";0;0;7;24.285714285714;0;0;1;7
"m endormir";0;0;1;37
"uffe weiland";0;0;1;4
"gz store";0;0;2;13.5;0;0;2;7.5
"les terrasses de cécile";0;0;1;54
"irina ionesco";0;0;1;65
"contemporary portrait photography";0;0;1;330
"agave sculpture";0;0;1;316
fuger;0;0;1;337
"bor iii";0;0;1;38
"saudek exhibition prague";0;0;1;27
aranthell;0;0;1;6
"janet lynch artist";0;0;2;10
"urban wallpapers";0;0;1;34
prow;0;0;1;338
"armando rearte";0;0;1;42
"catherine klein";0;0;1;35
"talon rouge";0;0;1;33
"andreas artist";0;0;1;333
"david stetson";0;0;1;26
konichiwa;0;0;1;178;0;0;1;180
"laurence dreyfus art";0;0;2;5
"rudi pillen";0;0;1;1;0;0;2;1
"gokayama toyama";0;0;1;47
"lucian freud";0;0;1;214
"fabrizio corneli";0;0;5;9;0;0;1;10
"bernard plossu";0;0;1;38
"eliane larus";0;0;3;3
"julian opie u2";0;0;1;21
charbonnel;0;0;1;38
"peter lippmann photographer";0;0;1;8
"galerie olivier waltman";0;0;1;4;0;0;1;6
"peter wüthrich";0;0;2;49.5
"jonone art";0;0;2;10
"maria perello";0;0;2;21.5
"anri sala";0;0;1;99
"ahmed moustafa";0;0;1;64
"romain cadilhon";0;0;2;1.5
"eva navarro";0;0;4;6.25;0;0;2;6.5
"marilyn minter";0;0;1;125
"bertrand desprez";0;0;1;9
"raphaël denis";0;0;1;8
"vanity de";0;0;1;349
"margaux avril";0;0;1;40
"josef nadj";0;0;1;22
"braque oiseaux";0;0;1;32
"jonone street art";0;0;2;8
"appia ii 1 group";0;0;1;171
"fabien verschaere";0;0;2;2
"norman rockwell golf";0;0;1;59
"sunday b morning";0;0;1;25
"lolita galleries";0;0;2;46.5
onyme;0;0;1;31
"petros chrisostomou";0;0;1;19
"jm robert";0;0;1;10;0;0;2;8
"open your mind";0;0;125;2.104;0;0;123;2.7073170731707;0;0;11;2.1818181818182
"andrew mcattee";0;0;1;41
"galerie vivendi";0;0;1;3;0;0;1;4
"kyungwoo chun";0;0;1;29
"by the dude";0;0;4;7.25;0;0;1;5
"jean-michel basquiat in italian";0;0;1;17
"henrik simonsen artist";0;0;1;12
"affordable art fair exhibitors";0;0;1;329
"judy rifka";0;0;1;38
"juliette clovis";0;0;1;1
"fanny dubois";0;0;1;9;0;0;1;8
"jacques malignon";0;0;1;95
"fred ebami";0;0;1;10
"yann houri prix";0;0;1;2
"serenade of the stars";0;0;1;10
"cruz diez artist";0;0;1;1
"thomas muller artist";0;0;3;6;0;0;1;5
artsper;0;0;2;1
cosug;0;0;1;20
"galerie hus";0;0;1;7
"martin schoeller george clooney";0;0;1;9
"guy boyer";0;0;1;10
"ronald dupont artist";0;0;1;7
"carlos betancourt miami";0;0;1;11
"lie wei";0;0;1;2
"arkiv vilmansa";0;0;1;13
"thomas bossard facebook";0;0;1;8
"ben bella mahjoub";0;0;1;3;0;0;2;10
"lucky luke";0;0;2;121.5
"fabrice hyber";0;0;3;10.333333333333
"gottfried salzmann artist";0;0;2;7;0;0;1;8
"cara de bambi";0;0;1;1
"yoel benharrouche";0;0;1;10
pipet;0;0;1;185
"art nue";0;0;1;8
"alex folla";0;0;1;10
"monsieur chat";0;0;1;10
"isabelle bartoli";0;0;1;9
"anna bjerger";0;0;3;6;0;0;2;7
"shen jing dong";0;0;1;2
"bb king artwork";0;0;2;1
"kathleen ngale";0;0;1;71
"gw bot";0;0;1;10
"yanko tihov";0;0;8;9.875;0;0;1;9
"jon one";0;0;1;7
rancinan;0;0;1;10
"anna bjerger paintings";0;0;1;6;0;0;1;6
tanç;0;0;1;2
"etienne viard";0;0;1;11
catelain;0;0;1;8
"elizabeth couturier";0;0;1;10
"ki to la gloire";0;0;2;10
"david sitbon";0;0;1;8
"romero britto paris";0;0;1;6
"hopkins painter";0;0;3;9
"black mass artwork";0;0;1;7
"lisman works";0;0;3;10
"gallery aka";0;0;1;9
"fotofever paris";0;0;1;6
keymi;0;0;2;6;0;0;1;5
"claire bianchi";0;0;1;9
"william sweetlove";0;0;1;53
"la tour de bruxelles";0;0;1;1
gerenton;0;0;3;5
"chen yidan";0;0;1;5
"cecile colombo";0;0;1;6
"guy denning for sale";0;0;1;8
"georges autard";0;0;1;5
"bluegrass edition andy warhol";0;0;1;1
"louise numina";0;0;1;35
manicacci;0;0;1;9
"turkan soray";0;0;1;87
"francois bard painter";0;0;2;7.5
"jean paul moscovino";0;0;1;6
"kamasutra 2";0;0;1;40
"marie cecile thijs";0;0;1;3
"hedva ser";0;0;1;10
"planète serie";0;0;2;4
"tetsuo harada";0;0;1;11
"by belie";0;0;1;6
"jimmy lawlor prints";0;0;1;8
"lucien murat";0;0;2;3
"james aldridge";0;0;1;4
valencin;0;0;1;28
