"brno del zou";10;0.25;40;2.2;7;0.21875;32;2.09375;3;0.42857142857143;7;2.7142857142857;0;0;1;2
"anya spielman";3;0.6;5;12;3;0.6;5;12
"mahjoub ben bella";2;0.5;4;3;2;0.66666666666667;3;3.3333333333333;0;0;1;2
artsper;2;0.042553191489362;47;1;1;0.023255813953488;43;1;1;0.33333333333333;3;1;0;0;1;1
"jean faucheur";2;0.083333333333333;24;3.0833333333333;2;0.083333333333333;24;3.0833333333333
"thierry alet";2;0.66666666666667;3;6.6666666666667;1;0.5;2;7.5;1;1;1;5
"geneviève claisse";2;0.66666666666667;3;7.6666666666667;2;0.66666666666667;3;7.6666666666667
"mwenze kibwanga";1;1;1;1;1;1;1;1
"herve telemaque artist";1;0.5;2;10;1;0.5;2;10
"geert kollau";1;0.33333333333333;3;17;1;0.33333333333333;3;17
"huston ripley";1;0.1;10;9.3;1;0.14285714285714;7;9.5714285714286;0;0;2;9;0;0;1;8
"cesar baldaccini artworks";1;0.5;2;8;1;0.5;2;8
"troy henriksen art";1;0.16666666666667;6;3.1666666666667;1;0.2;5;3;0;0;1;4
"arthur dorval";1;0.25;4;2.25;1;0.33333333333333;3;2.3333333333333;0;0;1;2
"richard orlinski";1;0.2;5;10.2;1;0.25;4;10.5;0;0;1;9
"pez art for sale";1;1;1;19;1;1;1;19
"jeanne lorioz art";1;0.5;2;4;1;0.5;2;4
"kyungwoo chun";1;0.33333333333333;3;18.333333333333;1;0.33333333333333;3;18.333333333333
"theo platt";1;0.25;4;10.25;1;0.33333333333333;3;10;0;0;1;11
"aki kuroda";1;0.071428571428571;14;4.1428571428571;1;0.16666666666667;6;5.5;0;0;6;3.8333333333333;0;0;2;1
"jonty levin";1;1;1;9;1;1;1;9
"elisabeth von wrede";1;0.5;2;10;1;0.5;2;10
"li baoxun";1;0.5;2;1;1;0.5;2;1
"art nue";1;0.25;4;4.5;1;0.5;2;3;0;0;2;6
"charles guyot";1;1;1;1;1;1;1;1
"alma haser biography";1;1;1;2;1;1;1;2
"madeleine dietz";1;0.5;2;14;1;0.5;2;14
"arkiv vilmansa";1;0.2;5;8.4;1;0.33333333333333;3;8.6666666666667;0;0;2;8
"bruno catalano prices";1;0.33333333333333;3;5.6666666666667;0;0;1;5;1;0.5;2;6
"philippe timmermans";1;1;1;30;1;1;1;30
fassianos;1;0.5;2;25;1;0.5;2;25
"didier triglia";1;0.1;10;2.3;1;0.33333333333333;3;2.3333333333333;0;0;5;2;0;0;2;3
"carme albaiges";1;0.5;2;1;1;0.5;2;1
"mario kolaric";1;1;1;35;1;1;1;35
"onur painting";1;0.14285714285714;7;6.1428571428571;1;0.33333333333333;3;7.3333333333333
"greenwood gallery paris";1;1;1;5;1;1;1;5
"peter hoffer";1;0.33333333333333;3;17;1;0.33333333333333;3;17
"joan saló";1;0.2;5;5.8;1;0.2;5;5.8
"anna bocek";1;0.05;20;7.85;1;0.071428571428571;14;8.1428571428571;0;0;1;6;0;0;5;7.4
"vincent peters biography";1;0.2;5;8.4;1;0.2;5;8.4
"aris messinis";1;0.2;5;7.4;1;0.2;5;7.4
"naked in the rain";1;1;1;120;1;1;1;120
"marit beer";1;0.5;2;8.5;1;0.5;2;8.5
"gyula sagi";1;0.5;2;4;1;1;1;3;0;0;1;5
"guy denning for sale";1;0.33333333333333;3;3;0;0;1;3;1;0.5;2;3
"ruta jusionyte";1;0.33333333333333;3;8.6666666666667;1;0.33333333333333;3;8.6666666666667
"jean paul moscovino";1;0.5;2;1;1;0.5;2;1
"christine fabre";1;0.25;4;9.75;1;1;1;12;0;0;3;9
"lorioz prints";1;0.5;2;10;1;0.5;2;10
"kevin vast";1;0.33333333333333;3;11.666666666667;1;0.5;2;13;0;0;1;9
"henni alftan";1;0.33333333333333;3;8;0;0;1;9;0;0;1;6;1;1;1;9
"ursula krauss";1;0.33333333333333;3;10;1;0.33333333333333;3;10
"stephane joannes";1;0.5;2;7;1;0.5;2;7
"francoise nielly biography";1;0.5;2;14;1;0.5;2;14
"romain saintonge";1;1;1;7;1;1;1;7
"nicolas dubreuille";1;0.5;2;2;1;0.5;2;2
"aris messinis photography";1;0.5;2;11;1;0.5;2;11
"nathan chantob";1;1;1;3;1;1;1;3
nils-udo;1;0.16666666666667;6;9;1;0.16666666666667;6;9
jisbar;1;1;1;1;1;1;1;1
"jack otway";1;0.5;2;6;1;0.5;2;6
"troy henriksen";1;0.2;5;3.6;1;0.25;4;3.75
"ren hang prints";1;0.5;2;6.5;1;0.5;2;6.5
"ahn sun mi";1;0.16666666666667;6;7;1;0.25;4;7.5;0;0;2;6
"badri lomsianidze";1;0.33333333333333;3;5;1;0.5;2;2.5;0;0;1;10
"taki 183 biography";1;0.5;2;7.5;0;0;1;8;1;1;1;7
"guy denning prints";1;0.5;2;10;1;0.5;2;10
"olivier camen";1;1;1;3;1;1;1;3
"yanko tihov";0;0;2;11
"martin reyna";0;0;2;10;0;0;2;10
colomina;0;0;7;4.5714285714286;0;0;7;4.5714285714286
"dganit blechner";0;0;1;13
"duong le thai";0;0;2;1;0;0;2;1
"jean michel basquiat paintings for sale";0;0;1;40;0;0;1;40
"viveca koh";0;0;1;17;0;0;1;17
"time to sign off";0;0;2;15
"jana js";0;0;1;9;0;0;1;9
"mark mawson";0;0;2;47;0;0;2;47
"nature morte vivante";0;0;1;20;0;0;1;20
"baudoin lebon";0;0;3;6;0;0;3;6
"claude mollard";0;0;4;2.25
"philippe pasqua";0;0;11;9.2727272727273;0;0;7;9.5714285714286;0;0;4;8.75
awena;0;0;4;48.5
"batista art";0;0;1;10;0;0;1;10
"matt devine";0;0;1;56
"fanny dubois";0;0;2;7.5;0;0;1;8
"francois bard";0;0;6;8.1666666666667;0;0;3;8.3333333333333;0;0;2;8;0;0;1;8
"vito hannibal acconci";0;0;1;86;0;0;1;86
"miguel vallinas prieto";0;0;2;6.5;0;0;2;6.5
"martin kudlek";0;0;1;90;0;0;1;90
"christian von sydow";0;0;1;10
"francois bard artist";0;0;1;8;0;0;1;8
gammacurta;0;0;1;37;0;0;1;37
"herbert oehm";0;0;1;3;0;0;1;3
"sell mel ramos";0;0;1;46;0;0;1;46
"karl lagasse";0;0;4;3.75;0;0;3;3.3333333333333;0;0;1;5
"matthew attard";0;0;7;7.4285714285714;0;0;1;9
"art & language";0;0;1;85;0;0;1;85
"chu teh chun";0;0;1;47;0;0;1;47
redxxx;0;0;2;45;0;0;2;45
mahmoud;0;0;1;801;0;0;1;801
"yasemin senel";0;0;1;13;0;0;1;13
"keith haring montreux jazz festival 1983";0;0;1;1
"du zhenjun";0;0;1;43
"a nous paris";0;0;3;18.666666666667;0;0;3;18.666666666667
"raymond hains";0;0;22;6.7727272727273;0;0;18;6.5555555555556;0;0;2;7;0;0;2;8.5
"asgar/ gabriel";0;0;1;11
xaipe;0;0;1;24;0;0;1;24
"anthony knapik bridenne";0;0;2;8.5;0;0;2;8.5
"maria torp";0;0;1;7;0;0;1;7
"l'homme jaune";0;0;1;3;0;0;1;3
"ginger rogers artwork";0;0;1;21;0;0;1;21
"valerio adami";0;0;1;87
"guy boyer";0;0;2;8;0;0;2;8
"john dove";0;0;1;98;0;0;1;98
"tom wesselmann lulu";0;0;2;1;0;0;2;1
muckensturm;0;0;1;50
"christian courrèges";0;0;3;1;0;0;3;1
"sha na na";0;0;1;171;0;0;1;171
"has er";0;0;1;103;0;0;1;103
"david lachapelle biography";0;0;1;36;0;0;1;36
lager;0;0;1;332
"christine flynn";0;0;1;33;0;0;1;33
"jean helion";0;0;1;45
"zofia rydet";0;0;1;40;0;0;1;40
"pierre lesage";0;0;1;14;0;0;1;14
"20x30 blank canvas";0;0;1;33
"mayank shyam";0;0;1;9;0;0;1;9
"roger edgar gillet";0;0;4;8;0;0;4;8
"louis nicolas darbon";0;0;1;23;0;0;1;23
"basquiat inspired art";0;0;1;10;0;0;1;10
"material sculptures";0;0;1;448
"hideka tonomura";0;0;12;7.75;0;0;9;7.5555555555556;0;0;3;8.3333333333333
alleluiah;0;0;2;41.5
"кристина костадинова";0;0;1;1;0;0;1;1
kokian;0;0;1;10;0;0;1;10
"kunstmuseen in charlottesville";0;0;2;67.5
"shepard fairey / obey";0;0;1;50
"marie cecile";0;0;1;44;0;0;1;44
"françois morellet";0;0;1;47
"sell david lachapelle";0;0;3;30.333333333333
"isabelle bartoli";0;0;1;10
"enrico freitag";0;0;1;16
"galerie vivendi";0;0;1;2
"keith haring artwork for sale";0;0;1;50;0;0;1;50
"aslan pin up";0;0;1;47
"leobardo perez jimenez";0;0;3;3
"serge gainsbourg artwork";0;0;1;9;0;0;1;9
"richard di rosa";0;0;1;5;0;0;1;5
"jeff koons red balloon dog plate";0;0;1;3
"mohamed lekleti";0;0;2;10
"edouard buzon";0;0;5;1.4;0;0;3;1;0;0;2;2
"geometric dimension symbols";0;0;1;349;0;0;1;349
chasur;0;0;1;7;0;0;1;7
"welsh paintings for sale";0;0;1;202;0;0;1;202
femmejambes;0;0;4;8.75;0;0;4;8.75
"peter wüthrich";0;0;1;48
gluska;0;0;2;33.5;0;0;2;33.5
"john short";0;0;1;149
"bear art work";0;0;2;1;0;0;2;1
"baton dynamite";0;0;2;97
hipas;0;0;1;84;0;0;1;84
"john crash matos art";0;0;1;1;0;0;1;1
"jean-francois rauzier";0;0;1;24;0;0;1;24
"aki kuroda artist";0;0;1;2
"unique gallery dubai";0;0;1;4;0;0;1;4
"liu bolin the invisible man";0;0;1;138
"jacques mahé de la villeglé";0;0;8;7.25;0;0;6;7;0;0;1;8;0;0;1;8
"daphné navarre";0;0;1;5;0;0;1;5
"cornwall contemporary";0;0;1;7;0;0;1;7
"tom wesselmann";0;0;18;33.222222222222;0;0;18;33.222222222222
"max czertok";0;0;8;7;0;0;6;6;0;0;2;10
"ernest pignon-ernest";0;0;2;19.5;0;0;2;19.5
"ekkehard altenburger";0;0;1;13;0;0;1;13
"annette messager";0;0;1;88;0;0;1;88
"he ze";0;0;1;308;0;0;1;308
"escola llotja";0;0;1;75
"claire trotignon";0;0;3;5.6666666666667;0;0;3;5.6666666666667
"by belie";0;0;2;7
"antoine schneck";0;0;1;10
"galerie virginie barrou planquart";0;0;1;5
"huang yan";0;0;1;75
"charles fazzino";0;0;1;100;0;0;1;100
"charlotte cornaton";0;0;1;85;0;0;1;85
kimsen;0;0;1;23;0;0;1;23
"tracey emin cv";0;0;1;30;0;0;1;30
+hans+hartung;0;0;2;126;0;0;2;126
"artlife gallery";0;0;1;16;0;0;1;16
"home alone 7";0;0;1;28;0;0;1;28
"adrian fernandez artist";0;0;1;10;0;0;1;10
"batman artwork for sale";0;0;2;18
"vinz feel free";0;0;1;94;0;0;1;94
dubrey;0;0;1;3;0;0;1;3
"capital culture gallery";0;0;1;5;0;0;1;5
+paul+van+hoeydonck;0;0;1;32;0;0;1;32
"stéphanie nava";0;0;1;9
nkechi;0;0;1;34;0;0;1;34
"shaka artist";0;0;1;19
stencilboy;0;0;1;28
"markowicz fine art";0;0;3;40;0;0;3;40
"antoni tapies original prints worcester";0;0;1;47;0;0;1;47
"ernest pignon";0;0;2;7.5;0;0;2;7.5
"nathalie grall";0;0;1;1;0;0;1;1
"emily marjot";0;0;1;6
"leila amat ortega";0;0;4;8.25;0;0;4;8.25
"jean hélion";0;0;1;46;0;0;1;46
ebubedike;0;0;1;19;0;0;1;19
"judy rifka";0;0;1;23;0;0;1;23
"chanoir artist";0;0;5;6;0;0;1;4;0;0;3;7;0;0;1;5
untiled;0;0;2;44.5;0;0;2;44.5
"joan miro pinturas";0;0;1;33;0;0;1;33
"mr brainwash prints for sale";0;0;3;38;0;0;3;38
brantt;0;0;1;35;0;0;1;35
sopho;0;0;1;86;0;0;1;86
"fabrice hyber";0;0;3;9
"heiner meyer";0;0;3;25.333333333333;0;0;1;56;0;0;2;10
"damien hirst artwork for sale";0;0;1;36;0;0;1;36
"france arno";0;0;1;35
"young pink lips";0;0;1;20
"monsieur chat";0;0;1;7
"jean michel basquiat paintings price";0;0;1;46;0;0;1;46
"erin cone paintings";0;0;1;10;0;0;1;10
"isabelle bonzom";0;0;1;5;0;0;1;5
"costa artist";0;0;1;10;0;0;1;10
"fausto marci";0;0;1;1;0;0;1;1
"el grito 2";0;0;1;29;0;0;1;29
soudry;0;0;2;42;0;0;1;49;0;0;1;35
"galerie numero 1";0;0;1;6;0;0;1;6
albertoreguera;0;0;1;51;0;0;1;51
"keith tyson";0;0;1;74;0;0;1;74
"delphine brochand";0;0;1;9;0;0;1;9
latlas;0;0;1;60;0;0;1;60
layral;0;0;1;1;0;0;1;1
"hanna sidorowicz";0;0;1;6;0;0;1;6
"rafael canogar";0;0;1;44;0;0;1;44
"lea dominot";0;0;1;10
"nous irons plus au bois";0;0;1;42;0;0;1;42
"elephant photography for sale";0;0;1;57
"joan artigas";0;0;2;15
"vivendi gallery";0;0;4;7.5
"dani olivier";0;0;1;10;0;0;1;10
"popeye artwork";0;0;1;44
"francois morellet art";0;0;1;10;0;0;1;10
"wouter hoste";0;0;2;10;0;0;2;10
"benjamin laurent";0;0;1;20;0;0;1;20
"espace verney carron";0;0;1;8
"aboriginal backgrounds";0;0;1;417;0;0;1;417
pentaptyque;0;0;1;8;0;0;1;8
"anne valerie dupond";0;0;1;10;0;0;1;10
"gérard schlosser";0;0;1;10;0;0;1;10
"berlin gardens poly furniture buffalo ny";0;0;1;94;0;0;1;94
"still life painting";0;0;1;340
"cecile desserle";0;0;4;8.25;0;0;4;8.25
"gottfried salzmann";0;0;4;7.75;0;0;2;8;0;0;2;7.5
liquidiv;0;0;1;56;0;0;1;56
dubailand;0;0;1;195;0;0;1;195
"fresh to death";0;0;2;162.5;0;0;1;172;0;0;1;153
"jak espi";0;0;1;10;0;0;1;10
"spark benjamin";0;0;1;6;0;0;1;6
"sarah staton";0;0;1;31
"pierre bonheur";0;0;1;19
"anouk aimee lola";0;0;2;47
"rodney place";0;0;1;9;0;0;1;9
"george braque prints";0;0;3;95;0;0;3;95
"alinka echeverria";0;0;2;30;0;0;2;30
"j bosch artist";0;0;2;25.5;0;0;2;25.5
"lance letscher";0;0;1;22
"kim sun hyuk artist";0;0;1;8;0;0;1;8
"victori contemporary";0;0;1;51;0;0;1;51
"gin fizz";0;0;1;348;0;0;1;348
"eliane larus";0;0;1;3
"claire dorsett";0;0;5;9.2;0;0;2;9.5;0;0;1;10;0;0;2;8.5
pras;0;0;1;38
"liberty gallery";0;0;1;11;0;0;1;11
nasty;0;0;2;176;0;0;1;170
"francoise bard";0;0;1;29
"bruno timmermans";0;0;2;1.5
"ali esmaeilipour";0;0;1;96;0;0;1;96
"alain clement";0;0;2;8.5
poplavsky;0;0;1;35
"jonone art";0;0;1;7
"eugene begarat";0;0;1;1
rigorously;0;0;1;140;0;0;1;140
"damir polic";0;0;7;4.8571428571429;0;0;5;5;0;0;2;4.5
"charro skull";0;0;1;10;0;0;1;10
"nunc contemporary";0;0;1;7;0;0;1;7
"ivan alifan";0;0;1;30
"maxime fardeau";0;0;1;10
"jerome romain artist";0;0;1;6;0;0;1;6
"thijs nel";0;0;3;10
"jean pierre nadau";0;0;1;2;0;0;1;2
"kamel yahiaoui";0;0;3;9;0;0;3;9
http://www.basementizid.com/;0;0;2;169;0;0;2;169
"king kong artwork";0;0;1;24;0;0;1;24
"miss van biography";0;0;1;7
"katherine hoffmann";0;0;1;14
"gohar dashti artist";0;0;3;8.6666666666667;0;0;1;10
"pierre francois grimaldi";0;0;6;3.5;0;0;4;3.25;0;0;2;4
"basquiat art for sale";0;0;1;23;0;0;1;23
"juliet ferguson";0;0;1;20;0;0;1;20
"miro svolik";0;0;1;21;0;0;1;21
"annina roescheisen";0;0;2;12;0;0;2;12
"pompon art";0;0;1;24;0;0;1;24
"rob van hoek artist";0;0;2;8;0;0;1;7;0;0;1;9
"thierry carrier";0;0;1;6;0;0;1;6
"gz galerie";0;0;6;6.3333333333333;0;0;6;6.3333333333333
"tomas vu";0;0;1;1;0;0;1;1
"a la bardot";0;0;1;4
"thierry dussac";0;0;1;10;0;0;1;10
"fabrizio corneli";0;0;13;7.4615384615385;0;0;3;6.6666666666667
"wolfgang krell";0;0;2;12
"bicha gallery";0;0;1;85;0;0;1;85
"bernard chauchet contemporary art";0;0;1;7;0;0;1;7
desperator;0;0;3;7.6666666666667;0;0;1;8;0;0;2;7.5
"arthur tress";0;0;1;68;0;0;1;68
fugam;0;0;1;42;0;0;1;42
"tobias putrih";0;0;1;46;0;0;1;46
"folly and muse";0;0;1;6;0;0;1;6
"mister brainwash art for sale";0;0;1;33
"maurice renoma";0;0;1;10;0;0;1;10
+al+held;0;0;1;104;0;0;1;104
"henrietta dubrey";0;0;7;13.428571428571;0;0;5;18;0;0;2;2
trovic;0;0;2;9;0;0;2;9
"priska lorane";0;0;1;4
meetic;0;0;1;138
"florence d'elle";0;0;9;5.7777777777778;0;0;7;6.8571428571429;0;0;1;2
"raymond hains facts";0;0;1;8;0;0;1;8
"nkechi ebubedike";0;0;1;1;0;0;1;1
jonone;0;0;10;9.9;0;0;8;10.875;0;0;2;6
"nigel cox artist";0;0;2;10;0;0;2;10
"damien gard";0;0;1;7;0;0;1;7
"sell julian opie";0;0;2;80;0;0;2;80
"ling artist";0;0;1;19;0;0;1;19
"alain godon";0;0;2;4;0;0;1;2
pradino;0;0;1;3;0;0;1;3
jospins;0;0;2;27;0;0;2;27
"nils udo artist";0;0;1;13;0;0;1;13
"gazelli gallery";0;0;3;7;0;0;3;7
"alberto sanchez artist";0;0;1;6;0;0;1;6
"chris morin";0;0;5;4.2;0;0;5;4.2
"fred calmets";0;0;2;4
"roger schall";0;0;8;1.375;0;0;6;1.3333333333333;0;0;1;1;0;0;1;2
"xavier prieur";0;0;1;7
"fabio coruzzi";0;0;1;14
"lips jeff koons";0;0;1;14
"melon jsc";0;0;1;7;0;0;1;7
plouvier;0;0;1;50
"takashi murakami dob";0;0;1;24;0;0;1;24
"helmut middendorf";0;0;1;23;0;0;1;23
"ivan plusch";0;0;3;5;0;0;3;5
onemizer;0;0;5;8;0;0;2;8;0;0;1;8;0;0;2;8
"yan pei ming";0;0;1;63;0;0;1;63
"michal lukasiewicz";0;0;1;29;0;0;1;29
"antonio asis";0;0;1;68;0;0;1;68
"luzia simons";0;0;2;31.5;0;0;2;31.5
"by mambo";0;0;1;52;0;0;1;52
"mikhail lezin";0;0;2;4.5
"vincent hawkins";0;0;1;10;0;0;1;10
"italian artwork for sale";0;0;1;40;0;0;1;40
"armando rearte";0;0;1;42
"francois benoit";0;0;1;17;0;0;1;17
revon.com;0;0;1;94;0;0;1;94
"takashi murakami sculpture";0;0;1;32
"lola cola";0;0;1;44;0;0;1;44
agafia;0;0;1;34;0;0;1;34
"odile decq";0;0;1;39
"tigre artwork";0;0;1;6
"aykaz arzumanyan";0;0;2;2;0;0;2;2
"fantasy arts";0;0;1;128;0;0;1;128
"dreams about apples";0;0;1;413;0;0;1;413
"thomas jorion";0;0;3;4.3333333333333;0;0;2;3;0;0;1;7
"herve telemaque";0;0;2;8.5;0;0;1;9;0;0;1;8
"bodnariu marius";0;0;1;59;0;0;1;59
"liu xiaofang";0;0;2;21.5;0;0;2;21.5
"nicolas gasiorowski";0;0;2;10;0;0;2;10
"isabel espinoza";0;0;3;8.3333333333333;0;0;1;7
"césar baldaccini expansion";0;0;1;1;0;0;1;1
"ayline olukman";0;0;8;5;0;0;3;5;0;0;5;5
"marc petit";0;0;1;53;0;0;1;53
"natalia rak";0;0;2;21
"peter downsbrough";0;0;1;81;0;0;1;81
"christian bonnefoi";0;0;1;21
"dan carabas";0;0;1;2;0;0;1;2
"gabriel bodnariu";0;0;3;4.3333333333333;0;0;3;4.3333333333333
"george bru";0;0;1;9;0;0;1;9
"keymi artist";0;0;1;1;0;0;1;1
"jaques villegle";0;0;1;8;0;0;1;8
"philippe hiquily";0;0;1;17;0;0;1;17
"sun mi ahn";0;0;1;4
"thinker statue for sale";0;0;1;73
misstic;0;0;2;23.5;0;0;2;23.5
"galerie depardieu";0;0;2;8.5
"zelt sale";0;0;1;28;0;0;1;28
fotofever;0;0;2;30;0;0;2;30
"oksana yambykh";0;0;1;5;0;0;1;5
"galerie bayart";0;0;1;6;0;0;1;6
"keith haring crack down";0;0;3;5.3333333333333
"alex folla";0;0;7;7.8571428571429;0;0;2;5.5
"bruno gadenne";0;0;2;2;0;0;2;2
"grafos verlag";0;0;1;40
"shirley jaffe";0;0;3;25;0;0;2;24;0;0;1;27
"mel ramos";0;0;12;25.416666666667;0;0;1;11
"eva jospin artist";0;0;1;9;0;0;1;9
vagabondage;0;0;8;9.125;0;0;8;9.125
"anouk grinberg";0;0;2;23
sun7;0;0;1;51;0;0;1;51
"sun hyuk";0;0;3;4.6666666666667;0;0;3;4.6666666666667
"ren hang photography";0;0;1;16;0;0;1;16
"galerie hus";0;0;4;2
rauzier;0;0;1;26;0;0;1;26
"stéphane joannes";0;0;1;8
"robert indiana prints for sale";0;0;1;67;0;0;1;67
"di rosa hervé";0;0;1;9;0;0;1;9
"chateau rothschild bordeaux";0;0;2;358;0;0;2;358
"michel four";0;0;1;5;0;0;1;5
kijno;0;0;2;24
"sarah hinckley";0;0;1;20;0;0;1;20
"kongo artist";0;0;1;10;0;0;1;10
namasta;0;0;1;40;0;0;1;40
"steven gagnon";0;0;1;49;0;0;1;49
céline;0;0;2;234;0;0;2;234
"pierre-marie brisson";0;0;2;12.5
+li+wei;0;0;1;139;0;0;1;139
"jan saudek artist";0;0;1;12;0;0;1;12
"cloud pictogram";0;0;1;9;0;0;1;9
"francesco ferrante";0;0;1;87;0;0;1;87
"jan saudek art";0;0;1;19
mitz.at;0;0;2;27
"clinton friedman";0;0;1;24;0;0;1;24
"murielle belin";0;0;1;5;0;0;1;5
sabyl;0;0;1;34;0;0;1;34
"jan davidz de heen";0;0;1;2;0;0;1;2
"by mm";0;0;1;242
sijae;0;0;3;3;0;0;3;3
"window frame artwork";0;0;1;50;0;0;1;50
"pixart priting";0;0;1;44;0;0;1;44
deprun;0;0;1;5
"yves zurstrassen";0;0;2;12
"mikael lafontan";0;0;3;9.6666666666667;0;0;3;9.6666666666667
d’elle;0;0;1;6
"renata boero";0;0;1;8;0;0;1;8
"jean-pierre schneider";0;0;1;1;0;0;1;1
"dope gallery";0;0;1;8;0;0;1;8
"art life gallery saint raphael";0;0;1;8;0;0;1;8
"gilles desrozier";0;0;1;2;0;0;1;2
"soasig chamaillard";0;0;1;20;0;0;1;20
"helmut newton artwork";0;0;1;8;0;0;1;8
"willy ronis le petit parisien";0;0;6;1;0;0;3;1;0;0;3;1
"joan pere viladecans";0;0;1;9
"shen jingdong";0;0;4;7;0;0;1;9
"hamann for sale";0;0;1;120
"dok graffiti";0;0;1;5;0;0;1;5
"mariah carey black";0;0;1;42;0;0;1;42
"henry lamy";0;0;1;8;0;0;1;8
"pulp fiction puzzle";0;0;2;4.5;0;0;1;1;0;0;1;8
"sun hyeok";0;0;1;4;0;0;1;4
"niclas castello fire extinguisher";0;0;2;2.5;0;0;1;4
af1680;0;0;2;24.5
vasantha;0;0;1;147;0;0;1;147
"fazzino art prices";0;0;1;83
"roberto battistini";0;0;1;1;0;0;1;1
"victoria benmussa";0;0;1;3
"sebastien layral";0;0;1;6;0;0;1;6
"françois houtin";0;0;2;11;0;0;2;11
"kijno ladislas";0;0;1;5;0;0;1;5
"ln edition";0;0;1;3;0;0;1;3
"alex katz prices";0;0;1;80
artsper.com;0;0;1;1
"mehdi \lemoduledezeer\";0;0;1;25;0;0;1;25
putov;0;0;1;10
"nurcan giz";0;0;1;2
calmets;0;0;2;5.5;0;0;1;5
goulwen;0;0;1;10;0;0;1;10
"cara delevingne stencil";0;0;6;1;0;0;1;1;0;0;5;1
renoma;0;0;1;84;0;0;1;84
schechle;0;0;1;9;0;0;1;9
"by jr";0;0;1;225
"jonone artist";0;0;6;10.5;0;0;1;10
"rudi pillen";0;0;4;1;0;0;3;1
"shen jing dong";0;0;6;9.3333333333333;0;0;1;1
"bernard rancillac";0;0;1;9;0;0;1;9
"luca di filippo";0;0;3;5.6666666666667;0;0;2;6
"jean paul barray";0;0;1;5;0;0;1;5
"mason artwork";0;0;1;228;0;0;1;228
"the mighty thor";0;0;1;97;0;0;1;97
"takashi murakami biography";0;0;1;21;0;0;1;21
"willy ronis";0;0;4;39
"nils-udo art";0;0;1;10
"online power bank -china -b2b -forum -blog -wikipedia -.cn -.gov -alibaba -+86 -zhejiang -shanzhen -shanghai -guangzhou";0;0;1;538;0;0;1;538
"obey diamond";0;0;1;41;0;0;1;41
"dana gordon artist";0;0;1;9
"kool koor";0;0;8;2;0;0;1;2
"jean claude deutsch";0;0;2;5.5;0;0;1;7;0;0;1;4
"bram bogart";0;0;1;36;0;0;1;36
"happiness is not for sale";0;0;1;4
"madhu basu";0;0;1;29;0;0;1;29
"diffusion france";0;0;2;9.5;0;0;2;9.5
zalez;0;0;1;10;0;0;1;10
"petra wunderlich facebook";0;0;1;10;0;0;1;10
"greg carlin";0;0;1;24;0;0;1;24
"patrick van der elst";0;0;3;6;0;0;2;6;0;0;1;6
"branding and logos";0;0;2;416;0;0;1;417;0;0;1;415
"hans-christian schink";0;0;1;41;0;0;1;41
"helder batista";0;0;1;10;0;0;1;10
"damien hirst for the love of god print";0;0;1;39;0;0;1;39
"philippe artist";0;0;1;6
"flipo emmanuel";0;0;1;4
"biondi sans";0;0;1;25;0;0;1;25
banq;0;0;1;75;0;0;1;75
chanoir;0;0;11;6.2727272727273;0;0;7;7.4285714285714;0;0;3;4;0;0;1;5
"cabochard definition";0;0;2;44.5
"oleg dou";0;0;1;52
lassaâd;0;0;1;13;0;0;1;13
"peter keizer";0;0;1;6;0;0;1;6
saudek;0;0;1;37
posticles;0;0;1;1;0;0;1;1
"jm robert";0;0;1;2
"sell tom wesselmann";0;0;3;49;0;0;3;49
"jean georges inca";0;0;3;1;0;0;3;1
juliendurix;0;0;2;2;0;0;1;2;0;0;1;2
"andrew mcattee";0;0;1;43
"claude champy";0;0;2;7;0;0;1;7
"emma levine";0;0;1;45
"hear th";0;0;1;426;0;0;1;426
"juliette clovis";0;0;4;1
"hervé di rosa";0;0;2;6.5;0;0;1;9;0;0;1;4
"jean marie marion mannequin";0;0;1;8;0;0;1;8
"johanne 8 facebook";0;0;1;7;0;0;1;7
"gregoire dalle";0;0;1;7
"art jingle";0;0;1;6;0;0;1;6
"hiro ando";0;0;1;7;0;0;1;7
"frank horvat";0;0;1;40;0;0;1;40
"yoel benharrouche";0;0;1;9
"daniel authouart";0;0;1;29
"helmut newton for sale";0;0;1;39
"my jm";0;0;1;323
"simon von barloewen";0;0;2;3;0;0;2;3
"antoine correia";0;0;1;5;0;0;1;5
"david gerstein art";0;0;2;18;0;0;2;18
"germain plouvier";0;0;3;2;0;0;3;2
"kennis chan";0;0;1;9;0;0;1;9
bayet;0;0;1;47
antoinegeiger;0;0;1;10;0;0;1;10
hirschfuß;0;0;1;38;0;0;1;38
"dan rawlings";0;0;1;44;0;0;1;44
"helmut newton exhibition";0;0;1;30;0;0;1;30
"georges braque";0;0;1;192;0;0;1;192
"ama benjamin";0;0;1;26
"guy denning artist";0;0;3;10.666666666667;0;0;1;11;0;0;1;11
"corinne felgate";0;0;1;19;0;0;1;19
"julien raynaud";0;0;1;16;0;0;1;16
"herve di rosa";0;0;5;6.2;0;0;2;6.5
"galerie bettina von arnim";0;0;1;5;0;0;1;5
"jérôme zonder";0;0;1;9
"nick walker artist";0;0;2;44.5;0;0;2;44.5
hamey;0;0;2;5.5;0;0;1;6;0;0;1;5
cridart;0;0;1;12;0;0;1;12
"george platt lynes";0;0;1;57;0;0;1;57
"thomas muller artist";0;0;3;5
"romero britto";0;0;4;35.75;0;0;3;37.333333333333;0;0;1;31
"eva navarro";0;0;10;8.4;0;0;1;7;0;0;1;4
"l'equipe magazine";0;0;1;2;0;0;1;2
"david ferreira";0;0;1;30;0;0;1;30
rundmc;0;0;1;233;0;0;1;233
"antoine geiger";0;0;2;9;0;0;2;9
"kilian glasner";0;0;1;7
"sigune hamann";0;0;2;6;0;0;2;6
"bert prins";0;0;2;2.5;0;0;2;2.5
"mambo paintings";0;0;1;10;0;0;1;10
"alma haser";0;0;1;31;0;0;1;31
"matisse etchings";0;0;1;222;0;0;1;222
"vincent peters";0;0;2;44
"raymond hains artwork";0;0;1;4;0;0;1;4
"helmut newton prints for sale";0;0;1;34
artiane;0;0;1;5;0;0;1;5
begarat;0;0;2;6
"hanns peter krafft";0;0;2;1
"bezt etam";0;0;1;42;0;0;1;42
"oui fm";0;0;1;48
"françois bard";0;0;2;9.5
"osvaldo guayasamin";0;0;1;59
"roman opalka paintings for sale";0;0;1;15;0;0;1;15
"galerie gastaud";0;0;1;4;0;0;1;4
"nils udo art";0;0;1;10;0;0;1;10
"berlin galerie argus fotokunst";0;0;1;69;0;0;1;69
"gomez barros";0;0;3;8.3333333333333;0;0;1;7
fullmäne;0;0;2;4;0;0;2;4
"cat vinton";0;0;2;9;0;0;2;9
"nude male artwork";0;0;1;89
"italianlady 2";0;0;1;9;0;0;1;9
"david lachapelle art";0;0;1;41;0;0;1;41
"romain cadilhon";0;0;2;6
"peter doffine internet service";0;0;2;161.5;0;0;2;161.5
"damien raven";0;0;1;226;0;0;1;226
"calligraphy artwork for sale";0;0;1;41
"je s'aime";0;0;1;9;0;0;1;9
"gallery sun contemporary";0;0;1;90;0;0;1;90
"bruno catalano sculpture prices";0;0;1;7;0;0;1;7
"hank china";0;0;1;1;0;0;1;1
"jean michel basquiat kunst";0;0;1;10;0;0;1;10
quatrebarbes;0;0;1;26;0;0;1;26
"dare alla luce";0;0;2;3
"fieroza doorsen";0;0;1;8
"isabelle levistre";0;0;3;3.6666666666667;0;0;3;3.6666666666667
"sell andrew mcattee";0;0;1;22
teenagehood;0;0;1;8;0;0;1;8
"julia mangold";0;0;2;16.5;0;0;2;16.5
"pkp for sale";0;0;11;9.9090909090909;0;0;11;9.9090909090909
keymi;0;0;4;6.5;0;0;1;6;0;0;2;6
"fernando garcía ponce";0;0;1;15;0;0;1;15
"cruz diez for sale";0;0;1;30;0;0;1;30
"murakami cushion";0;0;1;9;0;0;1;9
"peter hoffer artist";0;0;2;9;0;0;2;9
"zed artwork";0;0;1;40
+nitsch+hermann;0;0;1;122;0;0;1;122
"guy denning";0;0;23;9.6521739130435;0;0;9;10.333333333333
"thomas verny";0;0;1;18;0;0;1;18
"sumo helmut newton";0;0;1;47;0;0;1;47
"basquiat london";0;0;1;50;0;0;1;50
"philippe huart";0;0;1;11;0;0;1;11
"sibylle baltzer";0;0;1;4
"obey lotus";0;0;3;1;0;0;2;1
"jacques villegle art";0;0;1;8
"yan pei-ming";0;0;1;64
sousbock;0;0;1;38
"yvonne coomber";0;0;2;38;0;0;2;38
"elwin buchel";0;0;2;11.5
"by fi";0;0;1;34;0;0;1;34
jorion;0;0;1;27
"anne brunet";0;0;1;26;0;0;1;26
kyliss;0;0;2;1;0;0;2;1
"gérard clisson";0;0;1;3;0;0;1;3
"david gerstein wall sculptures";0;0;1;40;0;0;1;40
"arp photography";0;0;1;310
"peter doffine internet";0;0;1;166;0;0;1;166
"bob carlos clarke";0;0;1;51
"ralf peters";0;0;1;89;0;0;1;89
"francois houtin";0;0;1;1;0;0;1;1
"zhang wei art";0;0;1;10
"mi hyun kim";0;0;1;26
"barry cawston";0;0;1;9
"simon liddiment";0;0;2;7;0;0;1;7;0;0;1;7
"pierre & gilles";0;0;1;41;0;0;1;41
"rudolf hausner";0;0;8;17.125;0;0;8;17.125
"eva jospin";0;0;7;7.4285714285714;0;0;5;6.8;0;0;2;9
"eugenio carmi";0;0;4;7.5;0;0;3;8.3333333333333;0;0;1;5
stoul;0;0;1;32;0;0;1;32
"cecile colombo";0;0;1;4
"galerie vidal";0;0;1;8;0;0;1;8
"alex katz posters";0;0;1;85
"eva maude tardif champoux";0;0;1;9
"andrea martin";0;0;1;184;0;0;1;184
"ferrante artist";0;0;1;52;0;0;1;52
"claude loewer";0;0;1;4;0;0;1;4
"annette messager artist";0;0;1;9;0;0;1;9
"jo lynch artist information";0;0;1;9
"adam binder";0;0;2;44
"jean michel berts";0;0;1;46;0;0;1;46
hyber;0;0;2;27.5;0;0;2;27.5
"maxime ansiau";0;0;1;15
"mihai bara";0;0;1;13
"widin tools";0;0;2;46;0;0;2;46
"hevre art";0;0;1;1;0;0;1;1
"renaud delorme";0;0;4;5.5;0;0;4;5.5
takala;0;0;2;2.5;0;0;2;2.5
"gautier deblonde atelier";0;0;2;9.5;0;0;1;9
"dominic harris";0;0;1;60;0;0;1;60
"gerard schlosser";0;0;3;8.6666666666667;0;0;2;8
"eduardo laborde";0;0;1;22;0;0;1;22
kikayou;0;0;1;7;0;0;1;7
"gz store";0;0;5;4.8;0;0;3;5
"whitespace gallery";0;0;1;55
"guayasamin prints";0;0;1;37
"david ratcliff";0;0;1;33
schmite;0;0;1;8
"sabine danze";0;0;2;8
"gautier deblonde";0;0;1;16
"martine feipel & jean bechameil";0;0;1;50;0;0;1;50
"alain clement artist";0;0;1;4;0;0;1;4
"emilio scanavino";0;0;1;55;0;0;1;55
"pilar ortega";0;0;1;21;0;0;1;21
"francoise nielly information";0;0;1;9;0;0;1;9
"plaster sculptures for sale";0;0;1;20;0;0;1;20
e-gallery;0;0;1;10;0;0;1;10
"sell nick walker";0;0;1;80;0;0;1;80
elia;0;0;1;303
"gastineau massamba";0;0;1;2;0;0;1;2
ebami;0;0;1;9;0;0;1;9
"dino valls";0;0;4;27
"deer artwork for sale";0;0;1;98;0;0;1;98
"debbie harry";0;0;1;206;0;0;1;206
"cedrick vannier";0;0;1;8
"pablito zago";0;0;2;6;0;0;2;6
"eduardo kac";0;0;1;95;0;0;1;95
"benjamin carbonne";0;0;3;1;0;0;2;1;0;0;1;1
"materials to make sculptures";0;0;1;446
"piccadilly circus";0;0;2;184;0;0;1;182
masurade;0;0;1;428
"judith goldnadel";0;0;1;2;0;0;1;2
valencin;0;0;1;18
"anri sala";0;0;1;100
"taki 183";0;0;3;29;0;0;2;38;0;0;1;11
"abstract painting for sale";0;0;1;214
"alva bernadine";0;0;2;2;0;0;1;2;0;0;1;2
hverfisgallerí;0;0;1;9;0;0;1;9
"grand soleil";0;0;1;228;0;0;1;228
"gilles verneret";0;0;1;4;0;0;1;4
"denis rouvre";0;0;2;52
"mb factory";0;0;1;17;0;0;1;17
bodnariu;0;0;56;8.6071428571429;0;0;23;8.9565217391304;0;0;31;8.258064516129;0;0;2;10
"chu teh-chun";0;0;1;47;0;0;1;47
"jieun park";0;0;3;27
"claude closky";0;0;2;15;0;0;1;19;0;0;1;11
fubiz;0;0;3;25.666666666667;0;0;3;25.666666666667
"antanas sutkus sartre";0;0;1;1;0;0;1;1
"wrinkles of the city";0;0;1;76;0;0;1;76
"anna bjerger";0;0;25;6.4;0;0;2;6;0;0;1;6
romanesko;0;0;1;56;0;0;1;56
"esther de bont";0;0;4;4.25;0;0;3;4;0;0;1;5
nowart;0;0;7;8;0;0;4;9;0;0;2;7;0;0;1;6
"sarah hardacre";0;0;1;23
"francoise nielly for sale";0;0;1;18;0;0;1;18
"yona friedman";0;0;1;85;0;0;1;85
"naked artwork";0;0;1;87
"flower delivery bilbao";0;0;1;61;0;0;1;61
"christian renonciat";0;0;1;8;0;0;1;8
pookky;0;0;1;10;0;0;1;10
"money art fort lauderdale fl";0;0;6;349.5;0;0;3;350;0;0;3;349
"miss en";0;0;1;401;0;0;1;401
complicidad;0;0;1;64
rousse;0;0;1;284
"xavier blondeau";0;0;2;9
kartonn;0;0;4;6;0;0;4;6
jadikan;0;0;2;6.5;0;0;2;6.5
"jieun park artist";0;0;1;5;0;0;1;5
"gerard rancinan";0;0;1;24
"charlotte champion";0;0;5;6.2;0;0;3;6.3333333333333;0;0;2;6
"polly ngale";0;0;4;33;0;0;4;33
"ren hang";0;0;3;23.333333333333
"dok art";0;0;1;31;0;0;1;31
"g w bot";0;0;1;7;0;0;1;7
"georgianna robertson";0;0;2;44.5;0;0;1;45;0;0;1;44
"shi gong";0;0;1;24;0;0;1;24
"bruno del zou";0;0;2;9
"california dream x art";0;0;1;18
"christopher schulz";0;0;1;67;0;0;1;67
"duster ua";0;0;1;12;0;0;1;12
erarta;0;0;2;38
"nielly francoise";0;0;1;44;0;0;1;44
miss.tic;0;0;1;9;0;0;1;9
"gerstein art";0;0;2;32;0;0;2;32
"boccara design";0;0;1;6
"andreas leikauf";0;0;1;5
"yves krief";0;0;1;10;0;0;1;10
"galerie fluegel-roncak";0;0;3;14.333333333333;0;0;2;17;0;0;1;9
"matisse le cirque";0;0;1;1
"john c kacere";0;0;1;10;0;0;1;10
"marc asnin";0;0;1;50
"kerry eggleton";0;0;1;4;0;0;1;4
"sell takashi murakami";0;0;3;22;0;0;3;22
"jonone street art";0;0;2;16.5
"buy mel ramos";0;0;2;53;0;0;2;53
mazevet;0;0;1;2;0;0;1;2
"jerome lagarrigue";0;0;6;6.3333333333333;0;0;5;7.2;0;0;1;2
"gérard alary";0;0;1;5
"bastien cuenot";0;0;2;3;0;0;2;3
"fabiano gonper";0;0;2;8;0;0;2;8
"driving school zurich";0;0;1;84;0;0;1;84
"léo caillard";0;0;1;34
"graham dolphin";0;0;1;9;0;0;1;9
"guayasamin el grito";0;0;1;10;0;0;1;10
rudakov;0;0;1;31
"thierry pelletier";0;0;3;9;0;0;3;9
"pius fox";0;0;1;24;0;0;1;24
"albert chubac";0;0;2;5.5;0;0;2;5.5
"ernest pignon ernest";0;0;1;18
zeimert;0;0;1;3;0;0;1;3
"miguel chevalier";0;0;4;33.75;0;0;4;33.75
"apple garde";0;0;1;349
"traveller artwork";0;0;1;31;0;0;1;31
"greg minah";0;0;1;15;0;0;1;15
"geraldine morin";0;0;1;11;0;0;1;11
"luis gordillo";0;0;1;39;0;0;1;39
"chen artist";0;0;1;214
"pierre schneider";0;0;1;29
"eric bourguignon";0;0;1;9;0;0;1;9
"bertrand desprez";0;0;1;8
"professor li wei";0;0;1;10
"master artwork";0;0;1;346;0;0;1;346
tanc;0;0;1;61;0;0;1;61
"grigori dor";0;0;1;8;0;0;1;8
"takashi murakami art style";0;0;1;106;0;0;1;106
"alexey klimov";0;0;1;18;0;0;1;18
"paulette tavormina";0;0;1;35
"garrett pruter";0;0;1;20;0;0;1;20
"andy warhol";0;0;2;244.5;0;0;2;244.5
"michael bevilacqua";0;0;1;52;0;0;1;52
"riccardo simonutti";0;0;1;9;0;0;1;9
slickartfair;0;0;1;4;0;0;1;4
"j'irai décrocher la lune";0;0;1;9;0;0;1;9
"irina ionesco";0;0;1;93
"rafael gomez barros";0;0;5;9.8;0;0;1;10;0;0;1;8
"брижит бардо la madrague";0;0;1;3;0;0;1;3
"carlos betancourt";0;0;1;35
"berge panossian";0;0;1;3;0;0;1;3
"fabien verschaere";0;0;4;3.5;0;0;2;3
"be gallery";0;0;1;18;0;0;1;18
"hus gallery";0;0;1;80
"eric peyret";0;0;1;2;0;0;1;2
"french artists";0;0;1;31;0;0;1;31
"isabelle cochereau";0;0;7;9.2857142857143;0;0;1;11
"leonardo ulian";0;0;1;29;0;0;1;29
"galerie rx";0;0;1;5
"sculpteur christophe charbonnel";0;0;2;1
"miguel vallinas";0;0;1;31;0;0;1;31
"la soubrette";0;0;1;65;0;0;1;65
"roberto matta prints";0;0;1;85;0;0;1;85
"jeanne lorioz gallery";0;0;2;10;0;0;2;10
"aboudia artist";0;0;1;7
edmee;0;0;1;46;0;0;1;46
"givenchy hat";0;0;1;39;0;0;1;39
unkuri;0;0;1;61
"francine van hove";0;0;2;18;0;0;2;18
"thierry feuz";0;0;1;30
"april gornik";0;0;1;71
"chuck elliott";0;0;1;53;0;0;1;53
"contemporary sculptures";0;0;1;321;0;0;1;321
"artworks cali";0;0;1;9
"adek graffiti";0;0;1;40;0;0;1;40
"""jörg döring""";0;0;11;41;0;0;11;41
"cool artwork for sale";0;0;1;44;0;0;1;44
design+and+decoration;0;0;1;240;0;0;1;240
"yayoi kusama soft sculpture";0;0;1;10
"nicolas maureau";0;0;2;2
"césar baldaccini";0;0;8;11.125;0;0;8;11.125
"dit di";0;0;1;34;0;0;1;34
"peter klasen";0;0;8;8.25;0;0;1;8;0;0;1;7
"skull artwork for sale";0;0;1;49
watin;0;0;1;72;0;0;1;72
"art photography for sale";0;0;1;406;0;0;1;406
"denis darzacq";0;0;1;64
"stephane gautier";0;0;5;1.2;0;0;3;1.3333333333333;0;0;2;1
"petra wunderlich";0;0;13;7.3846153846154;0;0;7;6.7142857142857;0;0;5;7.6;0;0;1;11
"jacques renoir";0;0;5;8;0;0;2;8.5
"ken spooner artist";0;0;1;4;0;0;1;4
"jeanne lorioz";0;0;8;9;0;0;1;10;0;0;1;10
"anna bocek prices";0;0;1;4;0;0;1;4
"galerie michael sturm";0;0;1;100;0;0;1;100
"john kacere";0;0;3;34.666666666667
"terry watts";0;0;1;33;0;0;1;33
"arnaud rabier";0;0;1;74
"arthur tress biography";0;0;1;8;0;0;1;8
"miguel ortiz berrocal";0;0;2;45.5;0;0;2;45.5
"crash artist";0;0;1;7
lemoduledezeer;0;0;1;6;0;0;1;6
"jean pierre schneider";0;0;2;1;0;0;2;1
"nue gallery";0;0;1;2;0;0;1;2
"mel ramos coco";0;0;1;1;0;0;1;1
"jacque villegle";0;0;3;9;0;0;2;8.5;0;0;1;10
"jonathan huxley";0;0;3;5.6666666666667;0;0;1;5
"zhou hongbin";0;0;1;8
"takashi murakami prints for sale";0;0;2;19;0;0;1;20;0;0;1;18
"james ostrer";0;0;1;30
"francois bard paintings";0;0;2;4;0;0;2;4
"christa sommerer";0;0;1;30;0;0;1;30
"manuel geerinck";0;0;1;22
"garage pfäffikon";0;0;1;36;0;0;1;36
"alexander massouras";0;0;1;36;0;0;1;36
"graffiti de";0;0;1;46
"benjamin spark";0;0;2;8.5;0;0;2;8.5
"place li";0;0;1;230;0;0;1;230
"allan mccollum";0;0;1;73;0;0;1;73
"mr brainwash artist";0;0;1;79;0;0;1;79
"casey reas";0;0;1;81;0;0;1;81
"alex guofeng cao";0;0;1;16;0;0;1;16
"louis blanc";0;0;2;94;0;0;2;94
"contemporary photography";0;0;1;434;0;0;1;434
"melanie peduzzi";0;0;1;2;0;0;1;2
philomates;0;0;2;5.5
"compression de cesar";0;0;1;9;0;0;1;9
"michel graff";0;0;1;10;0;0;1;10
guayasamin;0;0;1;10
"eric kellerman";0;0;1;36;0;0;1;36
rnst;0;0;1;45;0;0;1;45
"thomas gromas";0;0;1;17;0;0;1;17
"carlos cruz-diez";0;0;1;66
"αρης μεσσήνης";0;0;1;13;0;0;1;13
"jose manuel fors";0;0;6;12.333333333333;0;0;6;12.333333333333
"لا ""contact"" ~بنيكه";0;0;2;242;0;0;2;242
bacqueville;0;0;1;36;0;0;1;36
"best florist dorval";0;0;1;84
"materials for sculptures";0;0;1;428;0;0;1;428
"dune animals";0;0;1;416;0;0;1;416
"kiki picasso";0;0;9;4.7777777777778;0;0;7;3.8571428571429;0;0;2;8
"carlos cruz diez";0;0;1;65;0;0;1;65
"peter liversidge";0;0;1;54;0;0;1;54
"kenzo sale";0;0;1;130;0;0;1;130
"foot fetish art";0;0;1;28
"julian opie biography";0;0;1;37;0;0;1;37
"anna bocek artist";0;0;2;8;0;0;2;8
"inception gallery";0;0;2;5;0;0;2;5
"chris morin eitner";0;0;1;1;0;0;1;1
"tite street for sale";0;0;2;43
"galerie vidal st phalle";0;0;1;2
"liu bolin usa";0;0;1;45;0;0;1;45
"onur dinc";0;0;5;8.4;0;0;5;8.4
"jett pink";0;0;1;29;0;0;1;29
stiliana;0;0;1;19;0;0;1;19
"jm roberts";0;0;1;23
couettes;0;0;1;213
"olivier widmaier picasso";0;0;3;14.666666666667;0;0;3;14.666666666667
lollia;0;0;1;68;0;0;1;68
"laurent maes";0;0;3;3.6666666666667
"chanel posters for sale";0;0;1;99
"monica dalmasso";0;0;1;15;0;0;1;15
"thomas canto";0;0;1;12;0;0;1;12
"photographers contact";0;0;1;614;0;0;1;614
"stephen forbes artist";0;0;4;2.25;0;0;2;2
"thomas muller art";0;0;1;5;0;0;1;5
yilduz;0;0;1;9;0;0;1;9
vanitas6;0;0;1;22
"lauryn hill";0;0;1;182
"aurélie deplus";0;0;1;6;0;0;1;6
"rob van hoek";0;0;4;5;0;0;4;5
aliot;0;0;1;39;0;0;1;39
"asgar gabriel";0;0;4;8.75;0;0;3;8.3333333333333;0;0;1;10
"nomusa makhubu";0;0;1;7
"hom nguyen";0;0;1;1;0;0;1;1
kalouf;0;0;1;10;0;0;1;10
"dawit abebe";0;0;1;14;0;0;1;14
"francois morellet artist";0;0;1;8;0;0;1;8
levalet;0;0;1;5;0;0;1;5
"branding logos";0;0;1;428;0;0;1;428
"michelle hold";0;0;4;9.25;0;0;3;8.6666666666667
"john short artist";0;0;1;7;0;0;1;7
"phillipe paska";0;0;1;9
"schoony artist";0;0;1;9;0;0;1;9
"coombe gallery";0;0;2;320;0;0;2;320
"aleix plademunt";0;0;2;34;0;0;2;34
"onur art";0;0;1;5
"john bulmer photography";0;0;1;64;0;0;1;64
"julian opie interview";0;0;1;44;0;0;1;44
"grano lithograph";0;0;1;10;0;0;1;10
"jeremy annear";0;0;1;16;0;0;1;16
"truc anh";0;0;2;8;0;0;1;11
"sonia aniceto";0;0;2;2
"paper magazine contact";0;0;1;303;0;0;1;303
"marie anne thieffry";0;0;1;7;0;0;1;7
"henri matisse";0;0;4;189.25;0;0;2;189;0;0;2;189.5
"ariel x";0;0;1;212
"terra trio";0;0;1;7;0;0;1;7
maohuang;0;0;1;2;0;0;1;2
"envie d'art";0;0;2;5;0;0;2;5
"jonvelle photographer";0;0;1;1;0;0;1;1
"eckart hahn";0;0;2;22
"claude charlier";0;0;1;8;0;0;1;8
"paris artist";0;0;1;37
"artdog london";0;0;2;10;0;0;2;10
"henri matisse original prints worcester";0;0;1;35
"emeric chantier";0;0;6;4.8333333333333;0;0;3;5;0;0;3;4.6666666666667
cochereau;0;0;1;47;0;0;1;47
"keith haring lucky strike";0;0;1;1
"david gerstein art for sale";0;0;1;8;0;0;1;8
"frank de mulder artwork";0;0;1;1;0;0;1;1
"jana & js";0;0;1;8;0;0;1;8
"lisa norris gallery";0;0;1;12;0;0;1;12
"enrico de paris";0;0;1;6;0;0;1;6
"francis apesteguy";0;0;2;1
"bauer art";0;0;1;432;0;0;1;432
malevitch;0;0;1;24
"rob van hoek art";0;0;1;10;0;0;1;10
"jonathan callan";0;0;1;38
zakii;0;0;1;31;0;0;1;31
"david gerstein wall sculptures prices";0;0;1;19;0;0;1;19
"crystal wagner";0;0;1;40;0;0;1;40
"keith haring painting for sale";0;0;1;53;0;0;1;53
"adrian buba";0;0;1;4;0;0;1;4
"antoine stevens";0;0;31;7.4193548387097;0;0;17;7.5882352941176;0;0;12;7;0;0;2;8.5
"tom muller artist";0;0;2;9;0;0;2;9
"jock sturges";0;0;1;88;0;0;1;88
"j bardot painter";0;0;1;45;0;0;1;45
"keith haring";0;0;1;191;0;0;1;191
totomobile;0;0;1;28;0;0;1;28
"jeremy annear artist";0;0;1;12
"galerie vevais";0;0;1;7
doolon;0;0;1;7;0;0;1;7
"gerry cranham";0;0;2;5;0;0;2;5
"jesper just";0;0;1;96;0;0;1;96
"charlie roberts artist";0;0;2;9
"francoise nielly price";0;0;1;18
"helmut newton fotografias";0;0;1;69
"lucky strike keith haring";0;0;3;1
"rero artist";0;0;2;21.5;0;0;2;21.5
"anca cernoschi";0;0;1;19;0;0;1;19
yutao;0;0;1;1;0;0;1;1
"1000 euros";0;0;5;37.6;0;0;5;37.6
"banksy note";0;0;2;20
"petros chrisostomou";0;0;1;26
"jonas “sun7” bournat";0;0;2;7.5;0;0;2;7.5
"yann houri for sale";0;0;1;6;0;0;1;6
"master art work";0;0;1;337
"kumi sugai";0;0;1;10
sourty;0;0;1;9
"shup shup";0;0;1;45
"shirley jaffe artist";0;0;1;10
"nyaba leon ouedraogo";0;0;1;15
"yago partal";0;0;1;44
"dimitri tolstoi";0;0;2;8
"martín reyna";0;0;1;22
"pei for sale";0;0;2;207
baldaccini;0;0;3;35.666666666667
"sergio ferro";0;0;4;13.5
"yang yongliang artist";0;0;1;4
"joseph beuys";0;0;1;219
"christy lee";0;0;1;78
courrèges;0;0;1;110
"wang shu hui";0;0;1;17
m-city;0;0;1;88
"foot fetish";0;0;1;159
"gazelli art house";0;0;3;34.333333333333
"guy denning bio";0;0;1;5
"sergio moscona";0;0;3;3;0;0;1;4
"richard levine artist";0;0;3;8.6666666666667
aliberg;0;0;1;8
"adam nidzgorski";0;0;1;4
"30 x 60 mirror";0;0;1;160
"this life loader";0;0;6;21.166666666667
"rero art";0;0;2;25.5
"art galleries cornwall";0;0;2;377
"buy andrew mcattee";0;0;1;33
"john monteith";0;0;1;43
"pakpoom silaphan";0;0;1;15
"shai dahan";0;0;1;42
contemporary;0;0;1;550
"abc gallery";0;0;2;8.5
"kenneth noland";0;0;2;82.5
"tom wesselman";0;0;1;36
"petite_fille nude";0;0;1;41
"fantasy art for sale";0;0;1;27
"john matos";0;0;8;6.75;0;0;2;8.5
"patrick loste";0;0;1;6
"rafols casamada";0;0;1;25
"spectacled owl";0;0;1;173
"dominique clerc";0;0;2;5.5;0;0;4;8
"elodie lachaud";0;0;1;6
"art club paris";0;0;1;29
"galerie nicolas hugo";0;0;1;5
"viet ha tran";0;0;4;5.25
"matisse dc";0;0;1;232
"alfie goodrich";0;0;1;21
"cony theis";0;0;1;23
"transfer artist paper";0;0;1;406
"paul van hoeydonck";0;0;1;54
whitespaceart;0;0;1;7
"melanie bonajo";0;0;1;58
"j'irai decrocher la lune";0;0;1;7
"onur dinç";0;0;1;3
"jeff koons balloon dog plate";0;0;1;50
"lego batista";0;0;1;9
"alexandre joly";0;0;3;9.6666666666667
"kenza sadoun";0;0;1;17
"noé two";0;0;1;2
"takashi murakami art for sale";0;0;1;10
"lamborghini fire extinguisher";0;0;1;33
"olivier masmonteil";0;0;2;8.5
"fadi daoud";0;0;2;9.5;0;0;2;10
"bernard buffet";0;0;1;25
"arno elias artist";0;0;1;6
"roger edgar";0;0;1;26
"άρης μεσσήνης";0;0;1;13
artigasplanas;0;0;1;2
"mathieu mercier";0;0;1;37
"jan saudek galeria";0;0;1;36
"composition orange";0;0;2;99
"kiddy nudes";0;0;1;4
margit;0;0;1;202
"shade buddy";0;0;1;314
"babajide olatunji";0;0;1;1;0;0;2;7
godon;0;0;22;2.8636363636364;0;0;2;5.5
"monsieur artist";0;0;2;8.5
"anna bocek art";0;0;2;6
"sui jianguo";0;0;1;65
"olivier debré";0;0;1;49
"renata har";0;0;1;11
"kim sun hyuk";0;0;2;10.5
"anne et patrick poirier";0;0;1;10
"zhao bandi";0;0;4;4.25
"robert combas";0;0;5;9.6
"gz gallery";0;0;2;5
"helmut newton sumo";0;0;3;51
"slick art fair";0;0;1;5
"genevieve claisse";0;0;1;7;0;0;2;6;0;0;1;8
+bram+bogart;0;0;1;33
"art brut images";0;0;1;28
"timur novikov";0;0;7;11;0;0;4;1.25
"hard rock artwork";0;0;1;1
azema;0;0;1;31
cosmogarden;0;0;1;6
houtin;0;0;5;9.6
"francois glineur";0;0;5;8
"linda blackstone gallery";0;0;1;7
"duster ua graffiti";0;0;1;12
"etienne cail";0;0;2;1.5
"jef aérosol";0;0;2;10
"maria diaz perez";0;0;1;13
k-narf;0;0;1;99
"cecile plaisance";0;0;2;10.5
"helmut newton death";0;0;1;48
"andy hope 1930";0;0;1;93
"bruno vilela";0;0;1;96
"ilgin seymen";0;0;1;10
"philippe soussan";0;0;1;3
"cap ton";0;0;1;4
"art brut gallery";0;0;1;9
"reynald drouhin";0;0;2;9
"subject matter art";0;0;1;83
"lauren bacall";0;0;1;180
"keep em";0;0;1;426
"marin kasimir";0;0;1;9
"bodnariu norway";0;0;1;52
"j ibert";0;0;1;31
"onur artist";0;0;2;5;0;0;1;7
"blek le rat";0;0;4;74.75
"matisse for sale";0;0;1;145
"lucy & jorge orta";0;0;1;50
"yanne kintgen";0;0;1;6
"guayasamin oswaldo";0;0;1;25
"matelas 110";0;0;1;213
"batuz artist";0;0;1;38
"mother la";0;0;1;406
"guy denning artwork";0;0;1;10;0;0;1;10
"galerie hegoa";0;0;1;6
"guillaume piechaud";0;0;1;4
ecloz;0;0;1;8
"anthony knapik-bridenne";0;0;1;9
"conrad marca-relli";0;0;1;34
vray;0;0;1;82
"tatiana kourochkina contemporary art project";0;0;1;60
"caroline fraser";0;0;1;48
"duster graffiti";0;0;1;14
"kate barry";0;0;1;45
"magdalena lamri";0;0;2;4
"carmelo arden quin";0;0;1;54
"angel duarte";0;0;8;2.75;0;0;1;3
"anderson & low";0;0;1;43
"matisse lithographs";0;0;1;78
"side x side for sale monroe la";0;0;1;90
aboudia;0;0;1;35
"tony bevan";0;0;1;46
"jungle vip";0;0;6;71
"isabelle durand";0;0;1;30;0;0;1;28
"duru art space";0;0;1;77
"wadi finan art gallery";0;0;1;6
"bambi artist";0;0;6;5.6666666666667
"art brut paintings";0;0;1;29
jpunk;0;0;1;32
"ramzi adek";0;0;1;6
"paris bouge";0;0;1;46
"mel ramos vintage";0;0;1;74
"braque obama";0;0;1;1
"ahmad zakii anwar artwork";0;0;1;9;0;0;2;10
"os gemeos print";0;0;1;30
"gohar dashti";0;0;1;33;0;0;1;3
"michael bevilacqua artist";0;0;1;20
"patrizio di renzo";0;0;1;37
"yang yongliang";0;0;23;10.652173913043
"little thumb";0;0;2;83.5
"victor richardson paintings for sale";0;0;2;3
"francesco libassi";0;0;1;8
"colorfield gallery";0;0;2;7
"herve lewis";0;0;5;6
"""ralf peters""";0;0;18;50
"thomas jorion photographe";0;0;1;5
"santander bewertungen in waldkraiburg";0;0;1;35;0;0;1;35
"dominique regnier";0;0;1;9
masuerade;0;0;1;411
"pierre terrasson";0;0;1;18
durix;0;0;6;2.5;0;0;1;8
"giorgio laveri";0;0;1;8
"victor lope arte contemporaneo";0;0;1;77
"jerome romain";0;0;1;38
"raymond hains artist";0;0;2;7
cabochard;0;0;1;136
"jacques villegle";0;0;14;8.5714285714286;0;0;3;9
"brugier rigail";0;0;1;7
arvani;0;0;1;46
"gabriela tolomei";0;0;1;2
"bernard pras";0;0;9;12.333333333333
"nathalie fontenoy";0;0;2;5
liwei;0;0;4;7.75
"david gery";0;0;1;8
"jim kazanjian";0;0;1;30
"lolita nude";0;0;1;240
"planete serie";0;0;9;7.6666666666667;0;0;1;4
"joseph marzolla";0;0;2;8
"sale flamand";0;0;1;37
"yuval shaul";0;0;1;9
"yaacov agam";0;0;1;82
"crash street artist";0;0;1;6
"quantum contemporary art";0;0;1;93
"frank fischer artist";0;0;1;2
"antoine desailly";0;0;1;7
"gérard titus-carmel";0;0;1;27
"for king and country painting";0;0;1;10
"oger sale";0;0;2;14
"philippe charpentier";0;0;1;1
"césar expansion";0;0;1;9
villeglé;0;0;1;19
"victor kastelic";0;0;1;12;0;0;1;9
"lime artwork";0;0;1;59
"mist art";0;0;1;5
"jerome zonder";0;0;1;15
"bernard pras biography";0;0;1;2
"alberto rosselli";0;0;1;29
"andré borderie";0;0;1;68
"speedy graphito for sale";0;0;2;4.5
"suling wang";0;0;1;13
nakedlittlegirls;0;0;1;48
"césar compressions";0;0;1;25
truc-anh;0;0;1;4
"jacques de la villeglé";0;0;4;9;0;0;1;8
lepenseur;0;0;1;86
"philippe berthommier";0;0;1;1
punkrose;0;0;3;43
intra01;0;0;6;7.3333333333333
"david gerstein artist";0;0;2;18
"etienne gros";0;0;3;7;0;0;2;5
"antoine rose";0;0;1;65
"materials of sculpture";0;0;1;422
"brokeback mountain 2";0;0;3;53.333333333333
"robert zandvliet";0;0;2;31
"sell shepard fairey / obey";0;0;1;45
"paul stolper gallery";0;0;1;30
"stiliana alexieva";0;0;1;9
"perino & vele";0;0;1;4
"victoria horkan";0;0;1;36
"candle in the wind";0;0;1;191;0;0;1;178
"arman venus";0;0;2;2
"sculpteur catalan";0;0;1;168
"shahabuddin ahmed paintings for sale";0;0;1;7
"susan de passe";0;0;1;220
"speedy graphito";0;0;4;26
"florence d'elle photographs";0;0;1;1
"fetish sculpture";0;0;1;5
"jean baptiste art";0;0;1;99
"etam cru sketch";0;0;1;10;0;0;1;8
"sandra beccarelli";0;0;1;9;0;0;1;9
"hans withoos";0;0;1;9
"morman rockwell";0;0;1;340
"guy de rougemont";0;0;3;8.3333333333333
"jan saudek";0;0;6;39.333333333333;0;0;3;20.666666666667
"jacques villegle biography";0;0;1;8
"cricket fine art";0;0;1;7
"christophe charbonnel";0;0;4;4.5;0;0;3;3.3333333333333
mesnager;0;0;6;5
"france diffusion";0;0;1;10
pengspace;0;0;1;10
"venezuelan artists";0;0;2;18
"golden beach for sale";0;0;1;178
цедки;0;0;1;2
doia;0;0;2;57
"galerie nue";0;0;1;8
"paul carey-kent";0;0;1;9
"kavachnina contemporary";0;0;1;77
"raigon stanley";0;0;1;3;0;0;1;3
"chris macauley";0;0;1;7
"capucine graby";0;0;1;10
"avion marseille";0;0;2;99.5
"sell star n8";0;0;1;44
"patrick letovsky";0;0;1;3
"marcus egli";0;0;4;10
"la mri";0;0;1;10
"shepard fairey peace dove";0;0;2;1
"carlos alberto cruz";0;0;1;99
"conrad marca relli";0;0;1;34
"kurt mair";0;0;1;33
"paris exhibitions";0;0;1;413
"anya gallaccio";0;0;1;75
"louis stettner";0;0;1;8
"max charvolen";0;0;1;4
"by yo";0;0;1;125
"gerard alary";0;0;1;5
"martin szekely";0;0;1;35
"marian williams";0;0;1;41
"benoit lison";0;0;1;8
"jean-christophe ballot";0;0;1;35
"berry philippe";0;0;1;6
"michele destarac";0;0;1;1
"jiri kolar";0;0;1;37
"jean paul artist";0;0;1;39
btoy;0;0;2;20
"fabrizio cornelli";0;0;5;7.6
"keith coventry";0;0;1;41
"reinhard gorner";0;0;1;14
"kenneth noland prints";0;0;1;70
"arbus artist";0;0;1;11
"patrick bailly";0;0;1;1
"jean-charles millepied";0;0;1;5
"carine galli biographie";0;0;2;41
sirck;0;0;1;21
"olivier brouwers";0;0;1;10
"philippe weisbecker";0;0;1;11;0;0;3;6
"aurelie nemours";0;0;1;45
"""li wei""";0;0;4;11
"nicolas moreau";0;0;1;36
"mor charpentier";0;0;1;55
"john bulmer";0;0;14;11;0;0;1;1
dessirier;0;0;1;19
"aboudia abdoulaye diarrassouba";0;0;1;28
"kenny hunter";0;0;1;51
"toma l";0;0;3;4
"georges cabot";0;0;1;2
"blek le rat art";0;0;1;44
"seen artists";0;0;1;9
"envie d art";0;0;1;8
"benharrouche yoel";0;0;1;1
"rutger brandt gallery";0;0;1;5
"brno del zou photography";0;0;1;4
"monika nowak";0;0;1;6;0;0;1;10
"hazuka jacek";0;0;1;15
"dibond signage in lagos";0;0;1;39
"buy tom wesselmann";0;0;1;53
"al held";0;0;1;51
"tracey emin art for sale";0;0;1;31
"henri matisse lithographs";0;0;1;45
aranthell;0;0;1;5
"hanns-peter krafft";0;0;1;1
"priscilla moore";0;0;1;26
"scottish terrier";0;0;1;232
"gunter damisch";0;0;4;47.5
"ran hwang";0;0;2;39
"matin photography";0;0;1;219
gzstore;0;0;1;7
"mr en";0;0;1;409
"catherine seher";0;0;1;4
"ready to die artwork";0;0;1;9
anorexic;0;0;1;156;0;0;1;180
"paul bogaers";0;0;3;34
"yann stofer";0;0;3;10
korosh;0;0;1;45
"cesar baldaccini";0;0;3;10.666666666667
"emmanuel barcilon";0;0;1;13
"klaus kampert";0;0;1;66
kilmany;0;0;1;33
"etienne rey";0;0;2;8.5
"jacek hazuka artist";0;0;1;1
"li lihong";0;0;2;1.5
"jacques villeglé";0;0;8;9.25
streichenberger;0;0;1;24
"gérard rancinan";0;0;1;14
"sandro giordano";0;0;2;15
"pin up las vegas";0;0;1;164
"galerie sibony";0;0;1;17
"renoma street";0;0;1;23
"helga lachapelle";0;0;1;9
"marc ferrero";0;0;7;9.8571428571429;0;0;1;9
iemza;0;0;2;7;0;0;2;9
entrebanc;0;0;1;7
hornsleth;0;0;2;112
"li wei";0;0;80;9.525;0;0;16;1.625;0;0;4;1
"creepy art";0;0;1;29
"marc cerrone";0;0;1;22
"nils udo";0;0;27;9.7037037037037;0;0;8;11;0;0;7;10.285714285714
himba;0;0;1;322
"marek piasecki";0;0;4;19.5
"nicolas hugo";0;0;1;8
"jankowski artist";0;0;1;37
"pierre marie brisson";0;0;1;8;0;0;1;2
"mater of time";0;0;1;320
"nu feminin";0;0;2;25
"murano lamper";0;0;1;37
"miss van";0;0;1;64
"guy denning painting";0;0;1;10
"philippe berry";0;0;2;4;0;0;1;6;0;0;2;4
"martina falk";0;0;1;24
"puzzle blanc";0;0;1;23
"gordon hopkins";0;0;12;4.1666666666667;0;0;2;4.5;0;0;3;5
"victor soren";0;0;1;1
"gifts dorval";0;0;1;190
"china fond";0;0;2;9
"lyle carbajal artist";0;0;5;7.6
"olivier leroy";0;0;1;27
"mischa keijser";0;0;1;3
"the artful project";0;0;1;5
"little angel ortiz";0;0;1;27
"morellet francois";0;0;1;10
"déesse art";0;0;1;4
"murakami art for sale";0;0;2;1
"marius bodnariu";0;0;4;59.25
"kilmany-jo liversage";0;0;7;7.4285714285714
"frederic blaimont";0;0;1;5
"mc2 gallery";0;0;1;7
"elvis presley artwork";0;0;1;44
"octave pixel";0;0;1;2;0;0;5;7.2;0;0;1;2
"gérard fourel";0;0;1;8
"zhang lin";0;0;1;49
"gerard fourel";0;0;1;8
"abstract art savannah ga";0;0;2;314
"xin tao";0;0;1;2
"david gerstein";0;0;1;48
cottavoz;0;0;2;5
sgarra;0;0;1;9
"laurent martinez";0;0;1;10
"henri lami";0;0;1;5
mercky;0;0;1;5
"paul carey kent";0;0;1;7
chubac;0;0;6;7.1666666666667
"caroline yates artist";0;0;1;10
"ellen priest";0;0;1;10
"alexandre durand";0;0;1;15
"richard hudson artist";0;0;1;11
"el pradino";0;0;1;2
"image moi";0;0;1;8
"le dejeuner sur l'herbe";0;0;2;1
"ren hang wiki";0;0;1;7
"francois morellet";0;0;1;11
leyto;0;0;1;13;0;0;1;3
"anne catherine becker echivard";0;0;1;10
"isa marcelli";0;0;1;12
"yann houri";0;0;5;6.6
"ren hang biography";0;0;1;6
"miss tic";0;0;2;8;0;0;1;11
nowarts;0;0;2;6.5
"daniel lucien durand";0;0;1;40
"christoff artist";0;0;1;16
"elisabeth lecourt";0;0;1;10
"keith haring montreux";0;0;1;2
"thomas bossard";0;0;1;5
"florence d elle";0;0;1;8
"takashi murakami flower pillow";0;0;1;10
"katrin bremermann";0;0;2;1.5
"ruth johanne bodnariu";0;0;2;27
destarac;0;0;1;1
auriane;0;0;1;107
"ferreira david";0;0;2;4
"uwe ommer";0;0;1;42
"love forever together";0;0;1;18
"valerie hadida sculptures";0;0;1;5
"blinded series";0;0;1;6
"jane emberson";0;0;2;8
"fight the power";0;0;1;186
lamri;0;0;1;5
"cesar baldaccini sculptures";0;0;1;7
"kilmany jo liversage";0;0;3;8
"pierre muckensturm";0;0;1;4
jadiin;0;0;1;6
bosh;0;0;1;196
koor;0;0;2;10
"chen yidan";0;0;1;2
"peter lippmann";0;0;4;9
"quik lin felton";0;0;1;6
"guy ferrer";0;0;1;10
"khawater 1";0;0;1;10
"richard heeps";0;0;1;8
"philippe vasseur";0;0;1;6
"john william waterhouse";0;0;1;76
polytechnique;0;0;1;11
"galerie keza";0;0;1;3
"jorg doring";0;0;1;3
roch3;0;0;1;10
"charlotte briant";0;0;1;10
"delphine couturier brochand";0;0;1;9
"18 nudes";0;0;1;185
"herve lewis photographe";0;0;1;9
"michael johansson";0;0;1;80
"kenny john";0;0;1;1
"la madrague brigitte";0;0;1;6
"valerie hadida";0;0;2;7
"cara delevigne stencil";0;0;1;1
"valerie hadida sculpture";0;0;2;6.5
"daan oude elferink";0;0;2;7.5
"alberto reguera";0;0;1;84
"guy denning paintings";0;0;1;10
"bernard gaume";0;0;2;6
"the painters project";0;0;2;2
"derrick santini";0;0;1;25
"arwani nava law";0;0;1;17
"crash matos";0;0;1;1
"by the dude";0;0;1;7
