"brno del zou";9;0.20454545454545;44;2.1136363636364;8;0.21052631578947;38;2.1052631578947;0;0;4;2;1;0.5;2;2.5
"kennis chan";4;0.66666666666667;6;10.833333333333;1;0.5;2;12.5;3;0.75;4;10
"guy denning";2;0.015748031496063;127;9.4015748031496;2;0.020618556701031;97;9.2577319587629;0;0;19;9.8421052631579;0;0;11;9.9090909090909
"hideka tonomura";2;0.125;16;5.5625;1;0.076923076923077;13;5.0769230769231;1;0.33333333333333;3;7.6666666666667
"eva navarro";2;0.11764705882353;17;6.5882352941176;0;0;12;6.5;0;0;1;10;2;0.5;4;6
"peter lippmann photographer";1;0.5;2;9;1;0.5;2;9
"thomas gromas";1;1;1;15;1;1;1;15
"michael bastow";1;0.5;2;8;1;0.5;2;8
"troy henriksen art";1;0.33333333333333;3;3;0;0;1;3;1;1;1;3;0;0;1;3
"brno del zou info";1;0.33333333333333;3;1;1;0.33333333333333;3;1
"jo lynch artist information";1;0.16666666666667;6;8;1;0.25;4;8;0;0;2;8
"thierry bigaignon";1;1;1;6;1;1;1;6
"uwe ommer";1;0.5;2;18.5;1;0.5;2;18.5
"cecile desserle";1;1;1;12;1;1;1;12
"kongo artist";1;0.33333333333333;3;6.3333333333333;0;0;1;5;1;0.5;2;7
"karl lagasse";1;0.16666666666667;6;3.8333333333333;1;1;1;4;0;0;5;3.8
"françois houtin";1;0.14285714285714;7;9.2857142857143;1;0.14285714285714;7;9.2857142857143
"petra wunderlich";1;0.076923076923077;13;6.9230769230769;1;0.090909090909091;11;6.6363636363636;0;0;2;8.5
"fabrizio corneli";1;0.14285714285714;7;7.7142857142857;1;0.16666666666667;6;7.8333333333333;0;0;1;7
"antoine josse sculpteur";1;1;1;14;1;1;1;14
"tom wesselmann";1;0.066666666666667;15;20.866666666667;1;0.076923076923077;13;21.384615384615;0;0;2;17.5
"lorioz art";1;0.33333333333333;3;7.6666666666667;1;0.33333333333333;3;7.6666666666667
"julia fullerton batten";1;0.33333333333333;3;99.333333333333;1;0.33333333333333;3;99.333333333333
"luz severino";1;1;1;7;1;1;1;7
"bubble shooter";1;0.33333333333333;3;185.66666666667;1;0.5;2;192.5;0;0;1;172
"david hinchliffe";1;1;1;12;1;1;1;12
"manolo chretien";1;0.5;2;9;1;0.5;2;9
"tracey emin nude";1;1;1;66;1;1;1;66
"guy denning art for sale";1;0.5;2;3;1;0.5;2;3
"nils udo";1;0.03125;32;8;1;0.047619047619048;21;7.3333333333333;0;0;6;8.6666666666667;0;0;5;10
"jef aerosol";1;0.16666666666667;6;10.166666666667;1;0.2;5;10;0;0;1;11
"brno del zou photography";1;1;1;3;1;1;1;3
"antoine josse";1;0.16666666666667;6;10;0;0;1;10;1;0.2;5;10
"jean paul moscovino";1;0.16666666666667;6;1.3333333333333;0;0;2;1;1;0.25;4;1.5
"dita von teese nue";1;0.5;2;10;1;1;1;11;0;0;1;9
"brno del zou biography";1;0.25;4;1;1;0.33333333333333;3;1;0;0;1;1
"sui jianguo";1;0.33333333333333;3;65.333333333333;1;0.33333333333333;3;65.333333333333
"finbarr dac";1;0.2;5;10;1;0.2;5;10
"jean faucheur";1;0.16666666666667;6;3.3333333333333;1;0.2;5;3.4;0;0;1;3
"jacques mahe de la villegle";0;0;2;7;0;0;2;7
"moulin rudelle muret";0;0;1;85;0;0;1;85
"dganit blechner";0;0;2;9.5;0;0;2;9.5
"victori contemporary";0;0;2;86.5;0;0;2;86.5
"petros chrisostomou";0;0;8;9.75;0;0;5;10;0;0;3;9.3333333333333
"nicolas dubreuille";0;0;1;2;0;0;1;2
noart;0;0;2;6;0;0;2;6
begarat;0;0;6;6;0;0;3;7.6666666666667;0;0;2;5;0;0;1;3
"smiley artwork";0;0;1;35;0;0;1;35
"francois bard";0;0;8;8.625;0;0;7;8.7142857142857;0;0;1;8
"hanna herrera";0;0;1;10;0;0;1;10
"fabien giraud";0;0;1;359;0;0;1;359
"la cascade";0;0;1;191;0;0;1;191
"ruta jusionyte";0;0;2;7.5;0;0;2;7.5
"jon one";0;0;3;7.6666666666667;0;0;3;7.6666666666667
"alvaro petritoli";0;0;3;9;0;0;3;9
"pierre tal coat peintre";0;0;1;18;0;0;1;18
"oswaldo guayasamín paintings";0;0;1;10;0;0;1;10
"jerry zeniuk deutschland";0;0;1;19;0;0;1;19
"envie d'art";0;0;2;6;0;0;1;3;0;0;1;9
lassaâd;0;0;2;7;0;0;2;7
artsper;0;0;32;1;0;0;28;1;0;0;3;1;0;0;1;1
"alinka echeverria";0;0;1;18;0;0;1;18
"gottfried salzmann";0;0;1;4;0;0;1;4
"ama benjamin";0;0;1;9;0;0;1;9
"art galleries";0;0;1;218;0;0;1;218
awena;0;0;4;31.25;0;0;4;31.25
"maltese artists";0;0;1;9;0;0;1;9
"pius fox artist";0;0;1;9;0;0;1;9
"regnier dominique";0;0;1;7;0;0;1;7
http://www.basementizid.com/;0;0;2;167;0;0;2;167
"brno del zou wiki";0;0;1;6;0;0;1;6
"joan prats";0;0;1;36;0;0;1;36
"connected vessels";0;0;2;26;0;0;2;26
abadie;0;0;1;308;0;0;1;308
"isabelle levistre";0;0;6;6.1666666666667;0;0;6;6.1666666666667
"art deal project";0;0;1;8;0;0;1;8
"hawkins london";0;0;1;1;0;0;1;1
"chu teh chun";0;0;1;40;0;0;1;40
"ronald dupont artist";0;0;1;4;0;0;1;4
"vivienne maun";0;0;1;9;0;0;1;9
"blandine bardeau";0;0;1;11;0;0;1;11
"ralf peters";0;0;2;50.5;0;0;2;50.5
kouka;0;0;1;10;0;0;1;10
"art works";0;0;1;321;0;0;1;321
"griffin londres";0;0;1;100;0;0;1;100
"paris art fair";0;0;1;83;0;0;1;83
"renaud delorme";0;0;3;6.6666666666667;0;0;2;6.5;0;0;1;7
authouart;0;0;1;33;0;0;1;33
cony;0;0;1;170;0;0;1;170
"richard di rosa";0;0;1;4;0;0;1;4
schmite;0;0;5;9.6;0;0;5;9.6
inooni;0;0;1;9;0;0;1;9
"emilio scanavino";0;0;1;53;0;0;1;53
zenoy;0;0;1;5;0;0;1;5
"maria torp";0;0;1;10;0;0;1;10
"jacques mahé de la villeglé";0;0;7;8.1428571428571;0;0;6;8;0;0;1;9
"buy jean-michel berts photography";0;0;2;36;0;0;2;36
"miami vice";0;0;2;190.5;0;0;1;189;0;0;1;192
"angelique dubois";0;0;1;274;0;0;1;274
"veronique rischard";0;0;1;8;0;0;1;8
"cyril olanier";0;0;1;7;0;0;1;7
"simon procter photographer";0;0;1;42;0;0;1;42
psyckoze;0;0;1;10;0;0;1;10
"guayasamin artist";0;0;1;29;0;0;1;29
"ekkehard altenburger";0;0;1;14;0;0;1;14
"claire trotignon";0;0;2;7;0;0;2;7
"blek le rat art for sale";0;0;1;28;0;0;1;28
"vincent hawkins";0;0;4;9.5;0;0;4;9.5
jadikan;0;0;5;10;0;0;3;9.3333333333333;0;0;1;12;0;0;1;10
"polly ngale";0;0;4;25.5;0;0;4;25.5
"galerie la ligne";0;0;1;49;0;0;1;49
"makler zürich";0;0;1;30;0;0;1;30
"christian chapiron";0;0;1;8;0;0;1;8
paxal;0;0;2;13;0;0;1;14;0;0;1;12
"chris morin";0;0;5;3;0;0;5;3
"guillemette schlumberger";0;0;1;5;0;0;1;5
"guy dennig";0;0;1;9;0;0;1;9
"marc petit";0;0;1;49;0;0;1;49
"laure d";0;0;1;19;0;0;1;19
"chez tony toulouse";0;0;1;191;0;0;1;191
"art paris";0;0;1;165;0;0;1;165
"francois morellet artist";0;0;1;9;0;0;1;9
"blue night";0;0;1;199;0;0;1;199
"rakel art";0;0;1;2;0;0;1;2
"oleg dou";0;0;1;52;0;0;1;52
"galerie w paris";0;0;1;8;0;0;1;8
truka;0;0;1;31;0;0;1;31
"langlands & bell";0;0;1;17;0;0;1;17
"the gallery hotel san juan";0;0;1;200;0;0;1;200
"wilma martin";0;0;1;432;0;0;1;432
"germain plouvier";0;0;1;2;0;0;1;2
"elisabeth grossmann";0;0;1;333;0;0;1;333
"aris messinis photography";0;0;1;7;0;0;1;7
cortade;0;0;2;9;0;0;2;9
"jpg4 nudes";0;0;2;12.5;0;0;2;12.5
"adrian fernandez artist";0;0;1;8;0;0;1;8
"bambi madonna";0;0;1;9;0;0;1;9
"nasty artist";0;0;1;5;0;0;1;5
"alma haser";0;0;1;24;0;0;1;24
"theo haggai";0;0;1;1;0;0;1;1
"françois morellet";0;0;1;40;0;0;1;40
"julien raynaud";0;0;2;7;0;0;1;4;0;0;1;10
libwei;0;0;1;11;0;0;1;11
"daniel de spirt";0;0;2;6;0;0;2;6
nangala;0;0;1;42;0;0;1;42
"david ferreira";0;0;1;50;0;0;1;50
"yiqiang wu";0;0;1;1;0;0;1;1
"depuis si longtemps";0;0;1;13;0;0;1;13
"fredrik raddum";0;0;1;11;0;0;1;11
"vanité philippe pasqua";0;0;1;7;0;0;1;7
"basquiat art for sale";0;0;2;25;0;0;2;25
"isabel espinoza";0;0;1;8;0;0;1;8
"miro svolik";0;0;2;7;0;0;2;7
"brush tail possum";0;0;1;221;0;0;1;221
nu.homme;0;0;1;19;0;0;1;19
"i fuck her with camera";0;0;1;141;0;0;1;141
"dominique mulhem";0;0;1;10;0;0;1;10
"annina roescheisen";0;0;3;17.666666666667;0;0;3;17.666666666667
"anke van iersel";0;0;1;7;0;0;1;7
"veronique attia";0;0;2;9;0;0;1;7;0;0;1;11
"wolfgang krell";0;0;2;7;0;0;2;7
"elwin buchel";0;0;2;10;0;0;2;10
"gallery france";0;0;1;10;0;0;1;10
"hanns peter krafft";0;0;1;2;0;0;1;2
"simon liddiment";0;0;1;8;0;0;1;8
"cecile colombo";0;0;1;5;0;0;1;5
"yasemin senel";0;0;5;7.6;0;0;3;8.3333333333333;0;0;1;12;0;0;1;1
"x myriad";0;0;1;600;0;0;1;600
"antoine josse art";0;0;3;9.6666666666667;0;0;2;10;0;0;1;9
"florence d'elle";0;0;10;6.9;0;0;1;7;0;0;8;7;0;0;1;6
"sabine danzé";0;0;2;3;0;0;2;3
"speedy grafito";0;0;1;8;0;0;1;8
"france art diffusion";0;0;1;3;0;0;1;3
"jean gabriel";0;0;1;160;0;0;1;160
"geronimo artwork";0;0;1;36;0;0;1;36
"claude loewer";0;0;1;5;0;0;1;5
pradino;0;0;2;4.5;0;0;2;4.5
"angelica wiik";0;0;1;30;0;0;1;30
"alex maclean";0;0;1;87;0;0;1;87
"matthew attard";0;0;1;9;0;0;1;9
"fred calmets";0;0;2;5;0;0;2;5
"bassetti france";0;0;1;13;0;0;1;13
"guy boyer";0;0;2;9;0;0;1;8;0;0;1;10
"anne lacouture";0;0;1;3;0;0;1;3
"olivier foulon";0;0;1;307;0;0;1;307
"alva bernadine";0;0;17;2.2352941176471;0;0;17;2.2352941176471
bodnariu;0;0;41;13.878048780488;0;0;27;12.888888888889;0;0;7;15.714285714286;0;0;7;15.857142857143
"jean michel berts";0;0;1;29;0;0;1;29
"richard burel artist";0;0;1;10;0;0;1;10
"banksy krakow";0;0;1;9;0;0;1;9
perlinpinpin;0;0;2;5.5;0;0;2;5.5
"anri sala";0;0;1;92;0;0;1;92
kintgen;0;0;1;10;0;0;1;10
tn701;0;0;1;16;0;0;1;16
"henri lamy";0;0;4;6.25;0;0;2;6.5;0;0;2;6
"henri lamy artist";0;0;2;7;0;0;2;7
+hans+hartung;0;0;1;132;0;0;1;132
"tabish khan";0;0;1;20;0;0;1;20
"nicole wendel";0;0;3;1.6666666666667;0;0;1;1;0;0;2;2
"contemporary portrait photography";0;0;2;412;0;0;2;412
auboiron;0;0;2;10.5;0;0;2;10.5
"gerstein art";0;0;2;24;0;0;2;24
"graham dolphin";0;0;1;9;0;0;1;9
"piccadilly circus";0;0;2;185;0;0;2;185
"silvia calmejane";0;0;2;7;0;0;2;7
"""mel ramos""";0;0;1;11;0;0;1;11
"sun mi ahn";0;0;1;4;0;0;1;4
"hang artist";0;0;1;40;0;0;1;40
kartonn;0;0;2;6;0;0;1;7;0;0;1;5
"yona friedman";0;0;1;61;0;0;1;61
"grigori dor";0;0;5;9;0;0;5;9
nils-udo;0;0;8;8.125;0;0;5;7.6;0;0;3;9
"rafael gomez barros";0;0;1;10;0;0;1;10
"heiner meyer";0;0;2;11.5;0;0;2;11.5
"david gouny";0;0;1;7;0;0;1;7
"store street gallery";0;0;1;18;0;0;1;18
"charlotte champion";0;0;9;4.8888888888889;0;0;4;5.5;0;0;4;4;0;0;1;6
"pasqua artist";0;0;15;6.9333333333333;0;0;15;6.9333333333333
"leonardo ulian";0;0;3;38;0;0;3;38
"pablo bruera";0;0;1;34;0;0;1;34
"galerie duret";0;0;2;7;0;0;1;7;0;0;1;7
r-o-ch3;0;0;1;6;0;0;1;6
"thierry feuz";0;0;1;28;0;0;1;28
guinio;0;0;1;10;0;0;1;10
"van gogh lithographs";0;0;1;242;0;0;1;242
annick;0;0;1;350;0;0;1;350
"natalia rak";0;0;1;25;0;0;1;25
"irina starkova";0;0;1;10;0;0;1;10
"aaf brussels";0;0;1;21;0;0;1;21
design+and+decoration;0;0;1;250;0;0;1;250
"le glacier";0;0;1;155;0;0;1;155
pananka;0;0;1;10;0;0;1;10
"batista artist";0;0;1;5;0;0;1;5
charlelie;0;0;1;22;0;0;1;22
"didier avril";0;0;1;1;0;0;1;1
"etienne buraud";0;0;1;1;0;0;1;1
"bernhard prinz";0;0;2;19;0;0;2;19
"pierre-marie brisson";0;0;1;25;0;0;1;25
"jean pierre schneider";0;0;1;20;0;0;1;20
"philippe parreno";0;0;1;82;0;0;1;82
"stephane joannes";0;0;1;5;0;0;1;5
"judy rifka";0;0;1;25;0;0;1;25
"le cerf";0;0;1;165;0;0;1;165
"ginger rogers";0;0;1;215;0;0;1;215
"benjamin spark";0;0;9;8.2222222222222;0;0;8;8.375;0;0;1;7
"fubiz facebook";0;0;1;44;0;0;1;44
"casey reas";0;0;1;88;0;0;1;88
yutao;0;0;1;3;0;0;1;3
"monica dalmasso";0;0;1;11;0;0;1;11
"antoni clavé";0;0;1;89;0;0;1;89
"elsa guillaume";0;0;1;2;0;0;1;2
"guy denning painting";0;0;3;8;0;0;2;8;0;0;1;8
laviw;0;0;1;1;0;0;1;1
"toshimitsu imai";0;0;1;18;0;0;1;18
"portrait of gerti schiele";0;0;1;17;0;0;1;17
"la tour eiffel";0;0;1;174;0;0;1;174
"modern gallery art fort lauderdale fl";0;0;6;442.5;0;0;3;442.33333333333;0;0;3;442.66666666667
"tim flach animal photography";0;0;1;43;0;0;1;43
"bombe anatomique";0;0;1;31;0;0;1;31
liquidiv;0;0;1;45;0;0;1;45
"rigorously ""sign""";0;0;1;912;0;0;1;912
"caroline yates";0;0;1;18;0;0;1;18
"fabio coruzzi";0;0;1;8;0;0;1;8
"nils inne";0;0;2;8;0;0;2;8
"people born on june 23";0;0;1;308;0;0;1;308
"baptism artwork";0;0;1;19;0;0;1;19
"peter klasen";0;0;4;8.25;0;0;3;8;0;0;1;9
"antoine correia";0;0;2;4.5;0;0;2;4.5
"art hotel aachen";0;0;1;186;0;0;1;186
"kristian von hornsleth";0;0;1;17;0;0;1;17
dooze;0;0;1;34;0;0;1;34
"charlotte lelong";0;0;2;9;0;0;1;9;0;0;1;9
posticles;0;0;1;7;0;0;1;7
"iris indo";0;0;1;9;0;0;1;9
novellis;0;0;1;37;0;0;1;37
sen2;0;0;1;17;0;0;1;17
oneeightone;0;0;2;3.5;0;0;2;3.5
sorane;0;0;8;23.625;0;0;6;24.5;0;0;2;21
"doucet jacques";0;0;1;37;0;0;1;37
derrier;0;0;3;9.3333333333333;0;0;2;10;0;0;1;8
"frank horvat";0;0;1;21;0;0;1;21
"alain clement";0;0;2;8;0;0;2;8
"sunny ives";0;0;1;173;0;0;1;173
"jonone art";0;0;2;11;0;0;2;11
"david gerstein art";0;0;10;18;0;0;10;18
"johanne 8 instagram";0;0;1;1;0;0;1;1
"jm robert art";0;0;3;2.3333333333333;0;0;3;2.3333333333333
"olivia clavel";0;0;3;6.6666666666667;0;0;3;6.6666666666667
"geert lemmers";0;0;3;3;0;0;1;3;0;0;1;3;0;0;1;3
"jeanne lorioz art";0;0;1;9;0;0;1;9
"modulation ""sign""";0;0;3;735.33333333333;0;0;3;735.33333333333
"anya spielman";0;0;3;6.6666666666667;0;0;2;7;0;0;1;6
collet;0;0;1;227;0;0;1;227
"artist casey baugh";0;0;1;35;0;0;1;35
"ren hang photography";0;0;1;11;0;0;1;11
"palma hotel born";0;0;1;171;0;0;1;171
"alain clément";0;0;4;9;0;0;4;9
"florence d'elle paintings";0;0;1;6;0;0;1;6
tardif;0;0;1;199;0;0;1;199
rockingshoes;0;0;1;5;0;0;1;5
"philippe pasqua";0;0;6;9.8333333333333;0;0;3;9.6666666666667;0;0;2;10;0;0;1;10
"ups blois";0;0;1;29;0;0;1;29
"david morgan artist";0;0;1;16;0;0;1;16
"gino colbert";0;0;1;311;0;0;1;311
artiane;0;0;1;7;0;0;1;7
"le rat";0;0;1;141;0;0;1;141
"francisco sepúlveda";0;0;1;10;0;0;1;10
"no galerie";0;0;2;4.5;0;0;2;4.5
"gomez barros";0;0;1;9;0;0;1;9
"banksy choose your weapon";0;0;1;46;0;0;1;46
"scanavino emilio";0;0;1;43;0;0;1;43
verneret;0;0;1;30;0;0;1;30
belgrand;0;0;1;60;0;0;1;60
"greenwood gallery paris";0;0;2;8;0;0;1;7;0;0;1;9
"galerie bettina von arnim";0;0;1;5;0;0;1;5
"nude lolita galleries";0;0;1;42;0;0;1;42
"stitched together";0;0;1;228;0;0;1;228
"takagi yuriko";0;0;1;20;0;0;1;20
"thoma ryse";0;0;1;2;0;0;1;2
nyne;0;0;1;10;0;0;1;10
"alekos fassianos";0;0;1;15;0;0;1;15
"victoria klotz";0;0;1;2;0;0;1;2
"matea design";0;0;1;7;0;0;1;7
"reservoir dogs artwork";0;0;2;9;0;0;1;8;0;0;1;10
"gz galerie";0;0;1;7;0;0;1;7
"herbert oehm";0;0;1;5;0;0;1;5
"philippe favier";0;0;1;16;0;0;1;16
"michel ange venus";0;0;1;334;0;0;1;334
"huston ripley";0;0;2;10;0;0;2;10
rominade;0;0;1;2;0;0;1;2
"damir polic";0;0;5;6.8;0;0;2;6;0;0;3;7.3333333333333
"creutzberg van dun";0;0;1;3;0;0;1;3
"stretching lighthouse";0;0;1;24;0;0;1;24
"francois houtin";0;0;4;6;0;0;3;7.6666666666667;0;0;1;1
"rob van hoek artist";0;0;2;6;0;0;2;6
"mont de venus";0;0;1;17;0;0;1;17
"pierre & gilles";0;0;1;32;0;0;1;32
"clara poupel";0;0;2;2;0;0;2;2
fullmäne;0;0;1;3;0;0;1;3
"tom ahl";0;0;1;44;0;0;1;44
"henrietta dubrey";0;0;1;12;0;0;1;12
"bear galerie";0;0;1;6;0;0;1;6
"marie anne thieffry";0;0;5;3.6;0;0;2;4;0;0;3;3.3333333333333
"eva maude tardif champoux";0;0;1;9;0;0;1;9
"marko veselinovic";0;0;1;12;0;0;1;12
"galerie roy sfeir";0;0;2;6;0;0;1;6;0;0;1;6
"vito hannibal acconci";0;0;1;69;0;0;1;69
"ahmad nejad";0;0;3;9;0;0;1;9;0;0;2;9
"secret walls hong kong";0;0;1;31;0;0;1;31
"brokeback mountain";0;0;2;188;0;0;1;189;0;0;1;187
"takashi murakami flower cushion";0;0;1;9;0;0;1;9
"raymond hains facts";0;0;1;5;0;0;1;5
"mel ramos coca cola";0;0;2;1;0;0;2;1
"raymond hains";0;0;23;8.7826086956522;0;0;20;8.9;0;0;3;8
"juliet ferguson";0;0;1;25;0;0;1;25
"dominic harris";0;0;1;76;0;0;1;76
"alain godon";0;0;2;10;0;0;2;10
cadeo;0;0;1;30;0;0;1;30
"jm robert";0;0;3;1;0;0;1;1;0;0;1;1;0;0;1;1
"gz store";0;0;1;5;0;0;1;5
"toxic art";0;0;1;39;0;0;1;39
"sabine danze";0;0;2;1;0;0;2;1
"yan pei-ming";0;0;1;53;0;0;1;53
"helen frik";0;0;1;10;0;0;1;10
"guy dening";0;0;4;7.25;0;0;2;8.5;0;0;2;6
"kun deng";0;0;1;19;0;0;1;19
"contemporary african art";0;0;2;364;0;0;2;364
"kongo graffiti";0;0;2;9;0;0;2;9
"benjamin carbonne";0;0;2;2;0;0;1;3;0;0;1;1
"florence d’elle";0;0;1;9;0;0;1;9
"charlize theron vincent peters";0;0;2;5.5;0;0;2;5.5
"xavier prieur";0;0;2;13.5;0;0;1;17;0;0;1;10
"thomas müller stuttgart";0;0;1;7;0;0;1;7
"miles to cm";0;0;1;347;0;0;1;347
"durix julien";0;0;2;2;0;0;2;2
"le grand palais biarritz";0;0;1;191;0;0;1;191
"scalp art";0;0;1;12;0;0;1;12
"taki 183";0;0;1;35;0;0;1;35
"bruno catalano price";0;0;2;4.5;0;0;2;4.5
"denis rouvre";0;0;1;44;0;0;1;44
"andy keith";0;0;1;212;0;0;1;212
"bernard moon";0;0;1;316;0;0;1;316
"aquitaine artworks";0;0;2;10;0;0;2;10
nowart;0;0;4;8;0;0;4;8
"don berger artist";0;0;1;36;0;0;1;36
"lichtenstein girl with ball";0;0;2;27;0;0;2;27
"du zhenjun";0;0;2;23;0;0;2;23
"gerard schlosser artist";0;0;1;4;0;0;1;4
"annette messager";0;0;1;46;0;0;1;46
"takashi murakami sculpture";0;0;1;24;0;0;1;24
"razvan stanciu";0;0;3;40.666666666667;0;0;3;40.666666666667
"catarina bravo";0;0;1;1;0;0;1;1
"flower delivery bilbao";0;0;1;56;0;0;1;56
"hamid blad";0;0;1;3;0;0;1;3
pcp;0;0;1;424;0;0;1;424
"de romero britto";0;0;1;9;0;0;1;9
"jacques pellegrin";0;0;3;4.3333333333333;0;0;3;4.3333333333333
"bruno del zou";0;0;1;2;0;0;1;2
"raymond voinquel photography";0;0;1;10;0;0;1;10
marruecos;0;0;2;85.5;0;0;2;85.5
"maggie matthews artist";0;0;1;10;0;0;1;10
km67;0;0;1;14;0;0;1;14
"jean marc dallanegra";0;0;4;4;0;0;4;4
"yves krief";0;0;3;8.3333333333333;0;0;1;9;0;0;2;8
"rebecca jenkins nude";0;0;1;234;0;0;1;234
"peter klasen artist";0;0;1;5;0;0;1;5
alben;0;0;1;74;0;0;1;74
"ivan mikhailov";0;0;1;6;0;0;1;6
"beau rivage nice";0;0;1;171;0;0;1;171
"sumo stencil";0;0;1;40;0;0;1;40
poligrafa;0;0;1;37;0;0;1;37
"shaka artist";0;0;1;9;0;0;1;9
"galerie fluegel-roncak";0;0;1;14;0;0;1;14
"marie benattar";0;0;1;10;0;0;1;10
"esther de bont";0;0;5;12.2;0;0;5;12.2
"ernest pignon ernest";0;0;4;8.5;0;0;4;8.5
"keymi artist";0;0;1;1;0;0;1;1
"philippe hiquily";0;0;1;16;0;0;1;16
"history of miniature paintings";0;0;1;410;0;0;1;410
misstic;0;0;1;9;0;0;1;9
"chanoir artist";0;0;1;4;0;0;1;4
"oksana yambykh";0;0;1;4;0;0;1;4
"jean francois lefranc";0;0;1;1;0;0;1;1
tichit;0;0;1;35;0;0;1;35
"garrett pruter";0;0;1;23;0;0;1;23
anfitriona;0;0;1;239;0;0;1;239
"painting bronx";0;0;1;315;0;0;1;315
"arbus diane";0;0;1;207;0;0;1;207
"isabelle cochereau";0;0;2;7;0;0;2;7
"damien fuchs";0;0;1;236;0;0;1;236
suaires;0;0;1;21;0;0;1;21
"jr kibera";0;0;1;23;0;0;1;23
"france truc";0;0;1;121;0;0;1;121
"marina cavazza";0;0;2;8;0;0;2;8
"liquid i.v.";0;0;1;62;0;0;1;62
unkuri;0;0;1;69;0;0;1;69
"the french art studio";0;0;1;45;0;0;1;45
"galerie nivet carzon";0;0;1;10;0;0;1;10
"countess of arundel";0;0;1;40;0;0;1;40
"knut eckstein";0;0;1;7;0;0;1;7
"césar baldaccini";0;0;2;9;0;0;2;9
"jonvelle: the 100 best photographs";0;0;1;1;0;0;1;1
"bruno fontana";0;0;3;8.6666666666667;0;0;2;7.5;0;0;1;11
layral;0;0;2;6.5;0;0;1;7;0;0;1;6
"jeanne lorioz";0;0;1;8;0;0;1;8
"sarah hinckley";0;0;1;19;0;0;1;19
"stéphane gautier";0;0;6;5.3333333333333;0;0;6;5.3333333333333
"richard orlinski";0;0;20;9.9;0;0;9;9;0;0;8;10.25;0;0;3;11.666666666667
"amandine levy";0;0;2;1;0;0;2;1
"rough sex";0;0;1;93;0;0;1;93
"bob nugent artist";0;0;1;15;0;0;1;15
"yago partal biography";0;0;3;9.3333333333333;0;0;2;9;0;0;1;10
"nue gallery";0;0;2;4.5;0;0;1;3;0;0;1;6
"clinton friedman";0;0;2;23.5;0;0;2;23.5
"armando rearte";0;0;1;46;0;0;1;46
"jorge orta artist";0;0;4;12.5;0;0;4;12.5
"artist shazz switzerland";0;0;1;40;0;0;1;40
"allan mccollum";0;0;2;69;0;0;2;69
"rae hicks";0;0;1;14;0;0;1;14
"philip pasqua";0;0;1;10;0;0;1;10
"beetles and huxley";0;0;2;8;0;0;2;8
"mikael lafontan";0;0;1;8;0;0;1;8
"paula martine";0;0;1;10;0;0;1;10
"michael bevilacqua";0;0;2;59.5;0;0;2;59.5
"fabrice hyber";0;0;3;8;0;0;3;8
"aka gallery";0;0;1;22;0;0;1;22
"cesar baldaccini compression";0;0;1;5;0;0;1;5
"jean-pierre schneider";0;0;2;6;0;0;2;6
"nh hoteles madrid";0;0;1;172;0;0;1;172
ardpg;0;0;1;8;0;0;1;8
"shen jingdong";0;0;1;7;0;0;1;7
"charles thiefaine";0;0;1;2;0;0;1;2
"joan pere viladecans";0;0;1;14;0;0;1;14
"jose manuel fors";0;0;1;7;0;0;1;7
"hotel born mallorca";0;0;1;156;0;0;1;156
"erin cone";0;0;5;10;0;0;5;10
"david harber sculptures";0;0;1;38;0;0;1;38
"rudolf hausner paintings";0;0;1;8;0;0;1;8
"lori field";0;0;1;29;0;0;1;29
"lyngby glas";0;0;1;208;0;0;1;208
"saint cyr";0;0;1;180;0;0;1;180
"abstraccion geometrica contemporanea op art";0;0;1;45;0;0;1;45
"sun hyeok";0;0;2;7.5;0;0;2;7.5
"is mono recurring";0;0;1;243;0;0;1;243
"peter liversidge";0;0;1;58;0;0;1;58
"ohhh alright";0;0;1;49;0;0;1;49
"eva maria kupfer";0;0;1;4;0;0;1;4
escougnou;0;0;1;18;0;0;1;18
"jan pruski";0;0;1;18;0;0;1;18
matryochka;0;0;1;5;0;0;1;5
"pignon ernest pignon";0;0;1;7;0;0;1;7
"del infinito arte";0;0;1;93;0;0;1;93
"chris morin eitner";0;0;1;4;0;0;1;4
melramos;0;0;1;11;0;0;1;11
ciprana;0;0;1;7;0;0;1;7
"banksy morons for sale";0;0;1;29;0;0;1;29
"jacques renoir";0;0;5;9.8;0;0;3;10;0;0;2;9.5
"jousse france";0;0;1;42;0;0;1;42
"elisabeth taylor";0;0;1;121;0;0;1;121
"mehdi \lemoduledezeer\";0;0;1;14;0;0;1;14
"joan saló";0;0;2;9.5;0;0;2;9.5
"galerie tschudi";0;0;1;84;0;0;1;84
"jesper just";0;0;1;99;0;0;1;99
"greg leon guillemin";0;0;5;2.6;0;0;4;2.75;0;0;1;2
"elisabeth lecourt";0;0;1;17;0;0;1;17
"guy de rougemont";0;0;1;10;0;0;1;10
"jérôme mesnager";0;0;1;4;0;0;1;4
"florence d'elle photographs";0;0;3;7;0;0;3;7
"inception gallery";0;0;1;5;0;0;1;5
"francis martel";0;0;1;13;0;0;1;13
"bram bogart";0;0;2;30;0;0;2;30
"kenny hunter";0;0;2;35;0;0;2;35
"tilt street art";0;0;1;39;0;0;1;39
"jerome mesnager";0;0;3;3.6666666666667;0;0;3;3.6666666666667
nonsicle;0;0;3;7.6666666666667;0;0;2;8.5;0;0;1;6
"berlin gardens poly furniture buffalo ny";0;0;1;97;0;0;1;97
"mark demsteader prints for sale";0;0;1;7;0;0;1;7
"carles valverde";0;0;1;8;0;0;1;8
"jeff koons lips";0;0;1;19;0;0;1;19
chanoir;0;0;3;7.6666666666667;0;0;3;7.6666666666667
"jonone artist";0;0;2;13;0;0;2;13
"david kassan";0;0;1;50;0;0;1;50
couettes;0;0;1;209;0;0;1;209
"eva navarro paintings";0;0;2;4;0;0;2;4
"henrik simonsen artist";0;0;1;10;0;0;1;10
"comhghall casey";0;0;1;10;0;0;1;10
"lisbeth delisle";0;0;1;5;0;0;1;5
"eva hober";0;0;1;62;0;0;1;62
"abandoned cities for sale";0;0;1;334;0;0;1;334
frolicking;0;0;1;331;0;0;1;331
"jonas “sun7” bournat";0;0;1;2;0;0;1;2
"claude champy";0;0;2;7;0;0;2;7
"cedrix crespel";0;0;1;4;0;0;1;4
"crash street artist";0;0;2;6;0;0;2;6
"arnaud rabier";0;0;1;40;0;0;1;40
"willy ronis";0;0;1;23;0;0;1;23
"pellegrin marseille";0;0;1;29;0;0;1;29
"hervé di rosa";0;0;3;5.6666666666667;0;0;3;5.6666666666667
"paris artist";0;0;1;52;0;0;1;52
"yoel benharrouche";0;0;1;10;0;0;1;10
"gérard schlosser";0;0;1;9;0;0;1;9
"dvir gallery";0;0;2;352;0;0;2;352
"veritable papier d'arches";0;0;1;26;0;0;1;26
"li weisi";0;0;1;11;0;0;1;11
"arkiv vilmansa";0;0;1;10;0;0;1;10
"lance letscher";0;0;4;33;0;0;4;33
"galerie argentic";0;0;1;3;0;0;1;3
"emmanuelle barcilon";0;0;1;7;0;0;1;7
"adel abdessemed";0;0;1;100;0;0;1;100
"roland topor art";0;0;1;7;0;0;1;7
pookky;0;0;1;5;0;0;1;5
"jamie vanessa duarte";0;0;1;244;0;0;1;244
"alain josseau";0;0;1;6;0;0;1;6
"composition abstraite";0;0;1;29;0;0;1;29
"hd gallery";0;0;1;27;0;0;1;27
bernadine;0;0;1;8;0;0;1;8
"art nue";0;0;1;7;0;0;1;7
"richard caldicott";0;0;2;34;0;0;2;34
"paul carey kent";0;0;3;8.6666666666667;0;0;2;8;0;0;1;10
"mark mawson";0;0;1;34;0;0;1;34
"jean georges inca";0;0;2;1.5;0;0;2;1.5
"herve di rosa";0;0;4;6;0;0;4;6
"basquiat sculpture";0;0;1;4;0;0;1;4
amitai;0;0;1;247;0;0;1;247
bertelli;0;0;1;186;0;0;1;186
"les dunes";0;0;1;155;0;0;1;155
"schneider jean pierre";0;0;1;18;0;0;1;18
"sylvia fishman nude";0;0;3;8.3333333333333;0;0;3;8.3333333333333
capazza;0;0;1;29;0;0;1;29
"george platt lynes";0;0;1;92
daurios;0;0;1;8;0;0;1;8
"gwenael billaud";0;0;2;3
"vikram kushwah photography";0;0;1;31;0;0;1;31
"jean-michel berts paris exhibition";0;0;2;9;0;0;2;9
"mor charpentier";0;0;1;53;0;0;1;53
jingdong;0;0;1;100;0;0;1;100
"pi painting";0;0;2;310;0;0;2;310
"thierry michelet";0;0;1;9;0;0;1;9
"max parisot";0;0;1;4;0;0;1;4
"helene jousse paris exhibition";0;0;2;41;0;0;2;41
"georges braque";0;0;1;166
"bard artist";0;0;1;11;0;0;1;11
"algerian consulate new york";0;0;1;204
"lyle & scott contemporary";0;0;1;314;0;0;1;314
"stephen andrews";0;0;1;98;0;0;1;98
"marvin aillaud";0;0;1;3;0;0;1;3
"ecuador painter guayasamin";0;0;1;10
"jack otway art";0;0;2;7;0;0;1;7;0;0;1;7
citny;0;0;2;5.5;0;0;1;5;0;0;1;6
"ivan alifan";0;0;2;23;0;0;2;23
dubailand;0;0;3;189.66666666667;0;0;1;188;0;0;1;187
sezam;0;0;1;49;0;0;1;49
"john mainstone";0;0;1;35;0;0;1;35
"peter keizer";0;0;3;6.3333333333333;0;0;1;6;0;0;2;6.5
"jean pierre nadau";0;0;1;3;0;0;1;3
"flexo zed";0;0;1;3;0;0;1;3
"italianlady 2";0;0;1;2;0;0;1;2
"pablito zago";0;0;2;9
"romain cadilhon";0;0;1;7;0;0;1;7
"lelong car";0;0;1;14;0;0;1;14
"lolita nude beach";0;0;1;10;0;0;1;10
sugaï;0;0;1;3;0;0;1;3
"vincent godeau";0;0;1;8;0;0;1;8
"jordan boss damien michaels";0;0;1;10;0;0;1;10
"romina de novellis";0;0;1;1;0;0;1;1
demiak;0;0;1;26;0;0;1;26
epry;0;0;2;10;0;0;2;10
repartir;0;0;1;249;0;0;1;249
"linda blackstone";0;0;2;7;0;0;1;7;0;0;1;7
"galerie vivendi";0;0;1;2;0;0;1;2
"rue montmartre";0;0;1;147;0;0;1;147
"pelletier art";0;0;1;24;0;0;1;24
"john crash";0;0;2;9;0;0;2;9
"as i opened fire roy lichtenstein";0;0;1;33;0;0;1;33
"liberte painting";0;0;2;10;0;0;1;10;0;0;1;10
"bruno catalano sculpture prices";0;0;2;7.5;0;0;1;8;0;0;1;7
"françoise pétrovitch";0;0;1;8;0;0;1;8
"martin kudlek";0;0;1;52;0;0;1;52
"jérôme lagarrigue";0;0;1;3;0;0;1;3
"atila biro";0;0;2;8;0;0;2;8
"elizabeth gourlay";0;0;1;21;0;0;1;21
"sadoun el glaoui";0;0;1;17;0;0;1;17
"nils udo art";0;0;1;9;0;0;1;9
"dare alla luce";0;0;2;46;0;0;2;46
"figurative artwork";0;0;1;312;0;0;1;312
"michel le belhomme photographe";0;0;3;9.3333333333333;0;0;1;10;0;0;2;9
"sabine jeannot";0;0;1;2;0;0;1;2
"bernard pras artist";0;0;2;8;0;0;1;8;0;0;1;8
sawtelle;0;0;1;153;0;0;1;153
"bernard rancillac";0;0;1;13;0;0;1;13
"ren hang wikipedia";0;0;1;3;0;0;1;3
entassement;0;0;1;38;0;0;1;38
"julia mangold";0;0;2;4;0;0;2;4
"baudoin lebon gallery";0;0;3;4.6666666666667;0;0;1;4;0;0;2;5
"yvonne chung";0;0;1;337;0;0;1;337
"jean pierre giovanelli";0;0;1;6;0;0;1;6
"fernando garcía ponce";0;0;1;16;0;0;1;16
"baudoin lebon";0;0;4;6.75;0;0;4;6.75
"lord anthony cahn";0;0;2;7;0;0;2;7
"paris troy";0;0;1;70;0;0;1;70
"friedhelm hütte";0;0;1;10;0;0;1;10
graphem;0;0;1;8;0;0;1;8
"oleg dou biography";0;0;1;4;0;0;1;4
"pierre francois grimaldi";0;0;6;2.8333333333333;0;0;6;2.8333333333333
"arditi pierre";0;0;1;117;0;0;1;117
"thomas muller art";0;0;2;5;0;0;2;5
"razvan bucharest";0;0;1;200;0;0;1;200
trichom;0;0;1;9;0;0;1;9
"berger cars";0;0;1;67;0;0;1;67
"matthew feyld";0;0;1;19;0;0;1;19
"el studio";0;0;1;39;0;0;1;39
"laurent troude";0;0;1;7;0;0;1;7
"catherine metz";0;0;1;15;0;0;1;15
"jean-michel berts exhibition";0;0;1;10;0;0;1;10
"francois bard artist";0;0;4;7.75;0;0;4;7.75
"philippe huart";0;0;1;5;0;0;1;5
"alf roberts";0;0;1;36;0;0;1;36
"yoel benharrouche for sale";0;0;1;8;0;0;1;8
"timothee chaillou";0;0;2;16.5;0;0;2;16.5
"isabelle bonzom";0;0;1;6;0;0;1;6
mitz.at;0;0;2;24.5;0;0;2;24.5
"musee pompidou";0;0;2;90.5;0;0;2;90.5
kleiber;0;0;1;160;0;0;1;160
"edouard buzon";0;0;3;3;0;0;3;3
"givenchy hat";0;0;1;42;0;0;1;42
"nyne factory";0;0;1;6;0;0;1;6
ajee;0;0;1;49;0;0;1;49
"julie navarro";0;0;1;10;0;0;1;10
"esther bejarano";0;0;1;403;0;0;1;403
"sam szafran";0;0;2;11;0;0;2;11
"tiger painting for sale";0;0;1;235;0;0;1;235
"arman artist";0;0;2;32.5;0;0;2;32.5
"contemporary art gallery";0;0;1;419;0;0;1;419
"rūta jusionytė";0;0;2;9;0;0;2;9
kyliss;0;0;3;2;0;0;3;2
"basquiat inspired";0;0;1;13;0;0;1;13
"julien colombier";0;0;1;18;0;0;1;18
"arthur tress";0;0;2;65;0;0;2;65
desperator;0;0;3;6;0;0;3;6
"bernard pras einstein";0;0;1;23;0;0;1;23
"andré lanskoy";0;0;1;41;0;0;1;41
femmejambes;0;0;2;11;0;0;2;11
"zhang wei art";0;0;2;9.5;0;0;1;10;0;0;1;9
"jean paul";0;0;1;342;0;0;1;342
"masha shubina";0;0;1;4;0;0;1;4
"tiger rock";0;0;1;100;0;0;1;100
"lou ros";0;0;1;7;0;0;1;7
"gyula sagi";0;0;1;4;0;0;1;4
"john matos crash";0;0;2;6.5;0;0;2;6.5
"galerie colin";0;0;1;5;0;0;1;5
"debut contemporary";0;0;1;10;0;0;1;10
"cara delevingne artwork";0;0;1;1;0;0;1;1
stoul;0;0;12;3.9166666666667;0;0;12;3.9166666666667
"abstract sculpture";0;0;2;389
bonole;0;0;1;6;0;0;1;6
"philippe berger";0;0;1;16;0;0;1;16
stoneclear;0;0;1;46;0;0;1;46
"jan saudek gallery";0;0;1;42;0;0;1;42
"fischer frank";0;0;1;145;0;0;1;145
"claas gutsche";0;0;1;19;0;0;1;19
"lauryn hill";0;0;1;179;0;0;1;179
meetic;0;0;1;205;0;0;1;205
"maxime ansiau";0;0;5;10.2;0;0;5;10.2
"young jim morrison";0;0;1;25;0;0;1;25
"fieroza doorsen";0;0;1;6;0;0;1;6
bretesche;0;0;1;58;0;0;1;58
"a nous paris";0;0;2;12.5;0;0;2;12.5
"la palette";0;0;1;187;0;0;1;187
"jock sturges";0;0;2;81;0;0;2;81
"painting in bronx";0;0;1;315;0;0;1;315
"john crash matos art";0;0;1;7;0;0;1;7
lasttube;0;0;1;48;0;0;1;48
"sang oeil";0;0;1;9;0;0;1;9
"call thierry";0;0;1;11;0;0;1;11
"creepy art for sale";0;0;1;6;0;0;1;6
jonone;0;0;6;16.666666666667;0;0;4;20.5;0;0;1;7;0;0;1;11
romina;0;0;1;239;0;0;1;239
takala;0;0;2;2;0;0;2;2
"hiro ando artist";0;0;1;5;0;0;1;5
"jeff koons sale";0;0;1;38;0;0;1;38
keymi;0;0;2;8;0;0;2;8
"francisco sepulveda";0;0;2;8.5;0;0;2;8.5
raigon;0;0;1;11;0;0;1;11
"asgar/ gabriel";0;0;1;7;0;0;1;7
"collage artworks";0;0;1;409;0;0;1;409
dan23;0;0;1;15;0;0;1;15
"franck muracciole";0;0;1;7;0;0;1;7
"jean-francois rauzier";0;0;1;23;0;0;1;23
"markus and koala";0;0;1;3;0;0;1;3
"aris messinis";0;0;8;10.75;0;0;8;10.75
"top 10 graphic designers";0;0;2;421;0;0;2;421
"nils udo artist";0;0;1;9;0;0;1;9
"edwin apps";0;0;1;5;0;0;1;5
"evil graphics";0;0;1;324;0;0;1;324
"bert stern";0;0;1;96;0;0;1;96
"francois machado";0;0;1;7;0;0;1;7
"yuriko takagi";0;0;1;19;0;0;1;19
woodpacker;0;0;1;73;0;0;1;73
"oswaldo guayasamin";0;0;1;12;0;0;1;12
"alistar taylor";0;0;1;45;0;0;1;45
"ombre palmier";0;0;2;10;0;0;2;10
"gabriel paris";0;0;1;21;0;0;1;21
"valerio adami";0;0;2;79.5;0;0;2;79.5
"baudoin galler";0;0;3;6.3333333333333;0;0;3;6.3333333333333
"sopho chkhikvadze";0;0;1;8;0;0;1;8
"graphic card lelong";0;0;1;34;0;0;1;34
"pascal jacquot";0;0;3;2;0;0;2;2;0;0;1;2
"judith goldnadel";0;0;1;1;0;0;1;1
"pierre pignon";0;0;1;2;0;0;1;2
lortiwa;0;0;2;10;0;0;2;10
merryka;0;0;1;48;0;0;1;48
"e gallery french";0;0;4;5;0;0;3;5.3333333333333;0;0;1;4
"galerie bettina";0;0;1;15;0;0;1;15
"philippe bonan";0;0;1;5;0;0;1;5
"ivan plusch";0;0;2;5.5;0;0;1;3;0;0;1;8
"thierry bamas";0;0;1;10;0;0;1;10
"yann houri";0;0;5;6;0;0;3;6.6666666666667;0;0;1;4;0;0;1;6
"eduardo kac";0;0;1;87;0;0;1;87
"petit coquillage";0;0;1;20;0;0;1;20
"brigitte bardot la madrague";0;0;1;4;0;0;1;4
"peter wüthrich";0;0;1;42;0;0;1;42
entreautres;0;0;1;8;0;0;1;8
"ralph gibson photography";0;0;1;201;0;0;1;201
compoint;0;0;2;50;0;0;2;50
"nils-udo art";0;0;1;8;0;0;1;8
"max czertok";0;0;1;8;0;0;1;8
"cello for sale";0;0;1;240;0;0;1;240
"galerie claire gastaud";0;0;2;6;0;0;2;6
"hedva ser";0;0;3;7.6666666666667;0;0;3;7.6666666666667
"bruno catalano prices";0;0;1;6;0;0;1;6
guayasamin;0;0;2;39.5;0;0;1;67;0;0;1;12
"valerie dupond";0;0;1;10;0;0;1;10
"dawit abebe";0;0;1;16;0;0;1;16
"wilfred lang for sale";0;0;1;15;0;0;1;15
"guy denning artist";0;0;4;7.5;0;0;2;7;0;0;1;7;0;0;1;9
"luzia simons";0;0;2;28;0;0;2;28
"anna bjerger";0;0;20;6.5;0;0;15;6.5333333333333;0;0;5;6.4
"loulou picasso";0;0;1;7;0;0;1;7
"adrien belgrand";0;0;1;12;0;0;1;12
chamanka;0;0;1;26;0;0;1;26
"louis stettner photographer";0;0;1;9;0;0;1;9
"wadi finan";0;0;2;9;0;0;2;9
kikayou;0;0;1;7;0;0;1;7
"gerard rancinan prints";0;0;1;8;0;0;1;8
"luo dan";0;0;1;16;0;0;1;16
"bonhomme blanc malade";0;0;1;6;0;0;1;6
assalit;0;0;1;25;0;0;1;25
"xavier veilhan";0;0;1;56;0;0;1;56
"sarah hardacre";0;0;1;20;0;0;1;20
"antoine schneck";0;0;3;9;0;0;3;9
"kiddy citny";0;0;6;7.6666666666667;0;0;6;7.6666666666667
"joie sale";0;0;1;195;0;0;1;195
"liam gillick";0;0;1;100;0;0;1;100
comprit;0;0;1;16;0;0;1;16
poinat;0;0;2;5.5;0;0;1;4;0;0;1;7
"mel ramos vintage peekaboo";0;0;1;44;0;0;1;44
galeriehus;0;0;1;6;0;0;1;6
"nathan chantob";0;0;1;1;0;0;1;1
alpinism;0;0;1;321;0;0;1;321
"araki. tokyo lucky hole";0;0;1;309;0;0;1;309
"blek le rat artwork";0;0;1;9;0;0;1;9
"kim sun-hyuk";0;0;1;10;0;0;1;10
"budapest art galleries";0;0;1;38;0;0;1;38
"jon one artist";0;0;1;5;0;0;1;5
"marie laure gerard becuwe";0;0;1;3;0;0;1;3
"anarchic adjustment";0;0;1;232;0;0;1;232
"valérie hadida";0;0;1;5;0;0;1;5
"christopher schulz";0;0;2;61;0;0;2;61
"johanne 8";0;0;3;5.3333333333333;0;0;3;5.3333333333333
"thomas jorion";0;0;2;7;0;0;1;8;0;0;1;6
"david ratcliff";0;0;1;26;0;0;1;26
atomium;0;0;1;176;0;0;1;176
"by belie";0;0;5;7;0;0;5;7
"pierre riba";0;0;2;6.5;0;0;1;6;0;0;1;7
"yan pei ming";0;0;2;49;0;0;2;49
"carne griffiths artist";0;0;1;37;0;0;1;37
"badri painter";0;0;1;9;0;0;1;9
"dominique rayou";0;0;1;9;0;0;1;9
"vincent richeux";0;0;1;5;0;0;1;5
"pat andrea";0;0;1;17;0;0;1;17
"8 myriad";0;0;2;559.5;0;0;2;559.5
"marc asnin";0;0;1;48;0;0;1;48
"carlos cruz-diez";0;0;1;58;0;0;1;58
"ceccotti fiori";0;0;1;43;0;0;1;43
"kilmany jo";0;0;7;8.2857142857143;0;0;5;8.4;0;0;2;8
"pauline tonglet";0;0;1;10;0;0;1;10
"dino valls";0;0;1;29;0;0;1;29
"le chat street art";0;0;1;5;0;0;1;5
boissel;0;0;1;24;0;0;1;24
"kate boxer";0;0;1;31;0;0;1;31
"art house";0;0;1;339;0;0;1;339
"jerome lagarrigue";0;0;7;1.4285714285714;0;0;6;1.1666666666667;0;0;1;3
"liu xiaofang";0;0;1;21;0;0;1;21
"peter downsbrough";0;0;1;76;0;0;1;76
"banksy print";0;0;1;234;0;0;1;234
"dan carabas";0;0;3;2.3333333333333;0;0;1;2;0;0;1;2;0;0;1;3
"kerry eggleton";0;0;2;3;0;0;2;3
"ernest pignon";0;0;8;7.375;0;0;4;7.75;0;0;4;7
"david benichou morgan stanley";0;0;1;32;0;0;1;32
"manu perez";0;0;1;22;0;0;1;22
"ben french artist";0;0;2;6;0;0;2;6
"miguel chevalier";0;0;1;37;0;0;1;37
"ernest pignon-ernest";0;0;2;13.5;0;0;2;13.5
"jaques villegle";0;0;1;9;0;0;1;9
cammal;0;0;2;6.5;0;0;2;6.5
"luis gordillo";0;0;1;54;0;0;1;54
"jacques de la villegle";0;0;4;6;0;0;4;6
"jean hélion";0;0;2;22.5;0;0;1;7;0;0;1;38
"liquid iv";0;0;1;62;0;0;1;62
plusch;0;0;1;7;0;0;1;7
ideelart;0;0;1;2;0;0;1;2
"paulette tavormina";0;0;3;31.666666666667;0;0;3;31.666666666667
"robert barry";0;0;1;47;0;0;1;47
"sean cheetham";0;0;1;41;0;0;1;41
"jeff koons split rocker vase";0;0;1;23;0;0;1;23
"keith haring crack down";0;0;3;4;0;0;3;4
"drouet jean marie";0;0;1;8;0;0;1;8
"francis bacon the artist";0;0;1;335;0;0;1;335
"jean-michel berts photographer";0;0;1;28;0;0;1;28
"adeline spengler";0;0;3;2.6666666666667;0;0;3;2.6666666666667
"alex folla";0;0;2;5;0;0;2;5
cornillet;0;0;1;10;0;0;1;10
"david tete";0;0;1;7;0;0;1;7
"fabien verschaere";0;0;3;4.3333333333333;0;0;1;5;0;0;2;4
"mel ramos";0;0;77;10.922077922078;0;0;65;12.753846153846;0;0;6;1;0;0;6;1
"shirley jaffe";0;0;1;16;0;0;1;16
"lola cola";0;0;22;1.3181818181818;0;0;16;1.375;0;0;5;1.2;0;0;1;1
michou;0;0;1;97;0;0;1;97
"celine bari";0;0;1;47;0;0;1;47
"beijing jianguo";0;0;1;196;0;0;1;196
"eric herrmann artist";0;0;1;7;0;0;1;7
"rue saint julien le pauvre";0;0;1;48;0;0;1;48
"art diffusion";0;0;1;22;0;0;1;22
"alain bonnefoit";0;0;1;11;0;0;1;11
"herve telemaque";0;0;1;9;0;0;1;9
"xin art";0;0;1;5;0;0;1;5
"sabina ii";0;0;1;46;0;0;1;46
"jo lynch art";0;0;1;10;0;0;1;10
"vinz feel free";0;0;1;95;0;0;1;95
"sun hyuk";0;0;3;7;0;0;3;7
"flamboyant nürnberg";0;0;1;55;0;0;1;55
"galerie hus";0;0;1;5;0;0;1;5
"jonone street art";0;0;3;10;0;0;2;12;0;0;1;6
ayline;0;0;1;10;0;0;1;10
"francine van hove";0;0;3;15;0;0;3;15
yiling;0;0;1;133;0;0;1;133
"bat yam israel";0;0;1;206;0;0;1;206
"these city walls";0;0;1;39;0;0;1;39
"cool artwork for sale";0;0;2;50.5;0;0;2;50.5
"arman sculpture";0;0;1;32;0;0;1;32
"léo caillard";0;0;1;28;0;0;1;28
"keith tyson";0;0;1;74;0;0;1;74
"vincent peters biography";0;0;1;6;0;0;1;6
"is mariah carey black";0;0;1;37;0;0;1;37
"gérard alary";0;0;1;4;0;0;1;4
"neo eclectic architecture";0;0;1;337;0;0;1;337
"denis darzacq";0;0;1;55;0;0;1;55
"markowicz fine art";0;0;2;46;0;0;2;46
"neo figurative";0;0;1;441;0;0;1;441
"rafael canogar";0;0;3;181;0;0;3;181
"mb factory";0;0;1;36;0;0;1;36
"hek graffiti";0;0;1;10;0;0;1;10
cyclobes;0;0;3;9.6666666666667;0;0;1;9;0;0;2;10
carbonne;0;0;1;15;0;0;1;15
"dana gordon artist";0;0;2;8;0;0;2;8
"willy ronis le petit parisien";0;0;4;1;0;0;1;1;0;0;1;1;0;0;2;1
"francois bard prices";0;0;1;3;0;0;1;3
"john kacere";0;0;2;33;0;0;2;33
"antoni tapies books";0;0;1;17;0;0;1;17
"fred ebami";0;0;1;9;0;0;1;9
"stephane jacob";0;0;1;5;0;0;1;5
"vivendi gallery";0;0;1;5;0;0;1;5
"jonathan huxley";0;0;3;6;0;0;3;6
"eric bourguignon";0;0;1;9;0;0;1;9
akiza;0;0;4;49.75;0;0;4;49.75
"zhou hongbin";0;0;1;9;0;0;1;9
"peter hoffer";0;0;3;10.333333333333;0;0;3;10.333333333333
"kunstmuseum bonn";0;0;1;322;0;0;1;322
"sen2 figueroa";0;0;2;6;0;0;2;6
"alick tipoti";0;0;1;14;0;0;1;14
"claire louria";0;0;3;8;0;0;3;8
"alexey klimov";0;0;1;19;0;0;1;19
"george ward tjungurrayi";0;0;1;57;0;0;1;57
"rue st julien le pauvre";0;0;1;35;0;0;1;35
"aurel rubbish";0;0;1;9;0;0;1;9
"tom wesselmann pop art";0;0;1;28;0;0;1;28
"jan stel";0;0;1;15;0;0;1;15
"alex guofeng cao";0;0;1;16;0;0;1;16
"yves zurstrassen";0;0;1;7;0;0;1;7
"jean-pierre nadau";0;0;1;4;0;0;1;4
"sweet meadow";0;0;1;228;0;0;1;228
"louis stettner photos";0;0;1;17;0;0;1;17
"alina bliumis";0;0;1;40;0;0;1;40
"mist artist";0;0;1;7;0;0;1;7
"invest in art";0;0;1;92;0;0;1;92
brézillon;0;0;2;33;0;0;2;33
"arengario milan";0;0;1;330;0;0;1;330
vagabondage;0;0;6;7.3333333333333;0;0;6;7.3333333333333
kimchou;0;0;1;30;0;0;1;30
"jean faucheur artist";0;0;1;2;0;0;1;2
shup;0;0;1;45;0;0;1;45
"mel ramos pop art";0;0;1;11;0;0;1;11
"jock sturges biography";0;0;1;30;0;0;1;30
"henry lamy";0;0;1;8;0;0;1;8
"self portrait photography york";0;0;1;133;0;0;1;133
"madeleine dietz";0;0;1;12;0;0;1;12
"liliane lijn";0;0;3;3;0;0;3;3
"kiki picasso";0;0;8;4.75;0;0;6;5;0;0;1;4;0;0;1;4
dhio;0;0;1;130;0;0;1;130
"massimo carasi";0;0;1;9;0;0;1;9
"grise mine";0;0;1;41;0;0;1;41
"minoterie de matadi";0;0;1;12;0;0;1;12
"ando yuki";0;0;1;15;0;0;1;15
"stephane joannes artist";0;0;1;4;0;0;1;4
"carlos cruz diez";0;0;1;58;0;0;1;58
"robert rauschenberg";0;0;1;303;0;0;1;303
"grafos verlag";0;0;1;36;0;0;1;36
"pierre artist french";0;0;1;33;0;0;1;33
"duetche bank";0;0;1;49;0;0;1;49
"antanas sutkus photography";0;0;1;45;0;0;1;45
marvin;0;0;1;436;0;0;1;436
"kate barry artist";0;0;3;6.6666666666667;0;0;3;6.6666666666667
"andy warhol portraits list";0;0;1;2;0;0;1;2
"macadam gallery";0;0;1;4;0;0;1;4
"robert adams sculpture";0;0;1;100;0;0;1;100
"onur dinc";0;0;2;5.5;0;0;2;5.5
"nurcan giz";0;0;1;2;0;0;1;2
calmets;0;0;4;7;0;0;1;6;0;0;3;7.3333333333333
"michel le belhomme";0;0;1;10;0;0;1;10
"ramon grimalt";0;0;1;10;0;0;1;10
"cara delevingne stencil";0;0;4;1;0;0;2;1;0;0;2;1
dalila;0;0;1;333;0;0;1;333
"nathalie deshairs";0;0;1;4;0;0;1;4
"l'atlas artiste";0;0;1;7;0;0;1;7
decup;0;0;1;10;0;0;1;10
renoma;0;0;1;76;0;0;1;76
"red panda portrait";0;0;1;36;0;0;1;36
"aleksey gromov";0;0;1;4;0;0;1;4
levalet;0;0;2;7;0;0;2;7
"luca di filippo";0;0;5;7.6;0;0;3;7.3333333333333;0;0;2;8
"klimt robe";0;0;1;7;0;0;1;7
rizk;0;0;1;232;0;0;1;232
"x subject matter";0;0;6;124;0;0;6;124
dubarrt;0;0;1;3;0;0;1;3
"thomas müller artist";0;0;1;5;0;0;1;5
"georges braque sculpture";0;0;1;29;0;0;1;29
"campbell soup scotch broth";0;0;1;35;0;0;1;35
"hom nguyen";0;0;3;8.3333333333333;0;0;3;8.3333333333333
sietspiede;0;0;1;15;0;0;1;15
"ren hang artist";0;0;2;6;0;0;2;6
zalez;0;0;2;19.5;0;0;1;32;0;0;1;7
"shepard fairey early life";0;0;2;7;0;0;2;7
kijno;0;0;2;8.5;0;0;2;8.5
"la liberte painting";0;0;1;16;0;0;1;16
"cécile desserle";0;0;2;8;0;0;2;8
"rudolf hausner";0;0;3;33;0;0;2;44.5;0;0;1;10
lebelhomme;0;0;1;3;0;0;1;3
"melanie peduzzi";0;0;1;2;0;0;1;2
"richard orlinski prix";0;0;1;7;0;0;1;7
"kenzo sale";0;0;1;111;0;0;1;111
suffocate;0;0;1;322
"louis blanc";0;0;2;97
"gijsbert hanekroot";0;0;3;2;0;0;1;3
"bruno catalano travellers";0;0;1;17
"tracey emin artworks";0;0;1;45
"greg carlin";0;0;1;39
"jacques villeglé artist";0;0;1;10
"renk artiste";0;0;1;5
"françois bard";0;0;1;9
"chu teh-chun";0;0;1;39
"gerard rancinan";0;0;4;10;0;0;1;9
"keith haring lucky strike";0;0;4;1;0;0;1;2
"bernard chauchet";0;0;1;8
"best florist dorval";0;0;1;81
"ki to la gloire";0;0;2;5.5;0;0;2;7
ballesta;0;0;1;96
pipet;0;0;1;165
"ralph samuel grossmann";0;0;2;3.5
"philippe berry";0;0;2;4;0;0;3;6.3333333333333
"guy denning bio";0;0;1;4
"cesar baldaccini";0;0;1;10;0;0;1;10
"hotel le crocodile rouge";0;0;1;200
"etam cru sketch";0;0;1;9
"bengt lindström";0;0;1;67
"bard artwork";0;0;1;8;0;0;1;8
"henri matisse";0;0;2;190;0;0;2;192
"best western centro monterrey monterrey";0;0;1;193
"christian nesler";0;0;1;5
"jean marie marion";0;0;1;1
"claude charlier";0;0;1;7
"emeric chantier";0;0;2;1
"harald wolff";0;0;1;18
"alain delome";0;0;1;40
"relationship artwork";0;0;1;125
"artdog london";0;0;1;9;0;0;1;3
"rero artist";0;0;2;33.5
"rome britto";0;0;1;22
"zhang wei artist";0;0;1;10
"ben skinner artist";0;0;1;16
femsa;0;0;1;53
"caroline fraser";0;0;1;55
"vincent breed";0;0;3;5.6666666666667
"jean-michel berts";0;0;2;28
pyla;0;0;1;318
"nue art";0;0;1;8;0;0;1;8
"yaacov agam";0;0;2;81.5
"x sea ty";0;0;1;8
"unique artworks";0;0;1;406
"léon tutundjian";0;0;1;83
catelain;0;0;1;6;0;0;1;5
"mark demsteader paintings";0;0;1;25
"zao wou-ki";0;0;1;77
"tente alexander";0;0;3;5.6666666666667
"louis blanc photography";0;0;3;2
"chinese loaders for sale";0;0;1;77
"ciam italy";0;0;1;23
"arno elias";0;0;1;27
"new york city 2099";0;0;1;10
sgarra;0;0;1;15
"katrin bremermann";0;0;5;1.8
quir;0;0;1;47
"robert zandvliet";0;0;3;36.666666666667
"michael meyersfeld";0;0;1;13
"garnier colors";0;0;1;72
"lilith artist";0;0;1;21
"boom surfboards";0;0;1;6
"olivier debré";0;0;1;47
"juan camilo alvarez";0;0;3;10
"claude azoulay";0;0;1;10
"passe ""sign""";0;0;2;569
"georges braque paintings for sale";0;0;1;23
sensualbeauty1;0;0;1;37
"miss coco";0;0;1;66
"ysl loader";0;0;1;10
"aleix plademunt";0;0;3;28.666666666667
"udo artists";0;0;1;31
clingwrap;0;0;1;350
"hans-christian schink";0;0;1;66
carzon;0;0;1;49
"galeria espiral";0;0;1;6
"jack otway";0;0;5;10;0;0;1;10
"eva jospin";0;0;2;10;0;0;1;9;0;0;1;9
+william+sweetlove+prijzen;0;0;1;45
"sabine gottfried";0;0;1;444
acide;0;0;1;228
"cyrille charro";0;0;1;3
"lisa norris gallery";0;0;2;7
"udo nils";0;0;1;14
"lin&lin gallery";0;0;1;91
"jonathan callan";0;0;1;41
"toxic mary";0;0;1;11
"antoine stevens";0;0;3;8;0;0;3;7
"alain veil";0;0;1;21
"charlie roberts artist";0;0;1;10
"toxic graffiti artist";0;0;3;7
"ville du soleil";0;0;1;33
"the dude company";0;0;2;2
valleybull;0;0;1;36
"jacqueline schafer art";0;0;1;2
"philippe bruneteau";0;0;1;6
"tim flach photographer";0;0;1;62
"philippe vasseur";0;0;2;9
andie;0;0;1;345
uriginal;0;0;1;6
"david shrigley art for sale";0;0;1;16
"philippe weisbecker";0;0;1;9
"patrick champoux";0;0;1;424
"gohar dashti";0;0;2;32.5
chubac;0;0;1;6;0;0;3;6.6666666666667
"valerie hadida";0;0;6;5;0;0;1;5
"kim sun hyuk";0;0;1;9
"annick bouvattier";0;0;2;18.5
"freddie mercury artwork for sale";0;0;1;19
saint-cyr;0;0;1;170
"jean marie drouet";0;0;1;4
houtin;0;0;2;2;0;0;1;3
"miro lithographie";0;0;1;2;0;0;1;2
cosentino;0;0;1;220
"pretty portal";0;0;3;7
"alexandre durand";0;0;3;8.6666666666667
"baruj salinas";0;0;1;43
"modern contemporary art";0;0;1;446
"strasbourg best hotel";0;0;1;198
"wang shu hui";0;0;1;10
"paul stolper gallery";0;0;2;19
"bruno vilela";0;0;1;71
"jake wood evans for sale";0;0;1;17
"nelson mandela artwork";0;0;1;106
"russian painters";0;0;1;61
"kolaj art";0;0;5;10
"keith haring montreux";0;0;3;1.3333333333333
"guy denning for sale";0;0;1;4
"montreux jazz festival 1986";0;0;1;2
"onur painting";0;0;1;9
"ecstasy artwork";0;0;1;20
"li wei";0;0;21;1.8095238095238;0;0;3;1
anorexic;0;0;1;196
"korean artist naked";0;0;1;23
"sandro giordano";0;0;1;9
"robert bradford art";0;0;1;7
"mc2 gallery";0;0;2;5
"sergio moscona";0;0;3;4
"daniela huerta";0;0;1;6
"octave pixel";0;0;5;8.8
"monika nowak";0;0;1;8
"ronda haberer facebook";0;0;1;23
"annie berthet";0;0;1;1
leyto;0;0;7;5.5714285714286
"carole duhayer";0;0;1;7;0;0;1;7
"marc ferrero";0;0;1;7
"bambi the artist";0;0;1;3
"christof monnin";0;0;1;7;0;0;3;8
"timur novikov";0;0;3;10;0;0;1;1
"sebastien micke";0;0;1;3
"jace artist";0;0;1;8
"murakami flower cushion";0;0;2;10
stani;0;0;1;9
"kolaj painting art";0;0;4;10
"robe klimt";0;0;2;9
"jacques villeglé";0;0;2;9.5
"corinne dubreuil";0;0;1;11
"wifredo lam";0;0;1;195
"galerie charlot";0;0;1;8
"guy denning biography";0;0;2;5
naglaya;0;0;1;10
"guy denning artwork";0;0;1;7
"topor artist";0;0;1;6
arietti;0;0;2;10.5
cumbone;0;0;2;7
"victor vasarely artwork";0;0;1;83;0;0;1;76
"jef aérosol";0;0;1;7
"lou ros biography";0;0;2;7
"adonis flores";0;0;1;9
bambel;0;0;1;10
prettyportal;0;0;2;8
"etienne cail";0;0;1;2
"philippe pasqua skull";0;0;1;7
"marilyn in art";0;0;1;7
"martha cooper photography for sale";0;0;1;7
"all is vanity painting";0;0;1;18
orlinski;0;0;1;9
"louis stettner";0;0;1;7
partal;0;0;1;46
"pade design";0;0;1;7
"reservoir dogs stormtroopers";0;0;1;8
artisaway;0;0;1;2
"corine pagny";0;0;2;5
"raigon stanley";0;0;1;4
"john kenny photographer";0;0;1;31
velver;0;0;1;9
iemza;0;0;2;9
georgik;0;0;1;9
silaphane;0;0;1;8
"francois le fantome";0;0;1;8
"francois morellet";0;0;1;11
"olivier sultan";0;0;1;6
"cesar baldaccini artworks";0;0;1;1
цедки;0;0;1;2
"yoann merienne";0;0;1;2
"john matos";0;0;1;7;0;0;2;7.5
"aslan art";0;0;1;15
"helmut newton berlin";0;0;1;69
"leaves for medicine";0;0;1;227
"christine muller";0;0;1;10
"blinded series";0;0;2;10
liwei;0;0;2;3
"alexandre akar";0;0;1;5
"art sper";0;0;1;1
"oliver bedeman";0;0;1;68
lemilo;0;0;2;6
"ana maria diaz perez";0;0;1;9
"mist graffiti";0;0;1;10
"ren hang prints";0;0;1;5
"delphine couturier brochand";0;0;1;2
"bambi artist";0;0;1;6;0;0;3;3.3333333333333
"nasty paintings";0;0;1;10
mesnager;0;0;1;8
silaphan;0;0;2;8.5
"sandra mulliez hegedus";0;0;1;25
"etienne gros";0;0;1;4
"john short artist";0;0;1;13
"niclas castello";0;0;1;22
putov;0;0;2;3.5
maoual;0;0;1;5
"gordon hopkins";0;0;4;4.5
hankson;0;0;1;6
"christy lee biography";0;0;1;17
"damien hirst dove";0;0;1;8
"anna bocek";0;0;2;8.5
"ronald dupont";0;0;2;8
marcoville;0;0;1;10
"kool koor";0;0;1;4
"julien durix";0;0;19;1.7368421052632;0;0;3;1
"phillipe pasqua";0;0;1;10
"abc gallery";0;0;1;9;0;0;1;5
"sophie cavalie";0;0;1;5
"envie d art";0;0;2;4
"peter lippmann";0;0;1;4
"daan oude elferink";0;0;1;8
"philippe pasqua art";0;0;1;8
"li lihong";0;0;1;2
baldaccini;0;0;2;41.5
milkywood;0;0;1;9
"jacques villegle";0;0;2;8
maodus;0;0;1;9
dtone;0;0;1;8
"bernard pras dali";0;0;1;10
picka;0;0;1;81
"marius bodnarius";0;0;1;103
"andre cottavoz";0;0;1;5
"marcus egli";0;0;2;9.5
"nieves mingueza";0;0;1;8
"carlos boix";0;0;1;8
"arty gallery";0;0;1;9
"richard orlinski prices";0;0;1;5
"juliette clovis";0;0;2;7
"nue sale";0;0;1;7
"patrick fauconnier";0;0;1;8
"galerie collin";0;0;1;5
"valerie hadida sculpture";0;0;1;6
"thomas tramp";0;0;1;10
"sophie chir";0;0;2;2
"jeu de regards";0;0;1;5
roch3;0;0;1;9
"le petit parisien willy ronis";0;0;1;1
godon;0;0;1;1
"speedy graphito for sale";0;0;1;5
stindel;0;0;1;6
"gabriela tolomei";0;0;6;3
"pussy chat";0;0;1;58
"thomas muller konst";0;0;1;19
"miss tic";0;0;2;8
"arman venus";0;0;1;6
"le dejeuner sur l'herbe";0;0;1;1
"anne et patrick poirier";0;0;1;10
"majhoub ben bella";0;0;1;6
"toxic artist";0;0;3;6
