"ren hang prints";4;0.057142857142857;70;6.9714285714286;1;0.045454545454545;22;6.9545454545455;2;0.071428571428571;28;7;1;0.05;20;6.95
"brno del zou biography";3;0.75;4;1;3;0.75;4;1
"berge panossian";2;0.66666666666667;3;1;2;1;2;1;0;0;1;1
"benjamin carbonne";2;0.22222222222222;9;1.5555555555556;2;0.28571428571429;7;1;0;0;2;3.5
"brno del zou";2;0.10526315789474;19;2.4210526315789;2;0.125;16;2.25;0;0;3;3.3333333333333
"gordon hopkins";2;0.2;10;4;1;0.5;2;4;0;0;3;4;1;0.2;5;4
"yann houri";2;0.16666666666667;12;6.6666666666667;2;0.22222222222222;9;7;0;0;1;7
"artigas planas";2;0.5;4;2;2;0.5;4;2
"stix artist";1;1;1;10;1;1;1;10
"anna bjerger";1;0.058823529411765;17;6.2941176470588;1;0.0625;16;6.3125;0;0;1;6
"armand israel";1;1;1;7;1;1;1;7
"karl lagasse";1;1;1;4;1;1;1;4
"daan oude elferink";1;0.11111111111111;9;7.5555555555556;1;0.14285714285714;7;7.5714285714286;0;0;1;8;0;0;1;7
artsper;1;0.016393442622951;61;1;1;0.090909090909091;11;1;0;0;1;1
"joaquim falcó";1;0.33333333333333;3;18;1;0.33333333333333;3;18
"jimmy lawlor biography";1;1;1;5;1;1;1;5
"hazuka jacek";1;1;1;14;1;1;1;14
"cedric lollia";1;1;1;11;1;1;1;11
"ren hang gallery";1;0.25;4;7.75;1;0.5;2;6.5;0;0;2;9
"simon von barloewen";1;0.5;2;2;1;1;1;2
"patrick letovsky";1;0.33333333333333;3;2;0;0;1;2;1;0.5;2;2
"alexandre durand";1;1;1;8;1;1;1;8
"eugenio carmi";1;0.2;5;9.4;0;0;1;10;0;0;2;9.5;1;0.5;2;9
"peter lippmann biography";1;0.5;2;1;1;0.5;2;1
"jacques villegle";1;0.125;8;8.625;1;0.16666666666667;6;7.8333333333333;0;0;2;11
"thomas müller artist";1;1;1;5;1;1;1;5
"emeric chantier";1;0.083333333333333;12;1;1;0.083333333333333;12;1
"jean milo";1;1;1;6;1;1;1;6
"kool koor";1;0.25;4;2.75;1;0.5;2;2;0;0;2;3.5
"corine pagny";1;0.33333333333333;3;3.6666666666667;0;0;1;5;1;0.5;2;3
"jock sturges montalivet";1;0.5;2;107;1;0.5;2;107
"jean faucheur photography";1;0.33333333333333;3;2;1;0.33333333333333;3;2
"alma haser biography";1;0.16666666666667;6;2;1;0.16666666666667;6;2
"murakami flower cushion";1;1;1;8;1;1;1;8
"relton marine";1;0.5;2;4;1;0.5;2;4
"mahjoub ben bella";1;0.5;2;2;0;0;1;2;1;1;1;2
"julia mangold artist";1;0.5;2;8;1;0.5;2;8
"silvia calmejane";1;0.5;2;1;1;0.5;2;1
"mel ramos";1;0.0095238095238095;105;6.447619047619;1;0.018867924528302;53;11.792452830189;0;0;4;1;0;0;48;1
"sutkus sartre";1;1;1;1;1;1;1;1
"catherine metz";1;0.5;2;9.5;1;0.5;2;9.5
"gallery nue";1;0.5;2;3;1;0.5;2;3
"francois bard";1;0.125;8;7.875;0;0;5;7.8;1;0.5;2;8;0;0;1;8
"gyula sagi";1;1;1;5;1;1;1;5
"alain clement artist";1;0.5;2;6;1;0.5;2;6
"serge nyfeler";1;1;1;5;1;1;1;5
"nature morte painting";1;1;1;111;1;1;1;111
"francois benoit lison";1;1;1;4;1;1;1;4
"jean pierre nadau";1;0.33333333333333;3;3;1;0.33333333333333;3;3
"john andrew perello";1;1;1;5;1;1;1;5
"jack otway";1;0.16666666666667;6;8.1666666666667;1;0.2;5;8.4;0;0;1;7
"eva maria kupfer";1;1;1;1;1;1;1;1
"george platt lynes gallery";1;0.33333333333333;3;31;1;0.33333333333333;3;31
"aki kuroda artist";1;0.5;2;2.5;1;0.5;2;2.5
"jacques de la villegle";1;0.5;2;6;1;0.5;2;6
"christophe charbonnel";1;0.5;2;5.5;1;0.5;2;5.5
"bernard pras biography";1;0.33333333333333;3;3;0;0;1;5;1;0.5;2;2
"jacques verdier";1;0.33333333333333;3;8.3333333333333;1;1;1;8
"peter lippmann photography";1;0.25;4;8.25;1;1;1;8
"francine van hove paintings";1;1;1;11;1;1;1;11
"foot fetish";1;0.5;2;91;1;0.5;2;91
"kenneth noland";0;0;1;85;0;0;1;85
"bram bogart";0;0;1;35;0;0;1;35
"laetitia giraud";0;0;1;6;0;0;1;6
"oleg dou";0;0;1;43
"jasper johns moratorium";0;0;1;36
"jonas “sun7” bournat";0;0;1;3;0;0;1;3
colomina;0;0;3;5;0;0;3;5
"mayank shyam";0;0;1;9;0;0;1;9
"twin towers artwork";0;0;1;29
"antoine correia";0;0;1;5;0;0;1;5
"héloïse delègue";0;0;1;23;0;0;1;23
"portrait of gerti schiele";0;0;1;29;0;0;1;29
"bang cm";0;0;1;317;0;0;1;317
"gerard clisson";0;0;2;5
"basquiat paintings for sale";0;0;1;46;0;0;1;46
"kilian glasner";0;0;1;7;0;0;1;7
"delaunay artist";0;0;1;46
begarat;0;0;3;3.3333333333333;0;0;1;2;0;0;1;3;0;0;1;5
"anya spielman";0;0;1;7;0;0;1;7
"tour eiffel artwork";0;0;1;10;0;0;1;10
"uffe weiland";0;0;1;3
"vincent godeau";0;0;1;8;0;0;1;8
"bruno catalano sculpture prices";0;0;4;7.5;0;0;1;6;0;0;3;8
"vanité philippe pasqua";0;0;1;3;0;0;1;3
"christian von sydow";0;0;4;9.75;0;0;2;10
"takashi murakami artwork";0;0;1;20;0;0;1;20
"maison dauphine";0;0;2;7
"mor charpentier";0;0;1;55;0;0;1;55
"rx gallery";0;0;1;9
"razvan bucharest";0;0;1;198;0;0;1;198
"payloader for sale";0;0;1;222;0;0;1;222
"matea design";0;0;1;4
"huston ripley";0;0;3;5.6666666666667;0;0;1;6;0;0;2;5.5
"wolfgang krell";0;0;3;21
"vivienne maun";0;0;3;10.333333333333;0;0;3;10.333333333333
"jan saudek gallery";0;0;1;41;0;0;1;41
"tiger rock";0;0;1;100;0;0;1;100
"yasemin senel";0;0;7;10.428571428571;0;0;7;10.428571428571
"keith haring montreux jazz festival 1983";0;0;1;1
"jo lynch artist information";0;0;1;10
"ahmad nejad";0;0;1;8;0;0;1;8
jonone;0;0;7;14;0;0;4;22.25;0;0;3;3
"baudoin lebon";0;0;2;7;0;0;2;7
"yan pei-ming";0;0;1;52
"renaud delorme";0;0;2;5.5;0;0;2;5.5
"jaja mode";0;0;1;10
"kun deng";0;0;1;18;0;0;1;18
"patrick cornillet";0;0;2;2
"guy boyer";0;0;8;9.5;0;0;5;9.4
"taki 183";0;0;7;34.571428571429;0;0;7;34.571428571429
"p-38 lightning for sale";0;0;2;69
"tom wesselmann";0;0;3;24.333333333333;0;0;3;24.333333333333
"grand soleil";0;0;1;244;0;0;1;244
"luzia simons";0;0;2;34.5;0;0;2;34.5
"charlotte vis";0;0;1;30
"claire trotignon";0;0;1;5;0;0;1;5
jadikan;0;0;5;5;0;0;1;5;0;0;4;5
"dumas georges";0;0;1;33
"jock sturges";0;0;1;93;0;0;1;93
"charlotte cornaton";0;0;1;87;0;0;1;87
"vincent richeux";0;0;6;6.6666666666667;0;0;3;5.3333333333333;0;0;2;7;0;0;1;10
"sarah hardacre";0;0;2;21
"andreas gursky photography";0;0;1;409;0;0;1;409
"mercenary x";0;0;1;315
putov;0;0;2;7;0;0;1;7;0;0;1;7
"jamie hewlett kid";0;0;2;8.5;0;0;2;8.5
"louis blanc";0;0;2;98;0;0;2;98
"jpg4 nude";0;0;1;37
"claude closky";0;0;1;16;0;0;1;16
"non nude models xxx";0;0;1;59;0;0;1;59
"de chirico";0;0;1;18
sha'ul;0;0;1;317;0;0;1;317
"gérard schlosser";0;0;1;11;0;0;1;11
"aharon gluska";0;0;2;2
"hauer loader";0;0;1;31;0;0;1;31
bayet;0;0;1;50;0;0;1;50
"stephane gizard";0;0;6;7.8333333333333;0;0;3;7.6666666666667
"herve di rosa";0;0;3;7.3333333333333;0;0;1;5
"ommer uwe";0;0;1;13
rancillac;0;0;1;15
"nasty artist";0;0;2;7;0;0;2;7
"vincent peters";0;0;1;48
"sunny ives";0;0;1;170;0;0;1;170
"jack otway art";0;0;2;6.5;0;0;2;6.5
"into the wild";0;0;1;11;0;0;1;11
"eric neveu";0;0;1;10;0;0;1;10
bushi;0;0;1;240
chasse;0;0;1;328
artiane;0;0;1;5;0;0;1;5
"dare alla luce";0;0;1;44;0;0;1;44
"eva navarro";0;0;7;4.2857142857143;0;0;2;3
"ren hang wikipedia";0;0;6;7;0;0;4;6.5;0;0;1;8;0;0;1;8
belgrand;0;0;1;61
"thomas fournier";0;0;1;37
"henri matisse prints for sale";0;0;1;81;0;0;1;81
"guy denning";0;0;9;10.444444444444;0;0;2;13
"florian rosier";0;0;1;4;0;0;1;4
"thierry dussac";0;0;1;9;0;0;1;9
fullmäne;0;0;1;4;0;0;1;4
"arthur tress";0;0;1;65
kyliss;0;0;2;1;0;0;1;1;0;0;1;1
"masha shubina";0;0;1;4
"claire dorsett";0;0;1;9;0;0;1;9
"eva maude tardif champoux";0;0;1;9
"henrietta dubrey";0;0;3;10.666666666667;0;0;3;10.666666666667
"galerie roy sfeir";0;0;1;5
"juliet ferguson";0;0;1;12;0;0;1;12
"mihai bara";0;0;2;9;0;0;2;9
"name gallery";0;0;1;17;0;0;1;17
"francoise nielly art";0;0;1;29;0;0;1;29
"thibault wallpapers";0;0;1;99;0;0;1;99
"aris messinis";0;0;3;9.6666666666667;0;0;1;10;0;0;1;9
"frank horvart";0;0;1;39;0;0;1;39
elia;0;0;1;316
"peter wüthrich";0;0;1;49
"sabyl ghoussoub";0;0;2;6
zenoy;0;0;1;1
"max czertok";0;0;7;4;0;0;6;3;0;0;1;10
"urban photography artists";0;0;1;410;0;0;1;410
"fond jaune";0;0;1;43;0;0;1;43
"tom wesselmann lulu";0;0;1;1;0;0;1;1
"stephen bambury";0;0;1;18;0;0;1;18
"audoin desforges";0;0;1;9;0;0;1;9
"xavier veilhan";0;0;1;65;0;0;1;65
"banksy krakow";0;0;1;10;0;0;1;10
"polly ngale";0;0;6;35.5;0;0;6;35.5
"isabel espinoza";0;0;2;9;0;0;1;9
"henri lamy";0;0;2;6;0;0;2;6
"wesselman tom";0;0;2;31.5;0;0;2;31.5
+hans+hartung;0;0;2;123;0;0;2;123
"tattu art";0;0;1;7
poligrafa;0;0;1;38;0;0;1;38
"tabish khan";0;0;1;29;0;0;1;29
"nicolas gasiorowski";0;0;1;9
"peter klasen artist";0;0;2;5.5;0;0;1;6;0;0;1;5
dominot;0;0;2;10.5;0;0;2;10.5
"césar baldaccini expansion";0;0;1;1;0;0;1;1
"jerome lagarrigue";0;0;8;5.375;0;0;4;4.75;0;0;3;7.6666666666667;0;0;1;1
"the thinker statue for sale";0;0;1;38;0;0;1;38
"takashi murakami dob";0;0;2;23;0;0;2;23
"charles fazzino";0;0;1;45;0;0;1;45
"dan carabas";0;0;3;2.6666666666667;0;0;3;2.6666666666667
"christophe dugied";0;0;1;9;0;0;1;9
"anish kapoor art for sale";0;0;1;99;0;0;1;99
"leila amat ortega";0;0;2;8;0;0;2;8
"jean hélion";0;0;1;46;0;0;1;46
"home alone artwork";0;0;1;4;0;0;1;4
"kerry eggleton";0;0;2;3;0;0;2;3
"figurative painting";0;0;1;244;0;0;1;244
"sean cheetham";0;0;2;47.5;0;0;2;47.5
"anne moses";0;0;1;41;0;0;1;41
"keith haring crack down";0;0;4;4
"adeline spengler";0;0;2;5.5;0;0;1;5;0;0;1;6
"rive gauche paris";0;0;1;172;0;0;1;172
"ii ta'";0;0;1;163;0;0;1;163
"yona friedman";0;0;2;74
"jing jia";0;0;1;44;0;0;1;44
"shirley jaffe";0;0;4;17;0;0;3;17;0;0;1;17
"tanc artist";0;0;1;4;0;0;1;4
2artangels;0;0;3;6;0;0;3;6
"monsieur chat";0;0;1;9;0;0;1;9
"jeff koons pink balloon dog";0;0;1;83;0;0;1;83
"the art of nasty";0;0;3;10;0;0;3;10
"garrett pruter";0;0;1;19;0;0;1;19
"frederic deprun";0;0;1;6;0;0;1;6
unkuri;0;0;1;26
"time square";0;0;1;182
agnis;0;0;1;219;0;0;1;219
"keith tyson";0;0;1;76;0;0;1;76
"dada sculptor";0;0;1;115;0;0;1;115
"martel artist";0;0;1;30;0;0;1;30
mchat;0;0;1;164
"batista artist";0;0;2;9.5;0;0;2;9.5
"hanna sidorowicz";0;0;1;7;0;0;1;7
"water sculpture photography";0;0;1;408;0;0;1;408
"jean michel voge";0;0;1;4;0;0;1;4
"jean pierre schneider";0;0;1;1;0;0;1;1
"léo caillard";0;0;1;33
"ta kala";0;0;1;8
"freddie mercury artwork";0;0;1;41
"clinton friedman";0;0;1;24;0;0;1;24
"stephane gautier";0;0;4;2.75;0;0;3;3;0;0;1;2
"gainsbourg dali";0;0;1;18;0;0;1;18
onega;0;0;1;237;0;0;1;237
"givenchy hat";0;0;2;41.5;0;0;2;41.5
"casey reas";0;0;1;81;0;0;1;81
"esther de bont";0;0;2;3;0;0;2;3
"judy rifka";0;0;2;18.5
"didier avril";0;0;2;6;0;0;2;6
"mariah carey gold";0;0;1;1;0;0;1;1
"peter doig canoe";0;0;1;38;0;0;1;38
"sebastien layral";0;0;1;6;0;0;1;6
"guy denning painting";0;0;1;10;0;0;1;10
"anna bocek prices";0;0;3;8.3333333333333;0;0;3;8.3333333333333
"anna bocek art";0;0;1;11;0;0;1;11
"jérôme mesnager";0;0;2;4.5;0;0;2;4.5
"philippe artist";0;0;1;6;0;0;1;6
estici;0;0;1;7
"pauline dufour";0;0;2;7.5;0;0;2;7.5
"truc anh";0;0;1;5;0;0;1;5
"yanko tihov";0;0;4;10.25
"victoria benmussa";0;0;1;2
"jean helion";0;0;1;44
"martin miguel";0;0;1;44;0;0;1;44
liquidiv;0;0;1;59;0;0;1;59
"hank china";0;0;1;1;0;0;1;1
"usine du gol";0;0;1;41;0;0;1;41
"iris della roca";0;0;1;10;0;0;1;10
"hervé di rosa";0;0;2;5.5;0;0;2;5.5
"nomusa makhubu";0;0;1;7
"sachs sale";0;0;2;249;0;0;2;249
"car bonne";0;0;1;6;0;0;1;6
"alinka echeverria";0;0;1;19;0;0;1;19
"inception gallery";0;0;2;6;0;0;2;6
"christoff debusschere";0;0;1;7;0;0;1;7
"art nue";0;0;1;3
li-wei;0;0;6;11;0;0;6;11
"peter klasen";0;0;1;12
"richard caldicott";0;0;1;36;0;0;1;36
dionus;0;0;2;4;0;0;1;5;0;0;1;3
"jpg4 nudes";0;0;1;10;0;0;1;10
"olivier debré";0;0;1;48;0;0;1;48
"joel rea wikipedia";0;0;1;10
"jana france";0;0;1;35;0;0;1;35
"alain clement";0;0;2;7
"petros chrisostomou";0;0;1;20
d-tone;0;0;1;31
"georges braque";0;0;2;184.5;0;0;1;180;0;0;1;189
tal;0;0;1;199
"habesha art";0;0;1;36;0;0;1;36
"olivia clavel";0;0;1;11;0;0;1;11
"saint maxent";0;0;1;22
"ivan alifan";0;0;1;30
"sarah staton";0;0;2;30.5
"isabelle bartoli";0;0;1;9
"duong le thai";0;0;2;1;0;0;2;1
"romain cadilhon";0;0;1;6
"jonvelle photographe";0;0;1;10;0;0;1;10
"millo artist";0;0;1;32
"le maxime yonne";0;0;1;188;0;0;1;188
"as i opened fire poster";0;0;1;22;0;0;1;22
"jan sudek";0;0;1;7;0;0;1;7
gastineau;0;0;1;229
"danilo di nenno";0;0;1;2
"ruta jusionyte";0;0;1;8;0;0;1;8
"laurent roux";0;0;1;18;0;0;1;18
"jon one";0;0;1;7;0;0;1;7
"matt devine";0;0;1;56
"fernando garcía ponce";0;0;1;11;0;0;1;11
"claude mollard";0;0;3;4.6666666666667
"georges inca";0;0;1;11;0;0;1;11
"alexandre de poplavsky";0;0;1;4
"oleg dou biography";0;0;3;4
"romero britto nyc";0;0;1;23
"quentin shih dior";0;0;1;5;0;0;1;5
nakaya;0;0;1;130
"smithsonian museum contact";0;0;1;244;0;0;1;244
"samburu medias";0;0;1;17;0;0;1;17
"bruno sentier";0;0;1;10;0;0;1;10
+nitsch+hermann;0;0;1;124;0;0;1;124
"edouard buzon";0;0;1;2;0;0;1;2
"roger edgar gillet";0;0;1;8;0;0;1;8
"anne brunet";0;0;2;51;0;0;2;51
"elwin buchel";0;0;1;11
"francois houtin";0;0;3;4.3333333333333;0;0;3;4.3333333333333
"art life gallery";0;0;2;8.5;0;0;2;8.5
"virgin mary paintings for sale";0;0;1;66;0;0;1;66
desperator;0;0;1;9;0;0;1;9
jmrobert;0;0;1;2;0;0;1;2
"fondamente nuove";0;0;1;44
stoul;0;0;1;27;0;0;1;27
yzeult;0;0;1;3;0;0;1;3
"napoleon 3";0;0;1;6;0;0;1;6
"vito hannibal acconci";0;0;1;81;0;0;1;81
"rossella rossi";0;0;1;9;0;0;1;9
"andrea martin";0;0;1;188;0;0;1;188
"samhart gallery";0;0;2;11;0;0;2;11
"la cascade";0;0;1;184;0;0;1;184
"adam binder";0;0;3;43.333333333333
"christophe streichenberger";0;0;1;1;0;0;1;1
"raymond hains";0;0;12;6.5833333333333;0;0;10;6.5;0;0;2;7
"thomas verny";0;0;1;6;0;0;1;6
"peter falk artwork";0;0;1;21
"a nous paris";0;0;1;14;0;0;1;14
lebas;0;0;1;250
"edouard mazaré";0;0;1;18;0;0;1;18
"fantasy females are impossible to satisfy";0;0;1;5;0;0;1;5
"creepy art for sale";0;0;1;8;0;0;1;8
"emilio scanavino";0;0;1;56;0;0;1;56
"ute artwork";0;0;1;44;0;0;1;44
"maria torp";0;0;1;25;0;0;1;25
schmite;0;0;1;9;0;0;1;9
"florence d’elle";0;0;5;2;0;0;5;2
"david lachapelle art";0;0;1;41;0;0;1;41
"eduardo kac";0;0;1;93;0;0;1;93
"gastineau massamba";0;0;1;4;0;0;1;4
angélique;0;0;1;246;0;0;1;246
"priska lorane";0;0;1;4
"stephane chatry";0;0;1;10
"valerio adami";0;0;1;93
pairoj;0;0;1;9;0;0;1;9
"sophie morisse";0;0;2;7;0;0;2;7
"denis rouvre";0;0;1;46
"ivan plusch";0;0;1;5;0;0;1;5
"michal lukasiewicz";0;0;2;30.5;0;0;2;30.5
mrlolo;0;0;1;8
"loulou picasso";0;0;1;15;0;0;1;15
"cello for sale";0;0;1;236;0;0;1;236
"david lachapelle biography";0;0;1;35;0;0;1;35
"contemporary art gallery";0;0;1;422
"gerard schlosser artist";0;0;2;6;0;0;2;6
"bruno catalano prices";0;0;5;4.8;0;0;5;4.8
"run dmc artwork";0;0;1;13
"david ratcliff";0;0;1;35
"mel ramos vintage peekaboo";0;0;1;41;0;0;1;41
"annya sand";0;0;1;5;0;0;1;5
"little nudes";0;0;1;47;0;0;1;47
"scanavino emilio";0;0;1;45;0;0;1;45
"georgianna robertson";0;0;1;42;0;0;1;42
"flower delivery bilbao";0;0;1;59;0;0;1;59
"christopher schulz";0;0;1;87;0;0;1;87
"dino valls";0;0;1;27;0;0;1;27
"muay thai artwork";0;0;1;9;0;0;1;9
"car lelong";0;0;1;18;0;0;1;18
"collect en";0;0;1;433;0;0;1;433
"vanity of vanities all is vanity";0;0;1;66;0;0;1;66
"nicole wendel";0;0;4;2.25;0;0;3;1;0;0;1;6
"odile decq";0;0;1;45
"marc asnin";0;0;1;50
"ginger rogers artwork";0;0;1;21;0;0;1;21
"stéphanie nava";0;0;1;10
"abie loy paintings";0;0;3;50.333333333333;0;0;2;50.5;0;0;1;50
"peter downsbrough";0;0;1;80;0;0;1;80
tachala;0;0;1;2
"orlinda lavergne";0;0;1;6;0;0;1;6
lison;0;0;1;207;0;0;1;207
"miguel chevalier";0;0;2;25;0;0;2;25
"jieun park";0;0;1;31
"sun mi ahn";0;0;1;5
"galerie fluegel-roncak";0;0;1;14;0;0;1;14
misstic;0;0;2;8;0;0;2;8
"edwin apps";0;0;1;8
"klein catherine";0;0;1;29;0;0;1;29
"sam francis prints for sale";0;0;1;63;0;0;1;63
nils-udo;0;0;4;8.25;0;0;4;8.25
"by mambo";0;0;1;15;0;0;1;15
svolik;0;0;1;11;0;0;1;11
"lapierre eric";0;0;1;10
"contemporary minimalist painters";0;0;1;64
"pablito zago";0;0;1;8;0;0;1;8
dubure;0;0;3;8.3333333333333;0;0;1;6
"kunstkabinett regensburg";0;0;1;94;0;0;1;94
"beijing jianguo";0;0;1;195;0;0;1;195
"charlotte champion";0;0;1;2;0;0;1;2
"water landscape photography";0;0;1;444;0;0;1;444
"poli artist";0;0;1;20
"anouk grinberg";0;0;1;33;0;0;1;33
compoint;0;0;1;18;0;0;1;18
"toblerone on sale";0;0;1;53;0;0;1;53
"erik salin";0;0;1;9;0;0;1;9
"galerie hus";0;0;1;2
boucly;0;0;1;32
"artworks cali";0;0;1;5
"kristina kostadinova";0;0;2;2;0;0;2;2
latlas;0;0;1;64;0;0;1;64
"bettina von arnim";0;0;1;31;0;0;1;31
"sarah hinckley";0;0;1;21;0;0;1;21
"isabelle cochereau";0;0;1;9;0;0;1;9
céline;0;0;2;238;0;0;2;238
"jonone street art";0;0;2;15.5
"american dream photography";0;0;1;407
"boom cm";0;0;1;205;0;0;1;205
"paintings for sale";0;0;1;422;0;0;1;422
"yan pei ming";0;0;2;54.5;0;0;2;54.5
"wouter hoste";0;0;3;10;0;0;2;10;0;0;1;10
"vincent peters biography";0;0;10;6.2;0;0;4;5.75;0;0;4;6.75;0;0;2;6
"andoche praudel";0;0;1;5;0;0;1;5
"markowicz fine art";0;0;2;41;0;0;2;41
"manuel geerinck";0;0;1;22
"jeanne lorioz";0;0;2;7.5;0;0;2;7.5
"takashi murakami plush";0;0;1;33
"bruno de milano shoes";0;0;1;42;0;0;1;42
"cs 1.9";0;0;1;25;0;0;1;25
"pierre-marie brisson";0;0;3;19.666666666667
d’elle;0;0;1;3
"henri lamy art";0;0;1;6
"alexey klimov";0;0;1;12;0;0;1;12
"miguel ortiz berrocal";0;0;2;33;0;0;2;33
"shen jingdong";0;0;2;8.5
uqulele;0;0;1;8
"hains raymond";0;0;1;11;0;0;1;11
"jennifer lewis artist";0;0;1;33;0;0;1;33
"j. ibert";0;0;1;41;0;0;1;41
"aykaz arzumanyan";0;0;2;2;0;0;2;2
"irina ionesco";0;0;2;86.5
"le cerf";0;0;1;155
"madeleine dietz";0;0;1;20;0;0;1;20
"kiki picasso";0;0;3;6.3333333333333;0;0;1;7;0;0;2;6
"laurent jung";0;0;1;42;0;0;1;42
planas;0;0;1;192;0;0;1;192
"peter liversidge";0;0;1;56;0;0;1;56
"eric peyret";0;0;1;2;0;0;1;2
"artist shazz switzerland";0;0;1;39
"anna bocek artist";0;0;2;8.5;0;0;1;8;0;0;1;9
"big ben artwork";0;0;1;11;0;0;1;11
"alex guofeng cao";0;0;1;16;0;0;1;16
"art ot";0;0;1;349;0;0;1;349
"kate barry artist";0;0;1;6;0;0;1;6
"tao zuo";0;0;1;4
"stéphane gautier";0;0;2;2;0;0;2;2
+robert+combas;0;0;1;13;0;0;1;13
"renata boero";0;0;2;29.5;0;0;2;29.5
"mehdi \lemoduledezeer\";0;0;1;24;0;0;1;24
couettes;0;0;1;216
"vive la revolution";0;0;1;151
"vanity fair";0;0;1;215;0;0;1;215
"thomas canto";0;0;2;10;0;0;2;10
"tanc artiste";0;0;1;2;0;0;1;2
"erin cone";0;0;1;14;0;0;1;14
"crystal wagner art";0;0;1;38;0;0;1;38
"twin towers";0;0;1;311;0;0;1;311
"e french gallery";0;0;1;8;0;0;1;8
kleiber;0;0;1;166;0;0;1;166
"lauryn hill";0;0;1;172
"fred ebami";0;0;2;7.5;0;0;2;7.5
"lolita nudes";0;0;1;69;0;0;1;69
"what is cathedrals";0;0;1;330
"lion d'eau";0;0;1;7;0;0;1;7
"the mighty thor";0;0;1;99;0;0;1;99
"silk rug";0;0;1;220
"robert schad";0;0;1;40;0;0;1;40
"david lachapelle diesel";0;0;1;1;0;0;1;1
"david bowie paintings for sale";0;0;1;25;0;0;1;25
"nurcan giz";0;0;1;2
"jean faucheur";0;0;3;3;0;0;3;3
"yaacov agam artwork";0;0;1;56;0;0;1;56
"cara delevingne stencil";0;0;2;1;0;0;1;1;0;0;1;1
"easy rider artwork";0;0;1;20
"bengt lindström";0;0;1;59
zooportrait;0;0;1;2
lelong;0;0;1;7;0;0;1;7
"stephane joannes";0;0;1;6;0;0;1;6
"michel le belhomme";0;0;1;8;0;0;1;8
sawtelle;0;0;1;165;0;0;1;165
"john short artist";0;0;1;8;0;0;1;8
"antoni clavé";0;0;1;97;0;0;1;97
"isabelle chapuis";0;0;1;23;0;0;1;23
"warhol mao print";0;0;1;37;0;0;1;37
kijno;0;0;1;10;0;0;1;10
"aiguilles de chamonix";0;0;1;22
"renaud painter";0;0;1;6;0;0;1;6
"kenny hunter";0;0;2;47;0;0;1;48;0;0;1;46
"thierry pelletier";0;0;1;9;0;0;1;9
"blue night";0;0;1;190;0;0;1;190
"monica dalmasso";0;0;1;10;0;0;1;10
"jerome mesnager";0;0;2;4
"gregoire ""leon"" guillemin";0;0;1;12
"polly ngale aboriginal art";0;0;3;55.333333333333;0;0;2;55;0;0;1;56
"takashi murakami biography";0;0;1;28;0;0;1;28
lager;0;0;1;335
soto;0;0;1;168;0;0;1;168
"jacques mahe de la villegle";0;0;2;7.5;0;0;2;7.5
"banksy virgin mary";0;0;1;10;0;0;1;10
"petite maison";0;0;1;169;0;0;1;169
"elsa guillaume";0;0;1;6;0;0;1;6
chanoir;0;0;10;7.9;0;0;3;5.6666666666667;0;0;7;8.8571428571429
"rebecca bird artist";0;0;1;16;0;0;1;16
"antoine artist";0;0;1;87;0;0;1;87
"diffusion sale";0;0;1;11;0;0;1;11
"braque les oiseaux";0;0;1;27
"monsieur le chat";0;0;1;7
"jonone artist";0;0;3;11.666666666667
"ferry for sale";0;0;1;210;0;0;1;210
"olivier widmaier picasso";0;0;2;9;0;0;2;9
"nudes lolita";0;0;2;84
"claire fahys";0;0;1;13;0;0;1;13
"jacqueline roberts";0;0;1;30
"takashi murakami flower";0;0;1;26;0;0;1;26
"vintage celebrity";0;0;1;73;0;0;1;73
"anya gallaccio artwork";0;0;1;29;0;0;1;29
"li wein";0;0;1;11;0;0;1;11
"damien hirst for the love of god print";0;0;1;38;0;0;1;38
"decq odile";0;0;1;49
"duong le";0;0;1;33;0;0;1;33
"moby dick artwork";0;0;1;25
aurel;0;0;1;214;0;0;1;214
"jean claude deutsch";0;0;2;6;0;0;2;6
"yoel benharrouche";0;0;12;3.25;0;0;5;5.6;0;0;1;1
"citadine paris";0;0;1;143
"lance letscher";0;0;2;38.5
"gottfried salzmann";0;0;1;22;0;0;1;22
"germain plouvier";0;0;1;3;0;0;1;3
"paris artist";0;0;1;41
"nicolas nicolini";0;0;2;7;0;0;2;7
cortade;0;0;1;11;0;0;1;11
"victori contemporary";0;0;1;52;0;0;1;52
"pierre david";0;0;1;33;0;0;1;33
"charlotte lelong";0;0;1;10
"jean georges inca";0;0;1;1;0;0;1;1
"evelyne postic";0;0;1;7;0;0;1;7
mikhailov;0;0;1;316;0;0;1;316
jonvelle;0;0;1;15;0;0;1;15
bertelli;0;0;1;176
alleluiah;0;0;1;42;0;0;1;42
jorion;0;0;1;30
hamey;0;0;5;5;0;0;5;5
"frank horvat";0;0;3;41.333333333333;0;0;3;41.333333333333
"george platt lynes";0;0;2;56;0;0;2;56
"gerstein david";0;0;1;9;0;0;1;9
"intimate lesson";0;0;1;18;0;0;1;18
"what is white spirit";0;0;1;342
awena;0;0;1;32
"making love";0;0;1;214;0;0;1;214
"jonone art";0;0;1;12
"absolut art";0;0;5;48.6;0;0;1;9
absolutart;0;0;1;52
kcho;0;0;1;111;0;0;1;111
"guillaume guerin";0;0;2;6.5;0;0;2;6.5
sezam;0;0;1;49;0;0;1;49
"charro skull";0;0;1;8;0;0;1;8
"braque sculpture";0;0;1;41;0;0;1;41
"galerie w";0;0;1;7
"thomas muller artist";0;0;1;5
"françois morellet";0;0;1;52
"etienne viard sculpteur";0;0;1;13;0;0;1;13
"jeanne lorioz art";0;0;1;9;0;0;1;9
"pius fox artist";0;0;2;2;0;0;1;3;0;0;1;1
ohrel;0;0;1;39;0;0;1;39
"charles guyot";0;0;4;1;0;0;2;1;0;0;2;1
"philippe pasqua";0;0;11;9.3636363636364;0;0;8;9.875;0;0;2;7;0;0;1;10
"thomas muller artiste";0;0;1;1
"artist arno";0;0;2;4;0;0;2;4
"vito acconci city of words";0;0;1;9
"mel ramos art";0;0;1;38;0;0;1;38
"eugene begarat";0;0;1;1
"antoine geiger";0;0;3;12;0;0;2;14.5;0;0;1;7
http://www.basementizid.com/;0;0;2;169;0;0;2;169
"william holman gallery";0;0;2;13.5;0;0;2;13.5
capricorne;0;0;1;167;0;0;1;167
"kim sun hyuk artist";0;0;1;8;0;0;1;8
gyula;0;0;1;127;0;0;1;127
virnaburger;0;0;4;7;0;0;4;7
"la folie";0;0;1;187;0;0;1;187
"pasqua philippe";0;0;1;8;0;0;1;8
"martin kudlek";0;0;1;86;0;0;1;86
"dob art";0;0;1;43
"no galerie";0;0;2;5.5;0;0;1;5;0;0;1;6
"jef aerosol chut";0;0;1;9;0;0;1;9
"banksy choose your weapon";0;0;1;46;0;0;1;46
"davide cicolani";0;0;1;1
jegou;0;0;1;406;0;0;1;406
"jean pierre attal";0;0;1;7
"mel ramos martini miss";0;0;1;12
"fazzino paintings";0;0;1;44;0;0;1;44
"david harber";0;0;3;15.666666666667;0;0;3;15.666666666667
"lilly kelly";0;0;1;68;0;0;1;68
"joel rea art for sale";0;0;2;10.5;0;0;1;9;0;0;1;12
"ando hiro";0;0;1;21;0;0;1;21
"bossard france";0;0;1;48;0;0;1;48
"paul carey kent";0;0;2;7
"miguel chevalier biographie";0;0;1;7
"king kong artwork";0;0;1;23;0;0;1;23
"meaning of fidelio";0;0;1;335
"damir polic";0;0;6;3.6666666666667;0;0;5;3.2;0;0;1;6
"laurence dreyfus";0;0;1;22
"pierre francois grimaldi";0;0;1;1;0;0;1;1
"wigger life";0;0;2;58
"pin up las vegas";0;0;1;163;0;0;1;163
"alvaro petritoli";0;0;1;79
merienne;0;0;1;2
"jean dubuffet artist";0;0;1;71
"french consulate contact";0;0;2;313;0;0;2;313
dbcg;0;0;1;42;0;0;1;42
"annina roescheisen";0;0;1;14;0;0;1;14
friedhelm;0;0;1;330
dubailand;0;0;3;188.66666666667;0;0;1;188;0;0;1;191;0;0;1;187
"philippe huart";0;0;1;11;0;0;1;11
"francois bard artist";0;0;2;8;0;0;1;9;0;0;1;7
"obey lotus";0;0;1;1;0;0;1;1
"os gemeos for sale";0;0;1;53;0;0;1;53
"fabrizio corneli";0;0;11;8;0;0;1;8;0;0;1;7
"yoel benharrouche for sale";0;0;1;4;0;0;1;4
"nyne factory";0;0;2;3.5;0;0;2;3.5
"fabio coruzzi";0;0;2;10.5
"chu teh chun";0;0;1;46;0;0;1;46
"bob verschueren";0;0;1;15;0;0;1;15
"rūta jusionytė";0;0;1;12;0;0;1;12
"ramos mel";0;0;1;11
yellowstar;0;0;1;9;0;0;1;9
"art & language";0;0;1;85;0;0;1;85
"tobias putrih";0;0;1;46;0;0;1;46
"kennis chan";0;0;1;9;0;0;1;9
femmejambes;0;0;1;10;0;0;1;10
"norman rockwell lithograph";0;0;1;93
"simon liddiment";0;0;1;5;0;0;1;5
kouka;0;0;2;26.5
"arnaud rabier";0;0;1;77
"branding and logos";0;0;3;405;0;0;2;407;0;0;1;401
"julian opie interview";0;0;1;47;0;0;1;47
"pierre & gilles";0;0;1;41;0;0;1;41
eppelé;0;0;1;3;0;0;1;3
combas;0;0;2;33;0;0;2;33
fabiani;0;0;1;208;0;0;1;208
"cesar santos";0;0;1;59;0;0;1;59
"sun hyuk kim";0;0;4;2.5;0;0;2;4
trovic;0;0;1;7;0;0;1;7
"the thinker sculpture for sale";0;0;1;41;0;0;1;41
oilcan;0;0;1;331;0;0;1;331
"george harrison artwork";0;0;1;18;0;0;1;18
"albert rafols casamada";0;0;1;36
"anna bjerger paintings";0;0;1;6
"alain bertrand";0;0;1;15
"stop light";0;0;1;344
"le merrer";0;0;1;15
"as i opened fire lichtenstein";0;0;1;35;0;0;1;35
"ren hang photography";0;0;10;10.6;0;0;6;10.166666666667;0;0;3;9.6666666666667;0;0;1;16
bretesche;0;0;1;58
"kristian hornsleth";0;0;1;21
hyber;0;0;1;25;0;0;1;25
keymi;0;0;5;7.2;0;0;5;7.2
"call thierry";0;0;1;10;0;0;1;10
"florence d'elle";0;0;5;6.4;0;0;2;9.5;0;0;2;6
"torrick ablack";0;0;1;9
"mauve artwork";0;0;1;27;0;0;1;27
cony;0;0;1;163
"maxime ansiau";0;0;1;10
"dominic harris";0;0;1;56;0;0;1;56
"a la bardot";0;0;1;2;0;0;1;2
"jeff koons sale";0;0;1;35;0;0;1;35
"jose heerkens";0;0;1;8;0;0;1;8
"oswaldo guayasamin paintings for sale";0;0;1;19
"la couture france";0;0;1;45;0;0;1;45
"gz store";0;0;2;5
"gerard schlosser";0;0;1;10
pradino;0;0;2;3;0;0;2;3
"matthew attard";0;0;10;9.2;0;0;2;10
"martine feipel & jean bechameil";0;0;1;49;0;0;1;49
"jean gabriel";0;0;1;166;0;0;1;166
"alex maclean";0;0;1;100;0;0;1;100
"patrick dumas";0;0;1;10;0;0;1;10
"betancourt carlos";0;0;1;32;0;0;1;32
"whitespace gallery";0;0;1;56
"gabriel paris";0;0;1;28;0;0;1;28
"veronique rischard";0;0;1;3;0;0;1;3
"fred calmets";0;0;4;4.75;0;0;1;5
"françois bard peintre";0;0;1;2;0;0;1;2
"john crash";0;0;4;6.75;0;0;2;6;0;0;2;7.5
carzon;0;0;1;46;0;0;1;46
"polly ngale paintings";0;0;3;43;0;0;2;43;0;0;1;43
"top 10 graphic designers";0;0;2;401.5;0;0;2;401.5
"le grand palais biarritz";0;0;1;192
"hedva ser";0;0;1;1;0;0;1;1
lavergne;0;0;1;325;0;0;1;325
"roger schall";0;0;6;1;0;0;5;1;0;0;1;1
"i married an artist";0;0;1;20;0;0;1;20
"georges braque prints for sale";0;0;1;47;0;0;1;47
"an ho";0;0;1;41;0;0;1;41
"decorative contact";0;0;1;530;0;0;1;530
"alva bernadine";0;0;1;2;0;0;1;2
"jean michel berts";0;0;1;45;0;0;1;45
"joan mitchell paintings for sale";0;0;1;54;0;0;1;54
"christophe catelain";0;0;6;3.5;0;0;3;4
"philippe de saint lager";0;0;1;7;0;0;1;7
"monumental sculpture artists";0;0;1;6
be2;0;0;2;247
onemizer;0;0;8;8;0;0;3;7.6666666666667;0;0;4;8;0;0;1;9
lokiss;0;0;1;3;0;0;1;3
"tyler school of art photography";0;0;1;310
"du zhenjun";0;0;1;42
bodnariu;0;0;24;5.6666666666667;0;0;17;3.8823529411765;0;0;7;10
"cyril olanier";0;0;1;10;0;0;1;10
"ekkehard altenburger";0;0;1;12;0;0;1;12
"guillaume piens";0;0;1;10;0;0;1;10
nowart;0;0;1;5;0;0;1;5
"troy henriksen art";0;0;2;3;0;0;2;3
"aaron nagel art";0;0;1;37;0;0;1;37
"david mesguich";0;0;1;17;0;0;1;17
"christian renonciat";0;0;1;6;0;0;1;6
"meislin gallery";0;0;1;317;0;0;1;317
"arthur dorval";0;0;1;2;0;0;1;2
politicaly;0;0;1;15;0;0;1;15
"roland cat";0;0;2;6.5
"alistair taylor young photography";0;0;1;31
"christian sculptures for sale";0;0;1;59
"henri lamy artist";0;0;1;4;0;0;1;4
"bottled cat";0;0;1;19;0;0;1;19
"condom flag";0;0;1;21
"sibylle baltzer";0;0;1;3;0;0;1;3
"miro maravillas";0;0;1;15;0;0;1;15
"luo dan";0;0;1;28
"nathan chantob";0;0;3;3.6666666666667;0;0;3;3.6666666666667
"juliette clovis";0;0;7;1
"martre des pins";0;0;1;23
"annette messager";0;0;1;89;0;0;1;89
wajnberg;0;0;1;43;0;0;1;43
mitz.at;0;0;1;17
"norman rockwell boy";0;0;1;34;0;0;1;34
"absolut art gallery";0;0;2;25.5;0;0;2;25.5
toroptsov;0;0;6;6.6666666666667;0;0;5;6.6;0;0;1;7
"vincent hawkins";0;0;4;10;0;0;4;10
"kim sun-hyuk";0;0;2;10
"chris morin";0;0;3;3.3333333333333;0;0;3;3.3333333333333
"bruno del zou";0;0;6;2;0;0;6;2
"money art fort lauderdale fl";0;0;6;339.16666666667;0;0;3;337.66666666667;0;0;3;340.66666666667
"thomas jorion";0;0;4;3;0;0;4;3
"ralf peters";0;0;1;89;0;0;1;89
"gemma cossey";0;0;1;8;0;0;1;8
"bob verschueren artist";0;0;1;7;0;0;1;7
"antoine stevens art";0;0;2;8;0;0;2;8
"saudek exhibition prague";0;0;1;20
"zao wou ki";0;0;1;84;0;0;1;84
"by belie";0;0;1;7;0;0;1;7
"jm robert";0;0;1;2
"matisse le cirque";0;0;1;1
"guillaume bourquin";0;0;1;5;0;0;1;5
+paul+van+hoeydonck;0;0;1;32;0;0;1;32
"alexandre poplavsky";0;0;2;7;0;0;2;7
"sam hodge artist";0;0;2;8;0;0;2;8
"artwork shoes sale";0;0;1;25;0;0;1;25
"louise numina";0;0;2;39
"italian galleries";0;0;3;25.333333333333
"brass tooth";0;0;1;22;0;0;1;22
"ren hang";0;0;9;20.333333333333;0;0;3;18
"marc petit";0;0;1;51;0;0;1;51
"piccadilly circus";0;0;5;190.6;0;0;2;191.5;0;0;1;194
"bastien cuenot";0;0;1;3;0;0;1;3
"kilmany jo";0;0;1;7;0;0;1;7
"graham dolphin";0;0;1;8;0;0;1;8
"bicha gallery";0;0;1;83;0;0;1;83
"ernest pignon";0;0;2;8;0;0;2;8
"jacques ibert";0;0;2;49
"saint lager";0;0;1;37;0;0;1;37
"al held artwork";0;0;1;21;0;0;1;21
"gerstein art";0;0;2;30;0;0;2;30
"philippe hiquily";0;0;1;16;0;0;1;16
"baton dynamite";0;0;2;98
"luis gordillo";0;0;1;40;0;0;1;40
"liu xiaofang";0;0;2;23.5;0;0;2;23.5
"ryan hewett paintings";0;0;1;33
"cecile decorniquet";0;0;2;10
"capital culture gallery";0;0;1;5;0;0;1;5
"sonia aniceto";0;0;1;3
tanc;0;0;1;63;0;0;1;63
"guy denning artist";0;0;3;8.3333333333333;0;0;1;6;0;0;2;9.5
"paulette tavormina";0;0;1;32
"ayline olukman";0;0;3;5.3333333333333;0;0;1;6
"cécile desserle";0;0;1;8;0;0;1;8
"absolut official";0;0;1;39
"el diablo hip hop";0;0;1;31
brantt;0;0;1;34;0;0;1;34
nkechi;0;0;1;35;0;0;1;35
glacés;0;0;1;305;0;0;1;305
dogai;0;0;1;50
"campbells scotch broth";0;0;1;38;0;0;1;38
"carlos betancourt";0;0;1;38
"alfred hitchcock artwork";0;0;1;29;0;0;1;29
"david gouny";0;0;1;10;0;0;1;10
"christian bonnefoi";0;0;2;21.5
"robert rauschenberg art for sale";0;0;1;42
"abstract sculpture";0;0;2;394
"hus gallery";0;0;2;82
"sandro giordano in extremis";0;0;1;7;0;0;1;7
"french artists";0;0;2;34;0;0;2;34
"lola cola";0;0;9;1.7777777777778;0;0;4;2.75;0;0;3;1;0;0;2;1
"jorg brauer";0;0;2;6;0;0;2;6
"chanoir artist";0;0;3;8;0;0;3;8
"leonardo ulian";0;0;1;29;0;0;1;29
"belgian paintings";0;0;2;66;0;0;2;66
"deirdre mask";0;0;1;21;0;0;1;21
"grigori dor";0;0;1;9;0;0;1;9
"alain bonnefoit";0;0;1;19
"huang yan";0;0;1;74
mazare;0;0;1;47
"arman violon";0;0;1;6;0;0;1;6
"la soubrette";0;0;1;31;0;0;1;31
"valérie hadida";0;0;1;8;0;0;1;8
"uta brouet";0;0;1;12;0;0;1;12
"analytical photography";0;0;1;211
"sun hyuk";0;0;3;5;0;0;1;7;0;0;2;4
"anthony reynolds photography";0;0;1;325
dariush;0;0;1;142
"men in the cities robert longo";0;0;1;316;0;0;1;316
"rudolf hausner";0;0;3;8.3333333333333;0;0;3;8.3333333333333
maohuang;0;0;3;2;0;0;3;2
ayline;0;0;3;8;0;0;2;7
kikayou;0;0;1;5;0;0;1;5
"knut eckstein";0;0;1;8;0;0;1;8
"heiner meyer";0;0;4;35;0;0;4;35
design+and+decoration;0;0;1;227;0;0;1;227
jingla;0;0;1;23;0;0;1;23
"didier chamizo";0;0;1;27;0;0;1;27
"be gallery";0;0;1;9;0;0;1;9
"denis darzacq";0;0;1;65
"hanna sidorowicz artist";0;0;1;7
"steve hickok";0;0;1;28;0;0;1;28
"petra wunderlich";0;0;6;9.3333333333333;0;0;4;9;0;0;2;10
pratiki;0;0;2;10;0;0;2;10
"richard orlinski";0;0;11;9.0909090909091;0;0;9;9.1111111111111;0;0;2;9
"pasqua artist";0;0;3;4.6666666666667;0;0;1;8;0;0;1;3;0;0;1;3
"nous irons plus au bois";0;0;1;31;0;0;1;31
"louis soutter";0;0;1;97
+li+wei;0;0;1;133;0;0;1;133
"damien hirst milano";0;0;1;63
"crash artist";0;0;5;8.2;0;0;4;7.75
"natalia rak";0;0;1;30
"cloud pictogram";0;0;1;10;0;0;1;10
mc2gallery;0;0;1;7;0;0;1;7
"stephane jacob";0;0;1;4;0;0;1;4
"contemporary portrait photography";0;0;1;406
"philippe parreno";0;0;1;91;0;0;1;91
"cool artwork for sale";0;0;2;47;0;0;2;47
akiza;0;0;1;35
"bruno fontana";0;0;1;5;0;0;1;5
"peter hoffer";0;0;2;18;0;0;2;18
"le glacier";0;0;1;168;0;0;1;168
"mireille arbellot";0;0;2;1
paxal;0;0;2;16;0;0;2;16
"claire louria";0;0;2;7;0;0;2;7
"alexander massouras";0;0;1;40;0;0;1;40
"jean christophe ballot";0;0;1;26;0;0;1;26
"allan mccollum";0;0;1;74;0;0;1;74
"rafael canogar";0;0;1;45;0;0;1;45
"roland topor drawings";0;0;1;37;0;0;1;37
"eva jospin";0;0;4;8.75;0;0;3;9.3333333333333;0;0;1;7
"mikael lafontan";0;0;1;9;0;0;1;9
"john kacere";0;0;3;31.666666666667
"john isaac artist";0;0;1;4
"yoda pop art";0;0;1;82;0;0;1;82
"michel graff";0;0;3;10;0;0;2;10;0;0;1;10
bories;0;0;1;174
"pin up pop art";0;0;1;239;0;0;1;239
"david gerstein art for sale";0;0;1;8;0;0;1;8
"kusama pumpkin";0;0;1;57;0;0;1;57
"sunday b morning flowers";0;0;1;22
"zhou hongbin";0;0;1;9
"jean faucheur artist";0;0;2;2;0;0;1;2;0;0;1;2
"galerie bayart";0;0;6;6.8333333333333;0;0;4;7;0;0;1;7;0;0;1;6
"jose manuel fors";0;0;3;10;0;0;3;10
"takashi murakami pillow";0;0;1;16;0;0;1;16
"henry lamy";0;0;1;4;0;0;1;4
"thibault brunet";0;0;1;8
"niclas castello fire extinguisher";0;0;1;3
"francois bard paintings";0;0;1;3;0;0;1;3
"bartoli artist";0;0;1;44;0;0;1;44
"fabrice hyber";0;0;2;5.5
"galerie janos";0;0;1;4;0;0;1;4
"stephen bambury artist";0;0;1;9;0;0;1;9
"gérard alary";0;0;1;5
"kijno ladislas";0;0;2;5;0;0;2;5
sijae;0;0;1;3;0;0;1;3
"shahabuddin ahmed";0;0;1;44;0;0;1;44
vagabondage;0;0;5;8.4;0;0;5;8.4
melramos;0;0;1;11;0;0;1;11
"ladislas kijno";0;0;1;23
"onur dinc";0;0;4;4;0;0;3;3;0;0;1;7
"marie anne thieffry";0;0;9;8.4444444444444;0;0;5;8;0;0;4;9
"alain séchas";0;0;2;57.5
rnst;0;0;1;37;0;0;1;37
dalila;0;0;1;325;0;0;1;325
"april gornik";0;0;2;65.5
renoma;0;0;1;86;0;0;1;86
"unique gallery";0;0;1;7;0;0;1;7
"stephen forbes artist";0;0;1;2;0;0;1;2
"gabriel bodnariu";0;0;3;6;0;0;3;6
"claude closky artist";0;0;2;6.5
"robert bradford";0;0;1;5;0;0;1;5
"luca di filippo";0;0;243;9.0699588477366;0;0;150;9.6533333333333;0;0;24;10.208333333333
"camilo alvarez";0;0;1;42;0;0;1;42
féraud;0;0;2;48
"carlos cruz diez";0;0;1;68;0;0;1;68
"sidney harring";0;0;1;342;0;0;1;342
"brack artist";0;0;1;10;0;0;1;10
"rob van hoek";0;0;1;8;0;0;1;8
"tite street for sale";0;0;4;46
"leonida de filippi";0;0;1;13;0;0;1;13
"anatoly rudakov";0;0;1;6;0;0;1;6
"self portrait photographers york";0;0;1;127;0;0;1;127
"jett pink";0;0;1;26;0;0;1;26
"ren hang artist";0;0;9;8.7777777777778;0;0;5;8;0;0;4;9.75
"bear artwork";0;0;1;1;0;0;1;1
"gijsbert hanekroot";0;0;6;1.5;0;0;5;1.4;0;0;1;2
"joan saló";0;0;2;15.5;0;0;2;15.5
+jock+sturges;0;0;1;107;0;0;1;107
shup;0;0;1;44;0;0;1;44
"benjamin carbonne marseille";0;0;1;8;0;0;1;8
"olivier ribardière";0;0;1;6
"gerard rancinan";0;0;4;23.5
"jacques renoir";0;0;8;8.25;0;0;3;8.3333333333333;0;0;1;9
"branding logos";0;0;2;433;0;0;1;428;0;0;1;438
"willy ronis";0;0;4;41.25
"charles henry sommelette";0;0;1;2;0;0;1;2
"nick walker";0;0;1;7;0;0;1;7
levalet;0;0;2;13.5;0;0;2;13.5
"bard artwork";0;0;1;6;0;0;1;6
"steven gagnon";0;0;1;47;0;0;1;47
"greg carlin";0;0;1;23;0;0;1;23
zalez;0;0;2;8
"hans-christian schink";0;0;1;41;0;0;1;41
"tom wesselmann pop art";0;0;1;35;0;0;1;35
"family mold repair metal -";0;0;1;19;0;0;1;19
"jean marie marion mannequin";0;0;2;8;0;0;2;8
"17th century paintings for sale";0;0;1;41;0;0;1;41
"red panda portrait";0;0;1;31
"allegro fortissimo";0;0;1;36;0;0;1;36
"francois bard prices";0;0;1;3
"joel rea for sale";0;0;1;10;0;0;1;10
"gautier deblonde";0;0;1;15;0;0;1;15
"johanne 8 facebook";0;0;4;7;0;0;3;7;0;0;1;7
"roman opalka paintings for sale";0;0;1;18;0;0;1;18
"françois bard";0;0;3;8.3333333333333
"versailles artwork";0;0;1;69;0;0;1;69
"menton france";0;0;1;318;0;0;1;318
"davide boriani";0;0;3;17.666666666667;0;0;2;10;0;0;1;33
"michael bevilacqua";0;0;1;52;0;0;1;52
"jean marie marion";0;0;4;13;0;0;2;8
"eckart hahn";0;0;3;17.666666666667
"chu teh-chun";0;0;1;47;0;0;1;47
"diesel david";0;0;1;7
"kiddy citny";0;0;2;12.5;0;0;1;5
"keith haring lucky strike";0;0;5;4.6;0;0;2;10
breuil;0;0;1;231;0;0;1;231
"sarah 000";0;0;1;63;0;0;1;63
bona;0;0;1;172;0;0;1;172
"""naked little girls""";0;0;2;65;0;0;2;65
anthropomorphismes;0;0;1;34
daphné;0;0;1;203;0;0;1;203
"contemporary photography";0;0;1;428;0;0;1;428
"crystal wagner";0;0;1;40;0;0;1;40
"jeter mauvais sort";0;0;2;85;0;0;2;85
"fanny ferry bailly";0;0;2;8.5;0;0;2;8.5
"paris burel";0;0;1;3;0;0;1;3
"michal batory";0;0;1;34;0;0;1;34
"henri matisse";0;0;5;186.4;0;0;3;184;0;0;2;190
"best florist dorval";0;0;1;84
"hanna nitsch";0;0;1;11;0;0;1;11
"bambi paintings";0;0;1;15;0;0;1;15
"jonathan callan";0;0;1;37
"césar baldaccini compression";0;0;2;8;0;0;2;8
"galerie vevais";0;0;1;7
"famous contemporary artists";0;0;1;41
"antoine rose";0;0;1;63
"gres emaille";0;0;2;27.5
"anya gallaccio";0;0;1;74
"golden beach for sale";0;0;1;166
emmanuelle;0;0;1;242
"zhao bandi";0;0;2;6.5
sourty;0;0;1;10
"slick art fair";0;0;1;7
"brokeback mountain 2";0;0;2;50
"suling wang";0;0;3;11;0;0;2;11.5
planeteserie;0;0;1;3
"georges braque mixed media";0;0;1;28
"petre chirea";0;0;1;15
"sergio ferro";0;0;2;9
"tiantian xu";0;0;1;7
"jan saudek";0;0;1;46
nue;0;0;1;59
"philippe pasqua biography";0;0;1;8;0;0;1;3
"mel ramos original";0;0;1;1
"nue art";0;0;2;2;0;0;1;8
lapinthur;0;0;1;4
"melons galleries";0;0;1;133
villegle;0;0;2;8;0;0;2;8.5;0;0;1;10
"li lihong";0;0;2;2
"galerie nuances et lumière";0;0;1;2
"envie d art";0;0;1;8
"marilyn minter for sale";0;0;1;35
"jim kazanjian";0;0;1;32
"kumi sugai";0;0;1;10
villeglé;0;0;1;8
"robert combas";0;0;9;5.8888888888889
"pakpoom silaphan";0;0;1;14
fellini;0;0;1;200
crépin;0;0;1;203
"cunt print";0;0;1;49
lagarrigue;0;0;1;1
"toblerone sale";0;0;1;40
"yago partal";0;0;2;42
"timur novikov";0;0;6;9.3333333333333;0;0;1;1;0;0;1;2
"microphone artwork";0;0;1;36
"yz artist";0;0;1;12
"cricket fine art";0;0;1;7
"linda blackstone gallery";0;0;1;7
izabeau;0;0;1;10
"du beffroi calais";0;0;1;75
"subject matter art";0;0;2;84.5
lires;0;0;1;135
"french art for sale";0;0;1;19
m-city;0;0;1;86
цедки;0;0;1;2;0;0;1;2
"mel ramos chiquita";0;0;1;3
"paul carey-kent";0;0;2;5.5
"guy denning bio";0;0;1;5
"yang yongliang artist";0;0;1;4
"kiss the wookie";0;0;2;16
vray;0;0;1;76
"carine galli biographie";0;0;1;36
"le soir portfolio kroll";0;0;1;42
"trending artists";0;0;1;8
"deep love (2012)";0;0;1;30
"francine van hove artist";0;0;1;19
"anderson & low";0;0;1;35
"dibond signage in lagos";0;0;2;31.5
"lamborghini fire extinguisher";0;0;1;29
"carmelo arden quin";0;0;1;55
"foto di helmut newton";0;0;1;94
"roger edgar";0;0;1;21
"jim morrison music videos";0;0;1;247
"cesar baldaccini artworks";0;0;3;1
"kiddy nudes";0;0;4;5
"budgerigar for sale";0;0;1;79
hornsleth;0;0;2;110.5
"la butte";0;0;1;195
"pierre loti";0;0;1;198
"li wei";0;0;61;8.8524590163934;0;0;13;1.3076923076923;0;0;4;1.5
"kenzo sale";0;0;1;106
"nils udo";0;0;16;9.25;0;0;3;9.6666666666667
"sculptural couturier";0;0;23;44.739130434783
"shepard fairey obey";0;0;1;42
"young pink";0;0;1;227
"contemporary asian art";0;0;1;332
"monsieur artist";0;0;1;11
"takashi murakami flower pillow";0;0;1;17
smash137;0;0;1;52
"sui jianguo";0;0;1;69
"artbar71 berlin";0;0;1;64
"vanity for sale";0;0;1;200
bournat;0;0;1;33
"les terrasses de cécile";0;0;1;47
"palazzo bembo venise";0;0;1;194
"laurent durrey";0;0;1;8
hersk;0;0;1;20
+bram+bogart;0;0;2;76.5
"paul stolper gallery";0;0;1;30
obey;0;0;3;181
"geneviève claisse";0;0;2;10
"joseph beuys";0;0;1;211
saint-cyr;0;0;1;162
intra01;0;0;1;6
"petite_fille nude";0;0;1;45
"hotel ristorante le camene";0;0;1;95
"etienne cail";0;0;1;1;0;0;1;1;0;0;2;1
"guy de rougemont";0;0;2;9
"jef aérosol";0;0;3;7.3333333333333
"fisherman artwork";0;0;1;87
"speedy graphito";0;0;3;24.333333333333
"jacques villegle artwork";0;0;1;6
"badri lomsianidze";0;0;3;4.6666666666667
"wang shu hui";0;0;1;7
"bruno vilela";0;0;1;92
"blek le rat";0;0;1;74
mesnager;0;0;1;8;0;0;1;5
"dface art for sale";0;0;1;29
"kavachnina contemporary";0;0;1;73
"oliver bedeman";0;0;1;68
"half face half skull artists";0;0;1;26
"alfie goodrich";0;0;1;23
"marcus egli";0;0;1;8
"hervé lewis";0;0;5;1;0;0;3;1
"cali rezo";0;0;1;10
"eastpak sale";0;0;1;97
"cony theis";0;0;1;20
"galerie nicolas hugo";0;0;13;4.6923076923077;0;0;30;5;0;0;2;5
"bullet d";0;0;1;220
"abstract paintings savannah ga";0;0;1;304
"francois millo";0;0;1;7
"stephane ducatteau";0;0;1;2
"30 x 60 mirror";0;0;1;154
"dominique regnier sculpteur";0;0;1;9
"vanity photography";0;0;1;341
"jan saudek gallery prague";0;0;1;35
ecloz;0;0;1;10
"conrad marca-relli";0;0;1;39
"jean-michel voge";0;0;1;3
"tatiana kourochkina contemporary art project";0;0;1;61
koolkoor;0;0;1;2
"caroline fraser";0;0;1;45
"aboudia abdoulaye diarrassouba";0;0;1;17
"side x side for sale monroe la";0;0;1;97
ariettie;0;0;1;8
aboudia;0;0;1;22
"tony bevan";0;0;1;48
"bram van velde prints";0;0;1;32
"olivier b";0;0;1;37
"duru art space";0;0;1;80
"bruno catalano biography";0;0;1;6
"paris a nous";0;0;1;20
"yann stofer";0;0;1;9
efface;0;0;1;215
"vague photography";0;0;1;238
"jacques villeglé";0;0;3;8
"circus lights for sale";0;0;1;62
"nobuyoshi araki artist";0;0;1;36
"kilmany jo liversage";0;0;2;8;0;0;1;8
"galerie wagner";0;0;1;5
"gohar dashti";0;0;1;35
"1940s artwork";0;0;1;39
"jorg doring";0;0;1;1;0;0;1;1
"olivier sultan";0;0;1;9
"creepy art";0;0;1;34;0;0;1;16
"marek piasecki";0;0;2;18
"arvid paintings for sale";0;0;1;96
"herve lewis";0;0;4;2.5;0;0;1;1;0;0;1;1
"thierry schwab";0;0;1;9
shuhui;0;0;2;2
"tim flach biography";0;0;1;10
"applecare sale";0;0;1;69
"miss van";0;0;2;61.5
"beirut art";0;0;1;60
"chris morin-eitner";0;0;2;1
rifka;0;0;1;189
"emmanuel flipo";0;0;2;4
"raymond hains artist";0;0;2;6
"pilar du breuil";0;0;1;6
"gifts dorval";0;0;1;154
"china fond";0;0;1;10
"olivier leroy";0;0;1;24
danseur;0;0;1;234
"david gerstein 5th avenue";0;0;5;7
paris's;0;0;1;122
ingleby;0;0;1;215
"art paris";0;0;1;180
decq;0;0;1;48
dtone;0;0;1;7;0;0;3;9
"mel ramos lola cola";0;0;1;1;0;0;2;1
"joel rea paintings for sale";0;0;1;18
godon;0;0;17;3.1764705882353;0;0;2;4.5;0;0;2;2.5
"yaacov agam";0;0;1;81
"djamel boucly";0;0;2;11
"diane arbus artwork";0;0;1;33
"lance letscher art";0;0;1;15
dellarosa;0;0;1;151
"marianne garnier";0;0;1;3
"shup shup";0;0;1;44
"planete serie";0;0;3;3
"abc gallery";0;0;4;9.25;0;0;1;10
"the aigli";0;0;1;182
"paris art";0;0;1;77
"renata har";0;0;1;14
"hotel ristorante camene";0;0;1;52
"segundas pieles";0;0;1;29
"jerome zonder";0;0;1;15
"axel gouala";0;0;2;7
"speedy graphito for sale";0;0;2;6
"navabi sale";0;0;1;45
"king samo";0;0;1;20
"tampax sale";0;0;1;100
"antoine stevens";0;0;4;8.5;0;0;2;6.5
"martín reyna";0;0;1;22
"christian bilger";0;0;1;6
"stencil boy";0;0;1;21
"abstract art savannah ga";0;0;2;306
"family mold design metal -";0;0;1;31
"anne catherine becker echivard";0;0;1;10
"andré borderie";0;0;2;70
"bettina arnim";0;0;1;31
"jacques de la villeglé";0;0;2;6;0;0;1;7
"fantasy art for sale";0;0;2;29
"sienna patti contemporary";0;0;1;85
"taki 183 graffiti artist";0;0;1;15
baudoin;0;0;1;106
"andy hope 1930";0;0;1;95
cosmogarden;0;0;2;10
"patti smith artwork";0;0;1;40
"etienne gros";0;0;3;5.6666666666667
alftan;0;0;1;18
"kenza blog";0;0;1;52
"john matos";0;0;5;6.4;0;0;1;9
"robert zandvliet";0;0;2;37
"sandra beccarelli";0;0;1;9;0;0;4;8
"spectacled owl";0;0;1;157
"zao wou-ki";0;0;1;82
"concorde paris";0;0;1;188
"modern angel sculpture";0;0;1;150
"stiliana alexieva";0;0;1;9
"janet lynch";0;0;1;48
"steel gagnon";0;0;1;1
dauguet;0;0;1;36
"brigitte bardot artwork";0;0;1;54
"guy ferrer";0;0;1;10
scharf;0;0;1;319
"hotel bobo";0;0;1;73
"molly sims";0;0;1;213
"vik muniz";0;0;1;234
"anna bocek";0;0;2;15;0;0;1;7
pasquier;0;0;1;228
"martin szekely";0;0;1;30
"cecile plaisance";0;0;1;13
dagada;0;0;2;5.5
"montreux jazz festival 1986";0;0;1;1
"pras bernard";0;0;1;10
"anthony batista photography";0;0;1;227
"laurina paperina";0;0;2;49.5
"ilgin seymen";0;0;1;9
"chris macauley";0;0;1;6
"liu ting ting";0;0;1;36
"viet ha tran";0;0;3;7.3333333333333;0;0;1;9
"takashi murakami bio";0;0;1;35
"lucy & jorge orta";0;0;1;47
"nieves mingueza";0;0;2;8.5
doia;0;0;1;58
"anna zuber";0;0;1;15
"gazelli art house";0;0;1;42
"claude champy ceramics";0;0;1;5
"perino & vele";0;0;1;3
"avion marseille";0;0;2;95.5
paulova;0;0;1;39
tairou;0;0;1;8
"reinhard gorner";0;0;4;10.5
"conrad marca relli";0;0;2;43
"jean-christophe ballot";0;0;1;38
"sergio moscona";0;0;6;4.1666666666667;0;0;2;4;0;0;4;4.5
"art galleries cornwall";0;0;2;366
"henri matisse cirque";0;0;1;1
krell;0;0;1;250
"liu tingting";0;0;1;3
"bernard quentin";0;0;4;9.25
"karen ay";0;0;1;7
"wifredo lam";0;0;1;175
"etam online sale";0;0;1;36
"this life loader";0;0;12;36.166666666667
"oxana taran";0;0;1;6
"banksy sculptures";0;0;1;48
"la maja desnuda";0;0;1;78
"romero britto sculptures";0;0;1;46
hankson;0;0;1;19
"alexandre joly";0;0;2;10
"lisa roberts artist";0;0;1;5
"raymond voinquel";0;0;5;10
"uche photography";0;0;1;38
"pete doherty artwork";0;0;1;19
"angel duarte";0;0;9;2.7777777777778;0;0;1;1
"jean pierre comes mail art";0;0;1;52
"r topor";0;0;1;28
"melanie bonajo";0;0;1;62
"herb ritts prints for sale";0;0;1;28
"markus & koala";0;0;1;2
"nude descending staircase";0;0;1;117
"aurelie nemours";0;0;1;47
"boccara gallery";0;0;1;4
"charles fazzino biography";0;0;1;19
"ren hang photographer";0;0;1;7
"arrache toi un oeil";0;0;1;24
"surf trip";0;0;1;191
"benoit trimborn";0;0;2;5.5;0;0;1;5
"looking for painter";0;0;2;176.5
agamograph;0;0;1;27
"alain riviere";0;0;1;13
"takashi murakami art for sale";0;0;1;9;0;0;3;8.3333333333333
"magdalena lamri";0;0;1;6;0;0;1;7
"fantastic nudes";0;0;1;6
"al held";0;0;1;48
"philippe weisbecker";0;0;2;7.5;0;0;1;9
"maurizio nannucci artist";0;0;1;10
"scottish terrier";0;0;1;206
"scotch broth soup campbells";0;0;2;38
"altersheim zürich";0;0;1;25
"dire 132";0;0;1;6
"anthony murphy artist";0;0;2;10;0;0;1;10
"luis gordillo artist";0;0;1;10
"ran hwang";0;0;1;37
"gunter damisch";0;0;1;46
"entre autres";0;0;1;183
"esso oil can";0;0;1;28
"david hinchliffe";0;0;2;17
"art ando";0;0;1;43
"bernard buffet";0;0;1;92
"murakami sculpture";0;0;1;42
"paul bogaers";0;0;3;37
"etienne rey";0;0;1;15
"mathieu mercier";0;0;2;9
"mel ramos vintage";0;0;1;75
"mixed pussy";0;0;1;102
"marie brisson";0;0;1;3
duprey;0;0;1;243
iemza;0;0;1;9;0;0;1;10
"francesco libassi";0;0;1;6
"marc ferrero";0;0;2;7.5;0;0;4;10.75
"alberto reguera";0;0;1;10
"aki kuroda";0;0;5;5.6;0;0;1;1
"murano lamper";0;0;1;31
"le petit parisien willy ronis";0;0;2;1
"mist artist";0;0;1;3
"yang yongliang";0;0;12;8.1666666666667;0;0;3;1
himba;0;0;1;228
"little thumb";0;0;2;85
"rero artist";0;0;2;26.5
"memoiren einer geisha";0;0;1;206
gloire;0;0;1;246
durix;0;0;2;3
"nicolas hugo";0;0;4;8.25;0;0;2;9
"dominique regnier";0;0;1;5;0;0;1;8
"29 levels of freedom";0;0;1;3
"pierre marie brisson";0;0;1;2;0;0;2;2
"quantum contemporary art";0;0;1;97
cyprien;0;0;1;242
"santander bewertungen in waldkraiburg";0;0;1;33;0;0;1;35
"miguel chevalier artist";0;0;1;9
yutao;0;0;1;9
"rero art";0;0;2;26
"wise monkeys";0;0;1;242
"philippe berry";0;0;8;5.625;0;0;4;4.5
"gkm gallery";0;0;1;7
"victor lope arte contemporaneo";0;0;1;81
"duane michals artwork";0;0;1;6
"roy lichtenstein woman in bath";0;0;1;37
"john bulmer";0;0;5;11
liwei;0;0;15;7.9333333333333;0;0;1;3
"pulp fiction puzzle";0;0;2;1;0;0;1;10
tombé;0;0;1;241
"yuval shaul";0;0;2;8
"destiny maker";0;0;1;38
"marius bodnariu";0;0;1;77;0;0;1;68;0;0;1;65
"hamburger paintings";0;0;1;342
"jin bo grand";0;0;1;162
"morellet francois";0;0;1;13
"bruno catalano";0;0;1;41
"jesper just";0;0;1;100
"jan saudek photos";0;0;1;18
"joanna glazer";0;0;1;10
bosh;0;0;1;197;0;0;1;199
"ta nuque";0;0;1;18
borys;0;0;1;179
"art mb";0;0;1;346
"franta artist";0;0;1;4
"takashi murakami mr dob";0;0;1;20
"andre cottavoz";0;0;1;5
"christophe fischer";0;0;1;8
ballesta;0;0;1;90
ddessin;0;0;1;10
"antonella masetti";0;0;1;2
"peter lippmann";0;0;2;6.5
"sylvie guilleme";0;0;1;3
"agafia polynchuk";0;0;1;8
"valerie hadida";0;0;4;7.25
"el ultimo viaje del buque fantasma";0;0;1;36
"liu xiaofang artist";0;0;2;9.5
"thomas muller black and white";0;0;1;5
"galerie ange basso";0;0;1;5
sunhyuk;0;0;2;9
"onur painting";0;0;1;8
"alzbeta jaresova";0;0;1;6
"toxic graffiti artist";0;0;1;10
"babajide olatunji";0;0;2;4
"yann houri for sale";0;0;2;7
"ana maria diaz perez";0;0;1;9
"mick jagger";0;0;1;159
"γρηγορης berlin";0;0;1;5
"elisabeth collet";0;0;1;13
"mathilde dauguet";0;0;1;6
"guy denning techniques";0;0;1;18
"lampe murano";0;0;1;9
"hans withoos";0;0;1;11
"galerie 127";0;0;1;9
"compression cesar";0;0;1;6
"elisabeth lecourt";0;0;1;10
"nue sale";0;0;1;3
"joan miro";0;0;1;187
gardaf;0;0;1;1
"pdp gallery";0;0;1;2
cerj;0;0;4;9.25
"gabriel barthelemy";0;0;1;6
arietti;0;0;1;11
"ki to la gloire";0;0;2;6
"ren hang wiki";0;0;2;7.5;0;0;3;8
"thomas bossard artist";0;0;1;4
"olivier camen";0;0;1;4
"manu adam";0;0;2;8
"bernard gaume";0;0;1;6
"adonis flores";0;0;2;10
"blessing ngobeni";0;0;1;7
"caroline maurel";0;0;2;5
"pierre muckensturm";0;0;1;5
"guy denning for sale";0;0;2;2
"berry philippe";0;0;1;11;0;0;1;3
"art concept gallery";0;0;1;8
"daniel lucien durand";0;0;1;35
"patrizio di renzo";0;0;1;8
"keith haring montreux";0;0;1;1
bathinggirl;0;0;1;33
"sky egelund";0;0;1;40
chubac;0;0;6;8
"octave pixel";0;0;6;3.5
"katrin bremermann";0;0;1;2;0;0;2;2
"topor artist";0;0;1;7
"who's that girl sale";0;0;1;26
"willy ronis le petit parisien";0;0;1;1
"valerie hadida sculptures";0;0;2;3;0;0;1;6
"laurent martinez";0;0;1;10
"haude bernabé";0;0;1;3
"marcin bialas";0;0;1;9
"nu homme book free";0;0;1;26
"john crash matos";0;0;2;9
"galerie catherine houard";0;0;1;5
"valerie hadida sculpture";0;0;1;7
"susan shup";0;0;1;7
anorexic;0;0;1;175
"lou ros artist";0;0;2;6
"galerie galea";0;0;1;6
"bambi artist";0;0;1;6
"kim sun hyuk";0;0;2;8
"christy lee rogers";0;0;1;19
"madonna bambi";0;0;1;8
napoleon;0;0;1;192
"miss tic";0;0;1;12
uriginal;0;0;1;10
"carole duhayer";0;0;1;7
ribart;0;0;1;10
"nguyen the dung";0;0;2;8
"kathleen ngale";0;0;1;69
"willy ronis le petit parisien 1952";0;0;1;7
houtin;0;0;2;4.5;0;0;1;1
"yoel benharrouche prices";0;0;1;3
"gottfried honegger";0;0;1;10
"artdog london";0;0;1;8
"sylvain dress code";0;0;1;4
"charles fazzino art for sale";0;0;1;28
"philippe soussan";0;0;2;4
"richard levine artist";0;0;1;9
lemilo;0;0;1;7
"jonatan maldonado";0;0;1;6
"bernard saint maxent";0;0;1;8
"thomas bossard";0;0;2;7
"bruno catalano sculpture for sale";0;0;3;8
"christine and mathieu";0;0;1;20
"theo platt";0;0;3;11
brodlim;0;0;1;4
"didier triglia";0;0;1;3
leyto;0;0;2;2
"isabelle leclercq";0;0;1;9
"mel ramos for sale";0;0;1;5
"quik lin felton";0;0;1;7
"gordon hopkins artist";0;0;1;4
"david ferreira artist";0;0;1;1
"monika nowak";0;0;1;10
"artworks by poitou";0;0;1;3
"jerome lagarrigue art";0;0;1;7
"claire bianchi";0;0;1;10
"zabou artist";0;0;1;23
"francois morellet";0;0;2;11
"ronald dupont";0;0;1;2
"john timberlake";0;0;1;48
