"jean faucheur";4;0.26666666666667;15;2.4;3;0.21428571428571;14;2.4285714285714;1;1;1;2
"sergio moscona";2;0.4;5;2.8;2;0.4;5;2.8
"troy henriksen";2;0.66666666666667;3;3.6666666666667;1;1;1;5;1;0.5;2;3
"jacques mahé de la villeglé";2;0.28571428571429;7;5;2;0.4;5;4.8;0;0;2;5.5
"guy denning for sale";2;1;2;3.5;2;1;2;3.5
"jean louis audibert";2;0.66666666666667;3;3.3333333333333;2;0.66666666666667;3;3.3333333333333
"jeanne lorioz";2;0.18181818181818;11;8.1818181818182;1;0.2;5;8.4;0;0;5;7.4;1;1;1;11
"yves gellie";1;0.5;2;13;1;0.5;2;13
"catherine seher";1;0.14285714285714;7;9.4285714285714;1;0.14285714285714;7;9.4285714285714
"galerie loft paris";1;0.5;2;13;1;0.5;2;13
"anne valerie dupond";1;0.2;5;7.8;0;0;1;10;1;0.25;4;7.25
"bruno catalano for sale";1;0.5;2;3;1;0.5;2;3
"anne guillon";1;0.33333333333333;3;2;1;0.33333333333333;3;2
"guy denning art";1;0.5;2;7;1;1;1;7;0;0;1;7
"juliette vivier";1;1;1;7;1;1;1;7
"christophe charbonnel";1;0.33333333333333;3;8;1;0.33333333333333;3;8
"darco artist";1;0.11111111111111;9;9.4444444444444;0;0;5;9;1;0.33333333333333;3;10;0;0;1;10
"fabien granet";1;0.5;2;3;1;0.5;2;3
"geert lemmers";1;0.33333333333333;3;18;1;0.33333333333333;3;18
"jada pinkett smith artwork";1;0.5;2;2;1;1;1;2;0;0;1;2
"stéphane joannes";1;1;1;5;1;1;1;5
"geneviève claisse";1;0.125;8;8.125;1;0.125;8;8.125
"arno elias prints";1;0.33333333333333;3;1;0;0;1;1;1;0.5;2;1
"max wanger tulum";1;0.5;2;18;1;0.5;2;18
"anna bjerger";1;0.055555555555556;18;7.7777777777778;0;0;15;7.7333333333333;1;0.33333333333333;3;8
"arkiv vilmansa";1;0.2;5;8.2;1;0.33333333333333;3;8.3333333333333;0;0;2;8
"fabrizio corneli";1;0.045454545454545;22;9.0454545454545;1;0.2;5;8.8;0;0;14;9.1428571428571;0;0;3;9
"mwenze kibwanga";1;1;1;1;1;1;1;1
"jm robert art";1;0.2;5;3.4;1;0.2;5;3.4
"ayline olukman";1;0.33333333333333;3;5.6666666666667;0;0;2;6;1;1;1;5
"marion colomer";1;0.5;2;5;1;0.5;2;5
"howard birchmore";1;1;1;13;1;1;1;13
"nathan chantob";1;1;1;3;1;1;1;3
"aki kuroda artist";1;0.5;2;2;1;1;1;3;0;0;1;1
"jean faucheur photography";1;0.33333333333333;3;2;1;0.33333333333333;3;2
"gordon hopkins";1;0.11111111111111;9;4;0;0;2;5.5;1;0.14285714285714;7;3.5714285714286
"judy rifka";1;0.5;2;19.5;1;0.5;2;19.5
"ivan plusch";1;0.33333333333333;3;5.3333333333333;1;0.33333333333333;3;5.3333333333333
"florence d’elle";1;0.5;2;2;1;0.5;2;2
"morgan paslier";1;0.16666666666667;6;2.8333333333333;1;0.16666666666667;6;2.8333333333333
"alexandre joly";1;0.25;4;9.25;1;0.25;4;9.25
"marc ferrero";1;0.16666666666667;6;9;0;0;4;8;0;0;1;11;1;1;1;11
"bernard pras biography";1;1;1;2;1;1;1;2
"alex folla";1;0.33333333333333;3;6;1;1;1;6;0;0;2;6
"gerard clisson";1;1;1;5;1;1;1;5
"maggie matthews";0;0;1;32;0;0;1;32
"raigon stanley";0;0;1;3;0;0;1;3
"alfred manessier";0;0;2;34.5;0;0;2;34.5
"clara ramirez";0;0;1;15;0;0;1;15
"nick walker art for sale";0;0;1;41;0;0;1;41
"gerard alary";0;0;1;6;0;0;1;6
"magasin department store";0;0;1;349;0;0;1;349
"galerie bettina";0;0;2;9.5;0;0;1;10;0;0;1;9
"maxime foulon";0;0;1;9;0;0;1;9
musitano;0;0;1;41;0;0;1;41
"toma l";0;0;3;2.3333333333333;0;0;3;2.3333333333333
carzon;0;0;1;43;0;0;1;43
"jacques villegle biography";0;0;1;7;0;0;1;7
"crash john matos";0;0;1;6;0;0;1;6
"mustapha azeroual";0;0;1;7;0;0;1;7
"marie oger";0;0;1;11;0;0;1;11
"jean cosentino";0;0;1;4;0;0;1;4
lapinthur;0;0;2;5;0;0;2;5
aliot;0;0;3;63.666666666667;0;0;3;63.666666666667
"1000 euros";0;0;1;36;0;0;1;36
renoma;0;0;1;91;0;0;1;91
"anton f";0;0;1;43;0;0;1;43
dagada;0;0;1;39;0;0;1;39
hyber;0;0;1;38;0;0;1;38
"markowicz fine art";0;0;2;36.5;0;0;2;36.5
"bernard pras artist";0;0;1;8;0;0;1;8
"the city never sleeps";0;0;1;322;0;0;1;322
dubrey;0;0;1;3;0;0;1;3
"reinhard gorner";0;0;1;9;0;0;1;9
"dibond signage in lagos";0;0;1;41;0;0;1;41
"dope! gallery";0;0;1;10;0;0;1;10
"toshimitsu imai";0;0;1;28;0;0;1;28
"el grito 2";0;0;1;37;0;0;1;37
"priscilla moore";0;0;1;33;0;0;1;33
"miro svolik";0;0;2;13;0;0;1;18;0;0;1;8
"la maja desnuda";0;0;1;84;0;0;1;84
"jean michel basquiat inspiration";0;0;1;3;0;0;1;3
"pedro correa";0;0;1;47;0;0;1;47
hangren;0;0;1;48;0;0;1;48
"vincent breed";0;0;2;5;0;0;2;5
"bob verschueren artist";0;0;1;10;0;0;1;10
"sigune hamann";0;0;3;14;0;0;2;17.5;0;0;1;7
"sophie verger";0;0;1;7;0;0;1;7
"viet ha menu";0;0;1;36;0;0;1;36
"huit sale";0;0;1;50;0;0;1;50
"gabriel paris";0;0;1;44;0;0;1;44
"mel ramos superman";0;0;1;27;0;0;1;27
"1937 auburn speedster";0;0;1;17;0;0;1;17
moorning;0;0;1;48;0;0;1;48
"herve lewis";0;0;4;1;0;0;4;1
"yinka shonibare mbe";0;0;1;133;0;0;1;133
"miguel chevalier artist";0;0;1;9;0;0;1;9
"store street gallery";0;0;1;7;0;0;1;7
"hellboy artwork";0;0;1;70;0;0;1;70
"philippe berry sculpteur";0;0;1;6;0;0;1;6
"gottfried salzmann";0;0;1;10;0;0;1;10
"jeanne bleu";0;0;2;18.5;0;0;2;18.5
"summer haze";0;0;1;305;0;0;1;305
"aki kuroda";0;0;6;3;0;0;2;7;0;0;3;1;0;0;1;1
"bittersweet flowers";0;0;1;313;0;0;1;313
"capital culture gallery";0;0;1;6;0;0;1;6
sawtelle;0;0;1;184;0;0;1;184
"corinne felgate";0;0;1;20;0;0;1;20
dtone;0;0;4;11.75;0;0;3;12.333333333333;0;0;1;10
"crash street art";0;0;1;7;0;0;1;7
oeuvrette;0;0;1;4;0;0;1;4
"sophie morisse";0;0;1;5;0;0;1;5
"beaux gosses";0;0;1;127;0;0;1;127
manuperez;0;0;1;9;0;0;1;9
"cecile charron";0;0;1;11;0;0;1;11
"richard heeps";0;0;3;7.6666666666667;0;0;1;8;0;0;1;7;0;0;1;8
godon;0;0;16;1.3125;0;0;9;1.4444444444444;0;0;2;1;0;0;5;1.2
"obey tiger";0;0;1;43;0;0;1;43
"claude champy";0;0;6;9.5;0;0;6;9.5
"madeleine dietz";0;0;1;5;0;0;1;5
gielczynski;0;0;1;1;0;0;1;1
"pez art";0;0;1;45;0;0;1;45
"arman venus";0;0;1;3;0;0;1;3
"paul carey-kent";0;0;2;7.5;0;0;1;7;0;0;1;8
"sonia delaunay artworks";0;0;1;10;0;0;1;10
"madison museum of modern art";0;0;1;303;0;0;1;303
"troy henriksen art";0;0;2;3;0;0;1;3;0;0;1;3
"chu teh-chun";0;0;1;39;0;0;1;39
"hanna sidorowicz";0;0;1;7;0;0;1;7
"jean charles quillin";0;0;1;8;0;0;1;8
"crystal wagner";0;0;1;46;0;0;1;46
"basquiat paintings for sale";0;0;1;32;0;0;1;32
"francisco sepulveda";0;0;1;39;0;0;1;39
"louis stettner";0;0;2;19;0;0;2;19
"desperate housewife";0;0;2;113;0;0;2;113
"jean gabriel";0;0;1;169;0;0;1;169
"veronique masurel";0;0;1;5;0;0;1;5
"keymi artist";0;0;1;1;0;0;1;1
"della roca";0;0;1;34;0;0;1;34
"mont venus";0;0;1;229;0;0;1;229
"villegle jacques";0;0;1;8;0;0;1;8
"terry watts artist";0;0;1;14;0;0;1;14
"alva bernadine";0;0;4;27.5;0;0;4;27.5
"david brayne";0;0;1;19;0;0;1;19
"davide boriani";0;0;1;14;0;0;1;14
"anna eva bergman paintings";0;0;1;91;0;0;1;91
"iñigo arregi";0;0;1;7;0;0;1;7
"peace for paris dessin";0;0;1;1;0;0;1;1
"muay thai artwork";0;0;1;29;0;0;1;29
"nature morte vivante";0;0;1;18;0;0;1;18
"olivier legan";0;0;3;6.6666666666667;0;0;3;6.6666666666667
nonne;0;0;1;236;0;0;1;236
"fenice et artistes";0;0;1;166;0;0;1;166
"jack otway artist";0;0;2;5.5;0;0;1;5;0;0;1;6
"morellet artist";0;0;1;10;0;0;1;10
"pez artist";0;0;1;30;0;0;1;30
"french contemporary artists";0;0;1;34;0;0;1;34
cofflet;0;0;1;314;0;0;1;314
"keith coventry";0;0;1;76;0;0;1;76
"erin cone";0;0;1;15;0;0;1;15
"yann stofer";0;0;1;9;0;0;1;9
"etienne rey";0;0;2;8;0;0;2;8
"henrietta dubrey";0;0;3;5;0;0;1;11;0;0;1;2;0;0;1;2
"parfum d amour";0;0;1;45;0;0;1;45
iemza;0;0;1;10;0;0;1;10
"gohar dashti";0;0;1;38;0;0;1;38
"monica dalmasso";0;0;2;9.5;0;0;1;10;0;0;1;9
"mi-hyun kim";0;0;1;34;0;0;1;34
"guy denning biography";0;0;2;5;0;0;2;5
"jorg doring";0;0;1;1;0;0;1;1
"le galet";0;0;1;160;0;0;1;160
"vincent fillon";0;0;1;9;0;0;1;9
"antoni tapies original prints worcester";0;0;1;48;0;0;1;48
surian;0;0;1;165;0;0;1;165
"fresh to death";0;0;2;168.5;0;0;1;170;0;0;1;167
"benoit trimborn prix";0;0;1;6;0;0;1;6
"kiki picasso";0;0;3;4.6666666666667;0;0;2;4.5;0;0;1;5
"philippe berry";0;0;11;5.8181818181818;0;0;5;4.8;0;0;4;7;0;0;2;6
"mariah carey gold";0;0;2;1;0;0;1;1;0;0;1;1
"victor soren";0;0;1;9;0;0;1;9
"youngest tits";0;0;1;94;0;0;1;94
"ii ta'";0;0;1;188;0;0;1;188
"black poppy flowers";0;0;1;244;0;0;1;244
"urban devil";0;0;1;9;0;0;1;9
"jerome lagarrigue";0;0;2;1.5;0;0;1;1;0;0;1;2
"madison museum of fine art";0;0;1;338;0;0;1;338
"banksy fake note";0;0;1;17;0;0;1;17
"sandro giordano";0;0;3;8;0;0;3;8
shanshui;0;0;1;197;0;0;1;197
"anh truc";0;0;2;2;0;0;1;1;0;0;1;3
takala;0;0;6;7;0;0;5;6.6;0;0;1;9
couettes;0;0;1;225;0;0;1;225
urlichs;0;0;1;40;0;0;1;40
vanitas6;0;0;3;25.666666666667;0;0;2;26;0;0;1;25
"emeric chantier";0;0;5;7.2;0;0;3;7.3333333333333;0;0;2;7
"obey lotus";0;0;2;1;0;0;1;1;0;0;1;1
"taki 183 biography";0;0;1;7;0;0;1;7
"takashi murakami biography";0;0;2;35;0;0;2;35
"hannah nitsch";0;0;1;11;0;0;1;11
"stanley donwood biography";0;0;1;18;0;0;1;18
"وتر ""contact"" ~عدلا";0;0;2;237;0;0;2;237
"jacques beneich";0;0;1;6;0;0;1;6
chubac;0;0;4;6.25;0;0;3;5;0;0;1;10
"lou ros artist";0;0;10;9;0;0;8;9.125;0;0;2;8.5
"sui jianguo";0;0;1;64;0;0;1;64
"tiphaine gilson";0;0;2;6;0;0;2;6
"mikhail lezin";0;0;2;5;0;0;2;5
"charlotte champion";0;0;6;6.1666666666667;0;0;2;5.5;0;0;2;7;0;0;2;6
"hotel ristorante camene";0;0;1;55;0;0;1;55
"dingo art";0;0;2;9;0;0;1;9;0;0;1;9
maleficarum;0;0;1;233;0;0;1;233
"egor bogachev";0;0;1;10;0;0;1;10
"gerard rancinan";0;0;3;11.666666666667;0;0;2;13;0;0;1;9
"la souris sur le gateau";0;0;3;10;0;0;3;10
"nick walker artist";0;0;1;46;0;0;1;46
"michele mikesell";0;0;1;19;0;0;1;19
"omega house ii";0;0;1;403;0;0;1;403
"eugene begarat";0;0;1;7;0;0;1;7
"valerie hadida";0;0;10;9.6;0;0;7;9.8571428571429;0;0;1;10;0;0;2;8.5
"palazzo bembo venise";0;0;1;188;0;0;1;188
"luciano polverigiani";0;0;1;9;0;0;1;9
"pippa young";0;0;1;4;0;0;1;4
"alberto sanchez photography";0;0;1;9;0;0;1;9
"gz gallery";0;0;1;4;0;0;1;4
"hiro ando";0;0;4;7.25;0;0;3;7.3333333333333;0;0;1;7
"attitudes salon waterville maine";0;0;1;215;0;0;1;215
"antoine stevens";0;0;36;6.0833333333333;0;0;6;6;0;0;22;6.1363636363636;0;0;8;6
"chuck berry stencil";0;0;1;9;0;0;1;9
"uwe ommer";0;0;3;18.666666666667;0;0;3;18.666666666667
blechner;0;0;1;113;0;0;1;113
"baudoin lebon";0;0;1;8;0;0;1;8
"henrik simonsen";0;0;1;45;0;0;1;45
carabas;0;0;1;100;0;0;1;100
"jérôme mesnager";0;0;2;4;0;0;2;4
"andrew mcneile jones";0;0;1;3;0;0;1;3
"romero britto love";0;0;1;44;0;0;1;44
"david shrigley art for sale";0;0;1;20;0;0;1;20
"spanish galleries";0;0;1;10;0;0;1;10
"olivier courty";0;0;2;7.5;0;0;2;7.5
"gros artist";0;0;1;21;0;0;1;21
"si vous plez";0;0;1;223;0;0;1;223
"matthew attard";0;0;4;9;0;0;3;9;0;0;1;9
"fabienne arietti";0;0;1;7;0;0;1;7
"benjamin carbonne";0;0;11;1;0;0;8;1;0;0;2;1;0;0;1;1
"herve di rosa";0;0;3;9.3333333333333;0;0;3;9.3333333333333
"gz store";0;0;2;5.5;0;0;2;5.5
"bruno mallart";0;0;3;7;0;0;3;7
"korosh ghazimorad";0;0;1;7;0;0;1;7
"jan saudek";0;0;2;42.5;0;0;2;42.5
"paul stolper gallery";0;0;1;24;0;0;1;24
"branding and logos";0;0;4;419.5;0;0;3;420;0;0;1;418
"zevs art";0;0;1;20;0;0;1;20
"duong le thai";0;0;1;1;0;0;1;1
"gerry cranham";0;0;2;5;0;0;2;5
"millésime gallery";0;0;1;5;0;0;1;5
"gijsbert hanekroot";0;0;1;1;0;0;1;1
"eric bourse";0;0;1;8;0;0;1;8
planeteserie;0;0;1;2;0;0;1;2
chanoir;0;0;1;8;0;0;1;8
"badri lomsianidze";0;0;2;8;0;0;2;8
"ren hang biography";0;0;1;3;0;0;1;3
"large format painting";0;0;1;9;0;0;1;9
"cool artwork for sale";0;0;2;47.5;0;0;2;47.5
"afsoon artist";0;0;1;2;0;0;1;2
"atelier morales";0;0;2;10;0;0;2;10
"kristina kostadinova";0;0;2;3;0;0;1;3;0;0;1;3
"les caprices de victoria";0;0;1;194;0;0;1;194
"jonny green artist";0;0;2;8;0;0;2;8
"el pradino";0;0;1;4;0;0;1;4
"griffin gallery";0;0;1;156;0;0;1;156
"baton de dynamite";0;0;1;10;0;0;1;10
"nieves mingueza";0;0;1;8;0;0;1;8
"anna borowy";0;0;1;25;0;0;1;25
"helmut newton veruschka";0;0;3;8;0;0;3;8
"fantastic flowers toy";0;0;1;137;0;0;1;137
"maurizio nannucci";0;0;1;37;0;0;1;37
"max charvolen";0;0;1;7;0;0;1;7
+al+held;0;0;1;110;0;0;1;110
"thomas jorion";0;0;1;6;0;0;1;6
"кристина костадинова";0;0;2;1;0;0;2;1
"david lachapelle helga lachapelle";0;0;2;9;0;0;2;9
"lin felton";0;0;1;1;0;0;1;1
"romain semeteys";0;0;1;3;0;0;1;3
"mail messager";0;0;1;116;0;0;1;116
"contemporary middle eastern art";0;0;2;397;0;0;2;397
misstic;0;0;1;8;0;0;1;8
"len jessome";0;0;2;4;0;0;2;4
"maurice renoma";0;0;1;2;0;0;1;2
"laurence dreyfus art advisor";0;0;1;8;0;0;1;8
"li weisi";0;0;1;11;0;0;1;11
pradino;0;0;1;4;0;0;1;4
"sex kitten";0;0;1;215;0;0;1;215
"chuck elliott";0;0;1;41;0;0;1;41
"ryan callanan";0;0;1;27;0;0;1;27
"jean claude deutsch";0;0;3;5;0;0;3;5
kalouf;0;0;1;10;0;0;1;10
"belgium artists";0;0;1;42;0;0;1;42
"françois houtin";0;0;3;7.6666666666667;0;0;2;11;0;0;1;1
"julian schnabel";0;0;1;330;0;0;1;330
"born wild";0;0;1;226;0;0;1;226
"françois bruetschy";0;0;2;7.5;0;0;2;7.5
"aris messinis photography";0;0;2;8;0;0;2;8
"blek le rat art";0;0;1;45;0;0;1;45
"lola cola";0;0;1;48;0;0;1;48
"georges braque";0;0;1;193;0;0;1;193
"top 10 graphic designers";0;0;2;435;0;0;2;435
"""musical circumstance""";0;0;1;28;0;0;1;28
"irina starkova";0;0;1;9;0;0;1;9
"monika nowak";0;0;1;12;0;0;1;12
"françoise pétrovitch";0;0;1;13;0;0;1;13
"armand israel";0;0;2;4;0;0;2;4
"francois bard paintings";0;0;2;6;0;0;2;6
banq;0;0;1;83;0;0;1;83
"carlotta bertelli";0;0;2;21.5;0;0;2;21.5
"palm springs paper";0;0;1;326;0;0;1;326
"chris morin";0;0;1;3;0;0;1;3
"francine van hove";0;0;5;18.2;0;0;3;20;0;0;2;15.5
onemizer;0;0;1;8;0;0;1;8
"henri lamy";0;0;3;6.3333333333333;0;0;1;6;0;0;1;5;0;0;1;8
"chu teh chun";0;0;1;40;0;0;1;40
"isabelle durand";0;0;1;28;0;0;1;28
"artist pez";0;0;1;29;0;0;1;29
"richard orlinski";0;0;1;18;0;0;1;18
"street art brainwash";0;0;1;10;0;0;1;10
"bruno catalano biography";0;0;2;6;0;0;2;6
"reynald drouhin";0;0;1;28;0;0;1;28
"tabish khan";0;0;1;22;0;0;1;22
"bernard buffet";0;0;2;28;0;0;2;28
"bambi artist";0;0;5;1.6;0;0;5;1.6
"artwork portraits";0;0;1;403;0;0;1;403
"corine pagny";0;0;5;5;0;0;3;5;0;0;2;5
"thierry alet";0;0;1;2;0;0;1;2
"benjamin spark";0;0;2;8.5;0;0;2;8.5
"pierre & gilles";0;0;2;24;0;0;1;26;0;0;1;22
"envie d'art";0;0;1;9;0;0;1;9
"lyle carbajal";0;0;1;9;0;0;1;9
"roberto battistini";0;0;2;1;0;0;2;1
madoner;0;0;1;242;0;0;1;242
"arnaud puig";0;0;2;5;0;0;2;5
"patrizio di renzo";0;0;4;22.75;0;0;3;22.666666666667;0;0;1;23
"laurent troude";0;0;1;7;0;0;1;7
"petra wunderlich";0;0;11;6.6363636363636;0;0;10;6.5;0;0;1;8
"jean marc dallanegra";0;0;1;5;0;0;1;5
"banksy diana ten pound note";0;0;1;25;0;0;1;25
hornsleth;0;0;2;132.5;0;0;2;132.5
"takashi murakami art for sale";0;0;3;4.6666666666667;0;0;1;4;0;0;2;5
"la butte";0;0;1;195;0;0;1;195
"herve telemaque";0;0;1;8;0;0;1;8
"yang yongliang";0;0;23;11;0;0;23;11
"chateau rothschild bordeaux";0;0;2;351;0;0;2;351
schoony;0;0;1;39;0;0;1;39
"jason keeley";0;0;2;26.5;0;0;2;26.5
"francois bard";0;0;5;7.2;0;0;3;7.3333333333333;0;0;1;7;0;0;1;7
"lamborghini fire extinguisher";0;0;1;38;0;0;1;38
"hervé télémaque";0;0;2;6;0;0;2;6
carlos+cruz-diez;0;0;1;103;0;0;1;103
"nathalie d'henaut";0;0;1;6;0;0;1;6
"philippe weisbecker";0;0;3;7.3333333333333;0;0;3;7.3333333333333
"fantasy art";0;0;1;180;0;0;1;180
"yago partal biography";0;0;1;9;0;0;1;9
"serie narcose";0;0;1;9;0;0;1;9
"frank de mulder artwork";0;0;1;2;0;0;1;2
"charlotte aleman";0;0;1;4;0;0;1;4
"gérard schlosser";0;0;1;9;0;0;1;9
"thierry dussac";0;0;7;8.4285714285714;0;0;3;8.6666666666667;0;0;4;8.25
"creutzberg van dun";0;0;1;5;0;0;1;5
"william eggleston artwork";0;0;1;7;0;0;1;7
"leila amat";0;0;2;8;0;0;2;8
"leobardo perez";0;0;1;2;0;0;1;2
"kenny scharf art for sale";0;0;1;9;0;0;1;9
"mr lolo";0;0;1;8;0;0;1;8
"kilmany-jo liversage";0;0;1;8;0;0;1;8
