chanoir;38;0.26760563380282;142;2.9718309859155;22;0.31884057971014;69;2.9130434782609;9;0.21428571428571;42;2.9761904761905;7;0.2258064516129;31;3.0967741935484
nojnoma;22;0.32835820895522;67;1.1940298507463;4;0.25;16;1.0625;16;0.3265306122449;49;1.2448979591837;2;1;2;1
"chanoir street art";16;0.19047619047619;84;2.8095238095238;2;0.090909090909091;22;2.7727272727273;8;0.19512195121951;41;2.8048780487805;6;0.28571428571429;21;2.8571428571429
jonone;13;0.044982698961938;289;4.4602076124567;10;0.086206896551724;116;3.9310344827586;3;0.020979020979021;143;4.7902097902098;0;0;30;4.9333333333333
artsper;12;0.094488188976378;127;1;7;0.093333333333333;75;1;4;0.13793103448276;29;1;1;0.043478260869565;23;1
"philippe berry";7;0.008;875;4.584;7;0.022082018927445;317;6.9621451104101;0;0;411;4.029197080292;0;0;147;1.0068027210884
"speedy graphito";6;0.020547945205479;292;5.7157534246575;3;0.017341040462428;173;5.2485549132948;1;0.011764705882353;85;6.4470588235294;2;0.058823529411765;34;6.2647058823529
"bernard pras";6;0.0625;96;4.2291666666667;6;0.082191780821918;73;3.972602739726;0;0;14;5.0714285714286;0;0;9;5
"bernard pras oeuvre";3;0.6;5;2.2;1;0.33333333333333;3;2.3333333333333;1;1;1;2;1;1;1;2
"jonone prix toile";3;0.375;8;1.375;3;0.42857142857143;7;1.4285714285714
combas;3;0.02803738317757;107;6.4392523364486;1;0.015151515151515;66;6.1969696969697;2;0.066666666666667;30;6.6;0;0;11;7.4545454545455
"carlo nason";3;0.27272727272727;11;9;1;0.5;2;9;1;0.5;2;9;1;0.14285714285714;7;9
"jerome mesnager";2;0.046511627906977;43;3.6279069767442;1;0.05;20;3.1;0;0;21;4.0952380952381;1;0.5;2;4
"vincent fillon";2;0.4;5;8.8;1;0.25;4;8;1;1;1;12
"jef aerosol";2;0.04;50;7.96;1;0.03030303030303;33;9.4545454545455;1;0.071428571428571;14;5.0714285714286;0;0;3;5
"bernard pras biographie";2;0.4;5;2.6;1;0.25;4;2.75;1;1;1;2
"olivier lelong";2;0.5;4;4.75;2;0.5;4;4.75
"césar baldaccini";2;0.11764705882353;17;6.2352941176471;1;0.071428571428571;14;6.0714285714286;0;0;1;7;1;0.5;2;7
"nathan chantob";2;0.14285714285714;14;2.9285714285714;1;0.16666666666667;6;3;0;0;6;2.8333333333333;1;0.5;2;3
"jm robert";2;0.2;10;2.7;0;0;1;3;0;0;6;2.3333333333333;2;0.66666666666667;3;3.3333333333333
"françois boisrond";2;0.2;10;4.7;2;0.25;8;4.375;0;0;1;7;0;0;1;5
"rafiy okefolahan";2;0.16666666666667;12;1;1;0.1;10;1;1;0.5;2;1
"herve lewis";2;0.25;8;3.875;2;0.5;4;2.75;0;0;4;5
"tom wesselmann";2;0.074074074074074;27;5.7777777777778;2;0.090909090909091;22;5.6818181818182;0;0;3;6.3333333333333;0;0;2;6
dysform;2;0.14285714285714;14;3;2;0.16666666666667;12;3;0;0;1;3;0;0;1;3
"combas robert";2;0.4;5;3.2;2;0.4;5;3.2
kyliss;2;0.4;5;2.6;1;0.33333333333333;3;2.3333333333333;1;0.5;2;3
"poes artiste";2;0.66666666666667;3;1;1;1;1;1;1;0.5;2;1
"nojnoma paris";2;0.5;4;2;2;0.5;4;2
levalet;2;0.16666666666667;12;6;1;0.125;8;6.5;1;0.25;4;5
"guy denning";2;0.15384615384615;13;4.4615384615385;1;0.2;5;4.4;0;0;3;4;1;0.2;5;4.8
"annette messager";2;0.033898305084746;59;9.5254237288136;0;0;34;9.2941176470588;1;0.058823529411765;17;9.6470588235294;1;0.125;8;10.25
"pierre fava";2;0.22222222222222;9;3.3333333333333;1;1;1;3;1;0.16666666666667;6;3.5;0;0;2;3
"françois bard";2;0.18181818181818;11;1.9090909090909;1;0.33333333333333;3;2;1;0.2;5;2
gzstore;2;0.66666666666667;3;4.3333333333333;1;0.5;2;5;1;1;1;3
"david mesguich";1;0.16666666666667;6;10;0;0;2;10;1;0.33333333333333;3;10;0;0;1;10
"vuk vidor";1;0.33333333333333;3;1;1;0.33333333333333;3;1
"armand scholtès";1;0.5;2;4;0;0;1;4;1;1;1;4
"john isaac artist";1;0.5;2;5;1;0.5;2;5
capton;1;0.083333333333333;12;3.25;0;0;6;3;0;0;3;3.3333333333333;1;0.33333333333333;3;3.6666666666667
"pierre riba";1;0.2;5;3.2;1;0.33333333333333;3;3.3333333333333;0;0;2;3
orlinski;1;0.038461538461538;26;9.3846153846154;1;0.0625;16;9.75;0;0;1;9
"tao zuo";1;1;1;1;1;1;1;1
"costa artiste";1;0.2;5;3.6;1;0.5;2;3;0;0;3;4
"di rosa";1;0.038461538461538;26;3.5769230769231;1;0.090909090909091;11;3;0;0;12;4;0;0;3;4
klasen;1;0.2;5;2.8;1;0.33333333333333;3;2;0;0;2;4
"guy boyer peintre";1;1;1;1;1;1;1;1
"jm robert prix";1;0.33333333333333;3;1;1;1;1;1;0;0;2;1
"jonone artiste";1;0.5;2;2;1;0.5;2;2
"jacques trovic";1;0.14285714285714;7;7.5714285714286;1;0.16666666666667;6;7.5;0;0;1;8
"nikolas fouré";1;1;1;3;1;1;1;3
"la fratrie artiste";1;1;1;3;1;1;1;3
"fullsizerender c'est quoi";1;0.16666666666667;6;3.6666666666667;1;0.25;4;3;0;0;2;5
"peter klasen";1;0.043478260869565;23;3.4347826086957;1;0.071428571428571;14;3.0714285714286;0;0;5;4;0;0;4;4
"billet bansky";1;1;1;1;1;1;1;1
"hank china";1;0.5;2;7;1;0.5;2;7
"sébastien layral";1;0.5;2;4;1;0.5;2;4
"ramzi adek";1;0.25;4;5.25;1;0.5;2;5;0;0;1;5;0;0;1;6
"sandro giordano";1;0.058823529411765;17;6.8823529411765;1;0.1;10;7;0;0;7;6.7142857142857
"aki kuroda";1;0.14285714285714;7;2.2857142857143;1;0.33333333333333;3;4;0;0;2;1;0;0;2;1
"david david artiste";1;0.14285714285714;7;6;1;0.14285714285714;7;6
mygalo;1;0.2;5;3;1;0.5;2;3.5;0;0;3;2.6666666666667
"dan 23";1;0.33333333333333;3;8;1;0.33333333333333;3;8
"stephanie slama";1;1;1;6;1;1;1;6
"bard artiste peintre";1;1;1;1;1;1;1;1
"jean dubuffet biographie";1;0.2;5;4;1;0.2;5;4
"jean dubuffet peintre";1;0.5;2;3.5;1;1;1;3;0;0;1;4
"antoine de laboulaye";1;1;1;5;1;1;1;5
"did dontzoff";1;0.33333333333333;3;5.3333333333333;1;1;1;4;0;0;2;6
brodlim;1;0.2;5;4;1;0.2;5;4
rancinan;1;0.125;8;6.375;1;0.25;4;6;0;0;4;6.75
"jonone peintre";1;0.2;5;1.8;1;0.33333333333333;3;1
"peintre gabriel";1;1;1;10;1;1;1;10
"guyomard sylvie facebook";1;0.33333333333333;3;7;1;0.33333333333333;3;7
"benjamin spark";1;0.14285714285714;7;6;1;0.5;2;6;0;0;2;6;0;0;3;6
iglesis;1;0.5;2;4;1;1;1;4;0;0;1;4
"ayse kucuk";1;1;1;2;1;1;1;2
"mahjoub ben bella";1;0.25;4;2.5;1;0.33333333333333;3;2.6666666666667;0;0;1;2
"jonas sun7";1;0.25;4;2;1;0.25;4;2
"peter hoffer";1;0.33333333333333;3;5;0;0;1;5;1;0.5;2;5
"christophe catelain";1;0.33333333333333;3;1.6666666666667;1;0.33333333333333;3;1.6666666666667
flipo;1;0.1;10;7.1;1;0.33333333333333;3;6;0;0;7;7.5714285714286
"nicolas dubreuille";1;1;1;2;1;1;1;2
"bernard langenstein";1;1;1;5;1;1;1;5
"willy ronis oeuvres";1;1;1;7;1;1;1;7
"hervé di rosa";1;0.032258064516129;31;3.2258064516129;1;0.055555555555556;18;3;0;0;13;3.5384615384615
ecloz;1;0.5;2;5;1;1;1;5;0;0;1;5
"philippe bonan";1;0.25;4;5;0;0;1;5;1;0.33333333333333;3;5
"patrick villas";1;1;1;4;1;1;1;4
"romain saintonge";1;0.25;4;4;1;0.25;4;4
duytter;1;0.33333333333333;3;1;1;0.33333333333333;3;1
"juliette clovis";1;0.25;4;1;0;0;1;1;1;0.5;2;1
"gerard escougnou";1;0.11111111111111;9;7;1;0.5;2;7;0;0;5;7;0;0;2;7
"virginie soubeiroux";1;1;1;1;1;1;1;1
"frederic deprun";1;0.125;8;5;1;0.14285714285714;7;5;0;0;1;5
"charles fazzino";1;0.090909090909091;11;6.2727272727273;0;0;2;3.5;1;0.11111111111111;9;6.8888888888889
"mimi the clown";1;0.5;2;10;0;0;1;10;1;1;1;10
"speedy graphito cote prix";1;1;1;4;1;1;1;4
"annette messager oeuvre";1;0.5;2;7;1;0.5;2;7
"victor richardson";1;0.25;4;9;1;0.25;4;9
"kuroda aki";1;0.33333333333333;3;6.6666666666667;1;0.33333333333333;3;6.6666666666667
"yoann merienne peintre";1;1;1;3;1;1;1;3
"francois mendras";1;1;1;7;1;1;1;7
"cecile desserle";1;0.11111111111111;9;5;1;0.14285714285714;7;5;0;0;2;5
"nils udo biographie";1;0.25;4;2;1;0.25;4;2
"hiro ando";1;0.125;8;1;1;0.33333333333333;3;1;0;0;5;1
"artiste peintre en vogue";1;1;1;3;1;1;1;3
"bruno catalano biographie";1;0.25;4;5;1;0.25;4;5
"jean pierre nadau";1;1;1;1;1;1;1;1
"basquiat skull";1;0.5;2;3;1;0.5;2;3
"philippe pasqua";1;0.16666666666667;6;6.1666666666667;1;0.16666666666667;6;6.1666666666667
"menjinski artiste";1;0.16666666666667;6;2;1;0.2;5;2;0;0;1;2
"karl lagasse";1;0.16666666666667;6;4;1;0.5;2;4;0;0;4;4
"sun hyuk kim";1;0.25;4;6.75;1;0.25;4;6.75
"bossard peintre";1;1;1;4;1;1;1;4
nudes;1;1;1;96;1;1;1;96
"tilt graffiti";1;0.083333333333333;12;9.8333333333333;1;0.14285714285714;7;9.7142857142857;0;0;4;10;0;0;1;10
"isabelle vayron";1;0.5;2;4;1;0.5;2;4
"ron english mcdonalds";1;0.5;2;8;1;0.5;2;8
pookky;1;1;1;1;1;1;1;1
"prix sculpture catalano";1;0.5;2;4;1;0.5;2;4
"triptyque skate";1;1;1;4;1;1;1;4
"cha noir";1;0.25;4;2.5;1;0.25;4;2.5
"claire trotignon";1;0.1;10;5.1;1;0.14285714285714;7;5.1428571428571;0;0;3;5
"jerome menager";1;1;1;7;1;1;1;7
"cali rezo";1;0.2;5;9.8;1;0.5;2;10;0;0;1;10
krm;1;0.066666666666667;15;3.7333333333333;1;0.1;10;3.9;0;0;4;3.5
"annina roescheisen art";1;0.5;2;9;1;0.5;2;9
sgarra;1;0.11111111111111;9;4;1;0.125;8;4;0;0;1;4
"sebastien bayet";1;0.25;4;1;1;0.33333333333333;3;1
"mr le chat";1;1;1;7;1;1;1;7
"tony soulie";1;0.2;5;3.6;1;0.5;2;3;0;0;3;4
"capton peintre";1;0.33333333333333;3;5.3333333333333;1;0.5;2;5;0;0;1;6
"yann houri";1;0.14285714285714;7;2.1428571428571;1;1;1;1;0;0;4;2;0;0;2;3
"renaud delorme";1;0.2;5;2.8;0;0;3;2;0;0;1;6;1;1;1;2
"cortade art";1;0.2;5;5;1;0.33333333333333;3;4.6666666666667;0;0;2;5.5
"jean jacques surian";1;1;1;4;1;1;1;4
aboudia;1;0.0625;16;4.0625;1;1;1;5;0;0;15;4
jazzu;1;0.5;2;9.5;0;0;1;10;1;1;1;9
"di rosa sete";1;0.16666666666667;6;3.5;1;1;1;2;0;0;4;4.25;0;0;1;2
"julien airault";1;0.2;5;5.4;1;0.25;4;5;0;0;1;7
"anne catherine becker echivard";1;0.25;4;7;1;0.33333333333333;3;7
"jessica leguillon";1;1;1;2;1;1;1;2
"feng hatat";1;0.33333333333333;3;4.3333333333333;1;0.33333333333333;3;4.3333333333333
"philippe heurtaux";1;0.33333333333333;3;2;1;0.33333333333333;3;2
"bruno catalano prix";1;0.16666666666667;6;7;1;0.33333333333333;3;6.6666666666667;0;0;3;7.3333333333333
"eric brugier";1;1;1;7;1;1;1;7
"galerie cédric bacqueville";1;0.33333333333333;3;3.6666666666667;1;0.33333333333333;3;3.6666666666667
"francoise petrovitch";1;0.5;2;6.5;1;1;1;6;0;0;1;7
"didier triglia";1;0.066666666666667;15;4.9333333333333;1;0.125;8;4.5;0;0;4;5.25;0;0;3;5.6666666666667
"galerie d'art";1;0.033333333333333;30;7.7;1;0.045454545454545;22;8.1363636363636;0;0;5;7.4;0;0;3;5
"nicolas hugo";1;0.2;5;5;1;1;1;5;0;0;3;5
"miss tic";1;0.0066225165562914;151;5.4172185430464;1;0.0084745762711864;118;5.0423728813559;0;0;28;6.8214285714286;0;0;5;6.4
"speedy graphito prix";1;0.1;10;1.7;1;0.14285714285714;7;1.8571428571429;0;0;3;1.3333333333333
"murielle vanhove";1;0.066666666666667;15;4.7333333333333;0;0;7;5;0;0;2;4.5;1;0.16666666666667;6;4.5
"anthony knapik-bridenne";1;1;1;4;1;1;1;4
"artistes américains contemporains";1;1;1;14;1;1;1;14
"pascal frament";1;0.5;2;4;1;0.5;2;4
smash137;1;1;1;9;1;1;1;9
"dumont marcel";1;1;1;5;1;1;1;5
layral;1;0.2;5;4.4;1;0.5;2;4;0;0;2;5;0;0;1;4
"stephane ducatteau";1;0.25;4;8.25;1;1;1;6;0;0;3;9
"julien durix";1;0.090909090909091;11;5.0909090909091;0;0;5;8.4;1;0.33333333333333;3;3.6666666666667
"art contemporain galerie";1;0.5;2;3;1;0.5;2;3
"sebastien layral";1;0.14285714285714;7;4.1428571428571;1;0.14285714285714;7;4.1428571428571
"oeuvres de bernard buffet";1;1;1;3;1;1;1;3
"hervé lewis";1;0.14285714285714;7;3.2857142857143;1;0.33333333333333;3;1.3333333333333;0;0;4;4.75
"thomas verny peintre";1;0.5;2;1.5;1;1;1;1;0;0;1;2
"roberto greco";1;1;1;11;1;1;1;11
"chantal porras";1;0.33333333333333;3;1.3333333333333;1;0.5;2;1;0;0;1;2
"milo peintre";1;0.5;2;5;1;1;1;5;0;0;1;5
maxanart;1;1;1;4;1;1;1;4
"philippe huart";1;0.33333333333333;3;3.6666666666667;0;0;1;3;1;0.5;2;4
"vincent richeux";1;0.16666666666667;6;6;1;0.2;5;6;0;0;1;6
"full size render c'est quoi";1;1;1;1;1;1;1;1
"etiye dimma poulsen";1;0.33333333333333;3;4;1;0.33333333333333;3;4
"jerome mesnager street art";1;1;1;3;1;1;1;3
"artiste peintre strasbourg";1;1;1;180;1;1;1;180
"karl lagasse prix";1;1;1;1;1;1;1;1
"dominique grisor";1;1;1;1;1;1;1;1
"liu bolin biographie";1;1;1;2;1;1;1;2
mondapart;1;1;1;7;1;1;1;7
"galerie d'art contemporain";1;0.2;5;4;1;0.33333333333333;3;4;0;0;2;4
"patrick delaunay";1;0.2;5;3.2;1;0.2;5;3.2
"octave pixel";1;0.33333333333333;3;5;1;0.33333333333333;3;5
"alain vaissiere";1;0.5;2;4;1;0.5;2;4
"cesar sculpteur";1;0.052631578947368;19;10.631578947368;0;0;5;10.8;1;0.11111111111111;9;10.888888888889
"artiste contemporain en vogue";1;1;1;2;1;1;1;2
"hugo laruelle";1;0.25;4;5;0;0;2;5;1;1;1;5;0;0;1;5
"jean dubuffet œuvres d'art";1;0.11111111111111;9;5.3333333333333;0;0;6;5;1;0.5;2;6;0;0;1;6
"france bruno catalano";1;0.14285714285714;7;4.1428571428571;0;0;4;3.25;1;0.5;2;4;0;0;1;8
"aillaud peintre";1;1;1;10;1;1;1;10
"combas peintre";1;0.071428571428571;14;4.3571428571429;0;0;3;4.6666666666667;0;0;9;4.1111111111111;1;0.5;2;5
"banksy oeuvre";1;0.076923076923077;13;9.1538461538462;1;0.1;10;8.9;0;0;1;10;0;0;2;10
"patrick naggar";1;0.14285714285714;7;5.5714285714286;0;0;1;5;1;0.16666666666667;6;5.6666666666667
"elsa guillaume";1;0.090909090909091;11;7.9090909090909;1;0.1;10;8.1;0;0;1;6
"lucien ghomri";1;1;1;4;1;1;1;4
"christophe charbonnel prix";1;1;1;1;1;1;1;1
"oeuvre geometrique";1;1;1;8;1;1;1;8
"serge roux";1;1;1;18;1;1;1;18
"klasen peintre";1;0.5;2;3;1;0.5;2;3
"theo haggai";1;0.083333333333333;12;1;0;0;4;1;1;0.125;8;1
www.artsper.com;1;1;1;1;1;1;1;1
chantob;1;1;1;2;1;1;1;2
"herve di rosa artiste peintre";1;0.33333333333333;3;2;1;0.5;2;2;0;0;1;2
"street art jonone";1;0.33333333333333;3;3;0;0;1;3;0;0;1;3;1;1;1;3
"kai schäfer";1;1;1;3;1;1;1;3
"pierre francois grimaldi";1;0.071428571428571;14;2.9285714285714;0;0;6;2;0;0;7;3.7142857142857;1;1;1;3
"florent chopin";1;0.5;2;4;0;0;1;3;1;1;1;5
"bob verschueren";1;0.14285714285714;7;5.1428571428571;1;0.16666666666667;6;5.1666666666667;0;0;1;5
"awena cozannet";1;0.5;2;6;1;0.5;2;6
"john matos crash";1;0.090909090909091;11;2.0909090909091;1;0.2;5;2;0;0;5;2;0;0;1;3
"jonone prix";1;0.14285714285714;7;1.1428571428571;1;0.14285714285714;7;1.1428571428571
"christine barres";1;0.2;5;3.4;1;0.5;2;4;0;0;3;3
"bahareh navabi";1;1;1;4;1;1;1;4
"annette messager oeuvres";1;0.33333333333333;3;7;1;1;1;7;0;0;1;7
"kool koor";1;0.0625;16;2.8125;0;0;13;2.8461538461538;1;1;1;1;0;0;2;3.5
"sergio ferro";1;0.2;5;2;1;0.2;5;2
"britto artiste";1;1;1;4;1;1;1;4
"anne decup";1;0.5;2;2;1;0.5;2;2
"investir dans l'art";1;0.33333333333333;3;8.6666666666667;0;0;1;9;0;0;1;8;1;1;1;9
"charlelie couture peinture";1;1;1;2;1;1;1;2
"clarisse rebotier";1;0.5;2;3.5;1;1;1;3;0;0;1;4
"art vente";0;0;1;1;0;0;1;1
"nani champy schott";0;0;2;3;0;0;2;3
"verney carron";0;0;3;55.666666666667;0;0;3;55.666666666667
"ou est ma part";0;0;4;8.5;0;0;1;10;0;0;3;8
"stephane joannes";0;0;1;2;0;0;1;2
"tete de guerrier";0;0;1;2;0;0;1;2
"francois lefranc";0;0;1;11;0;0;1;11
"robert barry";0;0;4;5;0;0;2;4;0;0;2;6
"patrick marin";0;0;2;8;0;0;2;8
"rêve - ville reims";0;0;1;10;0;0;1;10
piwowarczyk;0;0;1;6;0;0;1;6
"mel ramos";0;0;3;5.3333333333333;0;0;2;5;0;0;1;6
shup;0;0;3;5.6666666666667;0;0;1;5;0;0;2;6
"galerie dx";0;0;7;3.7142857142857;0;0;6;3.5;0;0;1;5
"art kongo";0;0;1;24;0;0;1;24
"zed artiste";0;0;1;3;0;0;1;3
"natalia rak";0;0;6;5;0;0;4;5;0;0;1;5;0;0;1;5
"alfredo lopez";0;0;1;6;0;0;1;6
"galerie numero 1";0;0;1;4;0;0;1;4
dollarblue;0;0;1;6;0;0;1;6
"koons balloon dog plate";0;0;1;14;0;0;1;14
"achat oeuvre d'art";0;0;3;1;0;0;2;1;0;0;1;1
"stephane gautier";0;0;7;4.7142857142857;0;0;1;4;0;0;5;5;0;0;1;4
"olivier leroy photographe";0;0;1;7;0;0;1;7
"christophe ronel";0;0;4;10.5;0;0;4;10.5
"liu xiaofang";0;0;1;7;0;0;1;7
"galerie photo 12";0;0;1;8;0;0;1;8
"carl andré oeuvres";0;0;2;4;0;0;1;5;0;0;1;3
planquart;0;0;1;12;0;0;1;12
"beatrice terra";0;0;4;1;0;0;2;1;0;0;1;1;0;0;1;1
"jock sturges";0;0;4;18.5;0;0;4;18.5
"lucile callegari";0;0;7;4;0;0;6;4;0;0;1;4
"nuances et lumiere";0;0;3;2.3333333333333;0;0;2;2;0;0;1;3
"erwann tirilly";0;0;3;7.3333333333333;0;0;1;4;0;0;2;9
"viva di rosa";0;0;3;2.3333333333333;0;0;3;2.3333333333333
"jolie fille x";0;0;1;32;0;0;1;32
"herve telemaque";0;0;2;5;0;0;2;5
"raisons pour investir";0;0;2;83;0;0;2;83
brugier;0;0;1;9;0;0;1;9
"art diffusion";0;0;4;13;0;0;3;13.666666666667;0;0;1;11
"galerie de nue";0;0;1;18;0;0;1;18
"galerie duret";0;0;1;5;0;0;1;5
"urbain hiroshima central";0;0;1;183;0;0;1;183
"de gottal";0;0;1;3;0;0;1;3
"hotel de flore meurthe et moselle";0;0;1;196;0;0;1;196
danze;0;0;3;10.666666666667;0;0;1;9;0;0;2;11.5
"calambrone italie";0;0;1;4;0;0;1;4
"banksy billet";0;0;1;2;0;0;1;2
"tal coat artist";0;0;1;9;0;0;1;9
"galerie rx";0;0;1;7;0;0;1;7
"ernest pignon ernest biographie";0;0;4;9.75;0;0;4;9.75
"galerie bayart";0;0;2;4;0;0;1;5;0;0;1;3
"photographie d'art en ligne";0;0;2;2;0;0;1;2;0;0;1;2
besher;0;0;4;5.5;0;0;4;5.5
"jean-pierre nadau";0;0;5;1;0;0;5;1
"vente art contemporain";0;0;5;1;0;0;5;1
"oeuvre de joan miro";0;0;8;3.75;0;0;5;5.4;0;0;2;1;0;0;1;1
"toxic graffiti";0;0;3;5.6666666666667;0;0;3;5.6666666666667
"vente collioure le seris 2002";0;0;1;34;0;0;1;34
"marie piselli";0;0;1;5;0;0;1;5
"nathalie deshairs";0;0;1;3;0;0;1;3
"galerie contemporain";0;0;1;6;0;0;1;6
"oeuvres max ernst";0;0;2;7;0;0;2;7
"hains raymond";0;0;1;8;0;0;1;8
"anne haugmard";0;0;1;24;0;0;1;24
"murielle belin";0;0;3;10;0;0;3;10
"galerie joel knafo";0;0;3;4;0;0;2;3;0;0;1;6
"isabelle bonzom";0;0;1;2;0;0;1;2
"tanc artiste";0;0;1;5;0;0;1;5
"lauryn hill morte";0;0;1;23;0;0;1;23
"peintre combas";0;0;2;4.5;0;0;1;5;0;0;1;4
"emmanuel pons";0;0;3;7;0;0;3;7
"claude deutsch";0;0;1;8;0;0;1;8
"galerie brugier rigail";0;0;13;7.2307692307692;0;0;9;6.8888888888889;0;0;4;8
"guillaume neron bancel";0;0;1;64
"richard orlinski prix";0;0;3;16.333333333333;0;0;2;16.5;0;0;1;16
"michel le belhomme";0;0;13;5.3076923076923;0;0;6;4.8333333333333;0;0;7;5.7142857142857
lussigny;0;0;4;3.25;0;0;3;3;0;0;1;4
"jr oeuvre";0;0;1;6;0;0;1;6
"oeuvres banksy";0;0;2;9;0;0;2;9
"keith haring oeuvres";0;0;33;8.6363636363636;0;0;17;8.1764705882353;0;0;9;9.2222222222222;0;0;7;9
matryochka;0;0;2;5.5;0;0;1;5;0;0;1;6
"françoise danel peintre";0;0;1;3;0;0;1;3
"les renés dessin animé";0;0;5;8;0;0;3;8;0;0;2;8
"dubuffet peinture";0;0;1;6;0;0;1;6
"nurcan giz";0;0;1;4;0;0;1;4
"golf sperone corse";0;0;1;312;0;0;1;312
"karl andre";0;0;3;7;0;0;2;7;0;0;1;7
"yutao ge";0;0;1;10;0;0;1;10
litao;0;0;1;9;0;0;1;9
"sylvie fleury biographie";0;0;1;3;0;0;1;3
guayasamin;0;0;1;11;0;0;1;11
"vente sculpture contemporaine";0;0;1;1;0;0;1;1
"julien cresp";0;0;2;6;0;0;2;6
"play doh art";0;0;1;9;0;0;1;9
zalez;0;0;3;5.6666666666667;0;0;2;6;0;0;1;5
"vente art en ligne";0;0;5;1;0;0;5;1
"taylor young";0;0;1;37;0;0;1;37
"jerome btesh";0;0;1;4;0;0;1;4
"alistair taylor young";0;0;1;1;0;0;1;1
"oeuvres de ben";0;0;1;3;0;0;1;3
"art pussy";0;0;1;17;0;0;1;17
vuk;0;0;1;12;0;0;1;12
"lorioz peintre prix";0;0;1;10;0;0;1;10
"erró oeuvres";0;0;2;10
"sylvie fleury oeuvres";0;0;2;4;0;0;1;4;0;0;1;4
"gille aillaud";0;0;7;5.5714285714286;0;0;4;5.75;0;0;3;5.3333333333333
"lampe verre de murano";0;0;1;18;0;0;1;18
fubiz;0;0;5;19.2;0;0;5;19.2
"bernard prass";0;0;2;3.5;0;0;2;3.5
"francois melloul";0;0;4;15;0;0;4;15
"oeuvres art contemporain";0;0;4;1;0;0;3;1;0;0;1;1
frairot;0;0;1;3;0;0;1;3
"gautier stephane";0;0;1;8;0;0;1;8
"obey artiste";0;0;1;2;0;0;1;2
"marion colomer";0;0;1;2;0;0;1;2
"vincent corpet";0;0;14;6.4285714285714;0;0;8;5.25;0;0;4;8;0;0;2;8
"benjamin vautier biographie";0;0;1;10;0;0;1;10
"banksy billet de banque";0;0;1;3;0;0;1;3
isodora;0;0;1;23;0;0;1;23
"sculpture d'art contemporain";0;0;1;2;0;0;1;2
"oeuvre miro";0;0;4;11;0;0;4;11
"gautier deblonde";0;0;1;2;0;0;1;2
"james mackeown";0;0;6;5;0;0;3;5
"rudi pillen";0;0;1;1
"joel barbiero artiste peintre";0;0;1;9;0;0;1;9
oehm;0;0;2;4;0;0;2;4
"ox artiste";0;0;1;7
"composition in blue";0;0;2;11;0;0;1;11;0;0;1;11
"kamasutra 2";0;0;1;13;0;0;1;13
"perrier affiche";0;0;1;26
dirosa;0;0;4;5.5;0;0;1;6
"tony ellwood";0;0;1;5;0;0;1;5
"patricia kinard peintre";0;0;1;5;0;0;1;5
"jacques lacroix";0;0;2;8
"leon guillemin";0;0;2;7;0;0;2;7
telemaque;0;0;1;46;0;0;1;46
"peinture buffet";0;0;2;10
desserle;0;0;1;3
"fetish pied";0;0;1;23
"stephanie nava";0;0;3;3
"street art france";0;0;1;64
bonan;0;0;1;39;0;0;1;39
"pauline dufour";0;0;2;6;0;0;1;6
belie;0;0;1;12
"laure andré";0;0;4;7;0;0;3;7.3333333333333;0;0;1;6
"envie d'art";0;0;15;2.6;0;0;5;2.6;0;0;6;2.5;0;0;4;2.75
"acheter christina aguilera";0;0;1;52
"oleg dou";0;0;9;7
"monica bellucci x";0;0;1;10;0;0;1;10
"eric deville";0;0;1;6;0;0;1;6
"monsieur le chat";0;0;5;7.8;0;0;1;7;0;0;1;8
"cedrix crespel";0;0;4;4;0;0;2;4;0;0;2;4
"mb factory";0;0;3;8.3333333333333;0;0;3;8.3333333333333
"le vrai nom du peintre français speedy graphito";0;0;1;7;0;0;1;7
"jean dubuffet oeuvre";0;0;2;5;0;0;2;5
saudek;0;0;4;9.5;0;0;1;11
"irina ionesco photo";0;0;1;38
"adrian buba";0;0;1;8;0;0;1;8
"art sculpture";0;0;1;33;0;0;1;33
"achat sculpture";0;0;2;1;0;0;2;1
"coq multicolore";0;0;1;6;0;0;1;6
"galerie d'art en ligne";0;0;15;1;0;0;11;1;0;0;3;1;0;0;1;1
d’oeuvres;0;0;1;28;0;0;1;28
"gérard rancinan photos";0;0;2;7.5;0;0;2;7.5
"gallerie nue";0;0;1;5;0;0;1;5
"huart philippe";0;0;2;4.5;0;0;1;5;0;0;1;4
"artiste jr";0;0;1;1;0;0;1;1
"dali oeuvres";0;0;1;12;0;0;1;12
"canapé jaune";0;0;1;32;0;0;1;32
"yo marchand";0;0;1;4;0;0;1;4
"art sur internet";0;0;1;1;0;0;1;1
"art du bondage";0;0;1;37;0;0;1;37
"sophie lanoe";0;0;8;5.875;0;0;8;5.875
"spark benjamin";0;0;3;6;0;0;1;6;0;0;2;6
"sculpteur japonais contemporain";0;0;1;9;0;0;1;9
"site d'art en ligne";0;0;1;1;0;0;1;1
"michel gueranger";0;0;3;3.6666666666667;0;0;3;3.6666666666667
"oeuvre d'art moderne";0;0;6;1.5;0;0;6;1.5
"oeuvres de dubuffet";0;0;2;5.5;0;0;1;5;0;0;1;6
"dark vador artwork";0;0;2;5;0;0;2;5
"gregoire dalle";0;0;1;7;0;0;1;7
"kristin hjellegjerde gallery";0;0;1;3;0;0;1;3
"peintre rosa";0;0;2;9;0;0;2;9
"antoine geiger";0;0;1;4;0;0;1;4
"dubuffet oeuvres";0;0;5;4;0;0;5;4
"raison d'art";0;0;1;6;0;0;1;6
"""maria kupfer""";0;0;1;1;0;0;1;1
"galerie beaubourg";0;0;1;7;0;0;1;7
"jean charles millepied";0;0;2;4;0;0;2;4
"gérard schlosser";0;0;12;4.75;0;0;9;4.6666666666667;0;0;3;5
"herve all";0;0;2;5.5;0;0;1;5;0;0;1;6
"antoine correia";0;0;1;4;0;0;1;4
"galeries d'art";0;0;3;5.6666666666667;0;0;3;5.6666666666667
"bernard chauveau";0;0;2;8.5;0;0;1;9;0;0;1;8
"germain plouvier";0;0;3;4;0;0;2;4;0;0;1;4
"nicolas nicolini";0;0;1;5;0;0;1;5
"peinture dark vador";0;0;1;6;0;0;1;6
"adela burdujanu";0;0;2;5;0;0;1;5;0;0;1;5
poes;0;0;8;3;0;0;4;3;0;0;2;3;0;0;2;3
"clément cogitore";0;0;3;23;0;0;3;23
"marc figueras";0;0;1;7;0;0;1;7
"tony soulie artist";0;0;1;5;0;0;1;5
"stephane pencreach";0;0;1;7;0;0;1;7
"sandy skoglund";0;0;8;7.125;0;0;7;7;0;0;1;8
"danseuse thai";0;0;1;6;0;0;1;6
"helion peintre";0;0;4;10;0;0;4;10
"peinture monochrome noir";0;0;2;7;0;0;2;7
"miss tish";0;0;2;6;0;0;2;6
"photo d'art contemporain";0;0;4;2;0;0;3;2;0;0;1;2
pras;0;0;1;20;0;0;1;20
"herve di rosa";0;0;5;4;0;0;2;3;0;0;1;4;0;0;2;5
mitrofanoff;0;0;5;8.4;0;0;4;8.5;0;0;1;8
"expo lyon street art";0;0;1;86;0;0;1;86
"arnaud paillard";0;0;1;4;0;0;1;4
"george platt lynes";0;0;5;9.8;0;0;2;9.5;0;0;2;10;0;0;1;10
"thomas labarthe";0;0;2;4.5;0;0;1;5;0;0;1;4
"peter keizer";0;0;1;3;0;0;1;3
l'unijambiste;0;0;1;39;0;0;1;39
"philippe berry sculpteur";0;0;14;5.7142857142857;0;0;6;10.333333333333;0;0;6;2.6666666666667;0;0;2;1
"gérard nicollet";0;0;2;4;0;0;2;4
"petit bonhomme blanc";0;0;7;9;0;0;7;9
morisse;0;0;1;10;0;0;1;10
athur;0;0;2;10.5;0;0;1;11;0;0;1;10
"portrait oeuvre d'art";0;0;2;9;0;0;1;9;0;0;1;9
"aurélie poinat";0;0;1;5;0;0;1;5
"schwartz livraison";0;0;1;36;0;0;1;36
"laurence nicola";0;0;1;3;0;0;1;3
arsper;0;0;2;1;0;0;2;1
"roland cat wikipedia";0;0;1;1;0;0;1;1
"de fenoyl pierre";0;0;2;10;0;0;2;10
"galerie loft";0;0;1;7;0;0;1;7
"jianguo beijing";0;0;1;183;0;0;1;183
lachize;0;0;1;6;0;0;1;6
begarat;0;0;1;4;0;0;1;4
"philippe buil";0;0;3;3;0;0;3;3
"galerie w";0;0;32;5.5;0;0;12;4.8333333333333;0;0;15;5.8666666666667;0;0;5;6
"olivia clavel";0;0;4;5.25;0;0;4;5.25
"françois morellet";0;0;25;9.2;0;0;16;8.8125;0;0;7;10;0;0;2;9.5
"duong le thai";0;0;4;7.75;0;0;1;6;0;0;3;8.3333333333333
"fanny dubois";0;0;4;8;0;0;3;8;0;0;1;8
ciborium;0;0;1;37;0;0;1;37
"cornette de saint cyr";0;0;3;28;0;0;2;29.5;0;0;1;25
"totem art contemporain";0;0;1;10;0;0;1;10
"charles guyot";0;0;1;1;0;0;1;1
"chacun son chemin";0;0;1;47;0;0;1;47
oxana;0;0;1;17;0;0;1;17
"durix julien";0;0;1;1;0;0;1;1
"carl andre";0;0;12;6.5833333333333;0;0;10;6.5;0;0;1;7;0;0;1;7
"easy sacha";0;0;4;10;0;0;2;10;0;0;2;10
"pasqua philippe";0;0;2;4;0;0;2;4
"chamizo prix";0;0;5;5.6;0;0;4;5.5;0;0;1;6
"julien raynaud";0;0;6;4;0;0;5;4;0;0;1;4
"zenoy graffiti";0;0;2;3;0;0;2;3
"francois bard";0;0;14;2.2142857142857;0;0;5;1.6;0;0;6;2;0;0;3;3.6666666666667
"jean michel basquiat";0;0;2;15;0;0;2;15
"kusama oeuvres";0;0;6;8.8333333333333;0;0;3;9;0;0;3;8.6666666666667
"hermann nitsch oeuvres";0;0;1;4;0;0;1;4
"raynaud artiste peintre";0;0;1;2;0;0;1;2
"edmée delsol";0;0;2;5;0;0;1;5;0;0;1;5
"dita von teese";0;0;1;154;0;0;1;154
"lisa sartorio";0;0;1;6;0;0;1;6
"flexo zed";0;0;1;9;0;0;1;9
"sam phillips";0;0;1;10;0;0;1;10
"oeuvre de cesar";0;0;2;6.5;0;0;1;7;0;0;1;6
"armand artiste contemporain";0;0;1;5;0;0;1;5
"atila biro";0;0;1;6;0;0;1;6
"vente en ligne d'art";0;0;1;1;0;0;1;1
"oeuvre de banksy";0;0;19;9.4736842105263;0;0;12;9.1666666666667;0;0;3;10;0;0;4;10
"vincent ruffin";0;0;1;5;0;0;1;5
"alain clément";0;0;5;4.8;0;0;2;4.5;0;0;2;5;0;0;1;5
"collectionner l'art contemporain";0;0;1;47;0;0;1;47
taki183;0;0;2;8;0;0;2;8
"biographie de jean dubuffet";0;0;2;5;0;0;2;5
"michel le belhomme photographe";0;0;1;3;0;0;1;3
"stephanie jeannet";0;0;1;1;0;0;1;1
"marie maertens";0;0;1;9;0;0;1;9
"miro sculpteur";0;0;1;43;0;0;1;43
"jon one";0;0;9;4.8888888888889;0;0;4;4.25;0;0;5;5.4
"michou saint tropez";0;0;1;9;0;0;1;9
"pierre ardouvin";0;0;1;17;0;0;1;17
"stéphane gautier";0;0;4;2.75;0;0;2;3;0;0;2;2.5
"fernando costa";0;0;5;6.2;0;0;2;6;0;0;3;6.3333333333333
"spark peintre";0;0;5;7.6;0;0;5;7.6
"ayline olukman";0;0;7;4;0;0;1;4;0;0;6;4
"jules l'atlas";0;0;1;10;0;0;1;10
"desserle cecile";0;0;1;5;0;0;1;5
"peinture de bernard buffet";0;0;1;8;0;0;1;8
"gwen marseille";0;0;2;5;0;0;1;5;0;0;1;5
"galerie vivendi paris";0;0;1;4;0;0;1;4
"manu paysages";0;0;2;72;0;0;1;77;0;0;1;67
"sculpture de chouette";0;0;1;20;0;0;1;20
"judith guion";0;0;1;3;0;0;1;3
tirilly;0;0;1;9;0;0;1;9
"greenwood gallery";0;0;4;10;0;0;3;9.6666666666667;0;0;1;11
"nathalie dhenaut";0;0;3;7;0;0;1;7;0;0;2;7
eppele;0;0;1;8;0;0;1;8
"nathalie grenier facebook";0;0;1;10;0;0;1;10
"galerie silbereis";0;0;1;7;0;0;1;7
"peintre costa";0;0;1;8;0;0;1;8
"murakami artiste";0;0;1;3;0;0;1;3
"tom wesselmann pop art";0;0;1;6;0;0;1;6
"drouet jean marie";0;0;1;8;0;0;1;8
"charlotte champion";0;0;3;1.6666666666667;0;0;2;1.5;0;0;1;2
"galerie des arts";0;0;2;8;0;0;1;8;0;0;1;8
"claire fanjul";0;0;1;3;0;0;1;3
"envie d'art paris";0;0;1;3;0;0;1;3
"bram van velde";0;0;1;22;0;0;1;22
"bertrand meunier";0;0;6;5.6666666666667;0;0;2;11;0;0;2;3;0;0;2;3
"silver fame";0;0;2;6;0;0;1;6;0;0;1;6
"jeune artiste";0;0;1;45;0;0;1;45
"pez artiste";0;0;7;6.7142857142857;0;0;3;6;0;0;4;7.25
"sexy skate board";0;0;1;9;0;0;1;9
"ben bella peintre";0;0;8;2.375;0;0;2;2.5;0;0;6;2.3333333333333
"exposition lyon street art";0;0;1;99;0;0;1;99
"raphael denis";0;0;3;5;0;0;1;5;0;0;2;5
"""zelda bomba""";0;0;2;2;0;0;2;2
"jamie hewlett";0;0;1;20;0;0;1;20
pratiki;0;0;1;3;0;0;1;3
"catherine klein peintre";0;0;1;6;0;0;1;6
"carl andré";0;0;19;6.0526315789474;0;0;14;5.5714285714286;0;0;5;7.4
rauzier;0;0;2;10;0;0;2;10
lubliner;0;0;2;5;0;0;2;5
"photographie art moderne";0;0;1;3;0;0;1;3
diamantaire;0;0;1;30;0;0;1;30
"bruno fontana";0;0;4;5;0;0;2;6;0;0;2;4
"marie anne thieffry";0;0;2;2;0;0;2;2
asgar;0;0;3;9;0;0;3;9
"la gasse";0;0;1;16;0;0;1;16
"andreas gursky oeuvres";0;0;2;9;0;0;2;9
"street art chat";0;0;1;8;0;0;1;8
"jeanne lorioz";0;0;9;9.8888888888889;0;0;6;10;0;0;1;9;0;0;2;10
"eric bourguignon";0;0;1;13;0;0;1;13
"didier avril";0;0;2;1;0;0;1;1;0;0;1;1
"office du tourisme dinard";0;0;1;13;0;0;1;13
"charles fazino";0;0;1;3;0;0;1;3
"claudine legrand";0;0;2;6;0;0;1;6;0;0;1;6
"oeuvres d'art";0;0;1;7;0;0;1;7
"catharine miller gallery";0;0;1;5;0;0;1;5
"tilt graffiti artist";0;0;1;10;0;0;1;10
"fabrice hyber";0;0;16;6.4375;0;0;10;6.1;0;0;4;6.75;0;0;2;7.5
"alex katz oeuvres";0;0;2;8;0;0;1;8;0;0;1;8
"chaussure fetish";0;0;1;33
"philippe brosse";0;0;2;3.5;0;0;2;3.5
"max ernst oeuvres";0;0;7;8.4285714285714;0;0;5;8;0;0;2;9.5
"miro oeuvres principales";0;0;1;1;0;0;1;1
"bruno catalano tarif";0;0;1;9;0;0;1;9
tattu;0;0;2;9;0;0;1;9;0;0;1;9
"keith haring œuvres d'art";0;0;2;10;0;0;1;10;0;0;1;10
"signature andy warhol";0;0;1;9;0;0;1;9
braoude;0;0;2;9.5;0;0;1;9;0;0;1;10
"louis stettner photos";0;0;1;6;0;0;1;6
"eva jospin biographie";0;0;3;7;0;0;1;7;0;0;2;7
"charbonnel sculpteur";0;0;3;5;0;0;2;5;0;0;1;5
"peintre buffet";0;0;6;9.3333333333333;0;0;3;9;0;0;2;10;0;0;1;9
"jacques renoir";0;0;1;10;0;0;1;10
"oksana x";0;0;2;17;0;0;1;17;0;0;1;17
"hervé robillard";0;0;1;113;0;0;1;113
"henri cartier bresson oeuvre";0;0;2;11;0;0;2;11
"miro oeuvres";0;0;1;1;0;0;1;1
"danilo di nenno";0;0;4;4;0;0;4;4
"renaud peinture";0;0;2;63.5;0;0;1;71;0;0;1;56
"jonone paris";0;0;1;6;0;0;1;6
"spark artiste";0;0;3;8;0;0;2;9;0;0;1;6
"robert bradford";0;0;4;5.5;0;0;2;4.5;0;0;1;5;0;0;1;8
"oeuvre d'art unique";0;0;2;1;0;0;2;1
"acheter art contemporain";0;0;2;1;0;0;2;1
"thibault brunet";0;0;1;19
"henni alftan";0;0;1;7;0;0;1;7
"oneiro gallery";0;0;2;3;0;0;2;3
"charbonnel gravure";0;0;1;38;0;0;1;38
"anne lacouture";0;0;1;4
"villeglé jacques";0;0;2;3;0;0;1;3;0;0;1;3
"ipso france";0;0;1;27;0;0;1;27
johnsteel;0;0;2;20;0;0;2;20
"willy ronis le petit parisien";0;0;1;1;0;0;1;1
"klasen peter";0;0;1;3;0;0;1;3
"johanna heeg";0;0;1;1;0;0;1;1
"andre nadal";0;0;7;5;0;0;1;5;0;0;6;5
"jonone cote";0;0;3;7;0;0;1;8;0;0;2;6.5
"jean francois lefranc";0;0;1;5;0;0;1;5
"thierry carrier";0;0;3;7;0;0;2;7;0;0;1;7
"oeuvres de keith haring";0;0;6;8.8333333333333;0;0;4;8.5;0;0;2;9.5
"flying förtress";0;0;1;10;0;0;1;10
"anti artiste";0;0;1;2;0;0;1;2
"quentin carnaille";0;0;1;10;0;0;1;10
"valerie le merrer";0;0;1;5;0;0;1;5
"michael bastow";0;0;1;7;0;0;1;7
"peter blake artiste";0;0;2;6;0;0;2;6
"sumi e technique";0;0;1;23;0;0;1;23
"greet helsen";0;0;1;6;0;0;1;6
"kiddy citny";0;0;9;7.4444444444444
"eckart hahn";0;0;1;4;0;0;1;4
"talcoat artist";0;0;1;5;0;0;1;5
watin;0;0;1;9;0;0;1;9
"full size render";0;0;4;5;0;0;1;5;0;0;2;5;0;0;1;5
"olivier liegent";0;0;1;5;0;0;1;5
"max ernst oeuvre";0;0;1;6;0;0;1;6
lelong;0;0;1;6;0;0;1;6
"alison wilding";0;0;2;10;0;0;2;10
"franck lundangi";0;0;2;5;0;0;2;5
"denis rouvre biographie";0;0;1;10
"greg leon guillemin";0;0;6;7;0;0;2;7
"ron english";0;0;10;6.8;0;0;7;6.5714285714286;0;0;2;7;0;0;1;8
"elisabeth lecourt";0;0;3;9.6666666666667;0;0;3;9.6666666666667
"orlan biographie";0;0;2;8;0;0;2;8
"louis blanc photographie";0;0;1;10;0;0;1;10
"hervé lewis photographe";0;0;1;6;0;0;1;6
"cesar peintre";0;0;1;10
"guy de rougemont";0;0;1;7;0;0;1;7
"tilt street art";0;0;1;5;0;0;1;5
"fuck the wall";0;0;1;6;0;0;1;6
"artistes contemporain";0;0;2;15.5
"biographie keith haring";0;0;6;8.8333333333333;0;0;5;8.8;0;0;1;9
"dok uv tpk";0;0;1;7;0;0;1;7
gorodine;0;0;1;5
"helder batista";0;0;3;7.3333333333333;0;0;1;6
"ivan messac";0;0;1;4;0;0;1;4
"laetitia giraud";0;0;1;5
"jérôme mesnager";0;0;3;3.3333333333333;0;0;1;4
obalata;0;0;1;9;0;0;1;9
"benjamin deroche";0;0;3;7;0;0;3;7
"dussac peintre";0;0;1;3;0;0;1;3
"artiste jonone";0;0;2;3.5;0;0;1;2
"césar oeuvre";0;0;1;6;0;0;1;6
jisbar;0;0;5;10;0;0;5;10
"wesselmann oeuvres";0;0;1;6;0;0;1;6
"truc anh";0;0;3;2;0;0;3;2
mpah;0;0;1;7
"sandra krasker";0;0;2;3;0;0;2;3
"claude closky";0;0;1;23;0;0;1;23
artelysees;0;0;2;3.5;0;0;2;3.5
"blek le rat oeuvre";0;0;3;8;0;0;3;8
laveri;0;0;6;6.3333333333333;0;0;2;6;0;0;4;6.5
"jean helion";0;0;6;10.333333333333;0;0;2;11;0;0;1;10
"jeff aerosol";0;0;2;4;0;0;2;4
"roman opalka biographie";0;0;4;7.25;0;0;3;7;0;0;1;8
"francois morelet";0;0;1;9;0;0;1;9
"l homme arbre";0;0;1;41;0;0;1;41
"andy warhol oeuvres";0;0;2;8;0;0;2;8
"jingle art";0;0;1;5;0;0;1;5
"robe longue fille";0;0;2;30
"soly cissé peintre";0;0;2;11;0;0;2;11
"graffiti tilt";0;0;1;10;0;0;1;10
pelmont;0;0;1;9;0;0;1;9
"durix vichy";0;0;2;10;0;0;1;10;0;0;1;10
"cote jonone";0;0;2;4;0;0;1;4;0;0;1;4
fessée;0;0;1;229;0;0;1;229
colomina;0;0;1;3;0;0;1;3
"nathalie d'henaut";0;0;2;9;0;0;2;9
"galerie argentic";0;0;30;5.4666666666667;0;0;13;4.8461538461538;0;0;14;6;0;0;3;5.6666666666667
"jacqueline roberts";0;0;1;5;0;0;1;5
"priscilla moore";0;0;2;10;0;0;2;10
"oeuvre de max ernst";0;0;8;6.5;0;0;1;6;0;0;1;7;0;0;6;6.5
guingand;0;0;11;8.8181818181818;0;0;1;9;0;0;10;8.8
keza;0;0;1;8;0;0;1;8
"claude champy";0;0;3;8;0;0;3;8
"gerstein david";0;0;2;3;0;0;1;3;0;0;1;3
"tribu carnivore";0;0;22;7;0;0;9;7;0;0;9;7;0;0;4;7
risote;0;0;1;10;0;0;1;10
"sculpture panthere noire";0;0;1;9;0;0;1;9
"isabelle levistre";0;0;1;5;0;0;1;5
"thierry dussac";0;0;8;4.5;0;0;5;4.2;0;0;3;5
"christophe goutal";0;0;2;3;0;0;2;3
"jacques villeglé oeuvres";0;0;1;3;0;0;1;3
totomobile;0;0;1;32;0;0;1;32
"clothilde lasserre";0;0;3;4.3333333333333;0;0;2;4;0;0;1;5
"toile cirée contemporaine";0;0;1;100;0;0;1;100
"edouard buzon";0;0;1;2;0;0;1;2
levrette;0;0;3;170.66666666667;0;0;3;170.66666666667
fashiontoast;0;0;1;4;0;0;1;4
"obey obama";0;0;1;10;0;0;1;10
"oeuvre d'art géométrique";0;0;1;9;0;0;1;9
"jean du buffet";0;0;6;10;0;0;2;9;0;0;4;10.5
"sophie morisse peintre";0;0;1;2;0;0;1;2
"joachim monvoisin";0;0;1;5;0;0;1;5
"parfum apocalypse";0;0;5;9;0;0;1;9;0;0;3;9;0;0;1;9
"christoff debusschere";0;0;8;7.25;0;0;7;7.2857142857143;0;0;1;7
"artiste japonaise contemporaine";0;0;1;9;0;0;1;9
"galerie artiane honfleur";0;0;2;4;0;0;2;4
lowinsky;0;0;1;216;0;0;1;216
"art cubique";0;0;1;7;0;0;1;7
"etienne viard sculpteur";0;0;1;2;0;0;1;2
"achat peinture";0;0;1;83;0;0;1;83
"gottfried salzmann";0;0;6;7.5;0;0;3;7.6666666666667;0;0;2;6;0;0;1;10
"galerie art en ligne";0;0;19;1;0;0;17;1;0;0;1;1;0;0;1;1
"evelyne postic";0;0;1;6;0;0;1;6
"alain josseau";0;0;1;6;0;0;1;6
"eliane larus";0;0;1;5;0;0;1;5
youmin;0;0;1;7;0;0;1;7
"hervé télémaque";0;0;15;5.1333333333333;0;0;10;4.9;0;0;5;5.6
"oeuvre d'art a vendre";0;0;2;1;0;0;1;1;0;0;1;1
"laure d’hauteville";0;0;1;7;0;0;1;7
"kamenev liege";0;0;1;42;0;0;1;42
"jean georges inca";0;0;3;2.6666666666667;0;0;1;2;0;0;2;3
"warhol sunday b morning";0;0;1;2;0;0;1;2
"galerie double s";0;0;2;5.5;0;0;2;5.5
"michèle destarac peintre";0;0;1;1;0;0;1;1
"nicolas puyjalon";0;0;1;6;0;0;1;6
"(""clown""|""spectacle de clown"") (""bernard""|""85560""|""vendée""|""85""|""pays de la loire""|""avrillé""|""85440""|""longeville-sur-mer""|""saint-hilaire-la-forêt"")";0;0;1;84;0;0;1;84
"brno del zou";0;0;5;3;0;0;4;3;0;0;1;3
"annina roescheisen";0;0;3;6.6666666666667;0;0;1;10;0;0;2;5
"eduardo chillida";0;0;2;19;0;0;2;19
"lolita nue";0;0;1;24;0;0;1;24
"bruno timmermans";0;0;1;1;0;0;1;1
"botticelli oeuvres";0;0;1;35;0;0;1;35
"hervé di rosa peinture";0;0;2;3;0;0;2;3
"alain clement";0;0;1;4;0;0;1;4
"tableau jeune artiste";0;0;1;9;0;0;1;9
"galeries d art contemporain";0;0;2;3;0;0;2;3
"samart gallery";0;0;1;8;0;0;1;8
hearsey;0;0;1;4;0;0;1;4
"philippe assalit";0;0;1;3;0;0;1;3
"peinture buffet bernard";0;0;1;9;0;0;1;9
"guillemin gregoire";0;0;3;6;0;0;3;6
"reçu 5 sur 5";0;0;1;5;0;0;1;5
"francois houtin";0;0;1;11;0;0;1;11
"zhang wei";0;0;1;8;0;0;1;8
"joseph chiaramonte";0;0;3;5;0;0;1;5;0;0;2;5
speedygraphito;0;0;14;5.7142857142857;0;0;14;5.7142857142857
"art jingle";0;0;6;4.1666666666667;0;0;2;4;0;0;2;4;0;0;2;4.5
"expo street art lyon";0;0;1;91;0;0;1;91
"artiste peintre montpellier";0;0;1;68;0;0;1;68
"marvin aillaud";0;0;4;4;0;0;4;4
"etiyé dimma poulsen";0;0;1;9;0;0;1;9
"murakami peintre";0;0;2;7;0;0;2;7
"toutes nues";0;0;1;50;0;0;1;50
"pierre alex photo";0;0;2;1;0;0;2;1
mastercha;0;0;1;5;0;0;1;5
"jonone graffiti";0;0;1;8;0;0;1;8
"greg gorman";0;0;1;7;0;0;1;7
"bernard buffet peintre";0;0;3;8;0;0;2;7;0;0;1;10
"les chiens rouges";0;0;1;5;0;0;1;5
"peinture charlelie couture";0;0;4;3;0;0;4;3
"françoise petrovitch";0;0;7;6.7142857142857;0;0;4;6;0;0;2;8;0;0;1;7
"9e concept";0;0;2;7.5;0;0;2;7.5
"bruno catalano prix sculptures";0;0;5;9;0;0;3;9;0;0;2;9
"lou ros";0;0;5;5.6;0;0;5;5.6
"vincent godeau";0;0;1;12;0;0;1;12
"narcose serie";0;0;1;9;0;0;1;9
"david sandra";0;0;1;7;0;0;1;7
"sculpture en ligne";0;0;2;1;0;0;1;1;0;0;1;1
"vente d'œuvre d'art en ligne";0;0;1;1;0;0;1;1
"laurent roux";0;0;1;19;0;0;1;19
"gianni colosimo";0;0;2;1;0;0;2;1
"turpin michel";0;0;2;9.5;0;0;2;9.5
"sylvie koechlin";0;0;1;10;0;0;1;10
"kamasutra dans l'eau";0;0;2;79;0;0;2;79
"martha cooper";0;0;1;6;0;0;1;6
"catherine lambermont";0;0;1;2;0;0;1;2
poe's;0;0;1;3;0;0;1;3
"monica denevan";0;0;1;8;0;0;1;8
"galerie d'art en ligne contemporain";0;0;1;1;0;0;1;1
nadau;0;0;18;11;0;0;14;11;0;0;1;11;0;0;3;11
"aslan pin up";0;0;1;38;0;0;1;38
"david monllor";0;0;1;4;0;0;1;4
"guy weladji";0;0;2;9;0;0;2;9
"chat peintre";0;0;2;9;0;0;1;9;0;0;1;9
"philippe vasseur peintre";0;0;2;2.5;0;0;2;2.5
"keith haring wikipedia";0;0;1;10;0;0;1;10
"sigune hamann";0;0;2;7;0;0;2;7
"bernar venet dessin";0;0;1;3;0;0;1;3
"atlas blue";0;0;5;29;0;0;5;29
"c'est mieux que rien";0;0;2;7;0;0;2;7
"luc dratwa";0;0;1;7;0;0;1;7
"vendre oeuvre d'art";0;0;3;1;0;0;1;1;0;0;2;1
"michel madore";0;0;1;6;0;0;1;6
"uffe weiland";0;0;2;1;0;0;2;1
"galerie bettina von arnim";0;0;1;6;0;0;1;6
nidzgorski;0;0;1;3;0;0;1;3
"david walker";0;0;1;10;0;0;1;10
artiane;0;0;2;2.5;0;0;2;2.5
"obey shepard fairey biographie";0;0;1;4;0;0;1;4
"jef aerosol beaubourg";0;0;1;9;0;0;1;9
"laurence dreyfus";0;0;5;7.4;0;0;2;7;0;0;3;7.6666666666667
"galerie contemporaine";0;0;1;9;0;0;1;9
"valérie lefebvre";0;0;4;7.5;0;0;2;7.5;0;0;2;7.5
"rakel wajnberg";0;0;4;3.5;0;0;4;3.5
jomain;0;0;1;70;0;0;1;70
"site oeuvre d'art";0;0;1;1;0;0;1;1
"galerie d'art contemporain en ligne";0;0;4;1;0;0;4;1
"dionée prix";0;0;1;29;0;0;1;29
"peter mclane";0;0;1;4;0;0;1;4
"achat oeuvres d'art";0;0;1;1;0;0;1;1
"izabeau jousse";0;0;1;4;0;0;1;4
"drapeau français achat";0;0;1;48;0;0;1;48
"maurice renoma";0;0;2;3;0;0;2;3
"kamel yahiaoui";0;0;11;9.2727272727273;0;0;11;9.2727272727273
"debusschere christoff";0;0;1;10;0;0;1;10
"catherine bernis";0;0;2;5;0;0;2;5
"dominique mulhem";0;0;1;3;0;0;1;3
"e galleries";0;0;14;9.6428571428571;0;0;13;9.6153846153846;0;0;1;10
"max ernst œuvres d'art";0;0;14;4.7857142857143;0;0;4;4;0;0;2;5.5;0;0;8;5
"christophe charbonnel sculpteur";0;0;1;8;0;0;1;8
"oeuvres de joan miro";0;0;1;11;0;0;1;11
akader;0;0;3;12;0;0;3;12
"claude mollard";0;0;1;4;0;0;1;4
"yuzu jam";0;0;1;10;0;0;1;10
soubrette;0;0;1;116;0;0;1;116
"thierry dussac peintre";0;0;4;3.75;0;0;1;3;0;0;3;4
"chat x";0;0;1;46;0;0;1;46
"statue art moderne";0;0;3;3.3333333333333;0;0;2;4;0;0;1;2
"fabrizio corneli";0;0;4;4;0;0;4;4
"speedy graphito oeuvre";0;0;2;4;0;0;1;4;0;0;1;4
bernadism;0;0;1;8;0;0;1;8
camet;0;0;1;76;0;0;1;76
"wolfgang krell";0;0;2;5;0;0;1;5;0;0;1;5
"bernard buffet prix des toiles";0;0;1;22;0;0;1;22
"anne brunet";0;0;6;4.8333333333333;0;0;3;5;0;0;3;4.6666666666667
fkdl;0;0;4;4.75;0;0;1;4;0;0;3;5
moretto;0;0;1;99;0;0;1;99
"billet banksy prix";0;0;2;1;0;0;2;1
"sculpture colorée";0;0;1;9;0;0;1;9
jefaerosol;0;0;1;4;0;0;1;4
"ted nomad";0;0;5;6.6;0;0;5;6.6
"art contemporain";0;0;2;105.5;0;0;2;105.5
"galerie street art en ligne";0;0;1;7;0;0;1;7
"strip art";0;0;1;7;0;0;1;7
kouka;0;0;9;9;0;0;7;9;0;0;2;9
"andré nadal";0;0;1;6;0;0;1;6
glineur;0;0;1;9;0;0;1;9
"achat oeuvre d'art en ligne";0;0;1;1;0;0;1;1
"antoine veron";0;0;3;4.6666666666667;0;0;1;4;0;0;2;5
"art moderne sculpture";0;0;2;2;0;0;2;2
arkiv;0;0;1;1;0;0;1;1
"pierre tal coat";0;0;1;10;0;0;1;10
"loader sur roue";0;0;1;42;0;0;1;42
"hervé telemaque";0;0;2;4.5;0;0;2;4.5
"brigitte penicaud ceramiste";0;0;2;8;0;0;2;8
"le balai";0;0;1;203;0;0;1;203
stoul;0;0;2;7.5;0;0;1;7;0;0;1;8
"archi rouen";0;0;2;15;0;0;2;15
"marie laure gerard";0;0;1;8;0;0;1;8
silvestri;0;0;1;154;0;0;1;154
"echantillon dentifrice";0;0;1;37;0;0;1;37
"nicolas cessieux";0;0;2;1;0;0;2;1
"peinture de jean dubuffet";0;0;1;4;0;0;1;4
"keith haring montreux jazz festival 1983";0;0;2;10;0;0;2;10
"vente oeuvres d'art";0;0;1;1;0;0;1;1
"ральф петерс";0;0;1;10;0;0;1;10
"speedy grafito";0;0;7;6.1428571428571;0;0;4;6;0;0;3;6.3333333333333
"india leire";0;0;1;10;0;0;1;10
"timothée talard";0;0;1;3;0;0;1;3
"jerome mesnager cote";0;0;1;3;0;0;1;3
"richard dubure";0;0;1;5;0;0;1;5
"bernard moninot";0;0;3;5.6666666666667;0;0;3;5.6666666666667
"art contemporain belge";0;0;1;10;0;0;1;10
"balade musique new york";0;0;1;39;0;0;1;39
"commande bitumes";0;0;1;56;0;0;1;56
"pin up";0;0;1;252;0;0;1;252
"cecile colombo";0;0;1;4;0;0;1;4
"3 sardines saint etienne";0;0;1;33;0;0;1;33
keymi;0;0;1;7;0;0;1;7
"tatiana plotnikova";0;0;3;6.3333333333333;0;0;3;6.3333333333333
"oeuvres joan miro";0;0;1;11;0;0;1;11
"samhart gallery";0;0;3;8;0;0;3;8
katya;0;0;1;239;0;0;1;239
"john andrew perello";0;0;1;4;0;0;1;4
"titus carmel artiste";0;0;4;9.75;0;0;2;9.5;0;0;2;10
"richard di rosa";0;0;1;4;0;0;1;4
"kamasutra a 3";0;0;1;41;0;0;1;41
"noir et blanc art";0;0;2;30;0;0;2;30
"marc combas";0;0;1;7;0;0;1;7
artop;0;0;10;9.5;0;0;2;9;0;0;6;9.6666666666667;0;0;2;9.5
"thomas verny";0;0;1;2;0;0;1;2
"stéphanie lacombe";0;0;1;14;0;0;1;14
"eric lapierre artiste";0;0;1;2;0;0;1;2
"galerie charron";0;0;2;5;0;0;2;5
"cedric bacqueville";0;0;3;6;0;0;3;6
"orlan oeuvre";0;0;1;6;0;0;1;6
"david lachapelle oeuvre";0;0;1;6;0;0;1;6
"arnaud liard";0;0;1;3;0;0;1;3
"ecloz rouen";0;0;1;6;0;0;1;6
"bernard pras anamorphose";0;0;2;15;0;0;2;15
"yuriko takagi";0;0;3;10;0;0;2;10;0;0;1;10
"philippe berger";0;0;1;20;0;0;1;20
"frédéric blaimont";0;0;1;7;0;0;1;7
hyber;0;0;4;6.5;0;0;4;6.5
"don davide galbiati";0;0;1;33;0;0;1;33
authouart;0;0;2;16;0;0;1;16;0;0;1;16
"jacques villéglé";0;0;1;5;0;0;1;5
"oeuvres de max ernst";0;0;3;9;0;0;3;9
"street art en france";0;0;1;93;0;0;1;93
"heure solaire";0;0;1;49;0;0;1;49
"raymond hains";0;0;21;7.0952380952381;0;0;19;7;0;0;1;8;0;0;1;8
"azz och mo ass orgie del";0;0;1;21;0;0;1;21
braoudé;0;0;7;9.2857142857143;0;0;2;8;0;0;4;10;0;0;1;9
"torrick ablack";0;0;4;6;0;0;1;6;0;0;3;6
"pierre pignon";0;0;2;3;0;0;1;2;0;0;1;4
"oeuvre de keith haring";0;0;6;10;0;0;6;10
"florence d'elle";0;0;2;11.5;0;0;1;14;0;0;1;9
"claude leveque";0;0;5;23.6;0;0;3;32;0;0;1;11;0;0;1;11
"maxime ansiau";0;0;2;7;0;0;2;7
pencréac'h;0;0;1;6;0;0;1;6
"galerie bettina";0;0;27;6.962962962963;0;0;11;6;0;0;15;7.6666666666667;0;0;1;7
"galerie argentic paris";0;0;6;5.6666666666667;0;0;3;5.3333333333333;0;0;3;6
"pierre alex";0;0;6;5.5;0;0;3;5;0;0;3;6
takala;0;0;7;4;0;0;5;4;0;0;2;4
warhol;0;0;1;313;0;0;1;313
"as i opened fire";0;0;1;6;0;0;1;6
"georges bru";0;0;1;2;0;0;1;2
"noe two art store";0;0;1;10;0;0;1;10
"artiste belge contemporain";0;0;1;5;0;0;1;5
"quentin garel";0;0;9;4.2222222222222;0;0;4;4.5;0;0;4;4;0;0;1;4
"galerie art";0;0;1;51;0;0;1;51
"se touche";0;0;1;115;0;0;1;115
"hedva ser";0;0;3;5;0;0;3;5
catte;0;0;13;3.7692307692308;0;0;4;2;0;0;7;4.1428571428571;0;0;2;6
cadeo;0;0;7;7.4285714285714;0;0;5;6.8;0;0;2;9
"boxeuses nues";0;0;1;41;0;0;1;41
"nigel cox artist";0;0;1;9;0;0;1;9
monumentale;0;0;3;9.6666666666667;0;0;2;10;0;0;1;9
dan23;0;0;13;5.7692307692308;0;0;8;6.375;0;0;4;4.25;0;0;1;7
"georges poncet";0;0;1;5;0;0;1;5
"priska lorane";0;0;1;2;0;0;1;2
"gerard schlosser";0;0;2;4;0;0;2;4
"solène ballesta";0;0;3;6;0;0;3;6
"gz store";0;0;5;2.8;0;0;2;3;0;0;3;2.6666666666667
"ralph gibson";0;0;10;10.1;0;0;9;10;0;0;1;11
horkan;0;0;2;9;0;0;2;9
"maxime frairot";0;0;2;4;0;0;1;4;0;0;1;4
"cesar sculpteur oeuvres";0;0;3;5;0;0;3;5
"shepard fairey";0;0;1;20;0;0;1;20
"beau fils";0;0;1;130;0;0;1;130
"dubuffet peintre";0;0;1;10;0;0;1;10
"masseuse 2";0;0;1;24;0;0;1;24
zokatos;0;0;4;4.25;0;0;1;4;0;0;3;4.3333333333333
"oeuvres de banksy";0;0;5;9.8;0;0;3;9;0;0;2;11
"tilt toulouse";0;0;3;7;0;0;3;7
kikayou;0;0;1;3;0;0;1;3
"philippe gourier";0;0;1;6;0;0;1;6
"alain godon";0;0;12;2.9166666666667;0;0;7;4.1428571428571;0;0;5;1.2
"tout compte fait vente en ligne";0;0;1;25;0;0;1;25
"emilio scanavino";0;0;9;5.6666666666667;0;0;5;5.4;0;0;4;6
"tal coat";0;0;2;11;0;0;2;11
"prix des sculptures de bruno catalano";0;0;1;8;0;0;1;8
"frances bruno catalano";0;0;8;3.5;0;0;8;3.5
"oeuvre d'art en ligne";0;0;1;1;0;0;1;1
"françois bard peintre";0;0;2;1;0;0;2;1
"galerie grand rue poitiers";0;0;1;7;0;0;1;7
"mr dob";0;0;1;9;0;0;1;9
"solene ballesta";0;0;1;6;0;0;1;6
"hamish fulton";0;0;8;6.375;0;0;8;6.375
"charlelie couture peintre";0;0;1;3;0;0;1;3
"cecile desserle peintures";0;0;1;4;0;0;1;4
assalit;0;0;5;6.8;0;0;5;6.8
"oeuvre de jr";0;0;3;6;0;0;3;6
"cox blue";0;0;1;5;0;0;1;5
"fred calmets";0;0;2;3;0;0;1;3;0;0;1;3
"manolo chretien";0;0;4;5;0;0;2;5;0;0;2;5
"pascal jacquot";0;0;1;8;0;0;1;8
pigeau;0;0;1;4;0;0;1;4
obam;0;0;1;74;0;0;1;74
ando;0;0;7;9.8571428571429;0;0;5;9.2;0;0;2;11.5
"giulio parini";0;0;1;8;0;0;1;8
"juliette brown";0;0;1;8;0;0;1;8
"guy boyer";0;0;3;6.3333333333333;0;0;3;6.3333333333333
"peintre couture";0;0;1;7;0;0;1;7
"gilles desrozier";0;0;1;10;0;0;1;10
"art shopping";0;0;1;29;0;0;1;29
"serge labégorre";0;0;2;6.5;0;0;1;6;0;0;1;7
"eric ville";0;0;2;4;0;0;1;3;0;0;1;5
"basquiat in italian";0;0;1;7;0;0;1;7
cieu;0;0;3;7.6666666666667;0;0;2;7;0;0;1;9
"rent a car";0;0;1;250;0;0;1;250
"david maheo";0;0;1;3;0;0;1;3
"eduardo kac";0;0;1;39;0;0;1;39
"fragmentation art";0;0;1;236;0;0;1;236
"antonio segui biographie";0;0;1;5;0;0;1;5
"sabyl ghoussoub";0;0;2;1;0;0;2;1
goet;0;0;4;9.75;0;0;2;9.5;0;0;2;10
jace.fr;0;0;1;63;0;0;1;63
"stéphanie guglielmetti";0;0;1;7;0;0;1;7
"roger schall";0;0;1;31;0;0;1;31
plouvier;0;0;1;5;0;0;1;5
"art to be";0;0;1;5;0;0;1;5
"jérome mesnager";0;0;2;3.5;0;0;2;3.5
"cyprien clement delmas";0;0;2;10
"vente oeuvre d'art en ligne";0;0;4;1;0;0;1;1
"murano lampe";0;0;1;18
"claude viallat";0;0;2;71
"shepard fairey vote";0;0;1;8
"scene interieur";0;0;1;93
muckensturm;0;0;2;11
"pierre de fenoyl";0;0;5;10;0;0;4;10;0;0;5;11
"photographie d'art contemporain";0;0;4;2
"ten art";0;0;3;2;0;0;1;2
"loulou picasso";0;0;3;4;0;0;1;4
"stephen bambury";0;0;1;4
"clément denis";0;0;1;10;0;0;1;11
"el glaoui";0;0;1;33
"écriture spéculaire";0;0;1;23
"galerie couteron";0;0;1;2;0;0;2;5.5
"artistes espagnols";0;0;2;10
lokiss;0;0;1;10
"birdy kids";0;0;1;49
"peintre japonais contemporain";0;0;1;10
"legrand facebook";0;0;1;40
"billet 10 livres banksy";0;0;1;1
"arroyo peintre";0;0;1;5;0;0;1;5
"arthur dorval";0;0;2;2;0;0;1;4
"peinture art contemporain";0;0;2;3;0;0;1;3
gregos;0;0;4;7.5;0;0;2;8.5
"antonio seguí";0;0;1;7
"esther de bont";0;0;1;34
"arnaud puig";0;0;1;9;0;0;1;10
"mist artiste";0;0;1;9;0;0;1;9
"keith vie urbaine";0;0;2;87.5
"fazzino charles";0;0;2;5;0;0;2;7
"clara ramirez";0;0;2;5
"aquagirl occasion";0;0;1;12
"catarina bravo";0;0;1;5;0;0;1;2
"wide painting";0;0;2;6
"galerie oneiro";0;0;3;3
"galerie urbaine uzes";0;0;1;5;0;0;1;6
"m chat";0;0;1;38
"edouardo kac";0;0;1;40
"polly ngale";0;0;6;7
"edition concorde paris";0;0;1;11
"marco barbon";0;0;2;6.5;0;0;1;6
"chat street art";0;0;1;7
"césar oeuvres";0;0;1;8
"georgianna robertson";0;0;2;17.5;0;0;1;10
"galeries d art";0;0;1;7
"hervé di rosa sculpture";0;0;1;4
"jérémy chabaud";0;0;1;3
miss.tic;0;0;3;5;0;0;1;7
"ane takashi";0;0;1;5
"guillaume bourquin";0;0;1;9
joneone;0;0;3;3.6666666666667;0;0;5;4.6
"idées cadeaux fantaisie";0;0;1;39
"galerie under construction";0;0;1;3
"zao wou ki";0;0;1;67
"bambi artiste";0;0;1;2
"yves krief";0;0;4;7
"oeuvres de jean dubuffet";0;0;1;5
"keith richards pop art";0;0;1;6
"nuances et lumieres";0;0;1;3
"artiste ben";0;0;1;3
"jerome lagarrigue";0;0;3;10.333333333333;0;0;4;6
"erro oeuvres";0;0;1;9
"charlelie couture";0;0;1;45
"sebastien plassard";0;0;2;3.5
"ernest pignon ernest";0;0;1;49;0;0;1;11
"nathalie grall";0;0;1;10;0;0;1;10
"philippe hiquily";0;0;1;7
"la peur dans l'art";0;0;1;2
"peintre japonais abstrait";0;0;1;7
tanc;0;0;6;5;0;0;3;6.6666666666667
labegorre;0;0;2;5;0;0;1;6
"pablito zago";0;0;2;7
boom-art;0;0;1;4
"annet messager";0;0;1;6
"cesar artiste";0;0;3;7;0;0;6;8;0;0;2;8
"oeuvres sculpture";0;0;1;7;0;0;1;8
"jasmine black";0;0;3;18
caresses;0;0;1;265
"fabien verschaere";0;0;1;2;0;0;3;2;0;0;1;2
"catherine lopes curval";0;0;1;10;0;0;1;10
"gaëlle villedary";0;0;1;6
"william blast";0;0;2;2
"pret à porter artwork";0;0;2;38
nakedportrait;0;0;1;6
"boom art";0;0;3;5.6666666666667;0;0;1;5
"antoine cadeo";0;0;1;2
one4you;0;0;10;9.1;0;0;3;9;0;0;4;9
"takashi murakami oeuvres";0;0;7;4.7142857142857
"murakami takashi sculpture";0;0;1;5
"collectionneur avertis";0;0;2;6
moyoshi;0;0;2;6
goddog;0;0;4;4;0;0;2;4;0;0;1;4
"galerie sémiose";0;0;1;38
"artiste déesse";0;0;1;6
"oeuvre cesar";0;0;1;7
"etienne buraud";0;0;1;5;0;0;1;4
"richard orlinski";0;0;8;10.25;0;0;4;10.5;0;0;2;11
"sunday b";0;0;1;4
lisman;0;0;1;4
"oeuvre de bansky";0;0;4;9.5
"telemaque herve";0;0;1;5
"kalouf street art";0;0;1;15
"jonathan huxley";0;0;2;4
"artistes mensing";0;0;30;3.9666666666667
"foire d art contemporain";0;0;2;31
kasimir;0;0;1;14
"achat art";0;0;3;1.6666666666667;0;0;1;1
"gallerie d'art";0;0;1;11
"papier tampax";0;0;2;42
"gérard schlosser peintre";0;0;1;5;0;0;4;5
"clemence veilhan";0;0;1;5
"photo contemporaine art";0;0;1;2
"clement alain";0;0;1;6
cedrix;0;0;3;8;0;0;3;7.3333333333333
"yves zurstrassen";0;0;1;9;0;0;1;9
"cs 1.9";0;0;1;9
"michel graff";0;0;1;5
"françois malingrey";0;0;2;2
"raymond hains oeuvres";0;0;9;5
"daphne corregan";0;0;1;15
"galeries nues";0;0;1;4
johnone;0;0;1;3;0;0;3;5;0;0;1;5
blackstone;0;0;1;118
maellegalerie.com;0;0;1;43
"hervé di rosa oeuvres";0;0;1;1
nowart;0;0;1;3;0;0;1;5
"jeff koons œuvres d'art";0;0;1;5;0;0;1;7;0;0;1;7
"""bruce willis""";0;0;2;111.5
"benjamin carbonne";0;0;2;1.5;0;0;1;2;0;0;2;2
"jeff koons œuvres d-art";0;0;1;6
"niels udo";0;0;1;8;0;0;2;10
"galerie brugier";0;0;1;6
"christian renonciat";0;0;1;6
"oeuvre banksy";0;0;3;9;0;0;2;10
"julien airault peintre";0;0;1;5
"galerie art france";0;0;1;18
"vente citadine";0;0;6;58.333333333333
"galerie d art en ligne";0;0;1;1;0;0;2;1
"france mitrofanoff";0;0;2;2.5
"robert mapplethorpe oeuvres";0;0;2;5
"galerie en ligne art contemporain";0;0;1;1;0;0;1;1
"home and go";0;0;1;177
"rouge ming";0;0;1;69
"toshinobu sugimoto";0;0;1;84
lardanchet;0;0;1;31
"xavier blondeau";0;0;1;4;0;0;1;4
fleurion;0;0;2;5
jadikan;0;0;1;5;0;0;1;5
"vincent hawkins";0;0;1;10
"césar artiste";0;0;5;8;0;0;1;9
"lampe traditionnelle oeuvre d'art";0;0;1;11
"s1mple toxic";0;0;1;14
"galerie virginie barrou planquart";0;0;2;8
"chris morin";0;0;1;7
boudot;0;0;4;45
"peintre peter";0;0;3;9.3333333333333;0;0;1;9;0;0;1;9
"dope gallery";0;0;2;7
"sculpture d'art";0;0;1;2;0;0;1;2
"henri lamy";0;0;1;4;0;0;1;4
henriksen;0;0;1;8
"thomas jorion";0;0;1;5;0;0;1;5
"dino valls";0;0;3;5.6666666666667;0;0;1;7
"vente d'art en ligne";0;0;1;1
"jean michel basquiat untitled skull";0;0;1;1
"mark jenkins";0;0;4;8;0;0;5;9.8
"pierrot men";0;0;3;21
"oeuvre d'art originale";0;0;3;2;0;0;1;2
"art photographique contemporain";0;0;1;3
"li baoxun";0;0;2;4;0;0;1;3
"christian chapiron";0;0;3;4;0;0;1;5
scar.fr;0;0;1;4
"erro biographie";0;0;2;9.5
"angele guerre";0;0;1;2
"thierry guetta artiste";0;0;2;2;0;0;3;3
"stéphanie nava";0;0;1;3
"le chat street art";0;0;1;9;0;0;1;9
"bastien cuenot";0;0;1;2
"balloon dog prix";0;0;2;7.5
"marie benattar";0;0;2;11
"philippe favier";0;0;1;10
"orlinda lavergne";0;0;2;9;0;0;1;10
"sculptures monumentales";0;0;1;7
"miguel chevalier";0;0;3;10;0;0;1;10
"dutch girls fur";0;0;1;9
"jean hélion";0;0;7;9.4285714285714;0;0;2;10.5
misstic;0;0;21;7.5238095238095;0;0;34;7.4117647058824;0;0;5;7
"the black gallery paris";0;0;1;4
jorion;0;0;2;11.5;0;0;14;8.1428571428571
"annabelle tattu";0;0;2;15
nils-udo;0;0;2;8
"cauchemar fussli";0;0;1;47
cornillet;0;0;3;15;0;0;1;10
watts;0;0;1;331
"isabelle de mars";0;0;1;4
"jean dubuffet biographie courte";0;0;1;4
"marie drouet";0;0;1;10;0;0;1;9;0;0;1;8
"monsieur chat";0;0;11;6.6363636363636;0;0;21;8.2380952380952
"vente neon";0;0;1;80
"uta brouet";0;0;1;7
ayline;0;0;3;10;0;0;3;9.6666666666667
"galerie binôme";0;0;1;6
"kiki picasso";0;0;16;4.1875;0;0;17;5;0;0;5;5
"galerie l'oeil du prince";0;0;3;6.3333333333333
"opalka biographie";0;0;5;8
"grands artistes contemporains";0;0;1;9
"césar sculpteur";0;0;6;8.8333333333333
"hanna sidorowicz";0;0;1;9
"site art contemporain";0;0;1;2
"miroir de l art";0;0;1;9
"galerie art jingle";0;0;4;4;0;0;4;5;0;0;1;4
"filip mirazovic";0;0;1;10
dirossa;0;0;1;3
"babou nue";0;0;1;141
"agence chanteurs français";0;0;1;149
"photographie d'art";0;0;4;22;0;0;2;48
"artistes indiens";0;0;1;6
iamza;0;0;1;6
"clement denis";0;0;1;10
"galerie des petits carreaux";0;0;1;5
"ad galerie montpellier";0;0;1;3;0;0;1;3;0;0;1;4
"sculpture déesse";0;0;1;10
quik;0;0;43;1;0;0;68;1.1617647058824;0;0;9;1
"monteoliveto gallery";0;0;1;51;0;0;1;49
"joel knafo";0;0;1;5;0;0;2;4
"visiter atelier de daphné";0;0;1;40
"stéphane pencréac'h";0;0;4;7.5
"andré cervera";0;0;1;6;0;0;2;6
"oeuvre art";0;0;2;3
"jr artiste";0;0;15;10.533333333333;0;0;3;1;0;0;4;1
"peintre dubuffet";0;0;2;3;0;0;1;5
"eric kellerman";0;0;1;6
"shen jingdong";0;0;2;3
"telemaque peintre";0;0;2;8.5;0;0;1;9
trafalg;0;0;2;10.5
calmets;0;0;3;4;0;0;2;3
"olivia de bona";0;0;3;3
"acheter art en ligne";0;0;1;1
"l'atlas artiste";0;0;2;6.5;0;0;1;8
"alain huet";0;0;1;15
artsper.com;0;0;1;1
"galerie sbk lyon";0;0;1;6
"brigitte pénicaud";0;0;1;5
tribucarnivore;0;0;1;7
"samuel anderson";0;0;1;16
"speedy graphito vente";0;0;2;1
"thomas canto";0;0;1;7;0;0;3;5
"galerie hamon";0;0;2;6.5;0;0;6;7
"jean dubuffet oeuvres";0;0;10;5
"bernard rancillac";0;0;7;9.4285714285714;0;0;2;10;0;0;2;8
"street art galerie en ligne";0;0;3;7.3333333333333;0;0;2;7
"vente art sur internet";0;0;1;1
"objet banal devient oeuvre d'art";0;0;1;10
"french art studio";0;0;4;7
"julian opie";0;0;1;15
"artiste chinois liu bolin";0;0;1;3
"mr chat";0;0;10;7.9;0;0;16;6.5;0;0;1;6
"jean michel basquiat œuvres d'art";0;0;4;9.5;0;0;2;1;0;0;2;1
"hom nguyen";0;0;1;11
"jean faucheur";0;0;4;6.25;0;0;1;8
"michele maurin";0;0;1;4
"gilles aillaud";0;0;20;11;0;0;1;1;0;0;1;11
"galerie chenaux";0;0;1;2
"photos d art";0;0;1;31
"vente pansement";0;0;7;40.428571428571
"galerie virtuelle art contemporain";0;0;1;1
"soly cissé";0;0;2;6
"charles henry sommelette";0;0;1;2;0;0;1;2
"pivot san marco biennale";0;0;1;193
"nick walker";0;0;15;3.8666666666667;0;0;1;4
"nicolas laugero";0;0;1;5
"damien hirst oeuvres";0;0;1;6;0;0;1;8;0;0;2;8
"vente oeuvre d'art";0;0;3;1
"christophe lachize";0;0;1;4
"vente aquarelles en ligne";0;0;1;77
smael;0;0;2;7.5
"claude leveque artiste";0;0;3;6;0;0;1;6
"combas artiste peintre";0;0;1;4
villeglé;0;0;1;4
mendjisky;0;0;2;10;0;0;4;12
"massimo vitali";0;0;3;7;0;0;3;8
"galerie catherine houard";0;0;1;6
"egon schiele gerti";0;0;2;4
"tableau artiste street art";0;0;1;9
"sébastien plassard";0;0;1;6
"miss tic street art";0;0;2;8
guilleme;0;0;1;5;0;0;1;5
"thierry valencin";0;0;1;7
"ferreira david";0;0;1;3
"armand artiste";0;0;1;7;0;0;1;8
"aboudia artiste peintre";0;0;1;5
"galerie en ligne";0;0;5;1.8
"serge labegorre";0;0;1;6
basquiat;0;0;1;30;0;0;1;34
mickadek;0;0;1;10
"billet banksy a vendre";0;0;2;1
"agnes baillon";0;0;5;4.4;0;0;1;6
"foot fetish";0;0;1;10
"oeuvre d'art visage";0;0;1;6
"gottfried honegger";0;0;4;8.5;0;0;5;9.2
"hideki yoshida";0;0;4;7;0;0;1;8
"christian valette";0;0;1;10
"eric de ville";0;0;1;3
"brugier rigail";0;0;1;7;0;0;2;7
"toon love";0;0;1;9
harlez;0;0;1;19
"clémence veilhan";0;0;1;6;0;0;1;6
"gerard rancinan";0;0;2;9;0;0;1;6
"triglia didier";0;0;2;4.5;0;0;1;5
"galerie delorme";0;0;1;4
"opalka oeuvres";0;0;1;10
"charlotte perrot";0;0;2;10
"charbonnel christophe";0;0;1;5
"leopard assis";0;0;1;4
"sylvie guyomard";0;0;1;7
"galerie d art";0;0;1;5;0;0;3;7
"robert combas oeuvres";0;0;2;3
"toy story art";0;0;1;9
"johanne 8 facebook";0;0;1;10
"wang yan cheng";0;0;3;7
"cyril paglino";0;0;1;22
"raison d'art lille";0;0;1;7
"guillaume piechaud";0;0;2;3
levlet;0;0;2;5
"thomas subtil";0;0;1;6
"oeuvre de dubuffet";0;0;1;7
perlinpinpin;0;0;1;5
"jean baptiste dumont";0;0;1;2
carnaille;0;0;2;10
"dennis nona";0;0;1;5
argentic;0;0;2;7;0;0;1;6
"jerome bost";0;0;1;1
"david guiraud";0;0;2;12
"favier artiste";0;0;1;8
"galeries d'art contemporain bruxelles";0;0;1;9
"le bel homme";0;0;1;5
"kate barry";0;0;1;36
"jean-pierre attal";0;0;2;6
"herve perdriel";0;0;1;1;0;0;3;3
"mengzhi zheng";0;0;1;7
"alexandre joly";0;0;3;10
"oeuvre de miro";0;0;1;1
"galerie laure roynette";0;0;1;7
"biographie ernest pignon ernest";0;0;1;10
"pochoir jimi hendrix";0;0;1;10
"jacques villeglé";0;0;5;4;0;0;1;6
"galerie rivière faiveley";0;0;1;6
"la galerie d'art";0;0;1;3
"artiste buffet";0;0;1;1
"tony soulié artiste peintre";0;0;1;3
"soutenir le regard";0;0;1;10
"peintre beaufils";0;0;1;5;0;0;1;5
"philippe dannic";0;0;1;6
"noe two artiste";0;0;5;3
"tete de leopard";0;0;1;8
osite;0;0;1;9
"wouter hoste";0;0;1;5
"joan miro oeuvres";0;0;1;1
vombas;0;0;1;7
"vente banksy";0;0;1;4
toma-l;0;0;1;4
"obey tiger";0;0;2;7
"tom wesselmann still life";0;0;1;11
triglia;0;0;4;6;0;0;2;5
"sculpture monumentale contemporaine";0;0;2;2
"rosa peintre";0;0;1;8
"galerie cortade";0;0;1;11
"catalano bruno prix des oeuvres";0;0;2;3
xintao;0;0;1;2
"christian nesler";0;0;1;5
"bouillon d'art";0;0;1;4;0;0;1;4
artyou;0;0;1;4
"photographie art contemporain";0;0;1;2;0;0;1;2
"bouillon d'art bordeaux";0;0;1;10;0;0;1;10
"galerie art contemporain";0;0;4;6;0;0;2;5
"ben artiste nice";0;0;1;5
houtin;0;0;1;3
benetou;0;0;2;2;0;0;1;2
"arno elias";0;0;2;7
"billet banksy";0;0;1;2
tafeta;0;0;1;6
"louis audibert";0;0;1;9
"juliette montier";0;0;1;4;0;0;1;4
zenoy;0;0;1;3;0;0;1;3
"orlinski panthere";0;0;1;10
"mendjisky peintre";0;0;1;4
"guy oberson";0;0;2;10;0;0;2;10.5
"galerie envie d'art";0;0;1;3
"christophe charbonnel";0;0;2;4.5;0;0;3;5
"nadal dessin";0;0;1;8
"serge mendjisky";0;0;3;7.3333333333333
"benjamin vautier ses oeuvres";0;0;1;8
"philippe pradalié artiste peintre";0;0;1;4;0;0;1;4
"galerie jamault";0;0;1;8;0;0;2;8
"levalet art";0;0;2;4
"galerie boccara";0;0;1;6
"philippe azema";0;0;1;2
renonciat;0;0;1;7
catelain;0;0;2;4;0;0;1;6
"xavier veilhan oeuvres";0;0;1;6
"oeuvre de ernest pignon ernest";0;0;1;8
"ben vautier oeuvre";0;0;1;7;0;0;2;7
"gordon peintre";0;0;1;6
"alexandre joly facebook";0;0;2;6
ungara;0;0;1;9
"galerie gilbert dufois";0;0;1;3
"sergio moscona";0;0;1;3
"troy henriksen";0;0;3;3
"emilie danchin";0;0;1;9
"jeff koons biographie";0;0;3;10
chamizo;0;0;3;10
louriia;0;0;1;10
"mao andy warhol";0;0;1;19
"galerie binome";0;0;1;5;0;0;1;6
"lucien murat artiste";0;0;1;3
"moya artiste";0;0;1;7
"yi ling";0;0;1;8
"mendjisky serge";0;0;1;6
"galerie vidal st phalle";0;0;1;5
"oeuvre de bernard pras";0;0;2;2
"oeuvre jean dubuffet";0;0;1;6
sarla;0;0;12;10.333333333333
"juliette vivier";0;0;1;5
"berry philippe";0;0;1;9
"telemaque hervé";0;0;2;5
"galerie d'art virtuelle";0;0;1;2
"cyprien clément-delmas";0;0;1;10
"artiste dubuffet";0;0;2;5
"toma l";0;0;3;4.3333333333333;0;0;1;4
"antonio segui";0;0;6;9;0;0;2;9
"gérard rancinan";0;0;2;5
"sculpture monumentale";0;0;1;3
"tristan alexandre";0;0;2;2
"patrick moya";0;0;2;4
"male nude";0;0;1;97
"john matos";0;0;1;7
"henri de quatrebarbes";0;0;2;5
bastardoz;0;0;1;4;0;0;1;4
"yazid oulab";0;0;1;5;0;0;1;5
iemza;0;0;1;6;0;0;3;6
"gilles aillaud peintre";0;0;2;8
"tete de poire";0;0;1;10
"laure andre";0;0;1;5
"oeuvre en papier";0;0;1;6
"david lynch œuvres d'art";0;0;1;7
"robert combas prix";0;0;1;4
"apocalypse parfum";0;0;1;9;0;0;1;9
"artiste cesar";0;0;1;9
"keith jarrett œuvres";0;0;1;11
"karine paoli";0;0;1;9
"colorfield gallery";0;0;1;4;0;0;1;5
"cesar baldaccini";0;0;2;8
"benjamin laurent aman";0;0;1;4
streichenberger;0;0;4;9
"shirley jaffe";0;0;1;9
"muriel vanhove";0;0;2;4
"galerie bouillon d'art";0;0;1;5
"francis latreille";0;0;1;7;0;0;2;5
durix;0;0;4;7.5
"eva jospin";0;0;4;10;0;0;4;10
"sculpture a vendre";0;0;1;3
"galerie schwab";0;0;1;6
"di rosa richard";0;0;1;5
"sculpture art";0;0;1;8
"gordon hopkins";0;0;1;3;0;0;2;3
"shaka street art";0;0;1;7
liwei;0;0;1;7
"mr lolo";0;0;1;8
"séverine bernard";0;0;1;9
"caroline maurel";0;0;1;5
"valerie lefebvre";0;0;2;9.5
"galerie art contemporain en ligne";0;0;1;1
"john one street art";0;0;3;4
capocci;0;0;1;7
"gohar dashti";0;0;2;8
mapplethorpe;0;0;10;10.2;0;0;3;10.666666666667
"guy ferrer sculpteur";0;0;1;10
"sophie morisse";0;0;1;4
"balloon dog koons";0;0;1;17
"atlas artiste";0;0;1;7;0;0;1;7
"michel four";0;0;1;8
"prix sculpture bruno catalano";0;0;1;9
"jean milo";0;0;1;6
"little pussy";0;0;1;26
"robert combas";0;0;9;4.1111111111111;0;0;6;4.5
"galerie 22";0;0;1;10
"galerie d'art versailles";0;0;1;80
"guy de lussigny";0;0;1;5
"speedy graphito serial painter";0;0;1;8
"jean marc dallanegra";0;0;2;4
"galerie perahia";0;0;1;7
"laure krug";0;0;1;7
"vente art";0;0;1;1
"vincent chenut";0;0;1;5
"yu bolin";0;0;1;9
gangal;0;0;3;7
"la souris sur le gateau";0;0;1;7
"tof vanmarque";0;0;1;5
"galerie claudine legrand";0;0;1;3;0;0;1;3
"jonone artiste peintre";0;0;1;2
"pascale lander";0;0;2;1
"pignon ernest oeuvre";0;0;2;9
"sylvie guilleme";0;0;1;3
"jonone prix tableau";0;0;1;1
aroa;0;0;1;7
"plata peinture";0;0;1;40
"vente de sculpture";0;0;1;1
"charles fazzino prix";0;0;1;7
"phillipe berry";0;0;3;5.3333333333333
susplugas;0;0;1;5
"galerie taglialatella";0;0;1;11
"david gerstein";0;0;12;3.1666666666667
"genevieve claisse";0;0;1;8;0;0;1;9
"keep calm and believe in your dreams";0;0;1;14
"sebastien micke";0;0;1;11
"chaos garden";0;0;2;10
truc-anh;0;0;1;2
"otto d'ambra";0;0;2;1
"françois mendras";0;0;4;6
"peinture bernard buffet";0;0;1;9;0;0;1;9
"pop art bonhomme";0;0;1;5
"ad galerie";0;0;3;3
"kool kor";0;0;1;1
"robert longo oeuvres";0;0;2;7
"tony soulié";0;0;1;3
"bernar venet oeuvres";0;0;3;4
"li wei";0;0;4;6;0;0;5;6.4
"jonone montpellier";0;0;1;60
"pras bernard";0;0;2;4.5
"fucking lovers";0;0;1;14
"fuck wall";0;0;1;8
"guy boyer connaissance des arts";0;0;1;9
"jef aérosol";0;0;2;5
"photo art contemporain";0;0;1;2
"artsper avis";0;0;1;3
"anette messager";0;0;1;9
"mark demsteader";0;0;1;9
"galerie olivier waltman";0;0;2;5;0;0;3;5
"laurent roux facebook";0;0;1;10
"elizabeth couturier";0;0;1;9
"cecile plaisance";0;0;2;7
"olivier sultan";0;0;2;2
"eric zambeaux";0;0;1;6
"patrick s naggar";0;0;1;5
"chris morin eitner";0;0;3;5
"tableau britto";0;0;1;6
"mambo artiste";0;0;1;11
"artiste benjamin";0;0;1;5
"perlimpinpin magazine";0;0;3;9.3333333333333;0;0;1;9
"thomas bossard";0;0;3;6;0;0;2;6
"levalet street art";0;0;1;5
"segolene brossette";0;0;3;6.6666666666667
"art torrent";0;0;1;16
"luke newton";0;0;4;6;0;0;1;6
"jr photos";0;0;1;1
"philippe heurtaux artist";0;0;1;4
adek;0;0;2;8
mesnager;0;0;12;3.5833333333333;0;0;6;3
"cynthia nude";0;0;1;7
"ki to la gloire";0;0;3;5
"nils udo";0;0;8;9.25;0;0;1;10
"claude lévêque artiste";0;0;1;6
"jean michel basquiat oeuvres";0;0;3;9.6666666666667;0;0;2;10
"annette messager biographie";0;0;1;6
"galerie nue";0;0;1;12
"abc galerie";0;0;1;10
"peintre vietnamien contemporain";0;0;1;8
"jaques villegle";0;0;1;5
"butz et fouque";0;0;2;5
"sarah schmidt";0;0;1;10
"art to be gallery";0;0;1;4
"miss tik";0;0;1;7;0;0;2;8
stani;0;0;6;10.333333333333
"crane papillon";0;0;2;3
"sculpture art contemporain";0;0;1;2
"achat banksy";0;0;1;5
kolaj;0;0;1;13
"miss tic artiste";0;0;1;4
"artistes allemands contemporains";0;0;1;7;0;0;1;7
"peter lippmann";0;0;1;4
"anne brégeaut";0;0;2;6
"ben artiste";0;0;8;4
"takashi murakami sculpture";0;0;1;8
"jean louis audibert";0;0;1;3
"gabriel peintre";0;0;1;10
"princesse fallen";0;0;2;9
"jeanne susplugas";0;0;3;5.6666666666667;0;0;1;5
boisrond;0;0;1;6
houri;0;0;1;4
"mwenze kibwanga";0;0;1;2
"francois morellet";0;0;14;9.7142857142857;0;0;1;10
"olivier brouwers";0;0;1;11
"yoel benharrouche artiste peintre";0;0;1;4
"alain godon reproduction";0;0;2;10
"miss tic biographie";0;0;1;5
"louis stettner";0;0;2;7
"gerard alary";0;0;1;6
calirezo;0;0;1;9
"jeune peintre contemporain";0;0;1;8
"iglesis sculpteur";0;0;1;8
"banksy œuvres d'art";0;0;5;8.6;0;0;8;9.125
"miroir de l'art";0;0;1;11
"princess ramos";0;0;1;9
"mesnager jerome";0;0;2;4;0;0;2;4.5
fulcrand;0;0;1;4
"peintre irlandais";0;0;2;7
"mapple thorpe";0;0;1;8
oksana;0;0;3;30
"jorge enrique";0;0;1;3
"guillaume moschini";0;0;1;5
"laurent maes";0;0;1;5
"pignon artiste peintre";0;0;1;20
"gabriel paris peintre";0;0;1;1
"etienne cail";0;0;1;10
"galerie d art contemporain";0;0;1;2
"stephane jacob";0;0;1;15
"guy denning techniques";0;0;3;2
"sandrine paumelle";0;0;1;6
"alain buyse";0;0;1;10
"xavier oriach";0;0;1;6
"oeuvre d'art contemporaine";0;0;3;1
"galerie gng";0;0;1;9
"y galerie";0;0;1;2
chubac;0;0;1;9
"patchwork uwe";0;0;1;45
"thomas duval facebook";0;0;1;10
"francoise gaujour";0;0;1;8
"philippe jarrigeon";0;0;1;10
"galerie linz";0;0;1;5
"herve lewis photographe";0;0;1;7
"godon le touquet";0;0;1;3
"adam nidzgorski";0;0;1;5
"nathalie grenier";0;0;3;6
"frank fischer facebook";0;0;1;7
"alain bertrand facebook";0;0;1;6
"mustapha azeroual";0;0;1;7
"toxic graffiti artist";0;0;1;5
"gottfried honneger";0;0;1;7
"galerie artiane";0;0;1;3
"olivier leroy";0;0;1;30
"jef aerosol prix";0;0;1;1
"eva jospin galerie";0;0;1;5
"pierre de fenoÿl";0;0;1;9
"9ème art";0;0;1;19
"cesar sculteur";0;0;1;10
breleur;0;0;1;7
godon;0;0;3;2.3333333333333
"pretty portal";0;0;1;4
"david sitbon";0;0;1;7
"banksy biographie";0;0;3;10
zocatos;0;0;1;5
"romero britto oeuvres";0;0;1;6
"leveque claude";0;0;1;11
"alexandre joly artiste";0;0;1;5
"patrick villas sculpteur";0;0;2;2
"robert combas biographie";0;0;2;6
"cesar oeuvres";0;0;3;5
"jeunes artistes contemporains";0;0;1;5
"jean michel basquiat in italian";0;0;1;10
poés;0;0;1;2
"severine nicolas";0;0;1;17
"thomas ruff oeuvres";0;0;1;9
"francois millo";0;0;1;6
"monika nowak";0;0;3;3
"sculpture japonaise contemporaine";0;0;1;5
"portraits de femmes";0;0;2;1
go-don;0;0;1;8
"gilles verneret";0;0;2;6
"envie d art";0;0;1;3
"koala nue";0;0;1;6
"godon peintre";0;0;2;1
"oeuvre d'art contemporain";0;0;1;1
"nani champy";0;0;1;9
"photo surréaliste";0;0;1;10
"site de vente d'art";0;0;1;1
"marie laure vareilles";0;0;1;10
"ced vernay";0;0;1;4
"oeuvres dubuffet";0;0;1;6
varvat;0;0;1;7
"eduardo arroyo";0;0;1;10
"daniel convenant";0;0;1;2
gaume;0;0;1;97
"mr brainwash prix";0;0;1;3
"bernhard prinz";0;0;1;9
"sculpture art moderne";0;0;1;2
"jean luc beaufils";0;0;1;5
"alain riviere";0;0;1;13
"tete de guépard";0;0;1;4
"oeuvre de ben";0;0;2;3
"bernard pras dali";0;0;1;1
"peintre di rosa";0;0;1;4
"oeuvre monochrome";0;0;1;9
"marie laure gerard becuwe";0;0;2;2.5
"dawit abebe";0;0;1;7
"balloon dog jeff koons";0;0;1;17
"ilka meschke";0;0;2;3
"chenaux gallery";0;0;1;3
jojone;0;0;1;5
"murakami sculpture";0;0;2;4
"cine x atlas paris";0;0;1;57
"philippe hiquily sculpture";0;0;2;6
"henri iglesis";0;0;2;4
"abie loy kemarre";0;0;1;7
"yang yongliang";0;0;1;8
"antoine rose";0;0;1;4
"benjamin carbone";0;0;2;6
"petits prix";0;0;1;182
"uwe ommer";0;0;1;11
"yves gellie";0;0;1;11
"joelle leonard";0;0;1;210
bremermann;0;0;1;9
"jm robert peintre";0;0;1;2
"peintre bernard buffet";0;0;2;9
"louis blanc corpus";0;0;2;5
"leslie delamarre";0;0;1;5
"berger philippe";0;0;1;27
"robert hutinski";0;0;1;7
"fabrice hyber oeuvres";0;0;1;6
"l'homme en mouvement";0;0;1;7
"robert combas cote";0;0;1;4
"frederic blaimont";0;0;2;5
"bazik galerie";0;0;1;5
"russian monroe";0;0;1;10
"nu feminin";0;0;1;40
"gregoire leon guillemin";0;0;1;6
"acheter de l'art";0;0;1;3
"galerie keza";0;0;1;3
"la peur tableau";0;0;1;10
dtone;0;0;2;5
"gaspard mitz";0;0;2;4
"art en ligne";0;0;1;1
"composition jean";0;0;1;10
"jef aerosol lille";0;0;1;7
"sculpture papier maché art contemporain";0;0;1;34
"laurent durrey";0;0;2;10
"mb factory chamonix";0;0;1;6
"untitled skull";0;0;1;3
villegle;0;0;1;4
arietti;0;0;1;5
"patricia kinard";0;0;1;4
"k haring oeuvre";0;0;1;10
"dark vador peinture";0;0;1;4
"beaufils peintre";0;0;2;5
"galerie portal";0;0;1;10
"galerie fluegel roncak";0;0;1;5
"galerie martine ehmer";0;0;1;4
"jonathan monk";0;0;1;10
"artworks by poitou";0;0;1;3
"fullsize render";0;0;1;5
banksy;0;0;1;50
"speedy graffito";0;0;1;6
"moya peintre";0;0;1;12
"jacques de la villeglé";0;0;1;6
