artsper;20;0.08298755186722;241;1;16;0.091428571428571;175;1;2;0.05;40;1;2;0.076923076923077;26;1
jonone;7;0.037234042553191;188;4.6968085106383;5;0.042735042735043;117;4.0769230769231;2;0.046511627906977;43;5.6744186046512;0;0;28;5.7857142857143
sculpture;7;0.01268115942029;552;5.6485507246377;5;0.015527950310559;322;5.6801242236025;2;0.0125;160;5.55625;0;0;70;5.7142857142857
"bruno catalano prix";6;0.5;12;4.4166666666667;2;0.66666666666667;3;3.6666666666667;1;0.25;4;5.5;3;0.6;5;4
"valerie hadida";4;0.57142857142857;7;1.8571428571429;2;0.5;4;2;1;1;1;2;1;0.5;2;1.5
"benjamin spark";4;0.21052631578947;19;9.7368421052632;3;0.2;15;9.9333333333333;0;0;1;9;1;0.33333333333333;3;9
"gz store";3;1;3;2;2;1;2;2;1;1;1;2
"galerie dorval lille";3;0.75;4;7;3;0.75;4;7
"amaury mulliez";3;0.15789473684211;19;3.8947368421053;3;0.2;15;3.8666666666667;0;0;4;4
"thomas bossard";3;0.23076923076923;13;3.0769230769231;2;0.25;8;3;1;0.33333333333333;3;3.3333333333333;0;0;2;3
"corine pagny";3;0.25;12;4;3;0.3;10;4.2;0;0;1;3;0;0;1;3
"bernard pras";3;0.0625;48;3.7291666666667;3;0.081081081081081;37;3.4324324324324;0;0;7;4.7142857142857;0;0;4;4.75
chanoir;3;0.15789473684211;19;1.1052631578947;1;0.11111111111111;9;1;2;0.2;10;1.2
"claire trotignon";2;0.33333333333333;6;4;1;0.25;4;4;1;0.5;2;4
"jef aerosol";2;0.046511627906977;43;4.6279069767442;2;0.060606060606061;33;4.4848484848485;0;0;7;5.1428571428571;0;0;3;5
"alain schank";2;0.25;8;4.75;1;0.25;4;5;1;0.33333333333333;3;5
"antoni muntadas";2;0.25;8;5.125;2;0.25;8;5.125
"ced vernay";2;0.22222222222222;9;3.1111111111111;1;0.5;2;3;1;0.14285714285714;7;3.1428571428571
"speedy graphito cote prix";2;1;2;3.5;1;1;1;4;1;1;1;3
"galerie d'art";2;0.047619047619048;42;7.9285714285714;2;0.083333333333333;24;8.375;0;0;14;7.1428571428571;0;0;4;8
"toma l";2;0.16666666666667;12;5.3333333333333;1;0.125;8;5.25;1;0.25;4;5.5
fazzino;2;0.10526315789474;19;6.9473684210526;2;0.25;8;6.125;0;0;5;7.4;0;0;6;7.6666666666667
"jonone galerie";2;0.4;5;7.6;2;0.4;5;7.6
"gabriel paris peintre";2;1;2;2;2;1;2;2
jisbar;2;0.4;5;1;1;1;1;1;1;0.25;4;1
"jana et js";2;0.2;10;7.4;0;0;3;6.6666666666667;2;0.33333333333333;6;7.6666666666667
sculture;2;0.058823529411765;34;6.1176470588235;2;0.066666666666667;30;6.1;0;0;3;6.3333333333333;0;0;1;6
"francois malingrey";2;0.2;10;5.4;2;0.25;8;5.75;0;0;1;4;0;0;1;4
"guy mansuy";2;0.66666666666667;3;1;2;0.66666666666667;3;1
"ernest pignon ernest";1;0.037037037037037;27;9.5925925925926;1;0.047619047619048;21;9.2380952380952;0;0;6;10.833333333333
"topolino peintre sete";1;0.5;2;1.5;0;0;1;1;1;1;1;2
"charlotte champion";1;1;1;3;1;1;1;3
"gerry cranham";1;0.2;5;2;1;0.25;4;2;0;0;1;2
"la soubrette";1;0.5;2;19;1;0.5;2;19
"benjamin spark vente";1;0.25;4;3;1;0.25;4;3
"durix peintre";1;0.5;2;3;1;0.5;2;3
"sculpteur césar";1;0.2;5;8;1;0.2;5;8
"jean marc dallanegra";1;1;1;5;1;1;1;5
"bernard saint maxent prix";1;0.33333333333333;3;8;1;0.33333333333333;3;8
"artiste peintre en vogue";1;1;1;4;1;1;1;4
"jacqueline roberts photography";1;0.2;5;5;0;0;1;5;1;0.25;4;5
"monika nowak";1;0.14285714285714;7;4.2857142857143;1;0.2;5;4;0;0;2;5
"robert bradford artiste";1;1;1;2;1;1;1;2
"gerard schlosser";1;0.33333333333333;3;3;1;0.33333333333333;3;3
"renaud delorme";1;0.25;4;2;1;0.25;4;2
"marc laffolay";1;1;1;4;1;1;1;4
"guillaume bourquin";1;1;1;4;1;1;1;4
"philippe pasqua cote";1;1;1;1;1;1;1;1
"miss tic";1;0.0092592592592593;108;5.6296296296296;1;0.015625;64;5.125;0;0;35;6.3714285714286;0;0;9;6.3333333333333
"gautier deblonde";1;1;1;4;1;1;1;4
"oeuvres banksy";1;0.25;4;9;1;0.25;4;9
"ernest pignon ernest oeuvres";1;0.071428571428571;14;7;1;0.1;10;7;0;0;1;7;0;0;3;7
"fanny ferry bailly";1;1;1;9;1;1;1;9
"l'atlas artiste";1;0.14285714285714;7;6.5714285714286;1;0.2;5;6.4;0;0;1;7;0;0;1;7
"tom wesselmann biographie";1;0.5;2;2.5;1;0.5;2;2.5
"la peur dans l'art";1;1;1;2;1;1;1;2
"gordon hopkins peintre";1;0.5;2;1;1;0.5;2;1
"fabrice hyber";1;0.022727272727273;44;5.9090909090909;1;0.032258064516129;31;5.741935483871;0;0;12;6.3333333333333;0;0;1;6
"victoria mann";1;0.33333333333333;3;6;1;0.33333333333333;3;6
"dan gerbo";1;1;1;5;1;1;1;5
"stephen barker";1;1;1;10;1;1;1;10
"léo galamez";1;1;1;2;1;1;1;2
"macadam gallery";1;0.25;4;8;1;0.25;4;8
"guillaumette duplaix";1;1;1;1;1;1;1;1
"annette messager";1;0.013698630136986;73;8.4109589041096;0;0;48;8.0625;1;0.055555555555556;18;9;0;0;7;9.2857142857143
"vuk vidor art history";1;1;1;29;1;1;1;29
"arno elias";1;0.076923076923077;13;6.4615384615385;1;0.14285714285714;7;5.8571428571429
"nicolas fremion";1;0.5;2;1;1;0.5;2;1
"galerie brun léglise";1;1;1;6;1;1;1;6
"carlo nason";1;0.090909090909091;11;4.6363636363636;1;0.090909090909091;11;4.6363636363636
"ivan tzonev";1;0.33333333333333;3;2;1;0.5;2;2;0;0;1;2
"emmanuel barcilon";1;1;1;13;1;1;1;13
"jeanne lorioz";1;0.14285714285714;7;3.8571428571429;0;0;3;5;1;0.5;2;3;0;0;2;3
"antoine de laboulaye";1;1;1;1;1;1;1;1
"photographe d'art";1;0.2;5;23.8;1;0.2;5;23.8
"speedy graphito";1;0.033333333333333;30;6.4666666666667;1;0.0625;16;6;0;0;13;7;0;0;1;7
"hervé dirosa";1;0.5;2;4;1;0.5;2;4
"tilt street art";1;0.5;2;5;1;1;1;5;0;0;1;5
"hermann nitsch oeuvre";1;1;1;3;1;1;1;3
"nu feminins";1;1;1;44;1;1;1;44
"jean pierre schneider";1;0.25;4;5.75;1;0.33333333333333;3;6
"philippe vasseur peintre";1;0.5;2;2;1;0.5;2;2
"anouk grinberg peinture";1;0.5;2;7;1;0.5;2;7
artphotoby;1;0.25;4;4;1;0.25;4;4
"daphné navarre";1;0.2;5;2;1;0.2;5;2
"jr oeuvre";1;0.33333333333333;3;6;1;0.5;2;6;0;0;1;6
"yoel benharrouche";1;0.071428571428571;14;7;1;0.090909090909091;11;7;0;0;3;7
"mimi le clown";1;0.33333333333333;3;4.6666666666667;1;1;1;4;0;0;2;5
"jacques villeglé";1;0.076923076923077;13;4.6923076923077;1;0.1;10;4.6;0;0;2;5;0;0;1;5
moyoshi;1;0.16666666666667;6;4;1;0.33333333333333;3;4;0;0;3;4
"art life 2";1;1;1;4;1;1;1;4
"mesnager jerome";1;0.25;4;3.25;1;0.33333333333333;3;3;0;0;1;4
"galerie d'art france";1;0.5;2;6;1;0.5;2;6
"julien durix";1;0.055555555555556;18;2;0;0;8;2.125;1;0.25;4;2.75
"claire bianchi";1;1;1;3;1;1;1;3
"raphael denis";1;0.25;4;5;1;0.25;4;5
"zenoy prix";1;1;1;1;1;1;1;1
"frederic deprun";1;1;1;4;1;1;1;4
"pierre marie brisson prix";1;1;1;1;1;1;1;1
"herve all";1;0.5;2;9;1;1;1;7;0;0;1;11
"achat oeuvre d'art entreprise";1;0.33333333333333;3;2.3333333333333;1;0.33333333333333;3;2.3333333333333
"louis pons artiste peintre";1;0.5;2;7.5;0;0;1;8;1;1;1;7
"wang shu hui";1;0.5;2;9.5;1;0.5;2;9.5
"dok graffiti";1;0.5;2;2.5;1;0.5;2;2.5
"banksy acheter";1;0.5;2;2;1;0.5;2;2
"monica denevan";1;1;1;6;1;1;1;6
"tony soulié";1;0.16666666666667;6;3.5;1;0.33333333333333;3;4
"male nude";1;1;1;22;1;1;1;22
"philippe frisée";1;0.33333333333333;3;3;1;0.33333333333333;3;3
"eric de ville";1;0.25;4;3.75;1;0.5;2;4
"wilfred peintre";1;0.2;5;3;1;1;1;3;0;0;4;3
"orlinda lavergne";1;0.33333333333333;3;5;1;0.33333333333333;3;5
"benjamin carbone";1;0.5;2;1;1;0.5;2;1
"mr chat street art";1;1;1;5;1;1;1;5
"lyvie de sutter";1;1;1;8;1;1;1;8
"claude closky biographie";1;0.33333333333333;3;4;1;0.33333333333333;3;4
moscovino;1;0.5;2;4;1;0.5;2;4
"déesse sculpture";1;0.33333333333333;3;6;0;0;2;6;1;1;1;6
"denis christophel";1;1;1;3;1;1;1;3
villeglé;1;0.058823529411765;17;4.5294117647059;1;0.1;10;4.3;0;0;4;4.75;0;0;3;5
"henri lamy";1;0.0625;16;4.125;1;0.16666666666667;6;4;0;0;3;4
"sculpture monumental";1;0.5;2;4;1;0.5;2;4
"cesar sculpteur oeuvres";1;1;1;4;1;1;1;4
"charles fazzino";1;0.16666666666667;6;5.1666666666667;0;0;1;5;0;0;1;6;1;0.25;4;5
"jerome mesnager";1;0.055555555555556;18;3.7777777777778;1;0.090909090909091;11;3.1818181818182;0;0;6;4.8333333333333;0;0;1;4
"didier dalmas";1;1;1;79;1;1;1;79
"artop lille";1;0.5;2;5;1;0.5;2;5
"ramzi adek";1;0.25;4;5;1;0.25;4;5
"topolino sete";1;0.2;5;3;1;0.2;5;3
"galerie gabel biot";1;0.33333333333333;3;4;0;0;1;3;0;0;1;5;1;1;1;4
"hervé perdriel";1;1;1;2;1;1;1;2
"le floch et le floch";1;1;1;1;1;1;1;1
"vente d'art";1;0.5;2;1;1;1;1;1;0;0;1;1
"daphne corregan";1;0.5;2;8;1;0.5;2;8
"sunday b morning";1;0.33333333333333;3;18;1;0.5;2;18
jadikan;1;0.33333333333333;3;6.6666666666667;1;0.33333333333333;3;6.6666666666667
"guy denning";1;0.125;8;5.25;1;0.2;5;5;0;0;3;5.6666666666667
"robert combas";1;0.0125;80;4.525;1;0.017543859649123;57;4.2280701754386;0;0;17;5.0588235294118;0;0;6;5.8333333333333
"spark benjamin";1;0.25;4;7.75;0;0;2;8.5;1;0.5;2;7
"pierre dubrunquez";1;0.14285714285714;7;1;1;0.25;4;1;0;0;3;1
"rudolf hausner";1;0.33333333333333;3;2.3333333333333;1;0.33333333333333;3;2.3333333333333
"hank china";1;0.14285714285714;7;1;1;0.33333333333333;3;1;0;0;4;1
"christian rose photographe";1;1;1;11;1;1;1;11
"kuroda aki";1;1;1;6;1;1;1;6
"tableau miss tic";1;1;1;2;1;1;1;2
"jaké artwork";1;1;1;3;1;1;1;3
"jacques damez";1;0.5;2;3;1;0.5;2;3
"jf jonvelle";1;1;1;11;1;1;1;11
"anti artiste";1;0.33333333333333;3;2;0;0;1;2;1;0.5;2;2
"banksy achat";1;1;1;2;1;1;1;2
"galerie d art bruxelles";1;0.33333333333333;3;10;1;0.33333333333333;3;10
"georges bru";1;0.5;2;2;1;1;1;2;0;0;1;2
"thomas bossard artist";1;0.5;2;2;1;1;1;2;0;0;1;2
"nikolas fouré";1;0.5;2;7;1;0.5;2;7
"christophe charbonnel";1;0.11111111111111;9;5.5555555555556;1;0.16666666666667;6;5.6666666666667;0;0;2;5;0;0;1;6
"olivier lelong";1;0.5;2;2;1;0.5;2;2
"mr chat";1;0.03448275862069;29;5.3793103448276;1;0.2;5;6;0;0;1;6
ecloz;1;0.25;4;3;1;0.25;4;3
"patrick guidot";1;0.25;4;6;1;0.25;4;6
artsper.com;1;0.33333333333333;3;1;1;0.33333333333333;3;1
"seize happywallmaker";1;0.5;2;6.5;1;0.5;2;6.5
"wang yan cheng";1;0.05;20;7.1;1;0.083333333333333;12;6.9166666666667;0;0;7;7;0;0;1;10
"antoine geiger louvre";1;0.5;2;4;1;0.5;2;4
"keith haring oeuvres";1;0.047619047619048;21;5.9047619047619;1;0.058823529411765;17;5.7058823529412;0;0;2;6.5;0;0;2;7
"ilona kiss";1;1;1;7;1;1;1;7
"etienne gros peintre";1;0.25;4;3.75;1;1;1;4;0;0;1;3;0;0;2;4
"under construction gallery";1;0.25;4;4.75;1;0.5;2;4.5;0;0;2;5
"oeuvres de nils udo";1;1;1;6;1;1;1;6
"filles en bas de soie";1;0.25;4;2;1;0.25;4;2
"sculpture monumentale";1;0.2;5;3.2;1;0.25;4;3.25;0;0;1;3
"claire fahys";1;1;1;2;1;1;1;2
"cecile desserle";1;0.14285714285714;7;5;1;0.25;4;5;0;0;1;5;0;0;2;5
"galerie couteron";1;0.5;2;6;1;0.5;2;6
"romero britto";1;0.023255813953488;43;8.0232558139535;1;0.037037037037037;27;8.4444444444444;0;0;12;7.0833333333333;0;0;4;8
"bastien cuenot";1;0.16666666666667;6;1;1;1;1;1;0;0;5;1
"cecile colombo";1;0.14285714285714;7;4.5714285714286;0;0;3;4;1;0.25;4;5
"menjinski artiste";1;1;1;4;1;1;1;4
fkdl;1;0.11111111111111;9;4.3333333333333;1;0.25;4;4;0;0;3;4.3333333333333;0;0;2;5
"lunch atop a skyscraper toile";1;1;1;11;1;1;1;11
"eva jospin biographie";1;0.25;4;4;1;0.25;4;4
brugier;1;0.33333333333333;3;8;1;0.33333333333333;3;8
"basquiat skull";1;1;1;3;1;1;1;3
"jean françois jonvelle";1;0.33333333333333;3;7;1;0.5;2;10;0;0;1;1
"stephanie slama";1;0.5;2;6.5;1;1;1;6;0;0;1;7
"malika mokadem photographe";1;0.25;4;10;0;0;2;10;1;0.5;2;10
"philippe pasqua prix";1;1;1;1;1;1;1;1
"juliette choné";1;0.5;2;4;1;1;1;4;0;0;1;4
"tilt graffiti shop";1;0.25;4;7.5;1;0.25;4;7.5
"feng hatat";1;0.5;2;3;1;0.5;2;3
"sebastien mehal";1;0.25;4;7.5;1;0.5;2;7
"thierry michelet";1;0.33333333333333;3;5.3333333333333;0;0;2;5;1;1;1;6
"aurelie mantillet";1;0.5;2;9;1;0.5;2;9
"ernest breleur";1;0.5;2;5.5;1;1;1;6
"louis blanc photographe";1;0.5;2;1;1;0.5;2;1
"raphael laventure";1;0.25;4;1;1;0.33333333333333;3;1;0;0;1;1
"nyaba leon ouedraogo";1;0.33333333333333;3;4.3333333333333;1;0.5;2;4;0;0;1;5
"galerie rx paris 8";1;1;1;13;1;1;1;13
"thomas muller artiste";1;0.16666666666667;6;1;1;0.16666666666667;6;1
"artsper societe";1;0.33333333333333;3;1;1;1;1;1
"quik graffiti";1;0.5;2;7.5;1;1;1;8;0;0;1;7
"arnaud liard";1;0.25;4;2.75;0;0;1;3;1;0.5;2;2.5;0;0;1;3
"pierre marie brisson";1;0.5;2;3;1;0.5;2;3
"hom nguyen prix";1;1;1;3;1;1;1;3
"galerie w";1;0.0625;16;3.3125;0;0;14;3.2142857142857;1;0.5;2;4
"greg léon guillemin";1;1;1;6;1;1;1;6
sculptures;1;0.037037037037037;27;6.1851851851852;1;0.045454545454545;22;6.0909090909091;0;0;2;6.5;0;0;3;6.6666666666667
"yiqiang wu";1;0.5;2;3;1;0.5;2;3
"dominique perreau";1;0.25;4;6;1;0.25;4;6
"audoin desforges";1;0.2;5;6;1;0.25;4;6;0;0;1;6
"bernard pras oeuvre";1;0.14285714285714;7;2;1;0.33333333333333;3;2;0;0;1;2;0;0;3;2
"unik galerie";1;1;1;1;1;1;1;1
"dussac peintre";1;1;1;4;1;1;1;4
"affiche jr";1;0.5;2;5.5;1;0.5;2;5.5
"axel gouala";1;0.25;4;2.75;1;0.25;4;2.75
"open art galerie dijon";1;0.5;2;6;1;1;1;6
"mist graffiti";1;1;1;12;1;1;1;12
"frank fischer artist";1;0.33333333333333;3;5;1;0.33333333333333;3;5
"ben bella peintre";1;0.2;5;2;0;0;1;2;1;0.25;4;2
"topolino artiste";1;0.16666666666667;6;1;1;0.16666666666667;6;1
"hideki yoshida";1;0.5;2;8;1;1;1;8;0;0;1;8
"combas robert";1;0.1;10;4.9;1;0.33333333333333;3;4;0;0;5;5.4;0;0;2;5
"jm robert";1;0.083333333333333;12;1.5833333333333;1;0.2;5;2;0;0;1;2;0;0;6;1.1666666666667
"dope gallery";1;0.5;2;5;1;0.5;2;5
"moya peintre";1;0.5;2;7;1;0.5;2;7
kouka;1;0.1;10;8.1;1;0.125;8;7.875;0;0;2;9
"joelle troussier";1;0.33333333333333;3;4;1;1;1;5
"girls nues";1;1;1;21;1;1;1;21
mulhem;1;1;1;4;1;1;1;4
"ben artiste";1;0.076923076923077;13;4.1538461538462;1;0.11111111111111;9;3.4444444444444;0;0;4;5.75
"iemza acheter";1;1;1;1;1;1;1;1
"atelier morales";1;1;1;3;1;1;1;3
"andoche praudel";1;1;1;4;1;1;1;4
"kumi sugai";1;0.25;4;2.75;1;0.33333333333333;3;3
"alain hatat";1;0.2;5;4.8;1;0.33333333333333;3;4.6666666666667
"tilt graffeur";1;0.2;5;6;1;0.2;5;6
"vincent richeux";1;0.052631578947368;19;4.2105263157895;1;0.090909090909091;11;4.3636363636364;0;0;5;4;0;0;3;4
"bernard moninot";1;0.16666666666667;6;6.1666666666667;1;0.16666666666667;6;6.1666666666667
"carl andre";1;0.076923076923077;13;6.3846153846154;1;0.125;8;6;0;0;4;7;0;0;1;7
"david mesguich";1;0.5;2;8;1;0.5;2;8
"thoma ryse";1;1;1;7;1;1;1;7
"richard orlinski";1;0.021739130434783;46;7.3913043478261;1;0.045454545454545;22;7.1818181818182;0;0;2;7
"eric vernhes";1;0.16666666666667;6;6.5;0;0;4;6;0;0;1;9;1;1;1;6
"art géométrique";1;1;1;16;1;1;1;16
"mikael lafontan";1;0.5;2;2.5;1;1;1;3
"fernando costa";1;0.090909090909091;11;4.2727272727273;1;0.11111111111111;9;4.1111111111111;0;0;2;5
"jiri borsky";1;1;1;4;1;1;1;4
"césar baldaccini oeuvres";1;1;1;4;1;1;1;4
"thomas subtil";1;0.25;4;8;1;0.25;4;8
combas;1;0.013513513513514;74;6.0945945945946;0;0;46;5.5217391304348;0;0;22;6.8181818181818;1;0.16666666666667;6;7.8333333333333
"envie d'art";1;0.076923076923077;13;3.9230769230769;1;0.083333333333333;12;3.9166666666667;0;0;1;4
"andrea michaelsson";1;1;1;2;1;1;1;2
"julien raynaud";1;0.14285714285714;7;3.8571428571429;1;0.14285714285714;7;3.8571428571429
"ahn sun mi";1;1;1;6;1;1;1;6
"peintre clement";1;0.5;2;7;1;0.5;2;7
"edouard mazaré";1;0.25;4;4.5;1;0.33333333333333;3;3;0;0;1;9
"alexandre mulliez";1;0.125;8;1;1;0.2;5;1;0;0;1;1;0;0;2;1
quik;1;0.0071428571428571;140;1.9571428571429;1;0.015151515151515;66;1.6818181818182;0;0;52;2.1730769230769;0;0;22;2.2727272727273
"françois glineur peintre";1;0.5;2;2;0;0;1;2;1;1;1;2
capton;1;0.071428571428571;14;3.6428571428571;0;0;1;4;1;0.2;5;3.6
"yves zurstrassen";1;1;1;5;1;1;1;5
"artiste peintre julien";1;1;1;7;1;1;1;7
"mwenze kibwanga";1;0.14285714285714;7;3;1;0.14285714285714;7;3
"chris morin-eitner";1;1;1;3;1;1;1;3
"gregoire leon guillemin";1;1;1;3;1;1;1;3
"robert combas œuvres d'art";1;1;1;4;1;1;1;4
aranthell;1;1;1;3;1;1;1;3
"galerie cedric bacqueville";1;1;1;5;1;1;1;5
"robert mapplethorpe biographie";1;1;1;3;1;1;1;3
"thierry valencin";1;0.083333333333333;12;5.3333333333333;1;0.125;8;6;0;0;1;3;0;0;3;4.3333333333333
"eva navarro";1;0.5;2;1;1;0.5;2;1
"flower puppy koons";1;1;1;10;1;1;1;10
"samuel levy";0;0;1;8
"nathalie grall gravure";0;0;3;7;0;0;3;7
"home alone 5";0;0;1;8;0;0;1;8
"art peinture contemporaine";0;0;5;3.4;0;0;3;3.3333333333333;0;0;1;4
"etienne jules marey oeuvres";0;0;1;55;0;0;1;55
"rancillac peintre";0;0;1;8;0;0;1;8
"galerie olivier waltman";0;0;3;4.3333333333333;0;0;1;5
"la souris sur le gateau";0;0;4;8.25;0;0;1;9
"st-art strasbourg";0;0;1;53
"francoise petrovitch";0;0;5;7.6;0;0;3;8
"cesar peintre";0;0;2;6;0;0;1;6;0;0;1;6
"françois bard";0;0;7;2.4285714285714;0;0;1;3;0;0;1;3
"charles bataille";0;0;1;10
"olivier leroy photographe";0;0;1;5;0;0;1;5
"jasmine black";0;0;3;21.333333333333;0;0;1;21
"sylvie koechlin";0;0;1;18;0;0;1;18
"antoine geiger";0;0;4;6;0;0;4;6
"audrey hepburn peinture";0;0;1;9;0;0;1;9
"andy warhol prix";0;0;1;19
fadier;0;0;1;8;0;0;1;8
"orlan oeuvre";0;0;1;6
"la galerie b&b";0;0;1;180
"sculpture art";0;0;2;4;0;0;2;4
"oeuvre d'art pas cher";0;0;3;2;0;0;1;2
"dali biographie";0;0;1;37
zalez;0;0;2;5;0;0;2;5
"robert rauschenberg oeuvres";0;0;2;10;0;0;2;10
"didier triglia";0;0;2;5
"art de vendre";0;0;1;4;0;0;1;4
"les 3 garces";0;0;1;10
caresses;0;0;1;205
"biographie de banksy";0;0;1;10;0;0;1;10
"morgan paslier";0;0;2;2.5;0;0;1;2;0;0;1;3
"paris match";0;0;2;41.5;0;0;2;41.5
"prat frederic";0;0;1;9
"michèle destarac";0;0;4;3
"oeuvre peinture";0;0;1;25;0;0;1;25
"art de la rue";0;0;1;32
"9e concept";0;0;1;7
"george platt lynes gallery";0;0;1;8
"costa sculpteur";0;0;1;3;0;0;1;3
"lawrence wiener";0;0;1;9
"open galerie";0;0;1;11;0;0;1;11
"vente peinture";0;0;3;29.333333333333
"nue feminin";0;0;1;43;0;0;1;43
"carrie janisse nude";0;0;1;9;0;0;1;9
"jean paul agosti";0;0;1;10
"galerie en ligne";0;0;4;1.25;0;0;1;2;0;0;1;1
"idees serie";0;0;1;28
"art acheter";0;0;1;2
"pierre cornudet";0;0;2;2;0;0;2;2
mbfactory;0;0;1;9;0;0;1;9
"galerie collin rennes";0;0;1;6;0;0;1;6
"street art vente";0;0;1;5
"nicolas gasiorowski";0;0;1;9
"galerie contemporain";0;0;1;5;0;0;1;5
"billet banksy";0;0;1;1;0;0;1;1
saifou;0;0;2;9;0;0;2;9
"gilles aillaud oeuvres";0;0;3;5;0;0;3;5
"isabelle de mars";0;0;1;3;0;0;1;3
"annette messager bio";0;0;1;7
"peinture julien";0;0;1;26;0;0;1;26
"artiste peintre thailandais";0;0;1;26
"kouka artiste";0;0;2;5.5;0;0;1;7;0;0;1;4
"sarah jacobs";0;0;1;7;0;0;1;7
"guy boyer";0;0;4;8;0;0;1;7;0;0;1;8
"sculpteur contemporain animaux";0;0;1;13;0;0;1;13
"andy warhol keith haring";0;0;1;10
"combas peinture";0;0;7;5.8571428571429;0;0;3;5;0;0;1;5
"sumi e";0;0;1;40
"tom wesselmann collage";0;0;1;5
"richard orlinski tarif";0;0;2;5;0;0;2;5
"myriam baudin";0;0;1;3
"nicolas moreau peintre";0;0;1;5;0;0;1;5
"jean dubuffet biographie simple";0;0;1;3
"blue gun france";0;0;1;11;0;0;1;11
"philippe lopez";0;0;1;15
"keith haring oeuvre principale";0;0;1;7
"art amateur";0;0;1;16;0;0;1;16
"césar baldaccini ses oeuvres";0;0;1;5;0;0;1;5
"tag roll";0;0;1;9;0;0;1;9
"artistes colombiens";0;0;4;5;0;0;3;5;0;0;1;5
"yan pei ming survivants";0;0;2;7;0;0;1;7
"sculpture terre cuite";0;0;1;19;0;0;1;19
"enki bilal mécanhumanimal";0;0;1;43
"galerie garnier delaporte";0;0;1;4;0;0;1;4
"lampe en verre de murano";0;0;2;42
"oeuvre d'art orange";0;0;2;9;0;0;2;9
mitrofanoff;0;0;4;9.25;0;0;1;10;0;0;2;9;0;0;1;9
"elodie gregoire";0;0;3;7.6666666666667;0;0;2;7
"villéglé oeuvres";0;0;1;1
"liu bolin biographie";0;0;1;2;0;0;1;2
"djinane alsuwayeh";0;0;1;7
nyaba;0;0;1;4
"dubuffet oeuvres";0;0;5;6.2;0;0;5;6.2
"galerie bertrand gillig";0;0;3;3.6666666666667;0;0;1;4;0;0;1;4
"ibrahim miranda";0;0;1;5;0;0;1;5
"ivan messac";0;0;3;5;0;0;1;5;0;0;2;5
"bertrand desprez";0;0;1;6
"aurélie bauer peintre";0;0;1;7;0;0;1;7
"wes21 art";0;0;1;10;0;0;1;10
wesselman;0;0;2;7.5;0;0;2;7.5
"anna zuber";0;0;1;6
sigune;0;0;1;10;0;0;1;10
"bache camion";0;0;1;146;0;0;1;146
infinissable;0;0;2;8;0;0;2;8
"alexandre durand";0;0;2;9.5;0;0;1;9
"le cha noir";0;0;1;6;0;0;1;6
zooportrait;0;0;1;5;0;0;1;5
"butz et fouque";0;0;2;1
"bossa talents";0;0;2;2
"annabelle guetatra";0;0;1;10
"russian monroe";0;0;2;7;0;0;2;7
"jean noel laszlo";0;0;2;4
"galerie wagner";0;0;4;5.5;0;0;1;4
"lievre des neiges";0;0;1;11;0;0;1;11
"galerie zimmerling & jungfleisch";0;0;1;1;0;0;1;1
"photo d art";0;0;1;32
"sandrine paumelle";0;0;1;5
"galerie la louve";0;0;1;28
"marie finaz gallery";0;0;1;11
sclupture;0;0;2;7;0;0;1;7
"bouillon d'art bordeaux";0;0;3;4.3333333333333;0;0;1;5
"oeuvres meaning";0;0;1;225
schwurhand;0;0;1;5;0;0;1;5
"roman klonek";0;0;1;5;0;0;1;5
"achat art en ligne";0;0;3;1
"galerie audet";0;0;1;7;0;0;1;7
"vente pignon";0;0;2;20.5
"oeuvre d'art moderne";0;0;4;1;0;0;3;1;0;0;1;1
"christophe catelain";0;0;3;3;0;0;2;3;0;0;1;3
"art et entreprise";0;0;2;5;0;0;2;5
"banksy oeuvre";0;0;3;9.6666666666667;0;0;3;9.6666666666667
"peintre nadal";0;0;1;5
"vincent fillon";0;0;3;7
"uche okpa-iroha";0;0;2;3
"françois grimaldi";0;0;4;10;0;0;4;10
"ernest pignon ernest biographie longue";0;0;1;10;0;0;1;10
"fausto marci";0;0;2;7;0;0;2;7
"oeuvre d'art du 21eme siecle";0;0;1;5;0;0;1;5
"lyle carbajal";0;0;2;3;0;0;1;3
"wish list homme";0;0;1;18
"alain crocq";0;0;3;2.6666666666667;0;0;1;2;0;0;2;3
"lamy artiste peintre";0;0;2;8
"vente de sculpture";0;0;1;1
abcgallery;0;0;1;3
"sculpture resine rouge";0;0;1;10;0;0;1;10
arten;0;0;1;8
"yan pei ming";0;0;1;32;0;0;1;32
mareck;0;0;2;11;0;0;2;11
saudek;0;0;9;7.8888888888889;0;0;4;8.5;0;0;5;7.4
"mark jenkins";0;0;12;8.6666666666667;0;0;12;8.6666666666667
"tristan alexandre";0;0;1;2
"galerie mecanica";0;0;1;4
"jeff aerosol";0;0;1;4;0;0;1;4
"oeuvres de dubuffet";0;0;4;6;0;0;2;5;0;0;2;7
"jana & js";0;0;2;7.5;0;0;2;7.5
galeries;0;0;28;8.0357142857143;0;0;4;8
"jane kallir";0;0;3;20
rakel;0;0;4;11.5;0;0;2;9
"xin art";0;0;1;4
"robert barry";0;0;1;11;0;0;1;11
"cheval de przewalski";0;0;1;97
"virginie soubeiroux";0;0;7;3
"ralph samuel";0;0;1;13;0;0;1;13
"inde paysage";0;0;2;46
"john william waterhouse œuvres d'art";0;0;1;9;0;0;1;9
"""fabrice hyber""";0;0;1;8;0;0;1;8
"oeuvre de bernard buffet";0;0;1;10;0;0;1;10
jakè;0;0;4;4;0;0;3;4
"stéphane joannes";0;0;1;1
"massimo vitalli";0;0;1;7
"francine van hove peintre";0;0;1;10
"biographie artiste peintre autodidacte";0;0;1;37
"jacques ibert oeuvre";0;0;1;4;0;0;1;4
"sculpture pingouin";0;0;1;35
nowart;0;0;4;3;0;0;3;3
"orlinski crocodile prix";0;0;1;5
"vente insectes";0;0;1;303;0;0;1;303
"jacques verdier";0;0;1;22
"tableau artiste contemporain";0;0;2;4
"andrew painter";0;0;2;14
"isabelle bonzom";0;0;2;4;0;0;2;4
truc-anh;0;0;1;5
"mr brainwash est banksy";0;0;1;21
zonder;0;0;1;24
"laurence dreyfus";0;0;6;8.1666666666667;0;0;5;8;0;0;1;9
"peur art";0;0;3;1;0;0;2;1
"retraite doree";0;0;1;41;0;0;1;41
"oeuvre keith haring";0;0;2;5.5
speedygraphito;0;0;18;7;0;0;18;7
"murakami sculpture";0;0;1;8;0;0;1;8
"justine smith";0;0;1;8;0;0;1;8
"miro oeuvres";0;0;1;1;0;0;1;1
camen;0;0;2;5.5;0;0;1;7;0;0;1;4
"jeunes artistes contemporains";0;0;1;7
"henry lamy";0;0;1;4
"roberto battistini";0;0;2;10
"karl lagasse prix";0;0;1;1
"jm robert peintre";0;0;4;2.25;0;0;1;3
"sérigraphie d'art";0;0;1;19
"oeuvre d'art qui fait peur";0;0;2;3
"flexo zed";0;0;1;3;0;0;1;3
"wesselmann oeuvres";0;0;1;5;0;0;1;5
"di rose";0;0;1;6;0;0;1;6
"keith haring christmas";0;0;1;10;0;0;1;10
"viviane meier";0;0;1;21
"von wrede";0;0;1;8;0;0;1;8
"francois morellet";0;0;13;9.1538461538462;0;0;4;10
"anne messager";0;0;1;5
"delphine lebourgeois";0;0;1;5;0;0;1;5
rivieras;0;0;1;169
"prix sculpture";0;0;1;3;0;0;1;3
"marie vitoux";0;0;1;2
"james coignard";0;0;9;8.8888888888889
"artiste atlas";0;0;2;6
"julian opie oeuvres";0;0;1;4;0;0;1;4
"loane nguyen";0;0;2;4;0;0;2;4
"wtc 25";0;0;1;8;0;0;1;8
"bonhomme blanc argent";0;0;3;8
"herve telemaque";0;0;1;5;0;0;1;5
"galerie jean denis walter";0;0;3;6.6666666666667;0;0;2;6;0;0;1;8
"jef aérosol";0;0;6;4
mpah;0;0;2;2;0;0;2;2
perdriel;0;0;1;17;0;0;1;17
"stanley greene";0;0;2;17
"sophie laguette";0;0;1;6
"compression cesar";0;0;1;17
"galerie filles nues noir et blancs";0;0;1;36;0;0;1;36
"jeff koons oeuvres";0;0;1;22
"raul diaz";0;0;1;3
"michelle auboiron";0;0;1;10
xxxx;0;0;1;136
"claude leveque biographie";0;0;2;2;0;0;2;2
"oeuvre miro";0;0;1;11;0;0;1;11
"richard olinski";0;0;2;7;0;0;2;7
"basquiat oeuvre";0;0;2;9.5;0;0;1;9
"bernard chauveau editeur";0;0;1;8;0;0;1;8
"sculpture contemporaine platre";0;0;1;2
"office du tourisme dinard";0;0;1;17;0;0;1;17
"hyber fabrice";0;0;1;11;0;0;1;11
shuck2;0;0;1;10;0;0;1;10
"pascale barret";0;0;1;10;0;0;1;10
"maelle de coux";0;0;1;4
"photo art contemporain";0;0;3;2;0;0;1;2;0;0;1;2
"peinture gris fumé";0;0;1;10;0;0;1;10
"evelyne postic peintre";0;0;1;5;0;0;1;5
"toile cirée contemporaine";0;0;2;72.5;0;0;2;72.5
"vincent descotils";0;0;8;9
"vente photographie";0;0;2;16.5
"tableau jonone";0;0;1;1;0;0;1;1
"bouillon d'art";0;0;9;3
"laetitia x";0;0;1;20;0;0;1;20
"françois malingrëy";0;0;3;4
"miss van";0;0;1;10
"galerie art france";0;0;1;28;0;0;1;28
"mark jenkins oeuvre";0;0;1;2;0;0;1;2
"thomas bossard peintre";0;0;1;3;0;0;1;3
"romero birtto";0;0;1;7
"art des lèvres";0;0;1;30
takala;0;0;3;4;0;0;1;4
"photo contemporaine art";0;0;1;2;0;0;1;2
obey;0;0;1;83;0;0;1;83
"grisor peintre";0;0;1;1;0;0;1;1
"galeries nue";0;0;1;21
"cote jonone";0;0;1;6;0;0;1;6
phlipo;0;0;1;7;0;0;1;7
"jean luc beaufils";0;0;3;4
"makiko furuichi";0;0;1;10
"my an";0;0;2;9
"raimond hains";0;0;9;9.7777777777778
"peinture sur bitume";0;0;1;45
"étienne gros";0;0;1;6
"clément denis";0;0;1;2;0;0;1;2
"elodie gregoire photographe";0;0;1;4;0;0;1;4
"signe paysage";0;0;1;2;0;0;1;2
"monochrome rose";0;0;1;4
"galerie bertrand";0;0;1;10
"piero pizzi cannella";0;0;2;18
"sculpture à vendre";0;0;11;1
"john kacere";0;0;3;10;0;0;3;10
"bernard frize oeuvres";0;0;1;10;0;0;1;10
"oeuvre d'art contemporaine";0;0;5;1;0;0;3;1
"salopette homme";0;0;1;100
"clarisse rebotier";0;0;3;10;0;0;3;10
"bernar venet oeuvres";0;0;3;5;0;0;2;5
"k haring oeuvre";0;0;2;6;0;0;2;6
"karl andre";0;0;2;7;0;0;2;7
"see hg";0;0;1;9;0;0;1;9
uruguayens;0;0;1;207;0;0;1;207
"philippe r";0;0;1;10;0;0;1;10
"raymond hains oeuvres";0;0;1;6
"ange basso";0;0;2;3;0;0;2;3
"peinture dubuffet";0;0;1;5
"photographie d\'art";0;0;2;28
"eugenio carmi";0;0;1;9;0;0;1;9
"ot 13";0;0;1;9
asgar;0;0;1;10;0;0;1;10
"gerstein david";0;0;1;3;0;0;1;3
"wifredo lam biographie";0;0;2;10
"roberto matta œuvres d'art";0;0;1;10
scultures;0;0;1;9
"joan miro oeuvres";0;0;10;9.1;0;0;1;1
"jonone cote";0;0;1;7;0;0;1;7
"claude leveque oeuvres";0;0;4;5.25;0;0;3;5.3333333333333
c215;0;0;1;27
"adele moreau";0;0;1;6
"musées d'art à chattanooga";0;0;3;53.333333333333;0;0;3;53.333333333333
"annette messager oeuvres";0;0;6;8;0;0;3;8
"site galerie d'art";0;0;2;1.5;0;0;1;2;0;0;1;1
"brisson pierre";0;0;3;10;0;0;3;10
"veronique bourgeois";0;0;2;9;0;0;1;9
"graffeur tilt";0;0;1;6;0;0;1;6
"la roncière";0;0;1;46
"mensing artistes";0;0;19;7.7894736842105
"damien hirst oeuvres";0;0;1;10
"charlotte lelong";0;0;2;9;0;0;1;8;0;0;1;10
"banksy prix";0;0;2;8.5;0;0;1;10
"sculpture bruno catalano prix";0;0;1;4;0;0;1;4
"davide lachapelle";0;0;1;5
"philippe bonan";0;0;1;3
"acheter un chat";0;0;1;46
"desserle cecile";0;0;1;5;0;0;1;5
"achat sculpture contemporaine";0;0;1;1;0;0;1;1
"tapis contemporain haut de gamme";0;0;1;30;0;0;1;30
"artistes marocains contemporains";0;0;1;3
"torrick ablack";0;0;1;9
"françoise danel peintre";0;0;2;2;0;0;1;2;0;0;1;2
"jean marie drouet peintre";0;0;2;4;0;0;2;4
"hélène de saint lager";0;0;1;12;0;0;1;12
"galerie des petits carreaux";0;0;1;3
nudes;0;0;3;92.333333333333
"richard di rosa";0;0;4;3.5;0;0;1;4;0;0;1;4
"victoria klotz";0;0;2;3.5;0;0;2;3.5
"oeuvres basquiat";0;0;1;6;0;0;1;6
"majhoub ben bella";0;0;1;4
"herve di rosa";0;0;5;4.4;0;0;3;4;0;0;1;5;0;0;1;5
deprun;0;0;1;10;0;0;1;10
"sarah bowman";0;0;1;14
"artiste keith haring";0;0;1;8;0;0;1;8
mrsex;0;0;2;17;0;0;2;17
"dok artiste";0;0;1;1;0;0;1;1
"balloon dog";0;0;13;10.461538461538;0;0;4;11;0;0;2;11
"banksy biographie";0;0;10;10.1
"eric liot";0;0;1;10;0;0;1;10
"art jingle";0;0;2;4.5;0;0;1;4;0;0;1;5
"rouge ming";0;0;1;67
"peinture nude";0;0;2;10;0;0;1;10
"budet joel";0;0;2;48;0;0;2;48
"david guiraud";0;0;2;9
"sunday b morning andy warhol";0;0;1;1
"oeuvre en papier";0;0;3;4.6666666666667;0;0;2;4
"jace artiste";0;0;1;6
"patrick delaunay";0;0;1;5
"mahe x";0;0;1;9;0;0;1;9
"patrick cornillet";0;0;1;3;0;0;1;3
"christian courrèges";0;0;1;2
gambare;0;0;3;10
layral;0;0;4;5
"joan pere viladecans";0;0;1;4;0;0;1;4
"keith haring crack down";0;0;2;2.5;0;0;1;3
"emilie danchin";0;0;2;7;0;0;2;7
"biographie bansky";0;0;1;7
"sandra zeenni";0;0;1;6
"gérard alary";0;0;2;4;0;0;2;4
"galerie d'art bruxelles";0;0;1;81
koolkoor;0;0;1;4
keymi;0;0;3;10.666666666667;0;0;3;10.666666666667
"silhouette mixte";0;0;1;5
"fleury sylvie";0;0;2;9;0;0;1;9;0;0;1;9
"kusama biographie";0;0;1;7;0;0;1;7
fazino;0;0;2;8;0;0;2;8
"eric lapierre";0;0;1;18
"jacques villeglé biographie courte";0;0;1;2;0;0;1;2
"pin up sculpture";0;0;1;8;0;0;1;8
"tao chambery";0;0;1;8
"lucien murat artiste";0;0;1;4
"tof vanmarque";0;0;1;3;0;0;1;3
"alexandra gestin sculpture";0;0;1;7;0;0;1;7
bansky;0;0;2;20.5
beata;0;0;1;256
"georges dumas";0;0;2;11;0;0;2;11
"apple or";0;0;2;5;0;0;2;5
"joan mitchell trees";0;0;2;4;0;0;2;4
"debut contemporary";0;0;2;4
"galerie sbk";0;0;1;5;0;0;1;5
"apprentissage vente";0;0;2;246;0;0;2;246
"envie d";0;0;1;7;0;0;1;7
"jr oeuvres";0;0;1;6;0;0;1;6
merienne;0;0;3;6;0;0;2;7;0;0;1;4
"jean francois rauzier";0;0;4;6
"nu féminin";0;0;1;50;0;0;1;50
"gregory watin";0;0;2;5
"juliette schwartz";0;0;1;6
"i smoke";0;0;1;26
"frédéric deprun";0;0;1;4;0;0;1;4
"jef aerosol vente";0;0;3;1;0;0;3;1
conbass;0;0;3;7.6666666666667;0;0;3;7.6666666666667
lachize;0;0;3;5;0;0;1;2;0;0;2;6.5
"monsieur le chat";0;0;3;6.6666666666667;0;0;1;5;0;0;1;6;0;0;1;9
ommer;0;0;1;9;0;0;1;9
mallart;0;0;1;10
manquin;0;0;1;35
"achat sculpture";0;0;1;1;0;0;1;1
bailart;0;0;1;7;0;0;1;7
"alexis gorodine";0;0;1;3
"timmers peintre";0;0;1;10;0;0;1;10
"œuvre médias mixtes";0;0;2;12
godidog;0;0;2;4
"anne et patrick poirier oeuvres";0;0;3;4.6666666666667
"alain rivière lecoeur";0;0;1;3;0;0;1;3
hatat;0;0;1;9;0;0;1;9
"miss tuc";0;0;2;6;0;0;1;7
"galerie art moderne";0;0;2;2.5;0;0;2;2.5
"mahjoub ben bella wikipedia";0;0;1;1
"e gallery";0;0;1;34
"galerie d'art contemporain en ligne";0;0;4;1;0;0;4;1
"murakami peintre";0;0;2;4;0;0;2;4
wesselmann;0;0;10;7.8
"box photo";0;0;1;106
"tableau 21eme siecle";0;0;1;5
"peinture animaux";0;0;2;28
"romero brito";0;0;3;7;0;0;1;7
"shirley jaffe artiste";0;0;2;3;0;0;2;3
"marion colomer";0;0;1;2;0;0;1;2
"jeanne susplugas";0;0;3;4.3333333333333;0;0;1;5
"benjamin aman";0;0;4;4
"mougin philippe";0;0;1;28
damez;0;0;1;10;0;0;1;10
"oeuvres d";0;0;1;6
"vente de tableaux contemporains";0;0;2;3.5;0;0;1;2;0;0;1;5
"epoux arnolfini";0;0;1;50
"peintre milo";0;0;7;6.7142857142857;0;0;2;6.5;0;0;5;6.8
"dubuffet peintre";0;0;1;5;0;0;1;5
"ipso france";0;0;2;34;0;0;2;34
"roch vandromme";0;0;4;4.5;0;0;1;5;0;0;1;5
"nite lite magazine";0;0;1;7
"chase school of fine and applied arts";0;0;1;6;0;0;1;6
"murielle belin";0;0;2;4.5;0;0;1;4;0;0;1;5
"morellet artiste";0;0;1;9;0;0;1;9
"familia 11";0;0;1;4;0;0;1;4
doppeldenk;0;0;1;8;0;0;1;8
"dita ventees";0;0;1;9;0;0;1;9
noart;0;0;1;10;0;0;1;10
"oeuvres de miro";0;0;3;7.6666666666667;0;0;1;1
galeriehus;0;0;1;10;0;0;1;10
"jean helion";0;0;2;9.5;0;0;1;9;0;0;1;10
mr.chat;0;0;1;7;0;0;1;7
"matchbox cars";0;0;1;49
cortade;0;0;3;10;0;0;3;10
"thierry carrier";0;0;5;3.4;0;0;3;3.3333333333333;0;0;2;3.5
"eduardo arroyo";0;0;1;6
"banksy toile";0;0;1;11;0;0;1;11
"kenny scharf oeuvres";0;0;1;3
"damien hirst the cure";0;0;1;1;0;0;1;1
"eric bourse galerie en ligne";0;0;1;3
"natalia rak";0;0;2;3;0;0;1;3;0;0;1;3
"françois morellet artiste";0;0;1;6;0;0;1;6
"jean cocteau art";0;0;1;29;0;0;1;29
"césar expansion";0;0;4;5;0;0;1;5
"nobuyoshi araki";0;0;1;26
notaire;0;0;3;1
"nom contemporain";0;0;1;10
"jacques poli";0;0;2;7;0;0;1;7;0;0;1;7
"philippe croq";0;0;2;8.5
"mark deamsteader";0;0;1;10;0;0;1;10
"takashi murakami biographie";0;0;1;3;0;0;1;3
"cornette de saint cyr";0;0;1;24;0;0;1;24
"cedrix crespel prix";0;0;2;1;0;0;2;1
"art conceptuel disney";0;0;1;39;0;0;1;39
"tableau buffet";0;0;1;34;0;0;1;34
"christine barres";0;0;2;2.5
"deesse artiste";0;0;2;5;0;0;1;4;0;0;1;6
"balloon girl banksy";0;0;1;9
"gottfried salzmann peintre";0;0;1;9
combass;0;0;4;7.25;0;0;2;6.5
"alva bernadine";0;0;5;9.4;0;0;1;7
"jerome lagarrigue";0;0;4;4;0;0;1;4;0;0;1;4
"oeuvre dali";0;0;1;102
"erro biographie";0;0;1;5;0;0;1;5
"charles fazzino posters";0;0;1;10
"peinture arlequin et pierrot";0;0;2;8;0;0;2;8
"herve art";0;0;1;10
laveri;0;0;5;6.8;0;0;1;5;0;0;1;5;0;0;3;8
"britto romero";0;0;3;25.666666666667
"jonone prix";0;0;5;1;0;0;2;1;0;0;1;1
"marco barbon";0;0;1;7;0;0;1;7
"eva jospin galerie";0;0;1;3
"fabienne claesen";0;0;29;3
dress;0;0;1;196
"di rosa peintre";0;0;6;4.1666666666667;0;0;5;4;0;0;1;5
"nyaba ouedraogo";0;0;4;4;0;0;3;4
"laurent durrey";0;0;3;7.6666666666667;0;0;2;8
voyeur;0;0;1;204;0;0;1;204
"bagage homme blanc";0;0;1;33;0;0;1;33
"brigitte perrier";0;0;2;7.5
"elsa guillaume";0;0;2;7.5;0;0;1;8;0;0;1;7
"tete de mort diamant artiste";0;0;2;10
"patrice larue";0;0;1;10;0;0;1;10
"caroline poulet";0;0;3;3;0;0;3;3
"vente mundos";0;0;2;2;0;0;2;2
"sabine danzé";0;0;1;1
"mr le chat";0;0;1;7;0;0;1;7
"nathan chantob";0;0;8;2;0;0;1;2
"pascale lander";0;0;1;2
"benjamin laurent";0;0;1;10
"mahé boissel";0;0;2;3;0;0;2;3
"jean-pierre attal";0;0;2;6.5
"gérard boudon";0;0;1;8
"isabelle espinoza";0;0;1;18
"horaire piaget alain michal paris";0;0;1;79
"roxane stroobant";0;0;1;4
"art lilly";0;0;1;10;0;0;1;10
"flower puppy";0;0;2;7.5;0;0;1;7
"dennis nona";0;0;2;8;0;0;2;8
"thierry lo";0;0;2;4
"technique pop art";0;0;1;25;0;0;1;25
henriksen;0;0;2;8.5;0;0;2;8.5
"matisse jazz";0;0;1;18;0;0;1;18
"haring oeuvres";0;0;1;6
"luc dratwa";0;0;5;8;0;0;5;8
"bernard pras wiki";0;0;1;9
lebelhomme;0;0;2;3.5;0;0;1;3;0;0;1;4
scuptsure;0;0;1;7;0;0;1;7
"marie pascale engelmann";0;0;1;2;0;0;1;2
"oeuvre de miro";0;0;2;6;0;0;1;1
"paris art fair";0;0;1;35
"thomas muller dessin";0;0;1;5
"robert longo oeuvres";0;0;1;8
"artiste peintre yo";0;0;4;3.25
"tableau de keith haring";0;0;1;8
"bertrand noël";0;0;3;2
"julian page";0;0;1;5
"suck dart";0;0;1;6;0;0;1;6
cedrix;0;0;4;7.5
"jean luc lacroix";0;0;1;4;0;0;1;4
"artiste deesse";0;0;1;6;0;0;1;6
"galerie polysemie";0;0;1;8
"franck chambrun";0;0;3;9.3333333333333;0;0;1;10
"mani france";0;0;1;6;0;0;1;6
"leopold rabus";0;0;3;8.3333333333333;0;0;1;8;0;0;1;8
"art post";0;0;1;8
"andy warhol superman";0;0;1;5;0;0;1;5
"romina de novellis";0;0;1;12;0;0;1;12
youmin;0;0;3;6.6666666666667;0;0;1;6
"stephane jacob";0;0;1;22;0;0;1;22
"noe two prix";0;0;2;3
"oeuvre d'art originale";0;0;3;2;0;0;3;2
"bernardaud balloon dog";0;0;1;4
"solene ballesta";0;0;1;4
"kiss the wookie";0;0;1;5
"jimmy ruf";0;0;1;3
mercusot;0;0;1;10
"renaud philippot";0;0;5;1;0;0;5;1
"maxime boubekeur";0;0;1;30
"art galerie en ligne";0;0;1;1;0;0;1;1
"marie drouet";0;0;5;9.4;0;0;1;10
"christof monnin prix";0;0;1;7;0;0;1;7
"jean georges inca";0;0;3;2;0;0;3;2
"miss tik";0;0;1;7;0;0;1;7
"vente d'oeuvres d'art";0;0;1;1;0;0;1;1
"suck fuck";0;0;1;18;0;0;1;18
"guy weladji";0;0;1;1;0;0;1;1
destarac;0;0;1;5;0;0;1;5
kostadinova;0;0;1;9;0;0;1;9
"oeuvre art";0;0;5;1
"david gerstein disco large";0;0;2;53.5
"jean dubuffet oeuvres d'art";0;0;1;5
"khawater 1";0;0;4;9;0;0;1;9
"obey tableau";0;0;1;2;0;0;1;2
"homme pressé";0;0;8;7.375;0;0;7;7.4285714285714;0;0;1;7
combasse;0;0;2;6.5;0;0;2;6.5
"lance letcher";0;0;1;6;0;0;1;6
"eric ceccarini";0;0;1;9;0;0;1;9
yahiaoui;0;0;1;42
"oeuvres de dali";0;0;1;243
"pierre fontaine";0;0;1;37
"peintre animalier vaches";0;0;12;22;0;0;12;22
"david sitbon";0;0;3;6.3333333333333;0;0;2;7
maidenform;0;0;1;78
"han qin";0;0;1;3
"alain huet";0;0;1;7;0;0;1;7
"oeuvre monochrome";0;0;1;10
"zenoy graffiti";0;0;1;6;0;0;1;6
"luzia simons photography";0;0;1;7
"jamel shabazz";0;0;1;10;0;0;1;10
hearsey;0;0;1;5;0;0;1;5
"tableau technique mixte";0;0;4;21
"emily marjot";0;0;1;2;0;0;1;2
"schott paris";0;0;1;48;0;0;1;48
scotta;0;0;1;11;0;0;1;11
"vente tableau contemporain";0;0;2;1.5;0;0;1;1;0;0;1;2
"carole duhayer";0;0;5;1;0;0;3;1
nuitale;0;0;1;3;0;0;1;3
"leo galamez";0;0;2;2;0;0;1;2
"site de vente de tableaux contemporains";0;0;4;2;0;0;4;2
"obey shepard fairey biographie";0;0;1;3;0;0;1;3
"etienne cail";0;0;5;9.4;0;0;3;9.3333333333333
"christian bilger";0;0;1;6
"sculpture déesse";0;0;1;6
"montre molle";0;0;1;25
"olivier courty";0;0;4;6.25;0;0;3;6.6666666666667;0;0;1;5
"photographie art";0;0;1;36;0;0;1;36
"cadeaux rigolos";0;0;3;22.333333333333
"andy warhol perrier";0;0;1;13
"jean milo";0;0;1;5;0;0;1;5
dtone;0;0;5;5.8;0;0;3;6;0;0;1;5
"office tourisme dinard";0;0;1;18
triglia;0;0;5;4.8;0;0;2;5
"juergen teller";0;0;1;10;0;0;1;10
deret;0;0;1;35
"martine ehmer";0;0;1;7;0;0;1;7
"jacques borker";0;0;1;4
"saudek photo";0;0;1;4
"dauptain peintre";0;0;1;10;0;0;1;10
"galerie du buisson";0;0;1;10
"eric michel";0;0;2;29.5
waroquier;0;0;1;46
"galerie bettina";0;0;16;6.25;0;0;2;7;0;0;2;7
"galerie sylvie lepage";0;0;1;7;0;0;1;7
"st tropez";0;0;1;294
"folle du roi";0;0;1;8
"cortade art";0;0;5;6;0;0;1;7
"liwei li";0;0;1;9
loste;0;0;1;85
"philippe hiquily";0;0;1;10
"eric liot prix";0;0;1;10
"ariele rozowy";0;0;2;3;0;0;2;3
"mis tic";0;0;2;10
"sébastien bayet artiste peintre";0;0;1;4;0;0;1;4
"courbe de l'oubli";0;0;1;27
"lee rogers";0;0;1;3;0;0;1;3
rds;0;0;1;87;0;0;1;87
"anton f";0;0;1;10;0;0;1;10
"art 83";0;0;1;50
keza;0;0;1;9;0;0;1;9
voge;0;0;1;43;0;0;1;43
"michel dubois";0;0;1;19
"oeuvre d'art rose";0;0;1;2;0;0;1;2
banksi;0;0;1;20
"photographie art moderne";0;0;2;4;0;0;2;4
fulcrand;0;0;2;2
"marcus egli";0;0;2;6.5
"hanna sidorowicz artist";0;0;1;9;0;0;1;9
"bernard rancillac";0;0;7;8.8571428571429
"dominique mulhem";0;0;4;4;0;0;4;4
"murakami oeuvre";0;0;2;3;0;0;2;3
"padraig creston";0;0;4;7.5;0;0;1;7
fubiz;0;0;9;24.777777777778;0;0;9;24.777777777778
"thomas müller";0;0;5;26.6
"cousinade forcalquier";0;0;4;37;0;0;4;37
"art kongo";0;0;1;9;0;0;1;9
"ji eun park";0;0;1;9
"capton peintre";0;0;2;3.5;0;0;1;4
"m chat";0;0;12;7.75;0;0;2;6;0;0;1;8
seiwert;0;0;1;9
"roy lichtenstein biographie";0;0;1;20
"leonardo cremonini oeuvres";0;0;2;8;0;0;2;8
"pierre francois grimaldi";0;0;7;2.4285714285714;0;0;4;2;0;0;1;3;0;0;2;3
"guy denning techniques";0;0;1;1
massnager;0;0;2;3
"annette messager oeuvre";0;0;1;7;0;0;1;7
"mr brainwash love is the answer";0;0;1;5;0;0;1;5
"achat oeuvres d'art";0;0;1;1;0;0;1;1
"c215 achat";0;0;2;3.5;0;0;2;3.5
"oeuvre d'art en chocolat";0;0;3;6.3333333333333;0;0;2;7
btoy;0;0;3;6.3333333333333
"photo surréaliste";0;0;5;9.6;0;0;1;9
"oeuvres picasso";0;0;1;139
"fabrice hyber biographie";0;0;1;3
"stephane ducatteau";0;0;1;5
"lawrence weiner art conceptuel";0;0;2;6;0;0;2;6
"anne valerie dupond";0;0;1;9;0;0;1;9
artyou;0;0;2;4
"priska lorane";0;0;1;4;0;0;1;4
"m chat street art";0;0;2;5;0;0;2;5
streichenberger;0;0;8;7;0;0;3;7.3333333333333
"peinture coccinelle";0;0;1;24
"vincent peters";0;0;10;8.5;0;0;5;8.6;0;0;5;8.4
"art scene";0;0;1;301
"troy henriksen";0;0;7;3.4285714285714;0;0;1;4
"mel ramos superman";0;0;1;4;0;0;1;4
"steve hickok";0;0;1;10
"inés silva";0;0;1;7;0;0;1;7
ipso;0;0;1;60
"carl andré";0;0;11;6.3636363636364;0;0;7;6.2857142857143;0;0;4;6.5
"bonheur et sante";0;0;1;307
abelardo;0;0;3;9.3333333333333;0;0;1;9
"oeuvres de keith haring";0;0;4;8.5;0;0;4;8.5
"luke newton artist";0;0;1;3;0;0;1;3
"sculpture a vendre";0;0;1;1;0;0;1;1
mrchat;0;0;2;9;0;0;1;7;0;0;1;11
guayasamin;0;0;3;8.3333333333333;0;0;2;8;0;0;1;9
"claude rodriguez";0;0;1;16
gzstore;0;0;1;1
"eva jospin forêt";0;0;1;10;0;0;1;10
"tom wesselmann art";0;0;1;9;0;0;1;9
"jean cocteau oeuvres";0;0;2;25
"artop gallery";0;0;1;4
"jean françois lefranc";0;0;1;3
poplavsky;0;0;1;7;0;0;1;7
nils-udo;0;0;1;7
"erro paintings";0;0;1;10
"le thai duong";0;0;2;7.5;0;0;1;7
"superman andy warhol";0;0;2;4;0;0;2;4
"henri matisse le cirque";0;0;1;4
"bar noma";0;0;1;20;0;0;1;20
"ben bella peintre prix";0;0;1;3;0;0;1;3
"keith haring biographie";0;0;4;10
"jean michel basquiat in italian";0;0;4;8.25;0;0;1;8;0;0;1;9
m-chat;0;0;3;7;0;0;1;8;0;0;1;7
"sandro giordano in extremis";0;0;1;8;0;0;1;8
"philippe jarrigeon";0;0;3;9.6666666666667
"marie laure gerard becuwe";0;0;3;3;0;0;3;3
"jean françois rauzier";0;0;1;6
"le floch";0;0;2;28.5
"claude charlier";0;0;2;10
"christian zeimert";0;0;1;8
branksy;0;0;1;20;0;0;1;20
"agnès dubart";0;0;1;9
"france mitrofanoff";0;0;2;2;0;0;1;2;0;0;1;2
"patrick moya";0;0;4;4;0;0;3;4.3333333333333
"shirley jaffe";0;0;2;3
"tapis boccara";0;0;1;5
"bernard pras artiste";0;0;1;2;0;0;1;2
wuthrich;0;0;1;49;0;0;1;49
"venus freeze bloomfield hills mi";0;0;1;84
"david gouny";0;0;2;6;0;0;2;6
ticket123;0;0;1;9;0;0;1;9
"hedva ser";0;0;2;5;0;0;1;6;0;0;5;6
"galerie art aborigene";0;0;2;24
"enki bilal bleu sang";0;0;1;17
"love toon";0;0;1;10
assalit;0;0;6;4.1666666666667;0;0;4;5;0;0;2;3.5
"kongo artiste";0;0;2;8;0;0;1;8
"jeux de massacre";0;0;1;50
"peinture pique nique";0;0;1;6
"jacques pellegrin";0;0;1;10;0;0;1;11
"street art shop";0;0;3;30
"speedy graffito";0;0;2;6
"oeuvre banksy";0;0;6;10
"partie à trois";0;0;1;16
"hervé di rosa sculpture";0;0;1;4
"ionesco biographie";0;0;2;45
"galerie raison d'art lille";0;0;2;8
dominot;0;0;1;11
paxal;0;0;2;3
"mel ramos artist";0;0;1;7
exhibe;0;0;1;70
"liu bolin wikipedia";0;0;1;5
"harald wolff peintre";0;0;1;2
"jin bo";0;0;3;4.6666666666667;0;0;1;5
"naked dart";0;0;1;6
moz;0;0;1;30
"artistes mexicains";0;0;1;8
"beatrice terra";0;0;1;1;0;0;1;1;0;0;1;1
"nuances et lumiere";0;0;1;2;0;0;3;4
"murakami artiste";0;0;1;3;0;0;1;4
"photo edition";0;0;1;39
"oeuvre romero britto";0;0;1;5
"pierre-marie brisson artiste peintre";0;0;1;2
"live galerie";0;0;1;236
"annette messager,";0;0;2;8
"isabelle cochereau";0;0;1;8
"la micro galerie";0;0;2;5;0;0;1;6
"bernard moninot peintre";0;0;1;7
"art diffusion";0;0;2;10.5
zeimert;0;0;1;8
"francine van hove";0;0;7;6.7142857142857;0;0;2;8
"mimi the clown";0;0;3;5
"petra danseuse etoile";0;0;3;3;0;0;14;4.8571428571429;0;0;7;3
"achat oeuvre d'art";0;0;2;1;0;0;1;1
"jingdong france";0;0;1;5
"peinture art contemporain";0;0;1;3;0;0;1;3
"oeuvre d'art en ligne";0;0;2;1
"philippe favier";0;0;1;38
"graffeur rouen";0;0;1;35
mrlolo;0;0;2;5
minah;0;0;1;37
"art et jolies filles";0;0;1;9;0;0;1;12
"simone truong";0;0;1;10
"haring oeuvre";0;0;1;7
"nathalie de frouville";0;0;1;18
"home alone 7";0;0;1;7;0;0;1;8
"james coignard peintre";0;0;2;10
"kim happiness";0;0;1;10
daudé;0;0;1;9
"mario louis vuitton";0;0;1;7
"galerie honfleur";0;0;2;36.5
"claire fanjul";0;0;1;2
"guillaume piéchaud";0;0;7;2.2857142857143
"alexandre poplavsky";0;0;1;2
"harald kröner";0;0;2;3
"ayline olukman";0;0;2;3;0;0;1;4
"cecile decorniquet";0;0;1;8
"albert chubac";0;0;1;4
"isabel espinoza";0;0;1;5
"greenwood gallery";0;0;1;8;0;0;1;7
"sculpteur cesar";0;0;1;8
"oeuvre nils udo";0;0;1;7
"oeuvre ernest pignon ernest";0;0;1;6
"obey vote";0;0;1;4
"patrick marin";0;0;1;5;0;0;1;6;0;0;1;5
"erwann tirilly";0;0;2;5
"filles nues naturelles";0;0;1;75
mchat;0;0;6;9.6666666666667;0;0;1;11;0;0;1;11
"jean dubuffet œuvres d'art";0;0;2;5
"miquel barcelo popera";0;0;1;9
"artiste peintre amiens";0;0;1;58
"vente collioure le seris 2002";0;0;1;41
"jean-françois jonvelle";0;0;1;10
anousparis;0;0;1;29
"stéphane gautier";0;0;1;4
"valérie marty";0;0;1;9;0;0;3;10
"eric bourguignon";0;0;5;8;0;0;3;7.3333333333333;0;0;2;8
"katherine hoffmann";0;0;1;1
"panda sculpture";0;0;1;6
"stephane gautier";0;0;7;4.2857142857143;0;0;1;5;0;0;1;4
"ernest pignon ernest biographie";0;0;9;7.1111111111111;0;0;2;6.5;0;0;1;8
"lucie bennett";0;0;1;7
"fernando costa prix";0;0;1;1
"francky boy";0;0;2;4
"photographie d'art en ligne";0;0;1;3;0;0;1;2
"van hove peintre";0;0;2;10
besher;0;0;4;3.5;0;0;2;4
"oeuvres d'art";0;0;12;5.25;0;0;2;5.5;0;0;2;4
"anne lacouture";0;0;2;5
"julien calot";0;0;3;1.6666666666667;0;0;2;1.5
"galerie belgique";0;0;1;2
artper;0;0;3;1;0;0;1;1
"oeuvre de joan miro";0;0;1;11
"alex katz oeuvres";0;0;1;2;0;0;1;3
"peinture regate";0;0;2;8
"francois morellet art";0;0;1;4
"gilles aillaud biographie";0;0;1;4
"louis stettner photos";0;0;1;8
"peintre combas";0;0;1;4;0;0;1;5
"kiddy citny";0;0;6;3.5
"oeuvre d'art sculpture";0;0;1;5
"oeuvre d'art triangle";0;0;1;5
"michel le belhomme";0;0;4;5.5;0;0;2;4
"galerie brugier rigail";0;0;2;6;0;0;3;7;0;0;1;11
"i belong to you oeuvre d'arts";0;0;1;12
"nathalie deshairs";0;0;1;3
raynaud;0;0;1;48
"peinture chat";0;0;1;22
"mariposas art";0;0;3;9
"gregos street art";0;0;1;6;0;0;2;5
"carlos cruz diez";0;0;1;7
"recits lubriques";0;0;1;107
"les renés dessin animé";0;0;1;9;0;0;1;9
"aude minart";0;0;1;2
"sculpture monumentale biot";0;0;2;2
"acheter art contemporain";0;0;4;1
"joan saló";0;0;1;5
"gerhard doehler";0;0;1;5;0;0;1;4
"alejandra eggleton";0;0;1;36
"aude carre";0;0;3;6
"l art asiatique";0;0;1;34
"jaké artiste";0;0;2;4;0;0;3;4
"thibault brunet";0;0;3;9
"phil couture";0;0;1;7
"max et charlotte";0;0;2;2
"peinture inca";0;0;1;3
"daniel nadaud";0;0;7;5;0;0;1;6
"pop art greg guillemin";0;0;1;9
galeriecollin;0;0;1;2
"andre nadal";0;0;1;3;0;0;1;3;0;0;1;3
"vente art en ligne";0;0;5;1;0;0;1;1
"leon michel sester";0;0;1;2
"flower puppy jeff koons";0;0;1;6;0;0;2;6
"peter blake artiste";0;0;1;6;0;0;1;7
dirosa;0;0;1;5;0;0;2;5
"leslie caillard artiste peintre";0;0;1;9
"balloon dog orange";0;0;1;9
"alex katz peintre";0;0;1;3
"laurence weiner";0;0;2;9
"calot de lion";0;0;1;51
"richard baron";0;0;1;10;0;0;2;10
flbiz;0;0;2;36
"nico sculpture";0;0;1;8
"qui est ernest pignon ernest";0;0;1;7
fassianos;0;0;4;10
cuenot;0;0;1;18
"biographie de christian boltanski";0;0;1;9
"jonvelle les 100 plus belles photos";0;0;2;1
"franck lundangi";0;0;3;2
"galerie d4art";0;0;1;6
"galerie w paris";0;0;1;4;0;0;3;5
"photos d'art en ligne";0;0;2;3
"banksy billet de banque";0;0;1;1
"thibault laget";0;0;1;5;0;0;1;6
"joel barbiero artiste peintre";0;0;1;6
"mb factory";0;0;2;9.5;0;0;1;9
"costa peintre";0;0;1;6;0;0;3;4
"statue deesse";0;0;2;4;0;0;3;4
"ticket original";0;0;1;8
"jef aerosol biographie";0;0;1;4
"biographie keith haring";0;0;4;9;0;0;1;8
"peintre drouet";0;0;2;5
"yo marchand";0;0;3;2
"robin hammond";0;0;1;18
"laetitia giraud";0;0;1;3
"tingting wang";0;0;1;8
"oeuvre de takashi murakami";0;0;1;3
"klasen peintre";0;0;1;2
scuplture;0;0;1;5
telemaque;0;0;1;37
"pauline dufour";0;0;2;5;0;0;1;4
"christophe goutal";0;0;1;3;0;0;1;4
"alistair taylor-young";0;0;1;7
giangreco;0;0;1;9
"oleg dou";0;0;2;10;0;0;2;10
"tapis en soie";0;0;1;40
"les oeuvres d'arts";0;0;1;10
"orlan biographie";0;0;1;4
"petit bonhomme blanc argent";0;0;1;7
"daniel authouart";0;0;5;8.2;0;0;2;9
"clément cogitore";0;0;1;30
"james mackeown peintre";0;0;1;5
"gérard schlosser";0;0;6;3
"roberto greco";0;0;1;9;0;0;1;6
"martin reyna";0;0;1;4
"art sculpture";0;0;4;3.25
"peter hoffer peintre";0;0;3;9
"bernard chauveau";0;0;5;4.2;0;0;1;6;0;0;2;7
catté;0;0;3;3.6666666666667
"huart philippe";0;0;1;7
"hervé télémaque";0;0;9;4
hebreard;0;0;1;136
"artiste jr";0;0;1;10
totomobile;0;0;1;33
"margaux avril photographie";0;0;2;7;0;0;1;8
"gerard clisson";0;0;1;4
"claude champy";0;0;2;7
"serge roux";0;0;1;19
"peintre troy";0;0;1;2
"hervé di rosa";0;0;15;3.9333333333333;0;0;3;5.6666666666667
"jacques villeglé oeuvres";0;0;2;2.5
"peintre en vogue";0;0;1;2
"ionesco oeuvres";0;0;1;9;0;0;2;9
"david lachapelle";0;0;1;4;0;0;9;11
"petit bonhomme blanc";0;0;15;8.2
"paysage fantastique";0;0;2;27
"frank horvat";0;0;1;21
"louis nicolas darbon";0;0;1;6
"antoine correia";0;0;4;3.25
"christoff debusschere";0;0;3;8.3333333333333
"nicolas nicolini";0;0;3;4
"artiste en vogue";0;0;1;3
"galerie loft";0;0;1;5
openeda;0;0;1;14
n61;0;0;2;9;0;0;1;9
gerbo;0;0;2;13
"sandy skoglund";0;0;6;7;0;0;1;9
"bloomfield hills mi venus freeze";0;0;1;73
"pasqua philippe";0;0;3;6;0;0;1;7
"richard orlinski sculpteur";0;0;1;7
schall;0;0;1;88
"artistes en vogue";0;0;1;3
"3 cerises sur une étagère";0;0;1;3
"jef aerosol sitting kid";0;0;2;6
"peter wüthrich";0;0;1;9
aérosol;0;0;1;17
"sophie morisse";0;0;1;4
"frédéric garnier";0;0;1;25
"lucian freud oeuvres";0;0;1;28
"fernado costa";0;0;1;4
"banksy la joconde";0;0;1;30
"aline robin";0;0;2;5
"pablito zago";0;0;3;5.6666666666667;0;0;1;7;0;0;1;5
"office de tourisme dinard";0;0;1;18
jonvelle;0;0;2;12;0;0;1;1
"anna bjerger";0;0;1;5
kikayou;0;0;1;2
"laurent roux";0;0;1;23
"hervé di rosa peinture";0;0;1;4
"veronica green";0;0;1;8
"vincent hawkins";0;0;1;3
verdissant;0;0;1;127
"hotel moschini";0;0;1;176
"anaïs boudot";0;0;1;3
"vente d'art en ligne";0;0;1;1
"aillaud gilles";0;0;1;8
"keith haring nom de ses oeuvres";0;0;1;7
"odile decq";0;0;1;17
"galerie orlinda lavergne";0;0;1;3;0;0;1;4
"oeuvres d'art originales";0;0;1;5
"francoise danel";0;0;1;2
"chat street art";0;0;2;4;0;0;1;4
"ren hang";0;0;8;9.25;0;0;2;10
"nathalie tacheau";0;0;1;5
"galerie d art en ligne";0;0;3;1
"michal batory biographie";0;0;1;7
"philippe rosenblum";0;0;1;1
"françois morrelet";0;0;1;8
"raymond moretti";0;0;1;17
"vente canevas";0;0;1;41
gromas;0;0;1;8
"antoine de la boulaye";0;0;1;2
"aykaz arzumanyan";0;0;1;3
graphito;0;0;4;10.25
"yona friedman";0;0;1;33
"lucile callegari";0;0;2;5;0;0;1;5
"duong le thai";0;0;6;4.8333333333333
"milo peintre";0;0;3;4.3333333333333
"wes wilson";0;0;1;8
"le 9ème art";0;0;1;39
"galerie marie vitoux";0;0;3;6;0;0;1;7
noetwo;0;0;1;12
"envie d'art paris";0;0;2;4
"philippe berry sculpteur";0;0;1;8;0;0;1;6
"bram van velde";0;0;1;19
"luca de filippo";0;0;1;10
"jeune artiste";0;0;2;8
boucly;0;0;1;56
"mel ramos";0;0;8;3.25
"eduardo chillida oeuvres";0;0;1;5
"recu 5 sur 5";0;0;1;8
"chatte de blonde";0;0;1;42
"troy henriksen prix tableau";0;0;1;1
"jonone street art";0;0;3;3;0;0;2;3
"toxic graffiti";0;0;2;3
pruter;0;0;1;9
"gwenael billaud";0;0;1;8;0;0;1;7
"galerie nuances et lumieres";0;0;1;2
klasen;0;0;2;2
"jef aerosol street art";0;0;1;6;0;0;2;7
"galerie duret";0;0;7;4.7142857142857;0;0;2;5
"yaacov agam oeuvres";0;0;1;9
"alfredo lopez";0;0;3;9.6666666666667;0;0;4;7
"remy pagard";0;0;1;8
"the french art studio";0;0;12;4.3333333333333
"jean faucheur artiste";0;0;1;6
"galerie urbaine";0;0;1;3;0;0;1;4;0;0;1;4
"césar baldaccini";0;0;14;4.2142857142857;0;0;6;5.8333333333333;0;0;1;5
"photographie d'art noir et blanc";0;0;2;44
"jean-pierre nadau";0;0;2;1
"figure 2";0;0;1;38
"didier avril";0;0;1;6;0;0;1;4
"madame et son chien";0;0;2;18;0;0;1;18
"l art de la rue";0;0;1;9
shup;0;0;2;9
"galerie maison dauphine";0;0;1;5
"vente art contemporain";0;0;4;1
"yann houri";0;0;1;3;0;0;3;3
"fire rolls";0;0;1;8
"achat tong";0;0;1;35
"flavie layer";0;0;1;50
"m. chat";0;0;6;7.6666666666667
"marvel mutant x";0;0;1;9
"artistes sculpteurs contemporains";0;0;2;4
"aerosol prix";0;0;1;23
jodibona;0;0;1;12
"delphine brochand";0;0;1;1
"mirage 3";0;0;1;88
"arnaud franc";0;0;1;2;0;0;1;2
rabarama;0;0;1;7
"philippe pareno";0;0;1;36
"jacques renoir";0;0;2;7.5;0;0;1;9;0;0;3;8
"vivian maier";0;0;1;20
"chloe venezia";0;0;1;9
"philippe assalit";0;0;1;3
"rld editions";0;0;1;8
"vente d'oeuvre d'art en ligne";0;0;1;1
"valérie hadida";0;0;1;3
"sérigraphie oeuvre";0;0;1;8
bossard;0;0;1;86;0;0;1;75
"schlosser peintre";0;0;1;5
"philippe pasqua";0;0;23;5.7391304347826;0;0;8;6.875;0;0;2;7
"achat bob";0;0;1;19
"oeuvre d'art unique";0;0;2;1
"anthony lietart";0;0;3;4
"henni alftan";0;0;3;5;0;0;2;6.5
"roberto matta";0;0;1;175
"nurcan giz";0;0;1;8
"marty art";0;0;1;7
kuska;0;0;2;10;0;0;1;10
"majoub ben bella";0;0;1;4
"philippe buil";0;0;4;2;0;0;2;2
"guyomard sylvie facebook";0;0;1;7
"peinture murale gris dior";0;0;2;25
levalet;0;0;19;6.8421052631579;0;0;4;6;0;0;4;7.25
timmers;0;0;2;6;0;0;3;6
"julien cresp";0;0;3;7
"vente sculpture terre cuite";0;0;1;3;0;0;2;3
"vente potiron";0;0;1;52
"valerie dupond";0;0;13;8.3076923076923
"google da vinci";0;0;1;321
"galerie wallpepper";0;0;1;3;0;0;1;7
"jerome btesh";0;0;1;4
kijno;0;0;2;31
"alistair taylor young";0;0;1;6
"galerie jonone";0;0;2;5
"biographie takashi murakami";0;0;2;2
"olivia clavel";0;0;5;5
"francois bard prices";0;0;1;1
gorodine;0;0;1;4
"cécile desserle";0;0;1;5
flipo;0;0;12;7.9166666666667;0;0;5;8;0;0;3;7.6666666666667
"sun of the beach";0;0;1;22
"jérôme mesnager";0;0;4;3;0;0;1;4
"braque sculpture";0;0;1;9
beuys;0;0;1;6
"raynaud artiste peintre";0;0;2;4
"galerie de mars";0;0;10;7.6;0;0;3;10.333333333333
"musées d'art à asheville";0;0;3;45
"lampe verre de murano";0;0;1;35
"francois morellet artist";0;0;1;7
"florian marco";0;0;2;8.5
"melanie peduzzi";0;0;4;1.25
"truc anh";0;0;2;4.5
"isabelle vayron";0;0;4;3.5;0;0;1;5
"benjamin vautier biographie";0;0;1;9
"sandra krasker";0;0;2;4
seaty;0;0;1;10;0;0;1;10
"ballon dog";0;0;1;10
"guy de rougemont";0;0;2;6;0;0;4;6
"olivier debré";0;0;1;34
"david gerstein elegance";0;0;2;48.5
"pius fox artist";0;0;1;8
"taureau-rouge peinture animalière";0;0;14;31.857142857143
"costume vert";0;0;2;32
"nathan chantob artiste peintre";0;0;2;2
"helder batista";0;0;2;6.5;0;0;4;7.5
"kongo mac";0;0;1;9
delamarre;0;0;1;36
"jean hélion biographie";0;0;1;7
"moulin rudelle muret";0;0;1;89
"(""graveur""|""gravure"") (""brest""|""29200""|""bohars""|""29820""|""guilers"") -ecole -emploi";0;0;1;197
"clément alain";0;0;1;4
"oeuvre de haring";0;0;2;6
"greg gorman";0;0;2;8.5;0;0;1;9
"p38 lightning";0;0;1;101
"dark vador artwork";0;0;1;4
"photographie de mode urbaine";0;0;1;45
"peter klasen";0;0;16;3.1875;0;0;10;4
www.artsper.com;0;0;1;1;0;0;1;1
"nola wilson";0;0;1;6
"tatoo art";0;0;1;41
"christine flynn";0;0;1;5
"mimmo rotella oeuvres";0;0;1;8
"mr sex";0;0;4;28.25;0;0;1;9
"galerie d'art en ligne";0;0;17;1;0;0;5;1;0;0;3;1
"gottfried salzmann";0;0;3;5
"jacqueline roberts";0;0;2;6
"avengers 2 final battle";0;0;1;16
"beauté orientale";0;0;1;44
"photo d'art contemporain";0;0;1;2;0;0;2;2
"isabelle bartoli";0;0;7;3;0;0;2;2;0;0;1;2
"photo d'art noir et blanc";0;0;1;37
"pierre lesage";0;0;2;10
"mélanie peduzzi";0;0;1;2;0;0;1;1
"vente art contemporain en ligne";0;0;2;1;0;0;1;1
"jacques verdier artiste";0;0;2;3.5
"obey fairey";0;0;1;9
"galeries d'art";0;0;3;6;0;0;1;10
"nicolas dubreuille";0;0;2;5
"françoise petrovitch";0;0;12;7;0;0;1;9;0;0;1;8
"photo art moderne";0;0;1;2
"mr brainwash mural";0;0;1;5
"hermann nitsch biografie";0;0;1;3
"mirage iii";0;0;1;93
"xavier lavictoire";0;0;2;6
arsper;0;0;3;1;0;0;1;1
"jone one";0;0;2;4.5
"nude 3";0;0;1;6
"reçu 5 sur 5";0;0;1;9
"shaka artiste";0;0;2;5
"time to sign off";0;0;1;9
"assaf matarasso";0;0;1;6;0;0;2;6
"biographie de eduardo kac";0;0;1;9
"hélène duclos";0;0;2;12
"achat peinture";0;0;1;133
poes;0;0;5;4;0;0;1;8
"galerie art en ligne";0;0;10;1;0;0;2;1
"hommage mandela";0;0;2;76
"evelyne postic";0;0;2;5
"theo haggai";0;0;4;4.25;0;0;3;4
"eliane larus";0;0;1;4;0;0;1;4
pras;0;0;4;6.5;0;0;3;7;0;0;1;6
citny;0;0;1;2
"michèle destarac peintre";0;0;1;4
"galerie double s";0;0;1;5
"guillaume guerin biographie";0;0;1;6
"louis blanc photographie";0;0;4;7.75
"alain josseau artiste";0;0;1;3
"horaires piaget alain michal paris";0;0;1;84
"audiard sculpteur";0;0;1;10
"biographie de jeff koons";0;0;3;7
"jean michel basquiat";0;0;1;139
"armand artiste contemporain";0;0;1;5;0;0;1;5
"nature morte vivante";0;0;1;10
"jonone graffiti";0;0;2;7
morisse;0;0;2;9
"easy sacha";0;0;3;10;0;0;5;10
"catherine lopes";0;0;1;8
"lionel sourisseau";0;0;1;3;0;0;1;5
"mike angelo";0;0;1;27
"marc josse";0;0;2;10.5
guykayser;0;0;1;5
"benjamin deroche";0;0;4;6
"bruce clarke";0;0;3;9.3333333333333
"godon alain";0;0;1;2;0;0;1;3;0;0;1;3
"jean philippe berger";0;0;1;2
"c'est mieux que rien";0;0;1;7;0;0;1;7
"artiste erro";0;0;1;10
"françois morellet";0;0;13;9.1538461538462;0;0;1;10
"vendre oeuvre d'art";0;0;1;1
"fanny dubois";0;0;3;7
"site vente art";0;0;1;1
"ben vautier acheter";0;0;1;3;0;0;1;9
"jean pierre tissier";0;0;1;5
"ando hiro";0;0;1;1
"jean pierre nadau";0;0;1;1
"françoise pétrovitch";0;0;2;7
"jonone marianne";0;0;2;10
"galerie internet";0;0;1;2;0;0;1;2
"nathalie dhenaut";0;0;6;4
"mr-bio fr";0;0;6;32
"kenza sadoun el glaoui";0;0;1;26
"joseph beuys oeuvres";0;0;1;10
demiak;0;0;1;2
"e galleries";0;0;1;37
"in art";0;0;1;5
"george platt";0;0;1;6
"nick walker street art";0;0;1;5
protéor;0;0;1;32
soubrette;0;0;3;132.33333333333
"acheter de l art";0;0;1;3
"elle y";0;0;1;25
"oeuvre de cesar";0;0;1;7
"snoopy ski";0;0;3;2
"sculpture ours polaire";0;0;2;12
"galerie d'art en ligne contemporain";0;0;3;1
"oeuvre de banksy";0;0;6;7.1666666666667;0;0;3;7
"no galerie";0;0;1;8
"herb ritts nudes";0;0;1;22
"gérard escougnou";0;0;1;2
"isis nasa";0;0;1;10
"romain tichit";0;0;2;5.5;0;0;2;4
"biographie corneille";0;0;1;57
"marie maertens";0;0;1;5
kooj;0;0;1;7
"ave maria";0;0;1;192
"jon one";0;0;13;4;0;0;2;5
"annina roescheisen";0;0;1;7;0;0;2;6.5
"atlas blue";0;0;2;46.5
"hand moisturizer beauty factory luxembourg -";0;0;1;327
piechaud;0;0;1;7
"francois bard artist";0;0;1;2
"florent chopin";0;0;1;6
"art traffik";0;0;7;2;0;0;2;2
"jean pierre attal";0;0;2;7.5
"peter brooke ball";0;0;1;4
"john christoforou";0;0;1;6
"nadia touami";0;0;1;1
"oeuvre monumentale";0;0;2;6;0;0;1;6;0;0;1;6
"gérard mortier peintre";0;0;2;1
"brigitte penicaud";0;0;1;5
"art contemporain photographie";0;0;2;3;0;0;1;2
"jacqueline schäfer";0;0;1;7
tattu;0;0;1;16;0;0;1;10
"keith haring œuvres d'art";0;0;3;8
iglesis;0;0;2;3
"charbonnel sculpteur";0;0;1;5
"peinture batman";0;0;1;17
"vente tzarina aucun";0;0;2;11
"steven siegel";0;0;1;10
"art contemporain";0;0;1;113
"roland topor oeuvres";0;0;1;10
"galerie ad";0;0;1;7
"olivier toma";0;0;1;10
"sylvie fleury";0;0;2;20.5
"melon d espagne";0;0;1;42
"timeless flight";0;0;1;6
"pierre fava";0;0;1;3
"thierry diers";0;0;1;10;0;0;1;11
"galerie grand rue";0;0;1;4
"tilt artiste peintre";0;0;1;6
"valerie le merrer";0;0;1;3
"john matos crash";0;0;1;4
"patrick dumas";0;0;2;13
"izabeau jousse";0;0;4;3.25;0;0;1;1
"ludovic chemarin";0;0;2;8
"you are min";0;0;1;7
"retomber en enfance";0;0;1;15
"benjamin spark prix";0;0;1;5
"haring keith oeuvres";0;0;1;7
"peinture pour bitume";0;0;1;85
"takashi murakami prix";0;0;1;1
"galerie leadouze";0;0;1;3;0;0;1;4
"peinture audrey hepburn";0;0;1;9
zabou;0;0;1;114
"claude mollard";0;0;4;6.75;0;0;1;8
"norman rockwell biographie";0;0;1;45
"sculpture disque vinyle";0;0;1;34
"galerie d'art contemporain";0;0;4;4.5;0;0;3;4.3333333333333
"jr artist biography";0;0;1;19
"oeuvre sculpteur";0;0;1;10
"max ernst œuvres d'art";0;0;4;8.5;0;0;2;9;0;0;1;10
"francois morelet";0;0;1;8
"galerie belge";0;0;1;7
"sculpture deesse";0;0;4;6;0;0;3;5.3333333333333;0;0;2;6.5
"philippe huart";0;0;4;7.25;0;0;1;7
"a nous paris";0;0;2;35.5
"jean michel vador";0;0;1;1;0;0;1;1
"thierry dussac";0;0;1;5;0;0;1;5
"punky pink";0;0;1;9
"robert combas prix";0;0;1;8;0;0;2;8
duytter;0;0;1;2
tieri;0;0;1;8
rosa;0;0;1;7
capocci;0;0;5;7;0;0;1;7
dysform;0;0;3;3
"veil de noel";0;0;1;9
"art to be gallery lille";0;0;1;7
"manolo chretien";0;0;1;4
"brugier rigail";0;0;1;7
liwei;0;0;1;9
"kosta kulundzic";0;0;1;65
osite;0;0;1;5
banksy;0;0;2;20.5
"bruno gadenne";0;0;1;4
"pascal jacquot";0;0;2;10
"ernest pignon";0;0;7;10;0;0;1;9
fleurion;0;0;1;3
"keith haring montreux";0;0;1;6
"patrick bastardoz";0;0;1;4
"investir dans l'art";0;0;2;7
"jean michel basquiat œuvres d'art";0;0;2;10
"greenwood gallery paris";0;0;1;8
"b andy";0;0;1;8
"jace gouzou vente";0;0;1;6
"christophe monnin peintre";0;0;1;1
"matisse cirque";0;0;1;4;0;0;1;5
"clement denis";0;0;1;4
"art vente en ligne";0;0;1;1
"monsieur chat";0;0;8;6.875;0;0;5;6.4
nesler;0;0;1;5
"christian renonciat";0;0;2;7.5
"artiste cesar";0;0;1;11
"jacques trovic";0;0;1;9
sun7;0;0;1;9
"anne brunet";0;0;1;10
"caroline maurel";0;0;1;8
"peinture du 21eme siecle";0;0;1;7
"chris verkaemer";0;0;1;6
"edouard buzon";0;0;1;5
"yang yongliang";0;0;1;6
"nicolas hugo";0;0;4;5
"damien gard";0;0;1;7
"jim kazanjian";0;0;2;6
"miguel chevalier";0;0;1;12
misstic;0;0;12;8.5833333333333;0;0;3;8
"galerie akiza";0;0;1;9
"robert indiana biographie";0;0;1;10
"takashi murakami";0;0;1;7
"combas prix";0;0;1;5
"robert bradford";0;0;2;2.5
yemza;0;0;1;4
"christine fabre";0;0;2;10.5
"kuroda peintre";0;0;1;4
"artiste déesse";0;0;2;6
"le diamantaire";0;0;12;9.3333333333333
"peinture full moon";0;0;1;8
"kiki picasso femme";0;0;2;4
scultire;0;0;1;8
"tony frank";0;0;5;8;0;0;2;8
"miss tic street art";0;0;1;7
"césar sculpteur";0;0;2;9
"armand artiste";0;0;2;6
"thomas verny";0;0;1;2
takashi;0;0;1;7
"timothée talard";0;0;1;4
"bonhomme blanc chantier";0;0;1;8
"greg leon guillemin";0;0;1;5
"art en ligne";0;0;3;1
"tom wesselman";0;0;2;5
"galerie hus";0;0;1;10;0;0;10;11
"india leire";0;0;1;8
"duane michals oeuvres";0;0;1;8
"artsper avis";0;0;1;1
oeuvres;0;0;4;10.75
"bacon sculpture";0;0;1;8
protéiforme;0;0;1;44
e-galleries;0;0;1;9
"peinture mandela";0;0;1;7
"raphaël denis";0;0;1;5
missitic;0;0;2;7
"françois bard peintre";0;0;1;2;0;0;1;2
"oeuvres en papier";0;0;1;10
"raynaud artiste";0;0;1;8
"arthur dorval";0;0;2;4
artdiffusion;0;0;1;11
"oeuvre d'art a vendre";0;0;1;1
"l'atlas street art";0;0;1;7
"vente bananier";0;0;1;52
tsuyu;0;0;1;10
"oeuvre de keith haring";0;0;2;6;0;0;1;6
"danseuse thai";0;0;1;9
"crane papillon";0;0;1;3
"florian fausch";0;0;1;12
"art contemporain pas cher";0;0;2;4
"hervé lewis";0;0;1;5
"sarah maple";0;0;1;6
"cesar biographie";0;0;1;30
catelain;0;0;1;3
"chris morin";0;0;1;3
"amateur d art";0;0;1;10
"sylvie lepage";0;0;1;11
tanc;0;0;3;5.6666666666667;0;0;2;6
"galerie alb";0;0;4;11
"crocodile orlinski";0;0;1;6
enviedart;0;0;2;4
"anne semeteys";0;0;1;1
"galerie gilardi le mans";0;0;1;6
"jace gouzou prix";0;0;3;6;0;0;1;6
"laurent bouro";0;0;1;4
"takashi murakami oeuvres";0;0;4;4.25
"street art chat";0;0;2;4.5
"leon batman";0;0;1;8
stoul;0;0;1;6
"joseph marzolla";0;0;1;6
"david gery";0;0;1;7
"segui peintre";0;0;3;8
"sculpture cesar prix";0;0;1;6
"arnaud elias";0;0;2;7
"art sper";0;0;1;1
"galerie brugier";0;0;1;6
gangal;0;0;3;5.3333333333333
"artistes contemporains";0;0;5;7.6;0;0;5;9
"le 9eme art";0;0;3;9.3333333333333
"darth vader kaws";0;0;2;4
"labégorre peintre";0;0;1;8
"philippe pasqua tete de mort";0;0;1;4
guinio;0;0;1;4
"max de bruhl";0;0;1;9
"di rosa sete";0;0;1;4
urbanium;0;0;2;6
"london 95";0;0;1;8
"françois malingrey";0;0;1;4;0;0;1;5
"bernard pars";0;0;1;4
"gerard escougnou";0;0;2;3;0;0;1;3
"karl lagasse";0;0;2;4;0;0;1;4
"bernard prass";0;0;1;4
"sandro giordano";0;0;2;6
"galerie gabel";0;0;1;4;0;0;1;4
"ou est ma part";0;0;3;5.3333333333333
"massimo vitali";0;0;4;7.25;0;0;1;8
"claude leveque artiste";0;0;1;7
"vente d'oeuvre d'art";0;0;1;1
"galerie ko21";0;0;1;5
"eric deville";0;0;1;3
"girl with ball lichtenstein";0;0;3;11
"banksy oeuvres";0;0;2;10;0;0;1;8
miss-tic;0;0;1;6
"shepard fairey";0;0;16;10.9375;0;0;2;11
"catalano bruno prix des oeuvres";0;0;1;3;0;0;1;2
"affiche warhol";0;0;1;10
"ody saban";0;0;1;8
"alain godon";0;0;3;1
masmonteil;0;0;1;12
"oeuvres de banksy";0;0;1;8;0;0;1;8
"troussier joelle";0;0;2;6
susplugas;0;0;2;5
planeteserie;0;0;1;6;0;0;2;4
"ben bella artiste";0;0;1;2
"tilt artiste";0;0;1;6
"samhart gallery";0;0;3;6
"ann grim";0;0;1;7
"jean marie marion";0;0;1;6
"david lachapelle photo";0;0;1;8
"gilles desrozier";0;0;1;9
"rancinan gérard";0;0;3;8;0;0;1;6
"crane pasqua";0;0;2;4.5
"seaty artiste";0;0;1;7
goddog;0;0;2;4
nidzgorski;0;0;3;4
somelette;0;0;1;8
"espace verney carron";0;0;1;9
"linear quest";0;0;1;7
"sérigraphie art";0;0;1;15
"banksy a vendre";0;0;1;5
"aki kuroda";0;0;2;5;0;0;1;6
manthur;0;0;1;2
"jean marie drouet";0;0;1;4;0;0;4;4.5
"springer edition";0;0;1;35
"miroir portrait";0;0;2;5
"catherine klein";0;0;3;10
"galerie des arts";0;0;1;6
"ben heine";0;0;2;8
"alain buyse";0;0;1;9
"christophe charbonnel prix";0;0;2;1
ferreira;0;0;6;10
"nain porte quoi";0;0;2;11
"tony soulié prix";0;0;2;3
"richard di rosa art contemporain";0;0;1;1
"jerry hall jeune";0;0;2;1
"acheter une oeuvre d'art";0;0;1;1
"le bel homme";0;0;2;9
"chat peintre";0;0;1;5
chamizo;0;0;1;8;0;0;1;9
catte;0;0;6;4.8333333333333
"tom wesselman pop art";0;0;1;6
"bernard quentin";0;0;1;9
"galerie charlot";0;0;1;4
"pierre tal coat";0;0;1;10
"fabien verschaere";0;0;10;2.4
"jean pierre schneider peintre";0;0;1;6
"lucien murat";0;0;4;8.25;0;0;3;6
"clement denis peintre";0;0;3;1
"bernar venet";0;0;3;7.6666666666667;0;0;3;7.3333333333333
"sculpture oeuvre d'art";0;0;1;5
"galerie artefact";0;0;1;8;0;0;1;10
"sergio birga";0;0;2;9
"ki to la gloire";0;0;4;7.25
"leslie meme";0;0;1;10
"galerie walter";0;0;2;7
"tal coat";0;0;1;16
"obey artiste";0;0;1;4
"gorille art";0;0;1;9
"jean michel basquiat oeuvres";0;0;3;8;0;0;1;10
"patrick delaunay peintre";0;0;2;4
"keith haring lucky strike";0;0;1;4
"antonio segui";0;0;1;8
"robert art";0;0;1;8
"acheter art";0;0;3;1
"tony soulier";0;0;1;10
"richard orlinski prix";0;0;3;8.6666666666667
monumentale;0;0;1;10
"galerie nicolas hugo";0;0;1;5
"ok apple";0;0;2;9.5
"hugo laruelle";0;0;13;7
"oeuvre de ernest pignon ernest";0;0;2;7
"le diamentaire";0;0;1;11
louisnicolasdarbon;0;0;1;10
"photo david lachapelle";0;0;1;4
stani;0;0;8;7.75
"liu bolin oeuvres";0;0;1;4
"laure d'hauteville";0;0;2;5
"christian valette";0;0;1;14
"gerard alary";0;0;1;5
ayline;0;0;10;9.4
"thomas jorion";0;0;4;4
"lorioz jeanne";0;0;1;3
"bruno catalano biographie";0;0;1;1
"cesar sculpture";0;0;1;8
"galerie bruno massa";0;0;1;9;0;0;1;10
"oeuvres arman";0;0;1;5
"michel turpin";0;0;1;2
"artiste ben";0;0;3;4
lorioz;0;0;1;7
"oeuvre fantastique peinture";0;0;3;10
"martin brown";0;0;1;7
darmigny;0;0;1;10
"panthère noire sculpture";0;0;2;6
"carcasse peinture";0;0;1;7
"peinture fond rouge";0;0;1;10
"monika nowak art";0;0;2;5
"galerie ange basso";0;0;1;3
artjingle;0;0;1;6
"michel madore";0;0;1;4
"roy lichtenstein";0;0;1;197
"marine cattaneo";0;0;1;9
"didier hoffmann";0;0;1;6
"kool koor";0;0;5;3.6
krm;0;0;12;2.3333333333333;0;0;2;4.5
"jo di bona";0;0;1;10
"fred penelle";0;0;1;5
"paysage couple";0;0;1;5
"prix des sculptures de bruno catalano";0;0;1;6
"peintre paris 1";0;0;1;22
"ben goossens";0;0;2;10
"acheter tableau art";0;0;2;3
ricardo;0;0;1;164
"jan saudek photographe";0;0;3;4.3333333333333
"jimmy who";0;0;1;9
"olivier masmonteil";0;0;3;11;0;0;1;11
"galerie art";0;0;1;10
dan23;0;0;4;6.5;0;0;2;7.5
francton;0;0;1;8
"papillon crane";0;0;1;4
"jacques villegle";0;0;1;4
"pierre boncompain";0;0;1;5
"eva jospin";0;0;8;6.25;0;0;2;6
"orlan artiste";0;0;1;11
"kiki picasso";0;0;6;7;0;0;1;7
hyber;0;0;6;6.1666666666667;0;0;2;7.5
"albane de st remy";0;0;2;7.5
"oeuvre de basquiat";0;0;3;9.3333333333333
"marie laure vareilles";0;0;1;9
"achat oeuvre art entreprise";0;0;1;3
"mathieu mercier";0;0;5;7.6
monllor;0;0;2;7.5
"zevs oeuvres";0;0;1;5
"acheter de l'art";0;0;1;3
agrinier;0;0;1;10
"galerie bouillon d'art";0;0;1;5;0;0;1;4
sculptu;0;0;1;4
"enjoy artiste";0;0;4;1;0;0;1;1
"peintre moretti";0;0;1;37
"françois glineur";0;0;1;1
"tableau obey";0;0;1;2
orlinda;0;0;1;5
"durix julien";0;0;1;3
"galerie nuances et lumière";0;0;1;3
marrian;0;0;1;10
"li wei";0;0;2;4.5;0;0;1;4
"hervé di rosa biographie";0;0;1;5
"cyril olanier";0;0;1;4
"nils udo";0;0;2;8;0;0;3;8
"nicolas laugero";0;0;1;9
"herve lewis";0;0;4;5
"split rocker jeff koons";0;0;1;10
"statue art moderne";0;0;1;2
"lucas rollin";0;0;1;9
"francis latreille";0;0;2;8;0;0;1;7
"bernard rancillac oeuvres";0;0;1;5
aizée;0;0;2;3
"ln edition";0;0;1;2
"lawrence weiner";0;0;4;10;0;0;2;10
matryochka;0;0;1;4
"jonas sun7";0;0;1;2
"toile jonone";0;0;1;1
"banksy œuvres d'art";0;0;1;9
"philippe berry";0;0;68;6.6323529411765;0;0;22;7.3636363636364
"gordon hopkins";0;0;1;3;0;0;2;3.5
"nathalie fontenoy";0;0;1;4
"galerie guillaume";0;0;3;9
"pierre grimaldi";0;0;1;1
"tom wesselmann";0;0;3;5
"artiste obey";0;0;2;4
"artiste costa";0;0;1;3
"oeuvre cesar";0;0;2;5
arietti;0;0;1;3
"sylvain coulaud";0;0;2;4
"claude lévêque";0;0;1;11
smael;0;0;2;5.5;0;0;2;8.5
"kamel yahiaoui";0;0;2;11;0;0;1;9
"charles henry sommelette";0;0;1;3
"christian chapiron";0;0;1;8
bernadine;0;0;1;5
artspert;0;0;1;1
"mr. chat";0;0;1;7
"artiste murakami";0;0;1;3
"cynthia nu";0;0;2;6
"prix van hove";0;0;1;8
"planete serie";0;0;7;6.2857142857143;0;0;1;5
"jace graffeur";0;0;1;10
"anne decup";0;0;1;2
artop;0;0;1;9;0;0;2;8
"cesar artiste";0;0;4;6.5
"balloon dogs";0;0;1;11
tirilly;0;0;1;51
"gallerie w";0;0;1;4
mordac;0;0;2;8;0;0;1;8
"marie piselli";0;0;1;5
"yoda chanel";0;0;1;6
"philippe de saint lager";0;0;1;10
zoxx;0;0;3;8
klazen;0;0;1;3
"francois poulat";0;0;1;5
"marylin cavin";0;0;2;5
"play doh jeff koons";0;0;1;9
"joaquim falco";0;0;1;3
"aude carré";0;0;1;6;0;0;1;6
"antoine cadeo";0;0;1;3
"eric pottier sculpteur";0;0;1;2
"achat art";0;0;1;2
ahmed;0;0;1;7
"artiste india";0;0;2;6
"gerard rancinan";0;0;1;8;0;0;2;9
"philippe charpentier";0;0;3;4.3333333333333;0;0;1;1
aroa;0;0;3;5;0;0;1;5
"julien colombier";0;0;1;10
zokatos;0;0;3;6
"requin sourire";0;0;1;8
"sculpture petite fille";0;0;1;7
"achat oeuvre art fiscalité";0;0;1;8
apink;0;0;1;88
dollarblue;0;0;2;9
miss.tic;0;0;1;7
"achat art contemporain";0;0;2;1;0;0;1;1
"daniela x";0;0;1;9
"venet bernard";0;0;1;11
"roland cat artiste peintre";0;0;1;1
"uwe ommer";0;0;2;10
"pdp gallery";0;0;3;2
"julien allegre";0;0;1;8
"mi ahn";0;0;1;3
"la chapelle photo";0;0;1;8
"richard orlinski kong";0;0;1;5
"norma bessieres prix";0;0;1;4
pinceau;0;0;1;6
"olivier devignaud";0;0;1;7
"robert combas oeuvres";0;0;2;6;0;0;1;6
guilleme;0;0;1;7
"david gerstein";0;0;5;3.6
"nuance et lumière";0;0;1;3
"sculpture panthere noire";0;0;1;6
kacere;0;0;1;10
"duffy peinture";0;0;1;5
"nick walker";0;0;1;5
"benjamin carbonne";0;0;1;5
"combas artiste";0;0;1;4
"nadal peintre";0;0;2;8
"didier rossigneux";0;0;1;11
"cesar sculpteur";0;0;6;6.1666666666667;0;0;2;6
artspe;0;0;1;1
"femme assise peinture";0;0;1;8
"xavier blondeau";0;0;3;5
"charlelie couture peintre";0;0;1;2
"tom wesselmann pop art";0;0;2;6
iemza;0;0;3;4
"etienne gros";0;0;6;5;0;0;1;5
"amateur d'art";0;0;1;10
"nicolas laugero lasserre";0;0;1;11
"jacque renoir";0;0;1;8
"no orange";0;0;1;10
"pandore peinture";0;0;1;10
"jules l'atlas";0;0;1;8
"galerie under construction";0;0;1;4
rancinan;0;0;3;6.3333333333333
"mahjoub ben bella";0;0;5;4
"bob carlos";0;0;1;9
"shepard fairey oeuvres";0;0;1;2
"cesar oeuvre";0;0;2;5.5
"peinture punk";0;0;1;7
fidia;0;0;1;14
"galerie rx";0;0;1;12
orlinski;0;0;13;7.8461538461538;0;0;4;7.75
"anette messager";0;0;1;9
"guillaume piechaud";0;0;1;3;0;0;2;3
"serge mendjisky";0;0;3;5.3333333333333
"guillemin gregoire";0;0;1;4
"zapato chaussure";0;0;1;7
"theodore soutzos";0;0;1;20
"monika nowak facebook";0;0;1;7
"maurice renoma";0;0;2;8
"ahmed moustafa";0;0;1;2
"chris morin eitner";0;0;2;3
brodlim;0;0;1;3
"romain cadilhon";0;0;1;4
"peintre dubuffet";0;0;1;8
"maple collab";0;0;1;8
"artistes allemands contemporains";0;0;1;10
"bang hai ja";0;0;2;9;0;0;1;9
"princesse julia";0;0;1;10
"gabriel jones";0;0;1;4
velver;0;0;1;3
"anthony knapik-bridenne";0;0;1;5
"roberto santo";0;0;1;5
"levalet street art";0;0;2;6
"exposition miss tic";0;0;2;7.5
"jean hélion";0;0;1;10;0;0;1;11
"patrick gonzales";0;0;1;10
"photographer david lachapelle";0;0;1;11
mesnager;0;0;7;4.1428571428571;0;0;1;4
auboiron;0;0;1;9
"roland cat peintre";0;0;1;2
"bernar venet sculpteur";0;0;1;9
"di rosa";0;0;1;4
hiquily;0;0;1;11
"foot fetish";0;0;1;46
"peinture mohamed ali";0;0;2;7
"daniella x";0;0;1;9
"sculpture crane";0;0;1;10
"laforet orange";0;0;2;9.5
"tilt graffiti";0;0;2;7;0;0;1;8
"thomas canto";0;0;1;7
"sculpture bronze contemporain";0;0;1;48
"artiste peintre chat";0;0;1;9
bodnariu;0;0;1;3
"statue déesse";0;0;1;4
"alain clément";0;0;3;4.6666666666667;0;0;1;5
"dubuffet biographie";0;0;1;7
"fred calmets";0;0;1;8
"pascale morin";0;0;1;10
"richard orlanski";0;0;2;7
oulab;0;0;1;8
"benoit averly";0;0;3;7
"fazzino charles";0;0;1;5
"stephane joannes";0;0;2;2
"jean charles quillin";0;0;1;7
"vente picasso";0;0;1;42
"chaise talon aiguille";0;0;2;7
leyto;0;0;2;8
"adalla costa";0;0;1;5
"david gerstein prix";0;0;2;1
"galerie bacqueville lille";0;0;1;7
"gottfried honegger";0;0;1;8;0;0;1;10
glineur;0;0;2;10
"li foto love";0;0;1;1
"nathalie grenier";0;0;1;5
"galerie ricci";0;0;1;3
erro;0;0;2;11
lisman;0;0;1;4
"yoann merienne";0;0;2;2
"bonhomme blanc mail";0;0;1;10
"mont de venus";0;0;2;29
"charli roberts";0;0;1;1
"arman oeuvre";0;0;4;6.75
"gaspard mitz";0;0;1;1
"louis stettner";0;0;1;10
johnone;0;0;1;6
"photographe gursky";0;0;1;8
"kounellis artiste";0;0;1;3
"sandra david";0;0;1;6
"david ratcliff";0;0;1;6
"charles guyot";0;0;1;1
"juliette clovis";0;0;5;3
"ming mao";0;0;2;10
"jerome revon";0;0;3;11
"daniel timmers";0;0;3;10
m.chat;0;0;1;7;0;0;4;7.75
gronon;0;0;1;10
boudro;0;0;1;9;0;0;1;10
"sculpture de prix";0;0;1;6
"raymond hains";0;0;1;9
"crash artiste";0;0;1;1
"vente oeuvre d'art en ligne";0;0;1;1;0;0;1;1
birga;0;0;1;10
"sculpture dubuffet";0;0;1;7
"orlinski sculpteur";0;0;1;6
"combas peintre";0;0;4;5
"miss tic biographie";0;0;3;4.3333333333333
"peinture street art";0;0;3;10
"obey street art";0;0;1;8
"christophe charbonnel sculpteur";0;0;2;5.5;0;0;1;5
"cedrix crespel";0;0;3;4.6666666666667
durix;0;0;5;5.2
"gérard rancinan";0;0;3;7
"roger edgar gillet";0;0;1;11
cieu;0;0;3;9;0;0;1;9
"arman artiste";0;0;1;10
"elisabeth von wrede";0;0;5;7
"galerie bettina paris";0;0;1;8
"dan23 strasbourg";0;0;1;9;0;0;1;9
"anne cindric";0;0;1;4
"claude leveque";0;0;8;10;0;0;6;10.666666666667
"jacques villege";0;0;1;5
"miss tie";0;0;1;6
"susanne stemmer";0;0;2;8
"kamasutra 3";0;0;1;71
"mario chichorro";0;0;1;5
"art contemporain achat";0;0;1;1
cadeo;0;0;2;11;0;0;1;10
"agnes belin";0;0;1;153
"loulou picasso biographie";0;0;1;7
"oeuvres d'art à vendre";0;0;1;1
"didier hamey";0;0;1;8
gainsbourg;0;0;1;209
"peintre jonone";0;0;1;2
"marie laure gerard";0;0;1;4
"galerie delorme";0;0;1;4
"tiphaine popesco";0;0;1;2
"britto paris";0;0;1;9
bernar;0;0;2;9
"alain clement";0;0;1;4
"oeuvres de bernard pras";0;0;1;1
"robert sgarra";0;0;1;2
"qui jiji";0;0;1;4
"philippe bruneteau";0;0;1;3
"irina ionesco biographie";0;0;1;3
"gerard boudon";0;0;2;9
"michele destarac";0;0;1;4
"baptiste dumont";0;0;1;10
"noe two";0;0;1;3
"galerie artiane";0;0;1;5
"remi delaplace";0;0;1;7
"peinture superman";0;0;1;6
"dominic grisor";0;0;1;2
"rakel wajnberg";0;0;1;1
"carole benichou artiste";0;0;1;4
"galerie numero 1";0;0;2;4
"marie oger";0;0;2;10.5
"marianne jonone";0;0;1;7
"envie d art";0;0;1;4
"sculpture monumentale contemporaine";0;0;1;2
"le cirque matisse";0;0;1;7
"yayoi kusama biographie";0;0;1;8
"boom art";0;0;1;6
rozl;0;0;3;8.6666666666667
"balloon dog prix";0;0;1;9
"milo artiste peintre";0;0;1;9
"cote combas";0;0;1;5
"sebastien bayet";0;0;2;5
"noe two artiste";0;0;1;9
"oeuvre chat";0;0;1;8
"julien airault";0;0;1;2
"gerard mortier peintre";0;0;1;1
"corinne dalle";0;0;2;1
"peinture brisson";0;0;1;1
"tableau skieur";0;0;1;1
"telemaque peintre";0;0;2;6
"banksy stop and search";0;0;1;7
"bernard boscher";0;0;1;32
"achat oeuvre d'art en ligne";0;0;1;1
"boutique d'art en ligne";0;0;1;1
"peinture dark vador";0;0;2;4
"philippe buil sculpteur";0;0;1;4
"achat tableaux contemporains";0;0;1;2
"francois morrellet";0;0;1;9
surian;0;0;1;8
"patrick bailly maitre";0;0;2;6
"envie dart";0;0;1;4
"art et publicité";0;0;1;39
"costa fernando";0;0;1;3
adela;0;0;1;19
"nils udo oeuvre";0;0;1;6
"photographie art contemporain";0;0;1;2
"barthes de ruyter";0;0;2;3
"marc figueras paintings";0;0;1;4
"hank china artiste";0;0;1;2
"jerome mesnager street art";0;0;1;3
"seen street art";0;0;1;4
"philip pasqua";0;0;1;6
"combas peintre prix";0;0;1;6
"jesus rafael soto composition 1";0;0;1;9
"olivier catté";0;0;1;2
yongliang;0;0;1;9
"cyprien clement delmas";0;0;1;8
"street art galerie en ligne";0;0;1;8
"takala photo";0;0;3;1
"coq multicolore";0;0;1;6
"christian boltanski oeuvre d'art";0;0;2;10
galeies;0;0;1;9
"di rosas";0;0;1;7
"sculpture cactus";0;0;1;7
"romero britto biographie";0;0;2;2
"guillaume moschini";0;0;4;5
"sunday morning andy warhol";0;0;1;3
"bernard venet";0;0;2;6.5
"monochrome noir";0;0;1;7
"michel four";0;0;1;8
"peintre chat";0;0;1;19
benaroch;0;0;1;5
"jean michel basquiat untitled skull 1981";0;0;1;1
"peintre couture";0;0;1;8
"madame figaro logo";0;0;1;1
ravagnani;0;0;1;13
"colorfield gallery";0;0;2;8
"flipo peintre";0;0;2;2
"oeuvre de connaisseur";0;0;2;8
"patrick villas";0;0;1;5
"jean gilles badaire";0;0;1;9
"sculpteur chinois contemporain";0;0;1;7
"gregory vigier";0;0;1;4
"pierre muckensturm";0;0;3;6
"alain rivière";0;0;1;11
"bob carlos clarke";0;0;1;11
"peintre japonais contemporain";0;0;1;10
happywallmaker;0;0;1;5
"vente oeuvre d'art";0;0;1;1
"elder batista";0;0;2;10
"banksy œuvres d-art";0;0;1;7
"couture peintre";0;0;1;9
"jeremy royer";0;0;1;7
"vanessa cooper";0;0;1;1
"guy oberson";0;0;1;10
"artsper paris";0;0;1;1
"no art";0;0;1;7
"manolo peintre";0;0;1;6
"isabeau jousse";0;0;1;3
scultu;0;0;1;6
"gallerie bettina";0;0;1;7
"aki kuroda peintre";0;0;1;7
"alain vaissiere";0;0;1;5
"dan 23";0;0;2;8
"henri des cache cache";0;0;1;60
delaporte;0;0;1;162
"gregoire leon";0;0;2;3
"christophe charbonel";0;0;1;7
"doucet peintre";0;0;1;8
"peintre brack";0;0;1;6
"dolores marat biographie";0;0;1;2
"eva jospin artist";0;0;1;3
"puzzle oeuvre d'art";0;0;1;15
"romero britto oeuvres";0;0;1;6
"gabriel barthelemy";0;0;1;9
"sculpture bulldog";0;0;1;14
"street art miss tic";0;0;1;6
valentin_caro;0;0;1;7
"m le chat";0;0;1;6
"shoes rocking";0;0;1;3
"agnes dubart";0;0;1;9
"balloon dog jeff koons prix";0;0;3;9
"artiste contemporain peintre";0;0;1;5
"emmanuelle bousquet";0;0;1;4
"ecloz rouen";0;0;1;4
ptoy;0;0;2;9
"martin mon tableau à dessin";0;0;1;163
"corinne dalle ore";0;0;1;6
"ronald dupont";0;0;2;7
"dubuffet peinture";0;0;1;7
"charlize theron";0;0;1;137
"jean hélion peintre";0;0;1;9
"valerie hadida biographie";0;0;2;1
"florence d elle";0;0;1;10
"orlinski prix";0;0;1;7
"abie loy kemarre";0;0;1;10
"louis audibert";0;0;1;10
"herb ritts nude";0;0;2;5
"galerie gilbert dufois";0;0;1;8
"objet d'art moderne";0;0;1;3
"peintre beaufils";0;0;1;6
