artsper;15;0.080645161290323;186;1;10;0.070422535211268;142;1;3;0.11111111111111;27;1;2;0.11764705882353;17;1
nojnoma;9;0.40909090909091;22;1.1818181818182;2;0.22222222222222;9;1.4444444444444;7;0.53846153846154;13;1
"bernard pras";7;0.067961165048544;103;4.1941747572816;6;0.075;80;4.025;1;0.090909090909091;11;4.7272727272727;0;0;12;4.8333333333333
jonone;5;0.028409090909091;176;4.9375;2;0.017543859649123;114;4.5350877192982;2;0.051282051282051;39;5.8205128205128;1;0.043478260869565;23;5.4347826086957
"jef aerosol";4;0.052631578947368;76;4.3684210526316;4;0.070175438596491;57;4.2280701754386;0;0;12;4.5833333333333;0;0;7;5.1428571428571
"martin reyna";4;0.28571428571429;14;3.5;1;0.2;5;4.4;3;0.33333333333333;9;3
kyliss;3;0.42857142857143;7;1;2;0.5;4;1;1;0.33333333333333;3;1
"benjamin carbonne";3;0.42857142857143;7;2.4285714285714;3;0.6;5;2;0;0;1;2;0;0;1;5
"fabien verschaere";3;0.3;10;2.2;3;0.3;10;2.2
"jeff koons biographie";3;0.10714285714286;28;9.9285714285714;1;0.04;25;9.96;1;1;1;9;1;0.5;2;10
lemilo;3;1;3;1.3333333333333;3;1;3;1.3333333333333
"troy henriksen";3;0.1875;16;3;3;0.23076923076923;13;3;0;0;1;3;0;0;2;3
"gaspard mitz";3;0.42857142857143;7;3.7142857142857;1;1;1;4;2;1;2;2
"mahjoub ben bella";3;0.42857142857143;7;2.4285714285714;1;0.2;5;2.6;2;1;2;2
"robert combas";3;0.028846153846154;104;3.5480769230769;3;0.040540540540541;74;3.3378378378378;0;0;16;4.125;0;0;14;4
"keith haring oeuvres";2;0.037037037037037;54;8.3333333333333;1;0.025;40;8.175;0;0;10;8.7;1;0.25;4;9
jakè;2;0.28571428571429;7;3;2;0.28571428571429;7;3
"derrick santini";2;0.2;10;3;2;0.2;10;3
"laurence dreyfus art";2;0.25;8;3;2;0.28571428571429;7;3;0;0;1;3
pookky;2;0.33333333333333;6;1.3333333333333;2;0.33333333333333;6;1.3333333333333
"didier avril peinture";2;1;2;2;2;1;2;2
"jeremie lenoir";2;0.5;4;4;2;0.5;4;4
"françois boisrond";2;0.16666666666667;12;4.5833333333333;1;0.11111111111111;9;4.4444444444444;0;0;1;5;1;0.5;2;5
"monsieur chat";2;0.018867924528302;106;6.8301886792453;1;0.019607843137255;51;6.6470588235294;0;0;44;6.9545454545455;1;0.090909090909091;11;7.1818181818182
"vincent corpet";2;0.090909090909091;22;6.6363636363636;1;0.0625;16;6.5;1;0.2;5;7;0;0;1;7
"duong le thai";2;0.28571428571429;7;5.1428571428571;2;0.33333333333333;6;5.1666666666667;0;0;1;5
"banksy oeuvres";2;0.058823529411765;34;8.8823529411765;1;0.04;25;8.72;0;0;7;9.2857142857143;1;0.5;2;9.5
"patrick villas";2;0.66666666666667;3;2.3333333333333;2;0.66666666666667;3;2.3333333333333
goddog;2;0.18181818181818;11;4.0909090909091;2;0.22222222222222;9;4.1111111111111;0;0;1;4;0;0;1;4
mendjisky;2;0.22222222222222;9;8.6666666666667;2;0.25;8;8.5;0;0;1;10
"john matos crash";2;0.11111111111111;18;2;0;0;13;1.8461538461538;2;0.4;5;2.4
"robert mapplethorpe oeuvres";2;0.28571428571429;7;4.8571428571429;2;0.28571428571429;7;4.8571428571429
"michelle hold";2;1;2;6;2;1;2;6
"robert bradford";2;0.33333333333333;6;2.1666666666667;2;0.4;5;2;0;0;1;3
"sandy skoglund";2;0.14285714285714;14;7.1428571428571;2;0.15384615384615;13;7.0769230769231;0;0;1;8
"jacques villeglé";2;0.0625;32;4.4375;1;0.037037037037037;27;4.4444444444444;0;0;3;4;1;0.5;2;5
"did dontzoff";2;0.15384615384615;13;2.5384615384615;1;0.090909090909091;11;2.4545454545455;1;0.5;2;3
"christophe charbonnel";2;0.14285714285714;14;5.8571428571429;2;0.2;10;5.5;0;0;2;7;0;0;2;6.5
"nils udo";2;0.020618556701031;97;7.2783505154639;2;0.028571428571429;70;7.0142857142857;0;0;18;7.8333333333333;0;0;9;8.2222222222222
chanoir;2;0.33333333333333;6;2.5;1;0.25;4;2.5;0;0;1;3;1;1;1;2
"raymond hains oeuvres";1;0.2;5;4.4;1;0.33333333333333;3;4.3333333333333
"roland cat wikipedia";1;1;1;1;1;1;1;1
"takashi murakami biographie";1;0.090909090909091;11;5.4545454545455;1;0.1;10;5.4;0;0;1;6
"beatrice terra";1;0.33333333333333;3;1;1;0.33333333333333;3;1
"justyna adamczyk";1;1;1;8;1;1;1;8
"vanité philippe pasqua";1;0.5;2;3;1;1;1;3;0;0;1;3
"raynaud peintre";1;0.5;2;8;1;1;1;8
"andy warhol sunday b morning";1;1;1;1;1;1;1;1
"herve di rosa";1;0.16666666666667;6;3.3333333333333;1;0.5;2;4
"victoria klotz";1;0.14285714285714;7;3.1428571428571;1;0.14285714285714;7;3.1428571428571
"julien durix";1;0.083333333333333;12;2.3333333333333;1;0.125;8;1.5;0;0;3;5;0;0;1;1
"tristan alexandre";1;0.33333333333333;3;2;1;0.33333333333333;3;2
"thomas verny";1;0.5;2;1;1;0.5;2;1
"massimo vitali";1;0.1;10;5.5;1;0.11111111111111;9;5.3333333333333;0;0;1;7
"guy denning";1;0.076923076923077;13;4.3076923076923;1;0.11111111111111;9;4;0;0;2;4;0;0;2;6
"takashi murakami prix";1;1;1;1;1;1;1;1
"agnes crepin";1;0.25;4;6.75;1;0.33333333333333;3;7
"jean faucheur artist";1;1;1;2;1;1;1;2
jisbar;1;1;1;4;1;1;1;4
"bernard moninot";1;0.024390243902439;41;6.3170731707317;1;0.037037037037037;27;6.037037037037;0;0;9;6.7777777777778;0;0;5;7
villeglé;1;0.043478260869565;23;3.6521739130435;0;0;5;4;1;1;1;4
"renaud delorme";1;0.5;2;2;1;0.5;2;2
"art shopping octobre 2015";1;1;1;35;1;1;1;35
"tilt graffeur toulouse";1;0.5;2;6;1;0.5;2;6
"dominique mulhem";1;0.14285714285714;7;3;1;0.14285714285714;7;3
"kiddy citny";1;0.25;4;5.5;1;0.25;4;5.5
"nicolas cessieux";1;1;1;2;1;1;1;2
"frédéric deprun";1;0.16666666666667;6;4.1666666666667;1;0.16666666666667;6;4.1666666666667
"liu bolin biographie";1;1;1;2;1;1;1;2
"pierre riba sculpteur";1;0.5;2;2;1;0.5;2;2
"galerie roy sfeir";1;0.33333333333333;3;5.3333333333333;1;0.33333333333333;3;5.3333333333333
"christophe dugied";1;0.33333333333333;3;2.6666666666667;1;0.5;2;2;0;0;1;4
moschini;1;0.5;2;5;1;0.5;2;5
artsper.com;1;0.5;2;1;1;0.5;2;1
"stephane joannes";1;0.5;2;3;1;1;1;4;0;0;1;2
"godon alain";1;1;1;1;1;1;1;1
"speedy graphito";1;0.019230769230769;52;4.6730769230769;1;0.025;40;4.425;0;0;10;5.4;0;0;2;6
"bernard chauchet";1;0.16666666666667;6;5.6666666666667;0;0;1;8;1;0.25;4;5.5
"guy ferrer";1;0.2;5;9.2;1;0.25;4;9;0;0;1;10
"peter mc lane";1;1;1;3;1;1;1;3
"alben artiste";1;0.14285714285714;7;7.8571428571429;1;0.25;4;7.75;0;0;3;8
"philippe soussan";1;0.2;5;3.8;1;0.5;2;3.5;0;0;3;4
"corine pagny";1;0.25;4;4.5;1;0.33333333333333;3;4.3333333333333;0;0;1;5
"alain louiset";1;0.25;4;2.5;1;0.5;2;2;0;0;2;3
"laurent dauptain";1;0.125;8;4;1;0.125;8;4
"annette messager biographie";1;0.125;8;5;0;0;1;5;1;1;1;5
joneone;1;0.125;8;4.875;1;0.2;5;4.2;0;0;1;6;0;0;2;6
"oeuvre de ben";1;0.33333333333333;3;2.3333333333333;1;0.5;2;2;0;0;1;3
cieu;1;0.2;5;9.2;0;0;2;8;1;1;1;14
"galeries d'art";1;0.25;4;7;1;0.33333333333333;3;7;0;0;1;7
"nojnoma paris";1;1;1;2;1;1;1;2
"michèle destarac";1;1;1;1;1;1;1;1
"jacques damez";1;0.33333333333333;3;3;1;0.33333333333333;3;3
"bernard pras biographie";1;0.14285714285714;7;2.2857142857143;1;0.25;4;2;0;0;3;2.6666666666667
"guy mansuy";1;1;1;2;1;1;1;2
"catherine seher";1;0.33333333333333;3;4;1;0.5;2;4;0;0;1;4
"robert barry";1;0.25;4;3.25;1;0.33333333333333;3;3;0;0;1;4
"galerie garnier delaporte";1;0.5;2;3;1;0.5;2;3
"cote robert combas";1;0.2;5;2.8;1;0.2;5;2.8
"cecile desserle peintures";1;0.5;2;4.5;1;0.5;2;4.5
nowart;1;0.25;4;2.5;1;0.5;2;2
"eduardo arroyo";1;0.043478260869565;23;7.5217391304348;1;1;1;9
"dok artiste";1;1;1;1;1;1;1;1
"galerie d artiste";1;0.33333333333333;3;29.333333333333;1;0.33333333333333;3;29.333333333333
"bertrand noël";1;0.5;2;4;1;0.5;2;4
"francois bard";1;0.25;4;2.75;1;0.25;4;2.75
"natalia rak";1;0.33333333333333;3;3;1;0.33333333333333;3;3
"galerie l'oeil du prince";1;0.33333333333333;3;6.3333333333333;1;0.5;2;6;0;0;1;7
"pascal ito";1;0.5;2;14;1;0.5;2;14
"jean michel basquiat oeuvres";1;0.035714285714286;28;8.25;1;0.037037037037037;27;8.2222222222222;0;0;1;9
"jerome festy";1;0.2;5;4;1;0.2;5;4
"sculpture contemporaine terre cuite";1;1;1;58;1;1;1;58
"benjamin deroche";1;0.083333333333333;12;6.9166666666667;1;0.16666666666667;6;7.3333333333333;0;0;4;7.5;0;0;2;4.5
"maxime acker";1;0.5;2;2;1;1;1;2;0;0;1;2
iemza;1;0.2;5;6;1;0.5;2;6;0;0;1;6
"amaury mulliez";1;0.11111111111111;9;7.2222222222222;1;0.125;8;6.875;0;0;1;10
belie;1;0.33333333333333;3;11;1;0.33333333333333;3;11
"etienne rey";1;0.11111111111111;9;8.8888888888889;1;0.16666666666667;6;9.1666666666667;0;0;3;8.3333333333333
"dubuffet biographie";1;0.2;5;4.2;1;0.2;5;4.2
"christine barres peintre";1;1;1;4;1;1;1;4
"pascale cayla";1;0.11111111111111;9;9.5555555555556;1;0.14285714285714;7;9.7142857142857;0;0;1;8;0;0;1;10
"c215 paris";1;1;1;71;1;1;1;71
"christian renonciat";1;0.25;4;5.25;1;0.33333333333333;3;5;0;0;1;6
"lance letscher";1;1;1;8;1;1;1;8
"eduardo kac";1;0.083333333333333;12;10;1;0.083333333333333;12;10
"ben artiste";1;0.058823529411765;17;4;0;0;6;5;1;1;1;4
"tony frank";1;0.083333333333333;12;7;1;0.1;10;7;0;0;2;7
"dani olivier";1;0.066666666666667;15;7.6;1;0.083333333333333;12;7.5;0;0;2;8;0;0;1;8
"marc combas";1;0.5;2;1.5;1;0.5;2;1.5
fubiz;1;0.071428571428571;14;27.071428571429;1;0.083333333333333;12;28.833333333333;0;0;2;16.5
"ye xing qian";1;1;1;2;1;1;1;2
"oleg dou";1;0.1;10;3.3;1;0.14285714285714;7;3;0;0;2;3;0;0;1;6
"irina ionesco";1;0.5;2;35;1;0.5;2;35
"saudek jan";1;0.33333333333333;3;2;1;0.33333333333333;3;2
"jef aerosol prix";1;0.33333333333333;3;1;0;0;1;1;1;0.5;2;1
"michel le belhomme";1;0.14285714285714;7;5.2857142857143;0;0;6;5.3333333333333;1;1;1;5
"cecile colombo";1;0.1;10;4.4;1;0.16666666666667;6;4;0;0;2;5;0;0;2;5
"orlan oeuvres";1;0.5;2;4;1;0.5;2;4
"galerie artiane honfleur";1;1;1;3;1;1;1;3
"cecile charron";1;0.25;4;4.5;1;0.5;2;4;0;0;2;5
"guy denning techniques";1;0.5;2;2;1;0.5;2;2
"tom wesselmann biographie";1;0.5;2;2.5;1;0.5;2;2.5
"franck k";1;0.33333333333333;3;1;1;0.33333333333333;3;1
orlinski;1;0.023255813953488;43;9.7906976744186;1;0.047619047619048;21;9.6190476190476;0;0;20;10;0;0;2;9.5
"wesselmann oeuvres";1;1;1;5;1;1;1;5
fotover;1;0.33333333333333;3;1;1;0.33333333333333;3;1
"annette messager sculpture";1;1;1;2;1;1;1;2
"levalet artiste";1;1;1;2;1;1;1;2
"stéphanie nava";1;0.33333333333333;3;3;1;0.33333333333333;3;3
"valérie vaubourg";1;0.33333333333333;3;2;1;0.33333333333333;3;2
"tsuyu artiste";1;0.5;2;1;1;0.5;2;1
"gerhard doehler";1;1;1;2;1;1;1;2
"jean dubuffet oeuvres";1;0.035714285714286;28;5.3571428571429;1;0.047619047619048;21;5.1428571428571;0;0;2;6;0;0;5;6
"ernest pignon ernest oeuvres";1;0.058823529411765;17;7.2941176470588;1;0.066666666666667;15;7.3333333333333;0;0;2;7
"pierre pignon";1;0.33333333333333;3;2;0;0;1;2;1;0.5;2;2
"etiye dimma poulsen";1;1;1;5;1;1;1;5
besher;1;0.090909090909091;11;4.0909090909091;1;0.125;8;3.875;0;0;2;5;0;0;1;4
"murakami takashi oeuvres";1;0.2;5;5;1;0.33333333333333;3;5;0;0;2;5
"villas sculpteur";1;1;1;2;1;1;1;2
"rudolf hausner";1;0.33333333333333;3;3;1;0.33333333333333;3;3
"artiste peintre pezenas";1;0.33333333333333;3;4;1;0.33333333333333;3;4
"tiphaine popesco";1;0.11111111111111;9;3;1;0.11111111111111;9;3
artpser;1;0.1;10;1.6;1;0.125;8;1.75;0;0;2;1
"henri lamy";1;0.11111111111111;9;4.5555555555556;1;0.25;4;4.5;0;0;3;4;0;0;2;5.5
"guy oberson";1;1;1;9;1;1;1;9
"unik galerie";1;0.5;2;1;1;0.5;2;1
"cesar artiste";1;0.11111111111111;9;7.3333333333333;1;0.125;8;7.125;0;0;1;9
"aki kuroda";1;0.066666666666667;15;3.5333333333333;1;0.090909090909091;11;4.4545454545455;0;0;3;1;0;0;1;1
"sylvie fleury";1;0.058823529411765;17;5.8235294117647;1;0.076923076923077;13;4.4615384615385;0;0;3;11.666666666667;0;0;1;6
"gilles verneret";1;0.25;4;5;1;0.25;4;5
"georges poncet";1;0.33333333333333;3;6;1;0.33333333333333;3;6
"marie maertens";1;0.2;5;5;1;0.5;2;5
ioye;1;0.5;2;4;1;0.5;2;4
"gérard schlosser";1;0.25;4;4.5;1;0.33333333333333;3;4.3333333333333;0;0;1;5
"claude lévèque";1;0.090909090909091;11;10.363636363636;1;0.090909090909091;11;10.363636363636
"toile jonone";1;0.5;2;1;1;0.5;2;1
"bruno catalano prix";1;0.5;2;7;1;0.5;2;7
"sylvie koechlin";1;0.25;4;8.75;1;0.33333333333333;3;8.3333333333333;0;0;1;10
"oeuvre de jean michel basquiat";1;0.0625;16;7;1;0.066666666666667;15;7;0;0;1;7
"annette messager oeuvres";1;0.125;8;7;1;0.14285714285714;7;7;0;0;1;7
"galerie nu feminin";1;1;1;31;1;1;1;31
"butz et fouque";1;0.16666666666667;6;4.6666666666667;1;0.25;4;4.5;0;0;2;5
"jean dubuffet biographie courte";1;0.33333333333333;3;3;1;0.33333333333333;3;3
"galerie d'art";1;0.027027027027027;37;6.5945945945946;1;0.032258064516129;31;6.741935483871;0;0;4;5.75;0;0;2;6
"claire trotignon";1;0.14285714285714;7;4.7142857142857;1;0.14285714285714;7;4.7142857142857
"laurence dreyfus";1;0.066666666666667;15;8.9333333333333;1;0.083333333333333;12;8.6666666666667;0;0;3;10
"herve telemaque";1;0.25;4;4.5;1;0.5;2;4;0;0;2;5
"ad galerie montpellier";1;1;1;4;1;1;1;4
"sculpture murakami";1;1;1;3;1;1;1;3
"nathan chantob";1;0.16666666666667;6;3;1;0.5;2;3
"didier triglia facebook";1;0.33333333333333;3;5;1;0.33333333333333;3;5
"biographie de nils udo";1;0.5;2;4;1;0.5;2;4
misstic;1;0.020408163265306;49;9.0612244897959;1;0.03448275862069;29;9.1034482758621;0;0;18;9;0;0;2;9
"guy weladji";1;0.25;4;2;1;0.25;4;2
"christine drummond";1;0.5;2;5;1;0.5;2;5
"roland cat peintre";1;0.071428571428571;14;3;1;0.076923076923077;13;3;0;0;1;3
"philippe favier";1;0.125;8;8.375;1;0.125;8;8.375
"zhang xiaogang artiste peintre";1;1;1;3;1;1;1;3
"shirley jaffe artiste";1;0.33333333333333;3;2.6666666666667;1;0.5;2;2;0;0;1;4
"vincent richeux";1;0.11111111111111;9;6;1;0.16666666666667;6;6;0;0;3;6
"durix julien";1;0.33333333333333;3;3.3333333333333;1;0.5;2;4.5;0;0;1;1
"olivier long";1;0.33333333333333;3;11;1;0.33333333333333;3;11
"romain semeteys";1;0.2;5;6;1;0.2;5;6
"nils udo biographie";1;0.2;5;2.2;1;0.2;5;2.2
"poes artiste";1;0.5;2;2;1;0.5;2;2
kikayou;1;1;1;5;1;1;1;5
"miss tic oeuvres";1;0.5;2;3;1;0.5;2;3
"maxime ansiau";1;1;1;5;1;1;1;5
tanc;1;0.1;10;6;1;0.11111111111111;9;5.8888888888889;0;0;1;7
"takashi murakami sculpture";1;0.2;5;4;1;0.2;5;4
"thierry dussac";1;0.25;4;4.5;1;0.33333333333333;3;4.6666666666667;0;0;1;4
"césar baldaccini";1;0.03448275862069;29;6.7586206896552;1;0.058823529411765;17;6.4117647058824;0;0;8;7.375;0;0;4;7
"mr brainwash obama";1;1;1;8;1;1;1;8
"l'atlas artiste";1;0.125;8;7.25;1;0.2;5;8
"pierre fava";1;0.16666666666667;6;2.8333333333333;1;0.25;4;2.75;0;0;2;3
"bambi artiste";1;1;1;2;1;1;1;2
"marty de montereau";1;0.33333333333333;3;1;1;0.33333333333333;3;1
"chantal porras";1;0.5;2;2;1;1;1;2;0;0;1;2
poes;1;0.25;4;4;1;0.33333333333333;3;4;0;0;1;4
"brno del zou";1;0.2;5;3;1;0.25;4;3;0;0;1;3
"la peur dans l'art";1;0.33333333333333;3;2;1;0.33333333333333;3;2
rancinan;1;0.076923076923077;13;5.7692307692308;1;0.1;10;5.6;0;0;2;6;0;0;1;7
"oeuvre basquiat";1;1;1;18;1;1;1;18
vittoretti;1;0.5;2;3;1;0.5;2;3
villegle;1;0.25;4;4.5;1;0.25;4;4.5
"photo surréaliste";1;0.16666666666667;6;9.8333333333333;0;0;1;10;1;1;1;9
"catalano bruno prix des oeuvres";1;1;1;4;1;1;1;4
"li baoxun";1;1;1;3;1;1;1;3
"alain clément";1;0.2;5;4.2;1;0.25;4;4;0;0;1;5
"pin up aslan";1;1;1;23;1;1;1;23
"stephane pencreach";1;0.5;2;8;1;0.5;2;8
flipo;1;0.125;8;8.375;1;0.2;5;7.2;0;0;2;10;0;0;1;11
"hanns peter krafft";1;1;1;1;1;1;1;1
"marie taittinger";1;1;1;1;1;1;1;1
"peintre wilfred";1;0.33333333333333;3;3;1;0.33333333333333;3;3
"gordon hopkins";1;0.5;2;3;1;0.5;2;3
"axel gouala";1;1;1;6;1;1;1;6
"hiro ando";1;0.25;4;1;1;0.25;4;1
"hervé di rosa";1;0.027027027027027;37;3.3783783783784;0;0;21;3.2857142857143;1;0.071428571428571;14;3.4285714285714;0;0;2;4
"hang china";1;1;1;8;1;1;1;8
"jacky tsai";1;1;1;7;1;1;1;7
"catherine klein";1;0.14285714285714;7;14.285714285714;1;1;1;6;0;0;1;19;0;0;5;15
boisrond;1;0.14285714285714;7;5.4285714285714;1;0.33333333333333;3;4.6666666666667;0;0;3;6;0;0;1;6
"christoff debusschere";1;0.090909090909091;11;6.9090909090909;1;0.16666666666667;6;6.6666666666667;0;0;1;7;0;0;4;7.25
"tal coat";1;0.5;2;14;1;0.5;2;14
"troy henriksen cote";1;0.5;2;3.5;1;0.5;2;3.5
"takashi murakami oeuvre";1;0.2;5;4;1;0.2;5;4
"tilt graffeur";1;0.33333333333333;3;7.3333333333333;0;0;1;8;1;0.5;2;7
"bard peintre";1;0.33333333333333;3;1.6666666666667;1;0.5;2;2
stani;1;0.2;5;2.8;1;0.25;4;3
"richard orlinski";1;0.0070921985815603;141;8.1702127659574;1;0.01219512195122;82;8.2682926829268;0;0;51;8.0392156862745;0;0;8;8
"oeuvres jock sturges";1;0.5;2;2.5;1;0.5;2;2.5
"christophe ronel";1;0.25;4;10.75;1;0.25;4;10.75
"francisco sepulveda";1;0.125;8;9.25;1;0.125;8;9.25
"romain tichit";1;0.33333333333333;3;8.3333333333333;1;0.5;2;8.5;0;0;1;8
"claude leveque";1;0.012345679012346;81;10.481481481481;0;0;15;11.266666666667;1;0.11111111111111;9;10.222222222222
"mahjoub ben bella prix";1;0.33333333333333;3;2.3333333333333;1;0.33333333333333;3;2.3333333333333
"julien calot";1;0.2;5;1.6;0;0;4;1.75;1;1;1;1
"liu bolin camouflage";1;1;1;34;1;1;1;34
"oeuvre de keith haring";1;0.047619047619048;21;8.6190476190476;1;0.058823529411765;17;8.5294117647059;0;0;4;9
combas;1;0.016949152542373;59;6.3559322033898;0;0;35;5.6571428571429;1;0.058823529411765;17;7.2941176470588;0;0;7;7.5714285714286
"thomas canto";1;0.071428571428571;14;5.5714285714286;1;0.083333333333333;12;5.6666666666667;0;0;2;5
"sculpteur japonais contemporain";1;0.5;2;10;1;1;1;10;0;0;1;10
"pauline dufour";1;0.11111111111111;9;6.4444444444444;1;0.16666666666667;6;6.5;0;0;3;6.3333333333333
"willy ronis biographie";1;0.25;4;10;1;0.33333333333333;3;9.6666666666667;0;0;1;11
"francky boy";1;0.5;2;4;1;0.5;2;4
"yago partal";1;0.33333333333333;3;19;1;0.33333333333333;3;19
fkdl;1;0.076923076923077;13;4.1538461538462;1;0.090909090909091;11;4;0;0;2;5
"jean-pierre nadau";1;0.125;8;1;1;0.125;8;1
"charles henry sommelette";1;0.16666666666667;6;2.6666666666667;1;0.16666666666667;6;2.6666666666667
"ramzi adek";1;0.2;5;5.2;1;1;1;5;0;0;3;5.3333333333333;0;0;1;5
"alain godon";1;0.0625;16;2.4375;0;0;10;3.3;1;1;1;1;0;0;5;1
"oeuvre keith haring";1;0.33333333333333;3;9;1;0.5;2;9;0;0;1;9
"monika nowak";1;1;1;2;1;1;1;2
"jean faucheur";1;0.041666666666667;24;6.2083333333333;1;0.043478260869565;23;6.1739130434783;0;0;1;7
"jean louis audibert";1;0.5;2;2;1;0.5;2;2
"combas peintre";1;0.041666666666667;24;4.125;0;0;17;4.1176470588235;1;0.2;5;4.2;0;0;2;4
"colette levine";1;0.33333333333333;3;6.3333333333333;1;0.5;2;6;0;0;1;7
"sugai kumi";1;1;1;6;1;1;1;6
"gerard alary";1;0.2;5;4;1;0.2;5;4
"hyber fabrice";0;0;2;6
"guillemette schlumberger";0;0;1;4;0;0;1;4
"francoise petrovitch";0;0;6;6.5;0;0;3;7
"eric luck";0;0;1;6;0;0;1;6
"jean charles pigeau";0;0;1;4;0;0;1;4
"vente sculpture";0;0;4;1
"cesar peintre";0;0;2;10;0;0;2;10
"photo art contemporain";0;0;8;2;0;0;1;2
"galerie art";0;0;7;20.571428571429;0;0;5;21.2;0;0;2;19
pixarrt;0;0;2;5.5;0;0;2;5.5
brugier;0;0;1;9;0;0;1;9
"christophe charbonnel artiste";0;0;1;4;0;0;1;4
"miro oeuvres principales";0;0;1;11
catox;0;0;1;39
"roux oeuvre maitrise";0;0;2;49.5;0;0;2;49.5
"laurent martinez facebook";0;0;6;9.1666666666667;0;0;6;9.1666666666667
"ernest pignon ernest oeuvre";0;0;1;8
"sculpture art";0;0;3;8.6666666666667
"photo contemporaine art";0;0;2;2;0;0;1;2
"violon arman";0;0;1;16
"nudes art";0;0;1;57;0;0;1;57
"pivot san marco biennale";0;0;1;192
"raimond hains";0;0;20;6.5
"olivier leroy photographe";0;0;2;8.5;0;0;1;9;0;0;1;8
"9e concept";0;0;3;7;0;0;3;7
"bertrand meunier";0;0;6;9.5;0;0;5;11;0;0;1;2
"monochrome rose";0;0;2;4
"norman rockwell oeuvres";0;0;1;15
"galerie catherine houard";0;0;6;7.3333333333333;0;0;1;9;0;0;1;7
"jacques de la villeglé";0;0;1;5
kibwanga;0;0;1;1
"valerie hadida";0;0;4;9.25;0;0;1;9
"claude lévêque artiste";0;0;1;5
"jean-philippe berger";0;0;1;10
"galerie nivet carzon";0;0;3;7;0;0;2;6
"david hemming";0;0;2;8.5;0;0;1;9
"panthere des neige";0;0;1;46
"artiste belge contemporain";0;0;1;4
"etienne viard sculpteur";0;0;1;2;0;0;1;2
"charlotte champion";0;0;1;2;0;0;1;2
"galerie contemporain";0;0;1;3;0;0;1;3
"ange basso";0;0;1;3
"office du tourisme dinard";0;0;1;14;0;0;1;14
"yayoi kusama oeuvres";0;0;2;18.5;0;0;2;18.5
"art photographique contemporain";0;0;1;2;0;0;1;2
"jonone peintre";0;0;3;1.3333333333333
"robert combas peintre";0;0;4;4
"galerie en ligne";0;0;12;1.8333333333333;0;0;2;2
"kouka artiste";0;0;1;4;0;0;1;4
"fabrice hyber";0;0;47;5.936170212766;0;0;40;5.875;0;0;4;6.5;0;0;3;6
"pez artiste";0;0;2;6;0;0;1;6;0;0;1;6
"karl andre";0;0;27;6.8148148148148;0;0;12;6.1666666666667;0;0;11;7.2727272727273;0;0;4;7.5
"sumi e";0;0;2;25
verney-carron;0;0;1;45
"anne brégeaut";0;0;16;6.1875;0;0;2;6
"claude leveque oeuvres";0;0;2;6
"etienne buraud";0;0;2;3;0;0;1;3
"pignon ernest oeuvre";0;0;1;9
"mo chan";0;0;1;8;0;0;1;8
"didier triglia";0;0;13;4.8461538461538;0;0;2;5
"knut berlin";0;0;1;52;0;0;1;52
"peinture julien";0;0;4;21.75;0;0;3;21.666666666667;0;0;1;22
"artiste jonone";0;0;1;1;0;0;1;1
"mensing artistes";0;0;46;4.1739130434783
"combas peinture";0;0;1;4
"galerie collégiale";0;0;1;3
"charlotte lelong";0;0;1;11;0;0;1;11
bontoux;0;0;1;29;0;0;1;29
"yves gellie";0;0;1;8
mulliez;0;0;1;44
"artistes marocains contemporains";0;0;1;3
"art miroir";0;0;1;53;0;0;1;53
"françoise danel peintre";0;0;2;3;0;0;2;3
mitrofanoff;0;0;14;9.0714285714286;0;0;6;9;0;0;7;9.1428571428571;0;0;1;9
"louis pons";0;0;2;21
"oeuvre d'art perspective";0;0;2;10;0;0;1;10
"suprematist composition";0;0;1;3;0;0;1;3
nyaba;0;0;1;9;0;0;1;9
"antoni clavé";0;0;1;23;0;0;1;23
slideme;0;0;1;36
"sylvie guilleme";0;0;3;11
"les tours jumelles";0;0;1;39
"inception gallery";0;0;3;6.6666666666667
"boccara paris";0;0;2;10
"samuel anderson";0;0;2;19.5
"anti artiste";0;0;1;2;0;0;1;2
"lampe en verre de murano";0;0;2;31.5
"alain bonnefoit";0;0;1;16
"eric zambeaux";0;0;3;6;0;0;1;6
"gilles aillaud";0;0;12;10.25
"bhuri bai";0;0;1;3;0;0;1;3
"fetish pieds";0;0;2;38.5;0;0;1;38
"artiste keith haring";0;0;3;10;0;0;2;9.5;0;0;1;11
"galerie argentic paris";0;0;2;5;0;0;1;6
meetic;0;0;1;256
"forum pdnb";0;0;1;128
"annabelle guetatra";0;0;1;10
"art en folie";0;0;1;39
"aki kuroda prix";0;0;2;2;0;0;2;2
mrsex;0;0;4;22;0;0;3;27.333333333333;0;0;1;6
raboniak;0;0;2;7;0;0;2;7
"hannah adamaszek";0;0;2;4;0;0;2;4
"jace artiste";0;0;1;10
"geisha nu";0;0;1;43;0;0;1;43
"christian courrèges";0;0;2;5
"drapeau français achat";0;0;1;47
traffik;0;0;2;4;0;0;2;4
"banksy biographie";0;0;25;9.8;0;0;5;9.2;0;0;1;9
"solène ballesta";0;0;3;6
"acheter litho dali";0;0;1;41
"galerie wagner";0;0;1;9
layral;0;0;3;3.6666666666667
"collectionneur art contemporain";0;0;1;59;0;0;1;59
"jean dubuffet peintre";0;0;3;3
"luzia simons";0;0;2;5
"galerie audet";0;0;2;10;0;0;1;10
paslier;0;0;1;6;0;0;1;6
"patrick cornillet";0;0;2;3
"christophe catelain";0;0;2;1;0;0;2;1
"aurelie nemours";0;0;1;28
"cara delevingne pop art";0;0;1;8;0;0;1;8
"nani champy schott";0;0;2;3;0;0;2;3
"canape jaune";0;0;1;31
"bertrand desprez";0;0;3;8
"portrait miroir";0;0;2;6;0;0;1;6;0;0;1;6
"how are you today";0;0;2;18;0;0;2;18
koolkoor;0;0;2;3;0;0;2;3
"carles valverde";0;0;1;1;0;0;1;1
"sandra zeenni";0;0;1;7;0;0;1;7
"malika mokadem photographe";0;0;1;7;0;0;1;7
"michele mikesell";0;0;2;6;0;0;2;6
"le cha noir";0;0;1;6;0;0;1;6
"banksy oeuvre";0;0;8;6.375;0;0;7;6.2857142857143;0;0;1;7
"galerie lacroix";0;0;9;8.2222222222222;0;0;1;9
"vente de sculpture";0;0;2;1
keymi;0;0;2;8.5;0;0;1;8;0;0;1;9
"apple or";0;0;6;9;0;0;1;10
"debut contemporary";0;0;1;6;0;0;1;6
"sculpture art contemporain";0;0;3;2
"miffy art";0;0;1;10;0;0;1;10
"catalano artiste";0;0;2;5
"galerie sbk";0;0;1;4;0;0;1;4
"mark jenkins";0;0;22;8.5;0;0;20;8.35;0;0;2;10
"klaus guingand";0;0;5;2.4
"jr photographie";0;0;1;29
"philippe pasqua prix";0;0;3;1;0;0;3;1
kazakhstanais;0;0;1;33;0;0;1;33
"juliette choné";0;0;1;4
"mes coloriages";0;0;3;22.333333333333;0;0;1;22
"florence d";0;0;2;8
"christophe barthes de ruyter";0;0;2;4;0;0;2;4
"mesnager artiste";0;0;3;2.6666666666667;0;0;1;2
"thomas ruff oeuvres";0;0;1;9
"crocodile rouge";0;0;1;42
malysse;0;0;5;9.6;0;0;5;9.6
"john matos";0;0;2;5.5;0;0;1;6
saudek;0;0;1;10;0;0;1;10
"""fabrice hyber""";0;0;1;7;0;0;1;7
"mesnager jerome";0;0;1;3
"galeries d'art en ligne";0;0;1;1;0;0;1;1
"alexis gorodine";0;0;2;5;0;0;2;5
"johanna heeg";0;0;1;1;0;0;1;1
"peinture de nus";0;0;1;57;0;0;1;57
galeries;0;0;14;9.2857142857143;0;0;3;10.666666666667;0;0;1;9
"joe tube";0;0;1;35;0;0;1;35
"nemours aurelie";0;0;1;35
"murakami peintre";0;0;2;7.5
"thierry feuz";0;0;1;7
"bansky oeuvres";0;0;1;8
"david guiraud";0;0;3;9.6666666666667
"jean michel basquiat oeuvre";0;0;2;12.5
"marek piasecki";0;0;1;4
truc-anh;0;0;1;2
"sylvain lang";0;0;1;2
"titre de serie";0;0;2;9.5;0;0;2;9.5
speedygraphito;0;0;13;5;0;0;13;5
"miro oeuvres";0;0;4;11
"marin kasimir";0;0;4;4
"galerie d'art contemporain en ligne";0;0;2;1
"galerie d'art dx bordeaux";0;0;1;9;0;0;1;9
"oeuvre de henri cartier bresson";0;0;1;11;0;0;1;11
"signature andy warhol";0;0;1;9;0;0;1;9
"peintre milo";0;0;2;6;0;0;1;4;0;0;1;8
"jm robert peintre";0;0;2;2;0;0;2;2
"olivier long peintre";0;0;1;8;0;0;1;8
"lolita galerie";0;0;1;54
"norma bessieres";0;0;1;7;0;0;1;7
titus-carmel;0;0;1;24
"family foundation liechtenstein";0;0;1;44
atila;0;0;1;49;0;0;1;49
"ipso france";0;0;1;49
demsteader;0;0;3;6;0;0;3;6
"francis apesteguy";0;0;1;5
"sayed haider raza";0;0;1;10;0;0;1;10
"orlinski crocodile prix";0;0;1;4
lortiwa;0;0;2;8;0;0;2;8
"murielle belin";0;0;3;7.3333333333333;0;0;2;7;0;0;1;8
"cheval en vente";0;0;1;60
"murakami sculpture";0;0;1;4;0;0;1;4
"claire bianchi";0;0;3;3
"mist art";0;0;1;9
mr.chat;0;0;1;6;0;0;1;6
"aslan pin up";0;0;1;39
"pieds fetish";0;0;1;48
"pierre de fenoyl photographe";0;0;1;9;0;0;1;9
"prix sculpture";0;0;2;9;0;0;2;9
"roch vandromme";0;0;2;5
bandi;0;0;1;63
"thierry carrier";0;0;2;5
"dubuffet peintre";0;0;3;3.3333333333333;0;0;2;3;0;0;1;4
"morellet artiste";0;0;1;7;0;0;1;7
"gianni colosimo";0;0;1;1
"galerie jean denis walter";0;0;2;7
"chopin oeuvres";0;0;1;23
"koons puppy";0;0;2;18;0;0;2;18
mpah;0;0;1;1;0;0;1;1
"julian opie oeuvres";0;0;1;2
"hermann amann";0;0;1;6;0;0;1;6
"inge horup";0;0;1;4
"parterre contemporain";0;0;1;36
"oeuvres monumentales";0;0;1;5
"galerie olivier waltman";0;0;9;4.1111111111111;0;0;1;5
"vente oeuvre d'art en ligne";0;0;2;1
"la souris sur le gateau";0;0;9;6.7777777777778;0;0;2;8
"anouk grinberg nude";0;0;1;18;0;0;1;18
"jaké artwork";0;0;1;4;0;0;1;4
"vente tzarina aucun";0;0;2;10;0;0;2;10
"dali photographie";0;0;2;12.5;0;0;2;12.5
doehler;0;0;4;7
"tjok dessauvage";0;0;2;10
"stéphanie guglielmetti";0;0;2;9;0;0;2;9
"jasmine black";0;0;3;20.333333333333;0;0;1;18
jonnoe;0;0;2;6.5;0;0;2;6.5
"oeuvre de norman rockwell";0;0;1;19;0;0;1;19
"claude loewer";0;0;4;7;0;0;4;7
"gilles aillaud oeuvres";0;0;1;2;0;0;1;2
"delphine lebourgeois";0;0;1;3
"cornette de saint cyr";0;0;2;21;0;0;1;17
"laetitia x";0;0;4;16.5;0;0;4;16.5
"remi delaplace";0;0;1;2
"basquiat skull";0;0;5;3
lecourt;0;0;1;30;0;0;1;30
"oeuvres art";0;0;2;24.5
"michelle auboiron";0;0;2;5.5;0;0;1;6
"jean hélion";0;0;7;8.2857142857143
"ten art";0;0;4;2;0;0;3;2;0;0;1;2
shuck2;0;0;2;7
"vente citadine";0;0;5;68.8
"vivian rockwell";0;0;1;145
"orlan oeuvre";0;0;7;6.1428571428571;0;0;1;7
"jef aérosol";0;0;5;4.6
elephantus;0;0;1;31
"marie houset";0;0;1;3
"lithographie art contemporain";0;0;1;41;0;0;1;41
"gustav klimt œuvres d'art";0;0;1;39
takala;0;0;7;4.1428571428571;0;0;2;4.5
"philippe berthommier";0;0;2;1
"mes illusions donnent sur la cour";0;0;1;20
"oeuvre d'art contemporaine";0;0;5;1;0;0;1;1
"david monllor";0;0;1;3
"art acheter";0;0;1;1
"sculpture résine";0;0;1;34;0;0;1;34
oeuvrette;0;0;1;10
"k haring oeuvre";0;0;1;9;0;0;1;9
"vincent descotils";0;0;2;7
"billet banksy";0;0;1;2;0;0;1;2
"jean luc beaufils";0;0;1;4
infinissable;0;0;1;6;0;0;1;6
"christine barres";0;0;5;3.2
"pierre terrasson";0;0;3;10.666666666667;0;0;1;12
"joel knafo art gallery";0;0;3;3
"clement peintre";0;0;1;8;0;0;1;8
"buffet artiste";0;0;4;7.25
"vente d art en ligne";0;0;1;1
"clarisse rebotier";0;0;4;4.25;0;0;3;4.3333333333333;0;0;1;4
"mieux que rien c'est pas assez";0;0;4;1;0;0;4;1
"françois bard";0;0;12;1.8333333333333;0;0;2;5.5
"joan miro oeuvres";0;0;16;10.8125;0;0;3;1
moyoshi;0;0;3;4
"butz & fouque";0;0;1;3
"thomas ahl";0;0;1;4;0;0;1;4
"benjamin liu andy warhol";0;0;1;215
"shepard fairey biographie";0;0;2;4
"myriam baudin";0;0;1;3
"peinture dubuffet";0;0;3;6.3333333333333;0;0;1;7
"garofalo france";0;0;1;32
"sarah jacobs";0;0;4;6.75;0;0;4;6.75
"sol lewitt oeuvres";0;0;2;18.5
"tanc artist";0;0;1;7
"artistes colombiens";0;0;1;7;0;0;1;7
"jonone cote";0;0;2;5;0;0;2;5
"art code barre";0;0;1;6
zaramo;0;0;1;29
"olivier sultan";0;0;3;2;0;0;1;2
"oeuvres de jean michel basquiat";0;0;1;10
"jacques deret";0;0;1;3;0;0;1;3
"anne vignal";0;0;1;8;0;0;1;8
"toma l";0;0;2;4;0;0;1;4
"galerie art france";0;0;1;27;0;0;1;27
"pierre cornudet";0;0;2;3
"artiste contemporain connu";0;0;1;58;0;0;1;58
"warhol oeuvres";0;0;1;45
nudes;0;0;1;93
"galeries nues";0;0;2;38
"laure krug";0;0;3;7;0;0;2;7
"edouardo kac";0;0;2;10;0;0;2;10
"gerstein david";0;0;3;3;0;0;2;3;0;0;1;3
"serge labegorre";0;0;3;5;0;0;2;4.5
"damien hirst oeuvres";0;0;10;7;0;0;2;7;0;0;1;8
"dubuffet oeuvres";0;0;8;4.125;0;0;7;4;0;0;1;5
"lesbian apprentissage";0;0;1;113;0;0;1;113
"ivan messac";0;0;2;4
"women are heroes";0;0;1;49
c215;0;0;3;39.666666666667
deprun;0;0;1;8;0;0;1;8
"galerie des petits carreaux";0;0;2;5
moriette;0;0;1;6;0;0;1;6
"jeanne lorioz";0;0;7;3.8571428571429;0;0;7;3.8571428571429
"galerie bertrand gillig";0;0;3;4;0;0;1;6
"oswaldo guayasamin el grito";0;0;1;5
"qui est dubuffet";0;0;9;4.4444444444444;0;0;1;4;0;0;3;5
"peintre di rosa";0;0;2;4
"angele guerre";0;0;3;3.3333333333333
"russian monroe";0;0;1;6
"art vente";0;0;1;1;0;0;1;1
"orlan artist";0;0;1;19;0;0;1;19
"oeuvre d'art moderne noir et blanc";0;0;1;2;0;0;1;2
"bdsm x";0;0;1;36
"galerie art contemporain paris";0;0;1;85
"thierry couet";0;0;2;3;0;0;2;3
"sandrine paumelle";0;0;3;6;0;0;1;5
"sexy show";0;0;1;58;0;0;1;58
"jeff aerosol";0;0;9;4.2222222222222;0;0;6;4;0;0;3;4.6666666666667
"de buffet artist";0;0;1;7;0;0;1;7
villéglé;0;0;1;7
"achat art en ligne";0;0;4;1
"vincent ruffin";0;0;2;7
"guy boyer peintre";0;0;2;1;0;0;1;1;0;0;1;1
"oeuvre en papier";0;0;4;5.5;0;0;2;5
athur;0;0;2;10
navabi;0;0;6;15.166666666667
"nobuyoshi araki galerie";0;0;1;6;0;0;1;6
"le guinio";0;0;2;6.5;0;0;2;6.5
"oeuvre d'art moderne";0;0;8;2;0;0;8;2
"johanne 8";0;0;2;6;0;0;2;6
"gérard alary";0;0;1;5;0;0;1;5
"pedro font";0;0;1;13;0;0;1;13
"blek rat";0;0;1;38
"silvia calmejane";0;0;2;2
"marco barbon";0;0;1;7;0;0;1;7
"michael aaron williams art";0;0;1;7;0;0;1;7
"tom wesselmann still life";0;0;2;10;0;0;2;10
"françois grimaldi";0;0;1;17;0;0;1;17
"jonone galerie";0;0;1;4
"bo light";0;0;1;9
"patrick naggar";0;0;5;7;0;0;1;7;0;0;3;7;0;0;1;7
"fin dac";0;0;3;10
"alexandre durand";0;0;1;11;0;0;1;11
"galerie street art marseille";0;0;1;36
"vanite des vanites";0;0;1;41
abcgallery;0;0;1;7
"art jingle";0;0;3;4.6666666666667;0;0;3;4.6666666666667
"pierre cornette de saint cyr";0;0;1;18
"achat crane humain";0;0;2;69
"""zelda bomba""";0;0;2;2;0;0;2;2
"femme endormi";0;0;1;18;0;0;1;18
"eric lapierre";0;0;4;5.75;0;0;1;6
"gilles capton";0;0;1;4;0;0;1;4
"patrick delaunay";0;0;5;4;0;0;2;4
"mes coloriage.com";0;0;1;47
métronome;0;0;1;297
"gregory watin";0;0;1;2
"tete de poire";0;0;4;8.75;0;0;1;8;0;0;3;9
"peinture scene de vie";0;0;1;14;0;0;1;14
"artiste contemporains";0;0;1;15
"olivier lelong photographe";0;0;2;2;0;0;2;2
"emilie danchin";0;0;3;6.6666666666667;0;0;2;7
"tete de guepard";0;0;2;8
"annette messager";0;0;115;9.4521739130435;0;0;87;9.2873563218391;0;0;17;9.5294117647059;0;0;11;10.636363636364
ommer;0;0;1;4
"galeries art contemporain";0;0;8;5.5
"grégoire dalle";0;0;2;7;0;0;2;7
"molin corvo gallery";0;0;1;3;0;0;1;3
"oeuvre de bernard buffet";0;0;5;3.8;0;0;1;3;0;0;4;4
"lucien murat artiste";0;0;1;3;0;0;1;3
"jr oeuvres";0;0;2;4
"layral peintre";0;0;1;2;0;0;1;2
"shepard farey";0;0;1;18;0;0;1;18
"jean faucheur street art";0;0;1;6
"tableau artiste contemporain";0;0;5;4
"nu féminin";0;0;1;48;0;0;1;48
"mb factory chamonix";0;0;6;7.5;0;0;2;8;0;0;1;8
"amy winehouse";0;0;1;185;0;0;1;185
kraftwerk;0;0;1;223
castaldi;0;0;1;40
"joseph beuys oeuvre";0;0;1;21;0;0;1;21
"benjamin carbonne peintre";0;0;2;1
"basquiat oeuvre";0;0;1;19
annina;0;0;1;17;0;0;1;17
"bagage homme blanc";0;0;1;39;0;0;1;39
"hokusai oeuvre";0;0;1;23
"monsieur le chat";0;0;4;7.25;0;0;3;7;0;0;1;8
"adeline spengler";0;0;1;2
"marc gerenton";0;0;1;4
"peinture animaux";0;0;1;37
"stéphane pencréac'h";0;0;1;8
"cheval de przewalski";0;0;1;63
"art moderne sculpture";0;0;3;2
"peinture couture";0;0;1;18
"henry lamy";0;0;3;4;0;0;2;4
"galerie d'art bruxelles";0;0;1;24
banq;0;0;1;45;0;0;1;45
"john levee";0;0;6;7.6666666666667
"bruno timmermans";0;0;3;1.6666666666667
"rent a car";0;0;1;319
"profil geisha";0;0;1;3;0;0;1;3
"bertrand grégoire";0;0;1;5
"tete de guerrier";0;0;2;2;0;0;2;2
"galerie linz";0;0;3;6.3333333333333;0;0;1;7
"mini sculptures";0;0;1;2;0;0;1;2
"yago partal zoo";0;0;1;19
"art contemporains";0;0;1;103;0;0;1;103
"mickael koska";0;0;1;16
"""allemagne"" + ""contact"" ~drip";0;0;2;195.5
"peter blake oeuvres";0;0;3;5
"francois morellet";0;0;8;10.125;0;0;3;9.3333333333333
"lauren bacall";0;0;1;69;0;0;1;69
"jeanne susplugas";0;0;3;4
"pierre-marie brisson";0;0;1;2;0;0;1;2
"jeunes artistes contemporains";0;0;4;4
"artistes torino";0;0;1;191
"elisabeth lecourt";0;0;4;7;0;0;2;5;0;0;2;9
"karl lagasse prix";0;0;4;1.25;0;0;4;1.25
desserle;0;0;1;4;0;0;1;4
camen;0;0;1;14;0;0;1;14
"james coignard";0;0;2;40.5
"ford gt 40";0;0;1;68
"fleury sylvie";0;0;1;7
"tom gally";0;0;1;229
"david harber";0;0;1;7
"oeuvre erro";0;0;2;10
"flexo zed";0;0;2;9
"galerie claire corcia";0;0;4;7
"speedy graphito vente";0;0;2;1
"philippe berry sculpteur";0;0;3;1;0;0;2;1
"peinture vente";0;0;1;23;0;0;1;23
"sculpture resine design";0;0;1;47;0;0;1;47
"monica bellucci x";0;0;2;10;0;0;2;10
"jean helion";0;0;5;8.4;0;0;3;8;0;0;1;9;0;0;1;9
"oeuvre miro";0;0;3;4.6666666666667;0;0;2;6.5;0;0;1;1
"feng hatat";0;0;1;4
"vente art internet";0;0;1;1;0;0;1;1
"debusschere christoff";0;0;1;9;0;0;1;9
"galerie gng";0;0;3;9
"banksy achat";0;0;1;3
"dam galerie";0;0;1;6
"edouardo arroyo";0;0;3;8.3333333333333
"antoine mercusot";0;0;2;2;0;0;1;2;0;0;1;2
"gérard boudon";0;0;2;4
"oeuvre gauguin";0;0;1;35
"leopold roy";0;0;1;50
"miss van";0;0;1;13
"tableau buffet";0;0;1;10;0;0;1;10
"street girl";0;0;1;50
"nobuyoshi araki";0;0;5;33.8;0;0;2;30.5;0;0;1;35
"galerie d art contemporain bruxelles";0;0;1;13
"philippe croq";0;0;6;2.5;0;0;3;2
"richard olinski";0;0;3;8;0;0;2;8
"laurent allory";0;0;1;3
"+""cerrone""";0;0;1;131
"bernard chauveau editeur";0;0;1;8;0;0;1;8
"jan lisman";0;0;1;3
"galerie jeune artiste";0;0;1;36
"raphael denis";0;0;6;4;0;0;4;4;0;0;1;4;0;0;1;4
laveri;0;0;7;6.7142857142857;0;0;3;7
"jonone prix";0;0;10;1.3;0;0;3;1.3333333333333;0;0;5;1
"thierry pelletier";0;0;1;22;0;0;1;22
"achat sculpture";0;0;4;1;0;0;3;1;0;0;1;1
"achat sculpture contemporaine";0;0;1;1;0;0;1;1
"caroline poulet";0;0;3;5;0;0;3;5
"photo d'art en noir et blanc";0;0;2;34;0;0;2;34
"araki photo";0;0;1;42
"gerard schlosser";0;0;2;4;0;0;2;4
"serie cesar";0;0;1;25
"vente mundos";0;0;2;2;0;0;2;2
"oeuvre sculpture";0;0;1;14;0;0;1;14
"jerome lagarrigue";0;0;2;4
"laurent durrey";0;0;6;9;0;0;4;9.5
"cali rezo";0;0;2;8.5;0;0;1;9
"desserle cecile";0;0;1;5;0;0;1;5
"pascale lander";0;0;2;2.5;0;0;2;2.5
"elsa guillaume";0;0;4;6.5;0;0;3;6.6666666666667;0;0;1;6
"jacques villeglé affiches lacérées";0;0;3;7
"philippe bonan";0;0;2;5.5
"martin szekely";0;0;1;24
fashiontoast;0;0;2;15.5;0;0;2;15.5
henriksen;0;0;4;15;0;0;3;16.333333333333;0;0;1;11
"matisse jazz";0;0;2;15.5;0;0;2;15.5
guillaumette;0;0;1;40;0;0;1;40
"achat d oeuvre d art";0;0;1;1
"oeuvre de miro";0;0;7;9.7142857142857
"affiche jean michel basquiat";0;0;1;3
"gerstein design";0;0;1;5;0;0;1;5
"alexandre joly artiste";0;0;1;6
"tof vanmarque";0;0;1;6;0;0;1;6
"jean-pierre attal";0;0;2;2
"robert longo oeuvres";0;0;1;9
"toucan clermont ferrand";0;0;1;42
streetartgalerie;0;0;1;7
cedrix;0;0;3;10.333333333333;0;0;2;11
"keith haring oeuvres noir et blanc";0;0;1;10
"max ernst biographie";0;0;2;12
"roxane stroobant";0;0;2;3
"leopold rabus";0;0;3;6.3333333333333
"galerie street art en ligne";0;0;1;6;0;0;1;6
"paris art fair";0;0;1;40
"monnin peintre";0;0;1;14;0;0;1;14
"art belgique";0;0;1;6
"lamour ne meurt jamais";0;0;1;30
noart;0;0;8;10.75;0;0;4;11.5;0;0;1;11
"oeuvres de miro";0;0;4;6;0;0;2;1
"tableau de keith haring";0;0;3;9.3333333333333;0;0;1;10
"vincent dufresne";0;0;1;11
"galerie vidal saint phalle";0;0;2;6
"vente sculptures";0;0;1;2
"colette hyvrard";0;0;5;10
"obey obama";0;0;3;10;0;0;1;10;0;0;1;10
"marylin minter";0;0;1;12
"miracle loader";0;0;1;129;0;0;1;129
"oeuvre d'art originale";0;0;3;2;0;0;2;2;0;0;1;2
"solene ballesta";0;0;2;6;0;0;1;6;0;0;1;6
"franck chambrun";0;0;1;11;0;0;1;11
"artiste raphael";0;0;1;34
"marie drouet";0;0;3;9;0;0;2;9
"bernard pras wiki";0;0;2;10
"di rosa peintre";0;0;10;3.3;0;0;5;3;0;0;4;3.75;0;0;1;3
"expansion césar";0;0;1;8
"jean georges inca";0;0;1;2;0;0;1;2
"miss tik";0;0;1;9;0;0;1;9
"viallat artiste";0;0;1;10
"serge labégorre";0;0;1;6;0;0;1;6
chillida;0;0;1;50
"kim de molenaer";0;0;4;6;0;0;1;6
"ingrid bergman casablanca";0;0;2;19.5
"murakami takashi";0;0;2;32.5
"charlotte colbert";0;0;2;7
destarac;0;0;3;1.3333333333333
"oeuvre art";0;0;5;3;0;0;1;3
"françois benoit";0;0;1;23
"artiste deesse";0;0;1;5
"alberto reguera";0;0;4;10;0;0;1;10
mr.dob;0;0;3;8.6666666666667
"eric ville";0;0;2;3;0;0;2;3
"bruno del zou";0;0;5;5;0;0;1;3
mastin;0;0;1;26
moya;0;0;1;40
"artiste contemporain allemand";0;0;1;79
lebelhomme;0;0;1;4;0;0;1;4
"perlin pinpin";0;0;1;26;0;0;1;26
"les bons copains";0;0;1;6
"mapplethorpe, robert";0;0;1;10
"wide painting";0;0;1;5;0;0;1;5
"cécile buchel";0;0;1;14;0;0;1;14
"boccara tapis";0;0;1;8
"i married an artist";0;0;1;9
"pink cloud";0;0;1;41
"jo le taxi";0;0;1;59;0;0;1;59
"mother daughter x";0;0;1;17
"urban wallpaper";0;0;1;32;0;0;1;32
"artyou galerie";0;0;2;3
"acheter de l art en ligne";0;0;2;1;0;0;2;1
"oeuvre d'art sur l'amour";0;0;2;5.5;0;0;1;1
"correia antoine";0;0;1;5
"jean michel chesné";0;0;4;5;0;0;2;4;0;0;2;6
"david sitbon";0;0;1;6
pradino;0;0;1;2
"vente tableau contemporain";0;0;1;2;0;0;1;2
"""dessin"" + ""contact"" ~quintessence";0;0;1;364
"ewan david eason";0;0;3;8.6666666666667;0;0;3;8.6666666666667
"hideka tonomura";0;0;1;1
"barbara stanley";0;0;1;9
"florence d'elle";0;0;1;2;0;0;1;2
piaxrt;0;0;1;5;0;0;1;5
"nadine vergues";0;0;1;7
"willy ronis le petit parisien";0;0;2;3;0;0;1;1;0;0;1;5
"galerie raison d'art";0;0;2;3
troussier;0;0;1;43
dubart;0;0;1;22
"buffet peintre";0;0;4;10.75;0;0;4;10.75
"ron english";0;0;11;4.8181818181818;0;0;3;5
"gilles belier";0;0;1;40
"peinture cecilia";0;0;1;10;0;0;1;10
pagart;0;0;1;2
"site de vente de tableaux contemporains";0;0;1;1
"marie sester";0;0;1;5;0;0;1;5
"sculpture déesse";0;0;1;7
"photographie art";0;0;1;37;0;0;1;37
"claudine legrand";0;0;2;6;0;0;2;6
"galerie polysemie";0;0;2;9
"christian bilger";0;0;1;1
dtone;0;0;3;10.666666666667;0;0;2;10
"mambo artiste";0;0;1;10
unknow;0;0;2;22.5
"gilles de beauchene";0;0;2;6;0;0;2;6
"aris messinis";0;0;22;7.6363636363636;0;0;1;8
youmin;0;0;1;6
"jean michel turpin";0;0;2;6.5;0;0;2;6.5
dagada;0;0;2;6
"vente d'art";0;0;1;1;0;0;1;1
"olivier courty";0;0;1;9;0;0;1;9
"veronique x";0;0;1;32
bilger;0;0;1;43
"geraldine banier";0;0;1;9
"oeuvre monochrome";0;0;4;8.25;0;0;2;9
"murano lampe";0;0;2;25
"le violon bleu";0;0;1;17;0;0;1;17
triglia;0;0;4;4.75
"tony soulié";0;0;5;3.8
"les vanites";0;0;1;45
"cortade art";0;0;9;6.8888888888889;0;0;2;7
"eric liot prix";0;0;1;10;0;0;1;10
"x kamasutra";0;0;1;62
aborigène;0;0;1;129
"david lachapelle photos";0;0;1;21
"wang shu hui";0;0;1;10
"sophie lanoe";0;0;2;4;0;0;2;4
"patrick van der elst";0;0;2;8
"clothilde lasserre";0;0;1;6;0;0;1;6
"maria torp";0;0;1;4
"vente d'oeuvres d'art";0;0;1;1
"office tourisme dinard";0;0;1;11
"anton f";0;0;1;10
mastercha;0;0;2;6;0;0;1;5
"cet art";0;0;2;9.5;0;0;1;10;0;0;1;9
"dr pepper cherry";0;0;1;26
"michael bastow";0;0;1;8;0;0;1;8
"david gerstein disco large";0;0;1;50
amanaman;0;0;1;36
"sculpture rouge";0;0;1;7;0;0;1;7
"brosse de peintre";0;0;1;31
"galerie bettina";0;0;7;7.2857142857143;0;0;5;7;0;0;2;8
"murakami oeuvre";0;0;2;4.5;0;0;1;5;0;0;1;4
piuxart;0;0;1;5;0;0;1;5
"cédrix crespel";0;0;2;4;0;0;2;4
"obey shepard fairey biographie";0;0;2;4;0;0;2;4
"francois melloul";0;0;4;15.5;0;0;4;15.5
guybert;0;0;1;8;0;0;1;8
"galerie bouillon d'art bordeaux";0;0;1;6;0;0;1;6
"gautier stephane";0;0;2;9.5;0;0;2;9.5
"cheval de troie peinture";0;0;2;8
"achat art africain";0;0;1;49
"bert stern";0;0;1;23;0;0;1;23
"keith coventry";0;0;1;9
"georges braque oiseaux";0;0;1;22
"philippe pasqua crane";0;0;3;3;0;0;1;3
"statue panthère";0;0;1;22;0;0;1;22
"thomas müller";0;0;1;38
"denis walter";0;0;1;7
"nicolas puyjalon";0;0;1;9
"eric de ville";0;0;1;3
"capton peintre";0;0;2;4.5
"sculpture terre cuite technique";0;0;1;30
fulcrand;0;0;1;7
"annette messager oeuvre";0;0;3;8;0;0;3;8
"olivia de bona";0;0;1;3
"eric ceccarini";0;0;1;19;0;0;1;19
"paysage femme";0;0;1;40;0;0;1;40
"abie loy";0;0;2;6
"stephane ducatteau";0;0;7;7;0;0;4;7
artyou;0;0;2;4
"luc dratwa";0;0;4;6.5
btoy;0;0;2;10
"zenoy graffiti";0;0;2;4;0;0;1;4
"m chat street art";0;0;1;8;0;0;1;8
"isa marcelli";0;0;3;9.3333333333333;0;0;2;9.5
"bard artiste peintre";0;0;3;1.6666666666667;0;0;2;2
"bart somers";0;0;2;4;0;0;2;4
streichenberger;0;0;1;8
"vincent peters";0;0;17;9.1176470588235;0;0;1;9
"prix sculpture catalano";0;0;4;10;0;0;3;10
"achat art moderne";0;0;2;1
"art a vendre";0;0;1;1;0;0;1;1
"le diamantaire street art";0;0;1;33
"nom artiste contemporain";0;0;1;5;0;0;1;5
"peintre godon";0;0;1;2
ipso;0;0;2;56.5
"etienne cail";0;0;12;8.0833333333333;0;0;7;8;0;0;1;10
"cruz diez";0;0;1;18
"simon procter";0;0;1;13
gzstore;0;0;1;3;0;0;1;3
"elisabeth frering";0;0;1;7;0;0;1;7
"delaunay patrick";0;0;3;4.6666666666667
"jeune fille x";0;0;1;47;0;0;1;47
"lokiss graffiti";0;0;1;10;0;0;1;10
"expansion cesar";0;0;2;8.5
"jean michel basquiat in italian";0;0;2;10.5;0;0;1;11
"galeries d'art contemporain bruxelles";0;0;1;11
"priska lorane";0;0;3;3;0;0;2;3;0;0;1;3
cammal;0;0;2;6;0;0;1;6;0;0;1;6
"jerome menager";0;0;1;4;0;0;1;4
"banksy prix";0;0;1;9
"femme ouvrière";0;0;1;29
"thierry bamas";0;0;1;19;0;0;1;19
"oeuvre d art moderne";0;0;2;2
"jacques villéglé";0;0;1;7
"la fascination du pire";0;0;1;25
"philippe weisbecker";0;0;1;4
"levrette art";0;0;1;8;0;0;1;8
"philippe jarrigeon";0;0;11;9.8181818181818
"carl andré";0;0;55;6.9818181818182;0;0;49;6.8979591836735;0;0;4;7.5;0;0;2;8
"agnès dubart";0;0;2;7
"peintre ben bella";0;0;3;6.3333333333333;0;0;2;9;0;0;1;1
canata;0;0;3;10
"luke newton artist";0;0;1;4
"france mitrofanoff";0;0;3;3;0;0;3;3
"tapis boccara";0;0;1;9
guayasamin;0;0;1;13;0;0;1;13
"ames vagabondes";0;0;1;41
"lacoste jonone";0;0;1;9;0;0;1;9
"thibault brunet";0;0;1;16;0;0;1;16
"acheter lithographie alain bonnefoit";0;0;2;20
"boltanski biographie";0;0;1;44
"vente piano";0;0;1;250
"annina roescheisen";0;0;4;5
eppele;0;0;1;7
"andré masson oeuvres";0;0;2;18.5
"expo street art lyon";0;0;1;93
"brigitte penicaud";0;0;1;5
"vente balancoire";0;0;1;32
"awena cozannet";0;0;3;5
"galerie street art lyon";0;0;1;82
"barriã¨re de sã©curitã© bã©bã©";0;0;1;28
"miss love";0;0;1;66
"art contemporain belge";0;0;1;9
"timothée talard";0;0;1;3
"retomber en enfance";0;0;2;19
"jonone biographie";0;0;1;2
"galeries x";0;0;1;22
selectiona;0;0;1;3
"florent chopin";0;0;1;4;0;0;1;5
"peinture jean michel basquiat";0;0;1;11
"ambiance noel";0;0;2;21;0;0;1;23
"acheter une oeuvre d art contemporain";0;0;2;1
"bob verschueren";0;0;2;6
"art contemporain";0;0;1;146
tirilly;0;0;3;10.333333333333
missvan;0;0;1;10
"speedy grafito";0;0;2;4
"photo surealiste";0;0;1;10
"christophe charbonnel sculpteur";0;0;3;8
"richard orlinsky";0;0;2;9
"richard di rosa";0;0;1;11
"cedric bacqueville";0;0;2;4.5;0;0;1;5
"galerie leadouze";0;0;2;2.5
"tony franck";0;0;3;7.3333333333333
"val cenis";0;0;1;214
artvizor;0;0;1;2
"blue atlas";0;0;1;62
"combas robert";0;0;2;11.5;0;0;1;4
"papillon crane";0;0;3;6.6666666666667
"3 cerises sur une étagère";0;0;2;3
"tiphaine gilson";0;0;1;16
"hedva ser";0;0;2;5;0;0;2;5;0;0;1;6
"oeuvre andy warhol";0;0;1;11
"ben bella mahjoub";0;0;1;2
"marie anne thieffry";0;0;1;2
"sophie morisse";0;0;3;1.6666666666667;0;0;1;1
"karl lagasse";0;0;1;4;0;0;5;4;0;0;1;4
"dumas patrick";0;0;1;13
"ralph gibson";0;0;5;10;0;0;4;11
erwann;0;0;1;93
"les portes de l enfer";0;0;1;307
"galerie d art sur internet";0;0;1;1
"jean michel basquiat biographie";0;0;1;22
"oeuvre de jr";0;0;2;6
festy;0;0;1;46
"francoise pétrovitch";0;0;4;6
"titus carmel artiste";0;0;1;8
poinat;0;0;1;10
"art to be";0;0;2;5
zenoy;0;0;4;2;0;0;6;4
"valerio adami";0;0;2;28.5
"audoin desforges";0;0;6;5;0;0;1;5
"alain rivière";0;0;1;21
"robert sgarra";0;0;2;4;0;0;3;4
"galerie brugier";0;0;2;5;0;0;1;6
"marc stammegna";0;0;1;9;0;0;2;10
"jules l'atlas";0;0;1;9
"léopold rabus";0;0;1;7
"jef aérosol street art";0;0;1;5
lokiss;0;0;1;10
"frederic blaimont peintre";0;0;1;4
"jeff koons œuvres d'art";0;0;3;6.3333333333333;0;0;2;7
"garofalo jack";0;0;1;9
"claire fanjul";0;0;1;1
"joe winter";0;0;1;9
oksana;0;0;2;38.5;0;0;2;31
"peinture art contemporain";0;0;8;2;0;0;1;2
"leveque claude";0;0;1;7
"lucian freud oeuvres";0;0;4;11
"peinture achat";0;0;1;28
"vente canevas";0;0;1;31
"series 01";0;0;1;45
"annya sand";0;0;2;4
"ernest pignon-ernest";0;0;1;26
"galerie oneiro";0;0;3;3.6666666666667
"monsieur chat street art";0;0;1;8
"speedy graffito";0;0;1;4
"agnès baillon";0;0;3;4.3333333333333
"banksy œuvres d-art";0;0;1;7
"michel borsky";0;0;2;8
"odile decq";0;0;1;32
"sculpture panthere";0;0;2;10
"galerie d art en ligne";0;0;2;1
zanello;0;0;2;12;0;0;1;20
"artiste contemporain photographie";0;0;2;1.5
boissel;0;0;1;45
"aykaz arzumanyan";0;0;3;3
"marine cattaneo";0;0;1;4
"oeuvre raphael";0;0;1;28
"pierre schuster";0;0;1;5
"nuances et lumiere";0;0;2;2;0;0;2;3;0;0;1;3
"antoine de la boulaye";0;0;1;4;0;0;1;4
dauptain;0;0;3;3
"patrick marin";0;0;2;5
"carl andré oeuvres";0;0;1;3
"albert chubac";0;0;1;4
"pierre-marie brisson artiste peintre";0;0;4;1
"greenwood gallery";0;0;1;10
"oeuvre ernest pignon ernest";0;0;1;8;0;0;1;8
"roy lichtenstein original prints for sale";0;0;1;230
"lucile callegari";0;0;2;6;0;0;1;6
"stemmer peinture";0;0;1;14
"the art of nasty";0;0;1;7
"murakami artiste";0;0;16;2.25;0;0;7;3;0;0;1;3
"art de coeur";0;0;1;21
"sculpture resine";0;0;1;35
"jean dubuffet œuvres d'art";0;0;6;5;0;0;1;6;0;0;2;6
"théo haggai";0;0;4;2
"francois poulat";0;0;1;4;0;0;1;6
"jeune artiste";0;0;1;40
"susanne stemmer";0;0;3;6.3333333333333
"the unit";0;0;1;44
"isabelle cochereau";0;0;2;5.5
"celine bari";0;0;1;3
klasen;0;0;4;2.75;0;0;1;3
"planete srie";0;0;1;7
"chat love";0;0;1;21
"oeuvre d'art lignes verticales";0;0;2;1
charlelie;0;0;1;45
anousparis;0;0;1;35
"tal coat artist";0;0;1;8
"catherine klein peintre";0;0;3;5.3333333333333;0;0;1;5;0;0;1;5
"alfredo lopez";0;0;4;6.25
zeimert;0;0;1;4
"galerie numero 1";0;0;1;5
"galerie bayart";0;0;3;3.6666666666667
diamantaire;0;0;4;34
"lam wilfredo";0;0;1;48
"rothko technique";0;0;1;25
"anthony lietart";0;0;1;6
borker;0;0;2;4.5
"achat oeuvre d'art";0;0;3;1;0;0;1;1
"banksy billet";0;0;1;1;0;0;2;1.5
"stephane gautier";0;0;1;4;0;0;2;5;0;0;2;5
"ernest pignon ernest biographie";0;0;5;10;0;0;1;12
"lucie bennett";0;0;1;7
"silver fame";0;0;2;6.5
"video star x";0;0;1;53
"photographie d'art en ligne";0;0;1;2
"vente art contemporain";0;0;6;1;0;0;2;1
shup;0;0;4;6;0;0;1;5
"oeuvre de joan miro";0;0;1;11;0;0;2;1
"oeuvres max ernst";0;0;1;8
"akiza galerie";0;0;3;10
"richard avedon women";0;0;1;101
"bruno catalano tarif";0;0;1;9
"delphine brochand";0;0;1;1
"golden temple art";0;0;1;144
"marie piselli";0;0;2;5
"arnaud franc";0;0;2;4.5
"galerie d'art belgique";0;0;1;2
"stéphane olivier";0;0;1;19
"polin italie";0;0;2;8
"peintre buffet";0;0;1;9;0;0;3;9.6666666666667;0;0;2;9.5
"henri cartier bresson oeuvre";0;0;1;11
"gregory vigier";0;0;1;4;0;0;2;3
"jacques renoir";0;0;2;7.5
"jr oeuvre";0;0;4;6;0;0;1;6
"robert mapplethorpe biographie";0;0;4;2
"anti street art";0;0;2;4
"jean francois lefranc";0;0;3;1;0;0;1;5
"anne haugmard";0;0;1;24
"oeuvres banksy";0;0;1;8;0;0;2;9
"vente de balancoire";0;0;1;35
"baldaccini cesar";0;0;1;7
"oeuvre d'art unique";0;0;2;1.5
"all is vanity";0;0;1;30
"nurcan giz";0;0;8;5.625;0;0;1;6;0;0;2;6
"robert mapplethorpe";0;0;1;41
"les renés dessin animé";0;0;1;11
"alejandra eggleton";0;0;1;60
"galeries d arts";0;0;1;4
"galerie d art contemporain paris";0;0;2;59.5
"orlan biographie";0;0;2;10;0;0;1;10
"art 22 gallery";0;0;1;6
"déesse sculpture";0;0;2;9
wrede;0;0;1;75
"cogitore clement";0;0;1;9;0;0;2;10
"yutao ge";0;0;1;8
"peinture inca";0;0;1;2
"rené botti";0;0;1;5
"franck mercky";0;0;1;3
"art abstrait tableau";0;0;1;227
"julien cresp";0;0;1;6
"richard orlinski prix";0;0;1;5;0;0;2;6
"talon rouge";0;0;2;39.5
"aude carre";0;0;1;5
"la caverne de sarah";0;0;2;16.5
"andre nadal";0;0;1;5
"gautier deblonde";0;0;2;3
"max et charlotte";0;0;6;2
"peter blake artiste";0;0;3;5;0;0;1;6;0;0;1;6
"art pussy";0;0;1;15
"vente bronze";0;0;1;39
"pierre francois grimaldi";0;0;3;2;0;0;2;3
"claude mollard";0;0;10;5.6;0;0;2;6
"speedy graphito oeuvre";0;0;2;4
"l homme arbre";0;0;1;32
"commande bitumes";0;0;1;58
nakaya;0;0;1;40
"claire ge";0;0;2;5
"oeuvre d'art a vendre";0;0;2;1
beaufils;0;0;1;42
"christian silvain";0;0;1;7
"sylvie fleury oeuvres";0;0;2;3.5
"albane de saint remy";0;0;1;9
"oeuvres de benjamin vautier";0;0;1;10
"charlelie couture peinture";0;0;3;2
"oeuvre monumentale";0;0;2;29.5
"david walker artiste";0;0;1;9
"patrick luther";0;0;1;323
"eduardo arroyo oeuvres";0;0;1;4;0;0;2;5
"art paris art fair";0;0;1;38
iglesis;0;0;1;5;0;0;3;4.6666666666667
kouka;0;0;2;5
grisor;0;0;1;1
chichorro;0;0;1;7
watin;0;0;1;28
"photographe surréaliste";0;0;2;10
"murakami oeuvres";0;0;2;6.5
"schneider jean pierre";0;0;1;10
"sculpture papier";0;0;1;45
"stéphanie van vyve nue";0;0;2;46
"soutenir un regard";0;0;1;7
"san zi jing";0;0;1;46
"anonymous femme";0;0;1;8
"james mackeown";0;0;3;4
"max ernst oeuvre";0;0;1;10
"olivier ribardière";0;0;1;2
"art spaghetti";0;0;1;5
"philippe berger";0;0;1;22
"""galerie"" + ""contact"" ~inert";0;0;1;208
"seen street art";0;0;1;5
"matthew attard";0;0;1;8;0;0;1;8
"galerie d'art contemporain";0;0;5;3.4
"galerie appartement";0;0;3;9.6666666666667
"claude levêque";0;0;9;10.444444444444;0;0;1;12
sester;0;0;1;33
"jeune artiste peintre contemporain";0;0;1;6
"bonhomme blanc risque";0;0;1;10
"joan miro oeuvre";0;0;3;11
"roger mavity";0;0;1;8
"composition suprématiste";0;0;1;12
protéiforme;0;0;1;47
"obey artiste";0;0;1;4;0;0;1;3
"maurice renoma";0;0;1;3;0;0;2;5
"françois bard peintre";0;0;2;1;0;0;1;2
"philippe gourier";0;0;6;6
"sebastien layral";0;0;2;5
katma;0;0;2;16
"gastineau massamba";0;0;3;2
assalit;0;0;4;6.25;0;0;2;9.5
deplus;0;0;2;34
"vente collioure le seris 2002";0;0;4;48
"david mesguich";0;0;1;10;0;0;2;10
"bernard pras anamorphose";0;0;3;5
"richard harper peintre";0;0;1;6
"peinture irlande";0;0;1;33
"wiesmann gt mf5";0;0;2;18
"art drole";0;0;1;41
"franck lundangi";0;0;3;5.3333333333333
"tom wesselmann";0;0;38;6;0;0;4;7;0;0;2;5.5
"as i opened fire";0;0;4;5.75
"artistes en vogue";0;0;1;3
"panthere neige";0;0;1;55
"contemporary art club";0;0;3;3
"greg leon guillemin";0;0;5;8.2;0;0;1;7
"jacque villeglé";0;0;3;4
"frédéric garnier";0;0;1;14
"oeuvre banksy";0;0;4;7.5;0;0;3;8;0;0;3;8
"ø prisme";0;0;1;454
"les artistes turk";0;0;1;7
"marilyn derniere seance";0;0;1;45
"carre de lumiere";0;0;1;29
"alice lebredonchel";0;0;3;10
"bahareh navabi";0;0;1;4
"vincent hawkins";0;0;2;4
"art shopping";0;0;1;25
"cecile decorniquet";0;0;1;5
"jm robert";0;0;8;2.75;0;0;2;2
"roman opalka";0;0;1;26
fava;0;0;1;59
pra¨s;0;0;1;8
"vente d'art en ligne";0;0;2;1;0;0;1;1
artcontemporain;0;0;1;99
"yann houri";0;0;2;1;0;0;1;1
pasqua;0;0;1;36
"charles fazzino";0;0;2;3;0;0;1;4;0;0;2;4
"harald kröner";0;0;1;8
"fernando costa";0;0;3;5.6666666666667;0;0;3;6
"peinture de bernard buffet";0;0;5;7.8
"kerry eggleton";0;0;2;1
"schlosser gerard";0;0;1;4
"lapierre eric";0;0;1;6
"toxic torrick ablack";0;0;1;5
"le 9ème art";0;0;1;40
"christophe charbonnel prix";0;0;1;1
"oeuvre de takashi murakami";0;0;3;3
dirosa;0;0;7;5;0;0;2;4.5
"julie hauer";0;0;1;5
"bram van velde";0;0;1;24
"zao wou ki prix";0;0;1;24
frament;0;0;1;9;0;0;1;9
"liechtensteinische stiftung";0;0;1;72
"artistes portugais";0;0;1;9;0;0;1;10
"laurent dierick";0;0;2;9
penicaud;0;0;1;45
"isabel espinoza";0;0;2;5;0;0;1;5
"french art";0;0;1;40
"galerie dx";0;0;4;3;0;0;1;4
piwowarczyk;0;0;1;5
"stéphane gautier";0;0;1;4
"raisons pour investir";0;0;2;21
"peinture du 21ème siècle";0;0;2;10
"mel ramos";0;0;1;5;0;0;3;7;0;0;2;6
"eduardo chillida oeuvres";0;0;1;8
"garçonne nue";0;0;1;66
gorodine;0;0;1;5
"artiste peintre japonais contemporain";0;0;1;8
"ben bella peintre";0;0;1;1;0;0;1;3
"jeff aérosol";0;0;3;4
"bruno fontana";0;0;2;4;0;0;1;4
kiddy;0;0;1;115
"luc peire";0;0;1;16
sun7;0;0;1;40
"galerie art contemporain bruxelles";0;0;1;10
"galerie duret";0;0;4;5;0;0;1;6
"guy denning artist";0;0;2;5
"jeff koons flower puppy";0;0;1;7
rauzier;0;0;1;20
"galerie urbaine";0;0;1;3
"irina starkova";0;0;1;3
"tom wesselmann pop art";0;0;1;7
"ben artiste contemporain";0;0;1;3
"peter klasen";0;0;14;3.1428571428571;0;0;4;4;0;0;1;4
"jérôme mesnager";0;0;10;3;0;0;1;4
"christy lee";0;0;1;5;0;0;1;5
"andreas gursky oeuvres";0;0;2;6
"statue deesse";0;0;1;9;0;0;1;9
"viva di rosa";0;0;1;4
"jeunes artistes peintres";0;0;2;8;0;0;1;9
"point fort de la france";0;0;1;45
"didier avril";0;0;1;1
"courbet l origine du monde";0;0;1;54
"buffet bernard tableaux";0;0;1;26
"max ernst oeuvres";0;0;2;14.5
"art contemporain japonais";0;0;1;79
"peinture murale gris dior";0;0;1;59
"alex katz oeuvres";0;0;2;5;0;0;2;7
"auburn speedster";0;0;1;24
"philippe brosse";0;0;9;3.2222222222222;0;0;1;3;0;0;2;3
"galerie belgique";0;0;2;3.5
pixart;0;0;171;4.812865497076;0;0;2;7;0;0;2;6
"robe verte";0;0;1;59
"karel de gendre";0;0;3;6.3333333333333
"ladislas kijno";0;0;1;26
"beetles and huxley";0;0;1;7
"cedrix crespel";0;0;3;4;0;0;1;4
manolo;0;0;4;33.25
"vivian maier";0;0;3;37
"nathalie deshairs";0;0;1;4
"galerie brugier rigail";0;0;8;5;0;0;2;6;0;0;3;6.6666666666667
"eva jospin biographie";0;0;2;7.5;0;0;3;6.6666666666667
mescoloriages;0;0;1;23;0;0;1;20
"art de vente";0;0;1;2
"oeuvre jr";0;0;1;5
"vendre oeuvre d'art";0;0;1;1
"oeuvre joan miro";0;0;1;11
"nico sculpture";0;0;3;7.3333333333333
"galerie argentic";0;0;6;5;0;0;1;6
"envie d'art";0;0;18;3.9444444444444;0;0;2;4
haggai;0;0;1;62
"françois houtin";0;0;2;11
"tableau oeuvre d'art moderne";0;0;2;1
"acheter art contemporain";0;0;4;1;0;0;1;1
"art contemporain galerie";0;0;2;3
"oneiro gallery";0;0;1;4
"henni alftan";0;0;1;7
"willy ronis";0;0;2;42.5
kijno;0;0;1;28
"guyomard sylvie facebook";0;0;1;7
"affiche perrier";0;0;1;20
"peinture charlelie couture";0;0;1;2
levalet;0;0;21;5.8571428571429;0;0;3;6.6666666666667;0;0;3;5
"cesar art";0;0;1;7
"claire corcia";0;0;1;7
"daniel nadaud";0;0;4;5
"atelier a quatre";0;0;1;9
"oeuvres freud";0;0;1;7
"klasen peter";0;0;1;3;0;0;1;4
"vente art en ligne";0;0;2;1
"daniel authouart";0;0;1;14
"oeuvres de keith haring";0;0;6;7.5;0;0;1;9
"leslie caillard artiste peintre";0;0;2;15
batory;0;0;2;31
"gille aillaud";0;0;1;2
"jerome mesnager";0;0;12;3;0;0;9;4;0;0;3;4
"acheter art moderne";0;0;2;1
"lampe verre de murano";0;0;1;23
"isabelle vayron";0;0;1;4
"art x";0;0;1;29
"bernard prass";0;0;3;3;0;0;1;21
"carl andre";0;0;27;6.4074074074074;0;0;16;7.125
cuenot;0;0;1;40
"galeries d art contemporain paris";0;0;1;29
"wiesmann mf5";0;0;1;40
"virgin black";0;0;1;106
"araki nobuyoshi";0;0;3;34.666666666667;0;0;1;29;0;0;1;32
"venet bernar";0;0;1;43
"collage art contemporain";0;0;1;97
lapinthur;0;0;2;4;0;0;1;4
"monica dalmasso";0;0;2;12
"banksy billet de banque";0;0;1;3
"jeff koons chien";0;0;1;39
"hank china";0;0;1;7;0;0;1;7
"bernard pras oeuvre";0;0;5;2;0;0;1;2
sarrans;0;0;1;45
"less is more art";0;0;1;4
"acheter oeuvre d'art en ligne";0;0;1;1
"jacques lacroix";0;0;3;10.666666666667;0;0;3;8.3333333333333
"guy de rougemont";0;0;2;6
"barthes de ruyter";0;0;1;2
"peinture lin";0;0;1;87
"laetitia giraud";0;0;2;5
"kamasutra 2";0;0;1;9
"fetish pied";0;0;1;44
"biographie keith haring";0;0;4;9.5;0;0;5;9;0;0;2;9
"costa peintre";0;0;1;4
telemaque;0;0;2;46.5
"black galerie";0;0;1;3
"robin hammond";0;0;1;22
"jean dubuffet oeuvre";0;0;3;5;0;0;1;6
"helder batista";0;0;1;5
"leon guillemin";0;0;1;5
"philipe berry";0;0;1;6
"pierre alechinsky oeuvres";0;0;2;17.5
"nature morte poire";0;0;1;9;0;0;1;10;0;0;1;9
"jef aerosol biographie";0;0;2;6
"oeuvre de max ernst";0;0;6;8.1666666666667;0;0;1;11
"galerie art contemporain lille";0;0;1;20
"sandra krasker";0;0;6;4.6666666666667
"galerie besson";0;0;1;10
"peinture buffet";0;0;2;11
keza;0;0;1;9;0;0;1;9
"stephanie nava";0;0;1;3
"100 idées l'aventure des seventies";0;0;1;31
risote;0;0;1;7
"wang tingting";0;0;1;12
"richard bolin";0;0;1;419
"georges braque oeuvres";0;0;1;22
"street art france";0;0;1;72
"michel gueranger";0;0;4;2
"christophe goutal";0;0;3;4;0;0;1;2
"boutique d'art en ligne";0;0;1;1
zago;0;0;1;42
"carlo nason";0;0;2;10.5
"yanko tihov";0;0;2;7.5
"lolita art";0;0;1;28
totomobile;0;0;1;34
"ben bella";0;0;2;35;0;0;1;30
"dark vador artwork";0;0;1;3
"tapis en soie";0;0;1;28
www.artsper.com;0;0;1;1
"cecile desserle";0;0;4;5;0;0;5;5.4;0;0;3;5
"christophe guerrier";0;0;1;47
"jean du buffet";0;0;3;8.6666666666667;0;0;1;10
"tingting wang";0;0;1;10
"puzzle mickey";0;0;1;32
"laurent cammal";0;0;2;1
"art sculpture";0;0;1;20
"mr sex";0;0;466;6.7188841201717;0;0;436;6.5229357798165;0;0;75;6.6933333333333
"peter hoffer peintre";0;0;1;8;0;0;1;8
"nuance et lumière";0;0;1;2
"david lachapelle";0;0;2;34.5
"severine bernard";0;0;1;9
"galerie d'art en ligne";0;0;25;1;0;0;2;2;0;0;1;1
"tourisme dinard";0;0;2;30
"mrr sex";0;0;1;7
"pierre alechinsky";0;0;1;55
cédrix;0;0;1;6
"bernard chauveau";0;0;6;8.6666666666667
"gallerie nue";0;0;1;8
"david lachapelle biographie";0;0;3;4
"peinture dark vador";0;0;1;4
"artiste jr";0;0;1;11
"canapé jaune";0;0;1;30
"jone one";0;0;1;4
"alain josseau";0;0;6;5.6666666666667
"margaux avril photographie";0;0;1;12
"art sur internet";0;0;1;1
"danseuse thai";0;0;2;8
"claude champy";0;0;6;7.1666666666667;0;0;1;11
stmmer;0;0;1;10
"andy warhol hot dog";0;0;2;4
"hervé télémaque";0;0;11;5;0;0;1;6
"dganit blechner";0;0;1;1
"photo d'art contemporain";0;0;4;2
"tribu carnivore";0;0;6;7;0;0;6;7
"ventes peinture";0;0;1;3
dratwa;0;0;2;6
"toxic artist";0;0;1;6
ladoo;0;0;1;14
"galerie art en ligne";0;0;11;1;0;0;1;1
"audouin desforges";0;0;1;5
"serge roux";0;0;2;19
"art nue";0;0;1;16
"gorille art";0;0;1;9;0;0;1;8
"max parisot";0;0;1;5
"takala nu";0;0;1;8
"signe astral";0;0;1;58
ronis;0;0;2;34;0;0;1;29
"oeuvre imaginaire";0;0;2;45.5
"mélanie peduzzi";0;0;1;2
"olympia de manet";0;0;1;47
"espace seven";0;0;1;9
"theo haggai";0;0;1;3;0;0;1;2
greg-leon-guillemin;0;0;1;6
"mr sex.";0;0;1;7;0;0;1;7
"dali oeuvres";0;0;1;11
"yan houri";0;0;1;3
"god dog";0;0;1;12
"antoine correia";0;0;9;4;0;0;1;4
"emma levine";0;0;1;5
"claisse geneviève";0;0;1;9
"nicolas dubreuille";0;0;2;2
"je suis charlier";0;0;1;4
"petit bonhomme blanc";0;0;1;10;0;0;1;10
"basquiat prix";0;0;1;31
"hervé di rosa peinture";0;0;1;3
"tableau jeune artiste";0;0;1;8
"germain plouvier";0;0;2;5;0;0;2;5
sugai;0;0;1;19
"stephane dauthuille";0;0;1;10
"artiste en vogue";0;0;1;2;0;0;1;2
authouard;0;0;1;17
pixarty;0;0;1;5
"sculpture kiss";0;0;1;260
topolino.de;0;0;1;63
"bernard szajner";0;0;1;28
"adela burdujanu";0;0;2;5;0;0;2;4;0;0;1;5
"achat peinture";0;0;1;56
"foire art contemporain paris";0;0;1;44
"easy sacha";0;0;7;9;0;0;2;9
"clément cogitore";0;0;1;30
"art et scalp";0;0;1;14
"patricia camet";0;0;1;9
"dart truck";0;0;1;38
"etiyé dimma poulsen";0;0;1;5
"pierre alex photo";0;0;1;1
"photos helmut newton";0;0;1;59
contemporains;0;0;1;9
"isabelle mars";0;0;1;8
"helion peintre";0;0;1;9
"francis hyber";0;0;1;6
davidstar;0;0;1;11
"corinne felgate";0;0;1;6
pras;0;0;1;20;0;0;1;17
"jonone graffiti";0;0;2;9
"sandro giordano";0;0;1;6
mygalo;0;0;1;4
"pierre attal";0;0;1;6
"balloon dog prix";0;0;1;7
"investir dans l'art";0;0;2;9;0;0;1;10
"galerie geraldine banier";0;0;1;8;0;0;1;8
"toxic graffiti artist";0;0;1;4
"kusama oeuvres";0;0;1;9
"quentin garel";0;0;1;5;0;0;1;4
"robert longo";0;0;1;17
"chat jaune street art";0;0;1;11
"jana et js";0;0;1;8;0;0;1;6
"galerie artiane";0;0;1;3
"vente art";0;0;1;1;0;0;2;3
"yu bolin";0;0;1;8
"peter klasen peintre";0;0;1;2
"il était une fois en amérique";0;0;2;95.5
"jean pierre attal";0;0;2;6;0;0;1;2
"aline robin";0;0;1;5
"fabienne arietti";0;0;1;5
"amateur d'art";0;0;1;11
"jean marie drouet";0;0;1;9
"gregory berben";0;0;1;9
"artsper avis";0;0;1;2
"benjamin artiste";0;0;4;7
"objet d'art contemporain";0;0;1;2
"clement denis";0;0;1;9
"chat oreille ronde";0;0;2;7
"philippe heurtaux artist";0;0;1;4
"yann houri prix";0;0;1;1
"louis nicolas darbon";0;0;1;10
morisse;0;0;1;14
"oeuvre de ernest pignon ernest";0;0;1;8
"fanny dubois";0;0;1;7
"naked portrait";0;0;1;7
"jon one";0;0;1;7
"la peur tableau";0;0;2;9.5
"bossard peintre";0;0;1;5
"jean dubuffet biographie";0;0;6;4.8333333333333
"lola cola";0;0;1;1
"ipso facto";0;0;2;25
"obey shepard fairey";0;0;1;11
"cockatoo creek";0;0;1;10
"galerie lazarew";0;0;1;9
"charbonnel sculpteur";0;0;1;6;0;0;1;6
"l'atlas street art";0;0;3;8;0;0;1;9
"kongo artiste";0;0;1;9
krm;0;0;7;4.4285714285714
"philippe vasseur";0;0;1;23
"philippe berry";0;0;34;6.1470588235294;0;0;16;1.0625
"shirley jaffe";0;0;2;5
smael;0;0;2;7.5
osite;0;0;1;8
"peintre beaufils";0;0;2;4
"planete serie";0;0;1;16
"charlotte perrot";0;0;1;8
"sculpture art moderne";0;0;1;2
"hom nguyen";0;0;1;2
"andy warhol marilyn monroe";0;0;1;17
levistre;0;0;1;10
kyokou;0;0;1;8
"le turk";0;0;5;9.6
"udo nils";0;0;1;7
"original pictures";0;0;3;7
"galerie mondapart";0;0;2;7;0;0;1;8
"wang yan cheng";0;0;3;7;0;0;1;10
"e galleries";0;0;6;10
"une galerie d'art";0;0;1;4
"shepard fairey";0;0;2;11
"lucien murat";0;0;1;8
"crane papillon";0;0;1;3;0;0;1;3
"dubuffet peinture";0;0;1;5
"tic ses";0;0;2;7.5
chamizo;0;0;1;11
"emilio tadini";0;0;2;3
"hideki yoshida";0;0;1;7;0;0;1;6
"galerie art internet";0;0;1;1
sarla;0;0;1;11;0;0;4;10
"victor richardson";0;0;1;11
m.chat;0;0;1;11
"berry philippe";0;0;2;2
"sabyl ghoussoub";0;0;2;5
"flower puppy jeff";0;0;3;5
"kool koor";0;0;1;1;0;0;1;4
"gregoire eloy";0;0;1;5
"patrick braoudé";0;0;1;12
"ernest pignon ernest";0;0;2;20
"sorane rotellini";0;0;1;6
hiro;0;0;1;28
"nils udo oeuvres";0;0;2;6
"chanoir artiste";0;0;2;2;0;0;1;1
"kate barry";0;0;1;34;0;0;1;36
"spark benjamin";0;0;1;6;0;0;3;6.3333333333333
"raymond hains";0;0;9;7.6666666666667;0;0;4;7.5
"bastien cuenot";0;0;1;2;0;0;1;1
"costa artiste";0;0;2;3.5
"menu rak";0;0;1;33
"keith haring oeuvre";0;0;2;9
"m le chat";0;0;1;8
"i am a man art";0;0;1;8
polic;0;0;1;10
"patrick moya";0;0;3;6;0;0;1;5
"sébastien layral";0;0;1;4
"yazid oulab";0;0;1;3;0;0;1;8
"dussac peintre";0;0;1;4
"laurent bouro";0;0;1;3;0;0;1;3
"cyril olanier";0;0;1;3
"hervé perdriel";0;0;2;3
"maurice renoma photographe";0;0;2;3
"gilles candelier";0;0;2;8.5
labegorre;0;0;3;6
"peinture carbonne";0;0;3;8
"oeuvre d'art sur l'automne";0;0;1;10
"artiste pez";0;0;1;5
"hamish fulton";0;0;1;8
"marilyn monroe andy warhol";0;0;1;19
"galerie schwab";0;0;2;7.5
"eduard kac";0;0;1;10
"philippe dannic";0;0;1;6
"rob van hoek";0;0;3;4
"miguel chevalier";0;0;2;11
"oeuvres d'imagination";0;0;1;40
"orlanski sculpteur";0;0;1;9
"severine de close";0;0;1;62
"christian chapiron";0;0;1;8
"tanc artiste";0;0;1;4
"peinture de jean dubuffet";0;0;1;6
"marianne garnier";0;0;1;3
artop;0;0;1;9
"transe x";0;0;1;39
"aerosol a vendre";0;0;1;10
footfetish;0;0;1;22
"adrianna karembeu";0;0;1;11
"miss tic";0;0;41;6.8048780487805;0;0;11;6.4545454545455
"mina vanner";0;0;1;9
"segolene brossette";0;0;1;4
"thomas labarthe";0;0;1;5
"rakel wajnberg";0;0;2;4
"le diamantaire";0;0;1;14;0;0;1;40
"keith haring œuvres d'art";0;0;5;9.2;0;0;1;10
aerosol;0;0;3;26.333333333333
"takashi murakami";0;0;1;26
"miss tic street art";0;0;2;8
"ann grim";0;0;1;6
"genevieve claisse";0;0;1;9;0;0;1;7
"nathalie tacheau";0;0;1;4
"arno elias";0;0;2;7;0;0;1;3
"hervé di rosa oeuvres";0;0;1;1
"david gerstein";0;0;2;4;0;0;1;4
"capucine pelletane";0;0;1;6;0;0;1;6
"dalila dalléas bouzar";0;0;1;10
"philippe huart";0;0;2;3
"rossella rossi";0;0;2;7
aroa;0;0;3;6.6666666666667
"le chat street art";0;0;4;7.75
"etienne gros";0;0;3;4.3333333333333;0;0;1;4
"cesar sculpteur";0;0;7;10.714285714286;0;0;1;10
"biographie de ernest pignon ernest";0;0;2;10;0;0;1;10
"michel delamarre";0;0;1;4
"lindsay garreau";0;0;2;1.5
"britto artiste";0;0;1;5
"sylvie guyomard";0;0;2;5
"li wei artist";0;0;1;8
"sculpteur cesar";0;0;2;11
"prisoners car";0;0;1;10
"oeuvres d'art";0;0;1;7
"nuances et lumieres";0;0;1;4
"patrick loste";0;0;3;8
basquiat;0;0;3;22.666666666667;0;0;1;26
"serge mendjisky";0;0;2;7.5
"loan nguyen";0;0;1;5
plouvier;0;0;1;23
quik;0;0;43;1.3255813953488;0;0;7;1.1428571428571
jadikan;0;0;1;5
"andy warhol marilyn";0;0;1;18
"huart philippe";0;0;1;4
"herb ritts";0;0;1;25
"luke newton";0;0;1;5
"bernard rancillac";0;0;2;10.5
adek;0;0;3;9.3333333333333
"oeuvre de bansky";0;0;2;8
"india leire";0;0;1;7
"hervé lewis";0;0;1;3
"robert combas biographie";0;0;4;4.25;0;0;1;4
"armand artiste";0;0;1;6
"orlinski prix";0;0;2;7
"yo marchand";0;0;1;3
"vente en ligne d'oeuvres d'arts";0;0;1;1
"investir dans l art";0;0;2;10
"thomas jorion";0;0;1;4
artspers;0;0;1;1
"arroyo eduardo";0;0;1;7
"bertrand gillig";0;0;2;5.5;0;0;1;6
"aboudia artist";0;0;1;9
spengler;0;0;1;59
"l'atlas art";0;0;2;8
"philippe de vos";0;0;1;84
"life gallery";0;0;1;26
"littles pussy";0;0;1;13
"corinne drouot";0;0;1;103
"m-city street art";0;0;2;6
linmes;0;0;1;9
argentic;0;0;8;7.375;0;0;1;7
"jan stel";0;0;1;6
"alfons alt";0;0;1;11
"cyril paglino";0;0;2;22
"yan pei ming prix";0;0;1;14
tudi;0;0;2;9.5
"atlas bleu";0;0;1;29
capton;0;0;5;4.6;0;0;2;3
"apocalypse parfum";0;0;1;9
"max ernst œuvres d'art";0;0;2;7;0;0;1;7
"christian courreges";0;0;2;11
"galerie laure roynette";0;0;2;7
ando;0;0;3;12;0;0;2;11.5
"david lynch biographie";0;0;1;44
"thierry alet";0;0;4;3.5
"jef aerosol oeuvres";0;0;1;2
"diesel jeans";0;0;1;46
"gérard rancinan";0;0;8;7.125
"sculpture monumentale";0;0;1;3
"serge beninca";0;0;3;12
"yang yonglian";0;0;1;8
"hugo laruelle";0;0;3;5;0;0;1;5
"dark vador art";0;0;1;7
"ted nomad";0;0;5;8.2
"peinture go on";0;0;1;10;0;0;1;10
"murakami art";0;0;1;9
"galerie anna tschopp";0;0;1;11
"olivier masmonteil";0;0;1;9
"mira maodus";0;0;3;6.6666666666667
skunkdog;0;0;2;4;0;0;1;8
"anne brunet";0;0;3;7.6666666666667;0;0;3;5
"crash artiste";0;0;1;1
shuhui;0;0;1;5
"laetitia merle";0;0;1;1
"erro artiste";0;0;5;7.6;0;0;1;10
"jonathan monk";0;0;1;10
"pierre alex";0;0;1;6
"documentaire mr brainwash";0;0;1;11
"stew artiste";0;0;1;4
"benjamin spark";0;0;2;7
"toxic street art";0;0;1;4
"françoise petrovitch";0;0;1;9
"luz severino";0;0;1;3
"aaron artiste";0;0;1;8
doulat;0;0;1;6
"peintre brésilien contemporain";0;0;1;8
"corinne dalle";0;0;1;9
tieri;0;0;1;9
"kiki picasso";0;0;4;6;0;0;2;6.5
"gwen marseille";0;0;2;5
"andoche praudel";0;0;3;4
"nu feminin";0;0;1;26
durix;0;0;2;9.5;0;0;2;8
"street art galerie en ligne";0;0;1;6
begarat;0;0;1;4
"jacques villegle";0;0;1;4;0;0;1;5
"serie narcose";0;0;1;7
demsky;0;0;2;10
"yayoi kusama oeuvre";0;0;1;10
"oeuvre de roman opalka";0;0;2;10
"julien raynaud artiste";0;0;1;2
"brugier rigail";0;0;2;7
"francoise petrovich";0;0;1;7;0;0;1;8
"artiste obey";0;0;2;2
"césar artiste";0;0;1;9
"kamel yahiaoui";0;0;1;10
"artistes contemporains";0;0;2;7;0;0;1;9
"xavier veilhan";0;0;1;20
"peintre bernard buffet";0;0;2;8
"octave pixel";0;0;3;4
artspert;0;0;1;1
"combas prix";0;0;1;4
"nathan chantob artiste peintre";0;0;1;5
"louis blanc photographe";0;0;1;10;0;0;1;5
"mr brainwash";0;0;1;20
"alain godon peintre";0;0;1;5
"jean-pierre schneider";0;0;1;9
cornillet;0;0;1;12
"keith haring wikipedia";0;0;1;7
"jock sturges";0;0;1;18;0;0;1;18
"caroline maurel";0;0;1;6
"thomas agrinier";0;0;1;5
"marvin aillaud";0;0;1;3
"le petit parisien willy ronis";0;0;1;5
"vincent chenut";0;0;1;6
"antonio segui";0;0;2;10.5;0;0;2;10
"tableau dubuffet";0;0;1;9
"gerard rancinan";0;0;2;8.5
"niels udo";0;0;3;7.6666666666667
graphito;0;0;2;11;0;0;2;9.5
"troussier joelle";0;0;1;5
"peintre jean dubuffet";0;0;2;4
taglialatella;0;0;1;9
"césar sculpture";0;0;1;10
"vente banksy";0;0;1;4
"eric denudt";0;0;1;9
benetou;0;0;1;2;0;0;1;2
"atlas blue";0;0;1;26
tafeta;0;0;1;6;0;0;1;7
"gordon hopkins peintre";0;0;1;1;0;0;1;2
"césar sculpteur";0;0;1;11
"grands artistes contemporains";0;0;2;8.5
"yang yongliang";0;0;1;8
"jace gouzou vente";0;0;1;10
guilleme;0;0;2;5;0;0;1;10
"oeuvre d'art fantastique";0;0;1;4
"romain lardanchet";0;0;3;7.3333333333333;0;0;1;9
"li wei";0;0;3;5.3333333333333;0;0;1;6
"michel castaignet";0;0;1;3
"godon peintre";0;0;1;6
"jean pierre schneider";0;0;1;9;0;0;1;11
"roberto greco";0;0;1;9
"andy warhol oeuvres";0;0;1;23
jr;0;0;1;1
scholtes;0;0;1;20
"marie laure gerard";0;0;1;5
"cecile aurejac";0;0;1;3
"john crash matos";0;0;1;5
"romero britto paris";0;0;1;6
"galerie w";0;0;4;5;0;0;1;5
"jérome mesnager";0;0;1;4
"oeuvre d'art publicité";0;0;1;6
"antoine rose";0;0;4;4.25;0;0;1;4
"sculpture d'art";0;0;1;2
"yayoi kusama œuvres d'art";0;0;1;11
"galerie d art";0;0;1;7
"joachim monvoisin";0;0;1;5
"britto sculpture";0;0;1;10
oeuvres;0;0;1;22
"tete en poire";0;0;1;5
"catherine houard";0;0;2;6.5
"peintre dubuffet";0;0;2;4.5
"xavier prieur";0;0;1;7
"big ben peinture";0;0;1;10
"bruno mallart";0;0;3;7;0;0;1;7
"romain cadilhon";0;0;1;2
"ben artiste nice";0;0;1;4
"levalet street art";0;0;1;6
gregos;0;0;4;6.5;0;0;3;6
"olivier castaing";0;0;1;11
"mustapha azeroual";0;0;2;6.5
"agnes baillon";0;0;1;4
mesnager;0;0;3;3;0;0;1;3
catte;0;0;9;2;0;0;2;2.5
"takashi murakami oeuvres principales";0;0;1;5
"thomas bossard";0;0;1;6
"arthur dorval";0;0;1;3
talard;0;0;1;9
"raynaud artiste";0;0;1;10
"foot fetish";0;0;2;24.5
guingand;0;0;3;9.3333333333333
"oeuvre d'art sport";0;0;1;7
"di rosa";0;0;8;3.5;0;0;2;5
folla;0;0;1;20
"maurizio nannucci";0;0;1;7
"chat street art";0;0;2;8
"torse dhomme";0;0;1;9
"unique gallery";0;0;1;5
"wilfred lang";0;0;1;4
one4you;0;0;2;9
"john andrew perello";0;0;2;4
"alain clement";0;0;1;6;0;0;1;6
"thierry evrard peintre";0;0;2;4
"galerie double s";0;0;2;7
"lou ros";0;0;2;5.5;0;0;1;8
"laurent maes";0;0;3;10.333333333333
"fazzino charles";0;0;1;9
"michel lebelhomme";0;0;1;4
"klimt oeuvres";0;0;1;26
"dire 132";0;0;1;6
"takashi murakami oeuvres";0;0;2;4.5;0;0;2;4
"bernard pras dali";0;0;2;4.5;0;0;2;1
catelain;0;0;4;4.75;0;0;4;4.75
"vinz feel free";0;0;1;14
"on kawara oeuvres";0;0;1;10
"oeuvre dubuffet";0;0;1;7
"david gerstein sculptures";0;0;1;3
"boom art";0;0;1;4;0;0;1;4
"adam nidzgorski";0;0;2;4
"gottfried honegger";0;0;4;9.75
"blek le rat";0;0;1;20
"love messenger";0;0;1;22
johnone;0;0;1;6
sirck;0;0;1;8
"liu bolin oeuvre";0;0;1;5
"philippe assalit";0;0;2;3
"herve lewis";0;0;1;5
"mr chat";0;0;7;6.4285714285714
"jean pierre schneider peintre";0;0;1;7
"antoine veron";0;0;2;4.5
"charles guyot";0;0;2;1
"peter lippmann";0;0;2;4;0;0;1;4
"john perello";0;0;3;3.6666666666667
"sandra david";0;0;3;6.3333333333333
"chenaux gallery";0;0;1;3
porras;0;0;2;9
"oeuvre coloré";0;0;2;8
"artiste ben";0;0;5;4;0;0;2;4
"orlinski richard";0;0;4;8
"tony soulie";0;0;1;3
jorion;0;0;1;14
"anais boudot";0;0;1;3
"nicolas hugo";0;0;2;5
"françois morellet";0;0;4;8.75;0;0;1;9
"rene botti";0;0;1;5
"monika nowak art";0;0;1;2
"peinture charlie chaplin";0;0;1;10
"crash street art";0;0;2;7
"jr artiste";0;0;1;5;0;0;4;1
"seen artiste";0;0;1;2
"site de vente d'art en ligne";0;0;1;1
"max charvolen artiste";0;0;2;1
"rita hayworth gilda";0;0;2;10.5
"arnaud liard";0;0;2;4
glineur;0;0;1;8
"galerie vidal st phalle";0;0;3;6;0;0;1;6
"oeuvre de banksy";0;0;1;8;0;0;2;8
"manolo chretien";0;0;3;4
"charlotte lepelletier";0;0;1;3;0;0;1;3
"arroyo peintre";0;0;1;5
"banksy œuvres d'art";0;0;3;8.6666666666667;0;0;2;8
musitano;0;0;2;9.5
"luther allison";0;0;1;29
pelmont;0;0;1;10
"christian croset";0;0;1;8
"galerie chenaux";0;0;1;3
"christophe fischer";0;0;1;8
"philippe pasqua";0;0;5;8
"di rosa richard";0;0;1;4
calirezo;0;0;1;9
"joel mpah dooh";0;0;1;3
mapplethorpe;0;0;1;22
"peinture jean dubuffet";0;0;1;6
moninot;0;0;1;11
"helmut newton gallery";0;0;1;26
freisa;0;0;2;4
"dorota buczkowska";0;0;4;8
jhonone;0;0;1;6
"biographie de keith haring";0;0;1;9
"didier hamey";0;0;1;9
"emmanuel flipo";0;0;1;3
"guy dening";0;0;1;4
"patrick villas sculpteur";0;0;1;3
"cine x atlas paris";0;0;1;55
"omr sex";0;0;1;7
"art contemporain sculpture";0;0;1;2
renonciat;0;0;1;8
"homo digitalis";0;0;1;25
"david lachapelle photographe";0;0;1;8
"victor soren";0;0;1;4
"jonone prix toile";0;0;1;1
"vitali massimo";0;0;1;8
"galerie jonone";0;0;4;4
"l'artiste ben";0;0;1;4
"sculpture deesse";0;0;1;9
"marilyn monroe sunday b morning";0;0;2;3.5
"frederic deprun";0;0;1;4
"peintres grecs contemporains";0;0;1;6
"romy schneider";0;0;1;41
"anette messager";0;0;2;10
"tom wesselmann oeuvres";0;0;1;6
"sculpture monumentale contemporaine";0;0;1;2
nyne;0;0;1;18
lisman;0;0;1;4
"galerie binome";0;0;1;5
"salzmann gottfried";0;0;1;10
"emmanuel pons";0;0;3;7
"patrick bastardoz";0;0;2;5
dan23;0;0;2;7
"ki to la gloire";0;0;1;6
"tilt graffiti";0;0;1;8
"lisa sartorio";0;0;1;6
"jeunes artistes français";0;0;1;9
perlinpinpin;0;0;1;5
"gaëlle villedary";0;0;1;6
"atlas artiste";0;0;1;7
"philippe pradalié artiste peintre";0;0;1;4
"galerie delorme";0;0;1;4
"jean luc beaufils artiste peintre";0;0;1;5
"stephanie de rouge";0;0;1;10
"cecile plaisance";0;0;1;10
"philippe buil sculpteur";0;0;2;4
"caresses x";0;0;1;25
"debusschere peintre";0;0;2;9
"acheter art";0;0;2;1
"chris morin eitner";0;0;1;3
"ricardo leon";0;0;2;9
"agnes dubart";0;0;1;9
"dan flavin fluored";0;0;1;10
"peintre le touquet";0;0;1;11
"oeuvres de georges braque";0;0;2;25
"france bruno catalano";0;0;3;9
"gerard quenum";0;0;4;7
"loft galerie";0;0;1;10
"charles fazzino prix";0;0;1;7
"oeuvre orlan";0;0;1;5
"catherine lopes";0;0;1;8
"galerie collégiale lille";0;0;1;5
"oeuvre de jean dubuffet";0;0;1;6
"beaufils peintre";0;0;1;6
"patrick lost";0;0;1;10
brodlim;0;0;1;2
"wilfred peintre";0;0;2;3
"statue art moderne";0;0;1;2
jazzu;0;0;1;7
"manuel cohen";0;0;1;9
"vincent richeux.fr";0;0;2;5
"artistes japonais contemporains";0;0;1;9
"galerie art contemporain";0;0;2;11
"peintre drouet";0;0;1;5
"oeuvre de bernard pras";0;0;1;2
"ad galerie";0;0;1;4
"catherine bertaud";0;0;1;1
"galerie claudine legrand";0;0;2;3
"joelle troussier";0;0;1;5
"oeuvres de banksy";0;0;4;9.25
"philippe azema";0;0;1;2
"henri de quatrebarbes";0;0;1;5
"galerie nuances et lumière lyon";0;0;1;3
izabeau;0;0;1;4
"françois mendras";0;0;2;6.5
"art monochrome";0;0;1;8
godon;0;0;1;4
"le corps dans l'art";0;0;3;5
"matisse cirque";0;0;1;5
"michel delamarre peintre";0;0;3;3
"qi chien";0;0;1;5
"taxi crash";0;0;1;10
"vente oeuvre d'art";0;0;1;1
"avoir le sens du détail";0;0;1;44
"olivier baragnon";0;0;1;233
"manuel geerinck";0;0;1;5
"jonas sunset";0;0;1;3
"art internet";0;0;1;3
"pierre de fenoyl";0;0;2;10
lubliner;0;0;1;4
"le rolleiflex";0;0;1;20
"anne bregeaut";0;0;1;6
"tableau britto";0;0;4;8
"barres christine";0;0;2;3
"jonone paris";0;0;1;5
"eva jospin";0;0;6;10
trovic;0;0;2;6
"mendjisky serge";0;0;1;6
"erin cone";0;0;1;4
"oeuvre de georges braque";0;0;1;22
"art nu féminin";0;0;1;20
"gazelli art house";0;0;1;6
"site d'art contemporain";0;0;1;2
ecloz;0;0;1;6
"biographie de jeff koons";0;0;2;10
"artiste cesar";0;0;1;9
"sunday b morning";0;0;1;1
"lucia fava";0;0;1;42
"les galeries d'art";0;0;1;5
"portraits de femmes";0;0;4;1
"oeuvre cesar";0;0;1;5
"art en ligne";0;0;1;1
"christian valette";0;0;1;11
"prix sculpture bruno catalano";0;0;2;10
"valérie lefebvre";0;0;1;26
"nick walker";0;0;2;5
benaroch;0;0;1;10
"affiche jr";0;0;1;6
"peintre romero britto";0;0;1;5
"jonas sun7";0;0;1;3
"sculpture vente";0;0;3;1
"biographie de jean dubuffet";0;0;1;5
"ronald dupont";0;0;1;2
"acheter une oeuvre d'art";0;0;1;1
"francois morelet";0;0;1;11
"cha noir";0;0;1;3
hayuk;0;0;1;6
"sculpture sumo";0;0;1;9
"mist artiste";0;0;1;11
"debusschere peinture";0;0;1;9
"billet 10 livres banksy";0;0;1;1
"jean gaudaire thor";0;0;1;3
"mr lolo";0;0;1;3
"galerie d'artiste";0;0;1;5
stettner;0;0;2;6
"delphine couturier";0;0;1;2
