artsper;27;0.1413612565445;191;1;10;0.1010101010101;99;1;9;0.1875;48;1;8;0.18181818181818;44;1
jonone;9;0.058823529411765;153;5.0980392156863;3;0.044776119402985;67;4.2835820895522;4;0.063492063492063;63;5.7460317460317;2;0.08695652173913;23;5.695652173913
quik;6;0.03921568627451;153;1.9673202614379;1;0.016666666666667;60;1.4666666666667;4;0.051948051948052;77;2.3766233766234;1;0.0625;16;1.875
iemza;4;0.44444444444444;9;3.8888888888889;2;0.5;4;3.75;2;0.4;5;4
"valerie hadida";4;0.57142857142857;7;2;1;0.25;4;2;2;1;2;2;1;1;1;2
"topolino artiste";4;0.66666666666667;6;1;3;1;3;1;1;0.33333333333333;3;1
"beatrice terra";3;0.75;4;1;3;0.75;4;1
"bruno catalano prix";3;0.3;10;4.6;2;0.5;4;4;0;0;2;7;1;0.25;4;4
combas;3;0.051724137931034;58;6.2758620689655;0;0;33;5.8181818181818;1;0.0625;16;6.6875;2;0.22222222222222;9;7.2222222222222
"ben bella peintre";3;0.75;4;3;3;0.75;4;3
"miss tic";3;0.024793388429752;121;5.9421487603306;1;0.018867924528302;53;5.188679245283;2;0.037735849056604;53;6.6415094339623;0;0;15;6.1333333333333
sculpture;2;0.0038986354775828;513;5.9337231968811;2;0.008;250;6.216;0;0;182;5.6208791208791;0;0;81;5.7654320987654
"bernar venet";2;0.071428571428571;28;6.8928571428571;2;0.18181818181818;11;6.7272727272727;0;0;4;7.5
"fabrice hyber";2;0.08695652173913;23;6;2;0.16666666666667;12;6.0833333333333;0;0;11;5.9090909090909
"costa sculpteur";2;0.5;4;4;0;0;1;4;2;0.66666666666667;3;4
"harald wolff peintre";2;0.25;8;2;2;0.28571428571429;7;2;0;0;1;2
"fernando costa prix";2;1;2;1;1;1;1;1;1;1;1;1
"gordon hopkins";2;0.18181818181818;11;3.0909090909091;2;0.25;8;3.125;0;0;1;3;0;0;2;3
"eliane larus";2;0.25;8;3.125;2;0.28571428571429;7;3;0;0;1;4
"hiro ando prix";2;0.5;4;1;1;1;1;1;1;0.33333333333333;3;1
"serge mendjisky";2;0.16666666666667;12;7.1666666666667;1;0.2;5;6.8;1;0.16666666666667;6;7.6666666666667;0;0;1;6
"susan shup";2;0.4;5;4.8;2;0.4;5;4.8
"artsper societe";2;1;2;1;1;1;1;1;1;1;1;1
"bruno catalano prix sculptures";2;0.5;4;4;1;0.33333333333333;3;4;1;1;1;4
"dok artiste";2;0.66666666666667;3;1.6666666666667;1;1;1;1;0;0;1;1;1;1;1;3
"christine drummond";2;0.5;4;4;2;0.5;4;4
"benjamin spark prix";2;0.25;8;5;0;0;1;5;1;0.16666666666667;6;5;1;1;1;5
"christine barres";2;0.4;5;3;2;0.4;5;3
"speedy graphito";2;0.066666666666667;30;6.1;1;0.052631578947368;19;5.6315789473684;1;0.16666666666667;6;6.8333333333333;0;0;5;7
"alain beaubatier";2;1;2;2.5;1;1;1;3;1;1;1;2
capton;2;0.2;10;4;1;0.2;5;3.6;1;0.2;5;4.4
"vincent richeux";2;0.125;16;4.25;0;0;1;4;2;0.16666666666667;12;4;0;0;3;5.3333333333333
"guy ferrer";2;0.5;4;7;1;1;1;6;0;0;1;7;1;0.5;2;7.5
topolino;2;0.66666666666667;3;7.6666666666667;1;1;1;7;1;0.5;2;8
"crocodile rouge orlinski";2;0.5;4;3.75;2;0.5;4;3.75
fazzino;2;0.1;20;8.05;0;0;12;8.25;2;0.4;5;8.6
"yoel benharrouche";2;0.13333333333333;15;7.4666666666667;2;0.4;5;7;0;0;8;7.625;0;0;2;8
"claire bianchi";2;0.4;5;3;2;0.4;5;3
"chris morin eitner";2;0.66666666666667;3;3;1;1;1;3;0;0;1;3;1;1;1;3
"loulou picasso";1;0.2;5;4;1;0.25;4;4;0;0;1;4
"sculpture deesse";1;0.11111111111111;9;6;0;0;6;6;0;0;1;6;1;0.5;2;6
"fiscalité oeuvre d'art entreprise";1;1;1;3;1;1;1;3
"champy claude";1;1;1;6;1;1;1;6
"sculpture panthere";1;0.5;2;7;1;1;1;7;0;0;1;7
"jef aérosol";1;0.25;4;4.5;1;0.25;4;4.5
"john matos crash";1;0.5;2;3.5;1;1;1;4;0;0;1;3
"sculpture loup";1;0.16666666666667;6;7;1;0.2;5;7;0;0;1;7
"unik galerie";1;1;1;1;1;1;1;1
"tony soulie";1;0.33333333333333;3;3.3333333333333;1;1;1;4
"jean faucheur";1;0.16666666666667;6;6.3333333333333;1;0.33333333333333;3;6.6666666666667
"juliette clovis";1;0.25;4;3;0;0;1;3;1;1;1;3
villegle;1;0.071428571428571;14;3.9285714285714;0;0;1;4;1;0.083333333333333;12;4
"prix sculpture catalano";1;0.25;4;4;1;0.25;4;4
"chanoir graffiti";1;0.5;2;3;1;1;1;3;0;0;1;3
"benjamin carbonne";1;0.14285714285714;7;1;0;0;1;1;0;0;5;1;1;1;1;1
"street art chat";1;1;1;4;1;1;1;4
"john one peintre";1;0.5;2;3;1;0.5;2;3
"artiste murakami";1;0.5;2;2.5;1;1;1;3
"jean michel vador";1;0.25;4;2;1;0.25;4;2
"gilles capton";1;0.25;4;5;1;0.25;4;5
"cyril olanier";1;1;1;2;1;1;1;2
"michel le belhomme";1;0.33333333333333;3;4.3333333333333;1;0.5;2;4.5;0;0;1;4
"claudio locatelli";1;1;1;4;1;1;1;4
"marie taittinger";1;0.33333333333333;3;3;0;0;1;1;1;0.5;2;4
"catelain christophe";1;0.25;4;3.75;0;0;1;4;1;0.33333333333333;3;3.6666666666667
"chatte blonde";1;0.5;2;42;1;0.5;2;42
"cecile desserle";1;0.25;4;5;0;0;1;5;1;1;1;5;0;0;2;5
"sgarra robert";1;1;1;3;1;1;1;3
"cecile colombo";1;0.125;8;4.375;1;0.2;5;4;0;0;1;5;0;0;2;5
"david maheo";1;0.16666666666667;6;3;0;0;2;3;1;0.25;4;3
"guy mansuy";1;0.33333333333333;3;1;0;0;1;1;1;1;1;1
"aki kuroda peintre";1;1;1;3;1;1;1;3
"butz et fouque";1;0.5;2;1;1;0.5;2;1
"kool koor";1;0.058823529411765;17;3.4705882352941;1;0.076923076923077;13;3.3846153846154;0;0;4;3.75
"jeff aerosol";1;0.25;4;4.75;0;0;1;4;1;0.5;2;5;0;0;1;5
"duong le thai";1;0.25;4;4.75;0;0;2;5;1;0.5;2;4.5
"fernando costa cote";1;1;1;1;1;1;1;1
"gérard boudon sculpteur";1;0.33333333333333;3;9;1;0.5;2;8.5
"jonone galerie";1;0.33333333333333;3;5.3333333333333;1;0.33333333333333;3;5.3333333333333
"jonathan monk";1;1;1;9;1;1;1;9
"shepard fairey oeuvres";1;0.14285714285714;7;2.8571428571429;1;0.25;4;3.25
"thomas muller artiste";1;1;1;1;1;1;1;1
"jean-philippe berger";1;1;1;1;1;1;1;1
"eva jospin";1;0.047619047619048;21;6.0952380952381;1;0.076923076923077;13;5.5384615384615;0;0;7;7.1428571428571;0;0;1;6
"frederic prat";1;0.2;5;7;0;0;1;7;0;0;2;7;1;0.5;2;7
"tableau obey";1;0.5;2;1;1;0.5;2;1
"daniel paugam";1;0.33333333333333;3;7;0;0;1;7;1;0.5;2;7
"stéphane joannes";1;1;1;2;1;1;1;2
"joan longas";1;0.33333333333333;3;3;1;0.33333333333333;3;3
"galerie numéro 1";1;1;1;5;1;1;1;5
"soonja han artist";1;1;1;28;1;1;1;28
"sergio ferro";1;0.5;2;2;1;0.5;2;2
"artiste deesse";1;1;1;4;1;1;1;4
"charlotte lepelletier";1;0.5;2;2;1;0.5;2;2
"flexo zed";1;0.2;5;5.2;0;0;1;5;1;0.25;4;5.25
"fernando costa artiste";1;0.25;4;3;1;0.25;4;3
"izabeau jousse";1;0.33333333333333;3;2.3333333333333;0;0;1;3;1;0.5;2;2
kacere;1;0.5;2;10;1;1;1;9;0;0;1;11
"gerard schlosser";1;0.2;5;3.6;0;0;3;3.3333333333333;1;0.5;2;4
"annette messager";1;0.018181818181818;55;8.5272727272727;1;0.028571428571429;35;8.2571428571429;0;0;15;9;0;0;5;9
"ayline olukman";1;0.33333333333333;3;9.3333333333333;0;0;1;22;1;0.5;2;3
"lapierre eric";1;0.5;2;6.5;1;0.5;2;6.5
"zed artiste";1;0.5;2;2;1;0.5;2;2
"antoine de la boulaye";1;1;1;2;1;1;1;2
"alfredo lopez";1;0.33333333333333;3;8.3333333333333;1;0.5;2;9;0;0;1;7
"stephane gautier";1;0.090909090909091;11;4.2727272727273;1;0.2;5;4.4;0;0;5;4.2;0;0;1;4
"françois glineur peintre";1;1;1;2;1;1;1;2
"nue feminin";1;1;1;32;1;1;1;32
"peinture inca";1;0.25;4;3;1;0.25;4;3
"annette messager oeuvre";1;1;1;8;1;1;1;8
"jace gouzou vente";1;0.2;5;5.2;1;0.2;5;5.2
"benoit de carpentier";1;1;1;5;1;1;1;5
"arthur dorval";1;0.5;2;3.5;1;1;1;4
"olivier masmonteil peintre";1;1;1;5;1;1;1;5
"dan rawlings";1;1;1;2;1;1;1;2
kijno;1;1;1;30;1;1;1;30
"carlo nason";1;0.33333333333333;3;4;0;0;1;5;1;0.5;2;3.5
"michele destarac";1;1;1;4;1;1;1;4
villeglé;1;0.04;25;4.88;1;0.066666666666667;15;4.8;0;0;7;5;0;0;3;5
rancinan;1;0.125;8;6.625;0;0;5;6.8;1;1;1;7
triglia;1;0.33333333333333;3;6.6666666666667;1;0.33333333333333;3;6.6666666666667
"claire fahys";1;0.33333333333333;3;2;1;1;1;2;0;0;2;2
"julien grudzinski";1;0.33333333333333;3;2;0;0;2;2;1;1;1;2
"jonone prix";1;0.25;4;1;0;0;2;1;1;0.5;2;1
"investir dans l'art contemporain";1;1;1;10;1;1;1;10
"levalet artiste";1;0.5;2;4;1;0.5;2;4
"lassaad metoui biographie";1;0.5;2;5;0;0;1;5;1;1;1;5
"nick walker";1;0.14285714285714;7;5.4285714285714;0;0;1;5;1;0.5;2;5
"banksy oeuvres";1;0.018181818181818;55;8.5818181818182;1;0.052631578947368;19;9.0526315789474;0;0;12;9
"leo galamez";1;0.2;5;2;1;0.5;2;2
"claudy gielczynski peintre";1;1;1;1;1;1;1;1
"amateur lolita";1;0.5;2;133;1;0.5;2;133
"nathan chantob";1;0.2;5;2;1;0.5;2;2;0;0;1;2
"anne valérie dupond";1;0.25;4;9.5;1;0.33333333333333;3;9.6666666666667;0;0;1;9
chanoir;1;0.1;10;1;1;0.5;2;1;0;0;7;1;0;0;1;1
"julien calot peintre";1;1;1;1;1;1;1;1
hannaka;1;1;1;7;1;1;1;7
"denis robert artiste";1;0.090909090909091;11;3.5454545454545;1;0.11111111111111;9;3.6666666666667;0;0;2;3
"david sitbon";1;1;1;6;1;1;1;6
artspers;1;0.5;2;1;1;0.5;2;1
"hervé télémaque";1;0.25;4;6.5;1;0.25;4;6.5
"sculpture ours blanc";1;1;1;12;1;1;1;12
"david gerstein";1;0.1;10;3.3;0;0;2;3.5;1;0.5;2;3
"grégoire dalle";1;0.5;2;5;1;0.5;2;5
"peintre lamy";1;0.2;5;2.8;1;0.25;4;1;0;0;1;10
"patrick delaunay";1;0.2;5;2.8;1;0.5;2;2;0;0;3;3.3333333333333
"xavier jambon";1;0.33333333333333;3;4.6666666666667;1;1;1;4
"topolino peintre sete";1;0.33333333333333;3;2;1;0.33333333333333;3;2
"mathilde dauguet";1;1;1;2;1;1;1;2
"sunday b morning andy warhol";1;0.5;2;1;1;0.5;2;1
"olivier camen";1;0.5;2;1;1;0.5;2;1
"willy ronis biographie";1;1;1;8;1;1;1;8
"deesse artiste allemande";1;0.5;2;2;1;1;1;2;0;0;1;2
"eric bourguignon peintre";1;0.14285714285714;7;5.5714285714286;1;0.16666666666667;6;5.6666666666667
"lucien murat";1;0.071428571428571;14;6.9285714285714;1;0.11111111111111;9;6.2222222222222;0;0;1;6
"maxime frairot";1;0.5;2;4;1;0.5;2;4
"biographie eduardo kac";1;1;1;7;1;1;1;7
"combas robert";1;0.125;8;4.5;0;0;6;4.3333333333333;0;0;1;5;1;1;1;5
"georges platt lynes";1;0.5;2;6;1;0.5;2;6
"anaïs boudot";1;0.5;2;3;1;1;1;3;0;0;1;3
"pignon ernest";1;1;1;19;1;1;1;19
"francine van hove";1;0.125;8;7;1;0.125;8;7
"bahareh navabi";1;0.5;2;1;1;0.5;2;1
"philippe berry";1;0.0064102564102564;156;6.3525641025641;1;0.020833333333333;48;5.8125;0;0;76;6.5;0;0;32;6.8125
"marc laffolay";1;0.33333333333333;3;4.3333333333333;0;0;1;5;1;0.5;2;4
"peter klasen";1;0.1;10;3.9;1;0.14285714285714;7;3.7142857142857;0;0;2;4.5;0;0;1;4
layral;1;1;1;5;1;1;1;5
"monsieur chat";1;0.03448275862069;29;6.3448275862069;0;0;18;6.6111111111111;1;0.2;5;6
"shirley jaffe";1;0.14285714285714;7;3.5714285714286;1;0.16666666666667;6;3.5;0;0;1;4
"pierrot men";1;0.066666666666667;15;17.533333333333;1;1;1;28;0;0;7;16.142857142857
"achat oeuvre d'art entreprise";1;0.33333333333333;3;3;1;1;1;3;0;0;1;3;0;0;1;3
miss.tic;1;0.090909090909091;11;5.4545454545455;1;0.11111111111111;9;5.1111111111111;0;0;2;7
"olivier lelong";1;0.5;2;2;1;0.5;2;2
"chris morin-eitner";1;0.2;5;3;1;0.2;5;3
"julien durix";1;0.032258064516129;31;1.6451612903226;1;0.058823529411765;17;1.0588235294118;0;0;12;2.4166666666667;0;0;2;2
"raul diaz";1;1;1;3;1;1;1;3
"peinture tintin";1;0.5;2;6;1;0.5;2;6
risote;1;1;1;7;1;1;1;7
"lyvie de sutter";1;0.33333333333333;3;7;1;0.5;2;7;0;0;1;7
"emmanuel flipo";1;1;1;3;1;1;1;3
"louis blanc photographe";1;0.2;5;1;1;0.25;4;1
"arno elias";1;0.16666666666667;6;4.8333333333333;1;0.25;4;4.75;0;0;2;5
"eric peyret peintre";1;1;1;1;1;1;1;1
"laure fissore";1;0.33333333333333;3;5;1;0.5;2;6
"gordon hopkins prix";1;1;1;1;1;1;1;1
"nyaba léon ouedraogo";1;1;1;5;1;1;1;5
"lisa sartorio";1;0.33333333333333;3;8;1;0.5;2;8;0;0;1;8
"olivier courty";1;0.11111111111111;9;5.5555555555556;0;0;5;5.6;0;0;2;6;1;0.5;2;5
"andré nadal";1;1;1;3;1;1;1;3
"brigitte penicaud";1;0.25;4;5.25;0;0;1;5;0;0;1;6;1;0.5;2;5
"claude mollard";1;0.5;2;4;0;0;1;4;1;1;1;4
"alain clément";1;0.2;5;4.8;1;0.5;2;3.5;0;0;2;6.5;0;0;1;4
"yann houri";1;0.25;4;3.75;1;0.33333333333333;3;4
"ecloz rouen";1;0.5;2;4;1;0.5;2;4
"raymond moretti";1;1;1;16;1;1;1;16
"marie laure gerard becuwe";1;1;1;3;1;1;1;3
"angel ortiz";1;1;1;1;1;1;1;1
"naked potrait";1;1;1;4;1;1;1;4
"césar baldaccini";1;0.03030303030303;33;5.9090909090909;1;0.076923076923077;13;5.3846153846154;0;0;14;6.3571428571429;0;0;6;6
kouka;1;0.076923076923077;13;7.1538461538462;1;0.14285714285714;7;7.1428571428571;0;0;6;7.1666666666667
"gerhard doehler";1;1;1;4;1;1;1;4
"keith haring oeuvres";1;0.027777777777778;36;5.8055555555556;0;0;25;5.64;0;0;8;6.125;1;0.33333333333333;3;6.3333333333333
"amaury mulliez";1;0.16666666666667;6;4.8333333333333;1;0.5;2;4;0;0;3;5.6666666666667;0;0;1;4
"jean charles quillin";1;0.5;2;6;1;0.5;2;6
"banksy achat";1;0.5;2;2;0;0;1;2;1;1;1;2
"jace gouzou prix";1;0.2;5;8.4;1;0.2;5;8.4
"dussac peintre";1;1;1;4;1;1;1;4
"valérie hadida sculpture";1;0.33333333333333;3;2;1;0.5;2;2;0;0;1;2
"anais boudot";1;0.25;4;3;1;0.25;4;3
"maxime frairot peintre";1;1;1;4;1;1;1;4
"pierre lesage";1;1;1;10;1;1;1;10
"roch vandromme";1;0.33333333333333;3;5.6666666666667;1;0.33333333333333;3;5.6666666666667
"contemporary art club";1;1;1;3;1;1;1;3
"guillaume moschini";1;0.1;10;4.2;1;0.1;10;4.2
"mimi the clown";1;0.33333333333333;3;4.3333333333333;1;0.5;2;3;0;0;1;7
"tsuyu artiste";1;1;1;1;1;1;1;1
"juliette choné";1;0.5;2;4;1;0.5;2;4
"eric zambeaux";1;0.5;2;5;1;0.5;2;5
"romain lardanchet";1;0.16666666666667;6;6.3333333333333;1;0.16666666666667;6;6.3333333333333
"christian nesler";1;0.5;2;4;1;0.5;2;4
"christophe charbonnel prix";1;1;1;1;1;1;1;1
"benharrouche yoel peintre";1;0.5;2;8;1;1;1;8
"hugo laruelle";1;0.2;5;7;1;0.25;4;6.75
"nathalie d'henaut";1;1;1;5;1;1;1;5
"artsper galerie";1;1;1;1;1;1;1;1
"beatriz guzman catena";1;0.5;2;4;1;0.5;2;4
"thomas bossard";1;0.076923076923077;13;3.2307692307692;0;0;3;3;1;0.125;8;3.25
"lyle carbajal";1;0.2;5;3;0;0;3;3;1;0.5;2;3
"chris verkaemer";1;1;1;6;1;1;1;6
"léo galamez";1;1;1;2;1;1;1;2
"biographie de ernest pignon ernest";1;0.25;4;5;1;0.25;4;5
"alain vaissière";1;1;1;4;1;1;1;4
"hank china prix";1;0.5;2;1;1;0.5;2;1
"kathleen petyarre";1;0.16666666666667;6;29.833333333333;1;0.2;5;35;0;0;1;4
"eric lapierre artiste";1;1;1;1;1;1;1;1
"romain tichit";1;1;1;4;1;1;1;4
"francois bard";1;0.5;2;1;1;0.5;2;1
"olivia clavel";1;0.33333333333333;3;5;1;0.33333333333333;3;5
"on kawara oeuvres";0;0;1;7;0;0;1;7
"marc figueras";0;0;1;4;0;0;1;4
"sculpture oie";0;0;1;5;0;0;1;5
"sculpture en ligne";0;0;1;1;0;0;1;1
"araki livre";0;0;1;10;0;0;1;10
"cat soubbotnik";0;0;2;9;0;0;2;9
"martha cooper";0;0;1;15;0;0;1;15
saifou;0;0;5;10;0;0;5;10
gerbo;0;0;2;14.5;0;0;2;14.5
"patrick poirier";0;0;4;5.75;0;0;4;5.75
"toto mobile";0;0;1;30;0;0;1;30
"airoh france";0;0;1;59;0;0;1;59
"horaires piaget alain michal paris";0;0;1;89;0;0;1;89
"valérie vaubourg";0;0;1;7;0;0;1;7
"milo peintre";0;0;3;5.6666666666667;0;0;2;4;0;0;1;9
"galerie art en ligne";0;0;11;1;0;0;8;1;0;0;2;1;0;0;1;1
"godon alain";0;0;5;1;0;0;5;1
"art conceptuel disney";0;0;1;30;0;0;1;30
"oeuvres de jr";0;0;1;6;0;0;1;6
"philippe pasqua";0;0;35;6.3714285714286;0;0;17;5.7647058823529;0;0;14;7;0;0;4;6.75
"jeune busté";0;0;1;10;0;0;1;10
"miro sculpteur";0;0;1;8;0;0;1;8
"image zao";0;0;1;8;0;0;1;8
"schlosser peintre";0;0;2;5.5;0;0;2;5.5
artiane;0;0;3;3;0;0;3;3
"galerie de mars";0;0;17;7.4117647058824;0;0;14;7.2857142857143;0;0;3;8
chakra;0;0;1;291;0;0;1;291
"zhang wei";0;0;1;72;0;0;1;72
"ionesco oeuvres";0;0;2;9;0;0;2;9
"artiste erro";0;0;2;9;0;0;2;9
"serigraphie art contemporain";0;0;1;7;0;0;1;7
"vanité philippe pasqua";0;0;1;3;0;0;1;3
"street art jonone";0;0;2;2;0;0;1;2;0;0;1;2
"photo d'art noir et blanc";0;0;1;38;0;0;1;38
"art peinture";0;0;2;21.5;0;0;2;21.5
"benjamin deroche";0;0;3;5;0;0;2;5.5;0;0;1;4
"mr brainwash mural";0;0;1;5;0;0;1;5
akader;0;0;1;7;0;0;1;7
"peintre jean michel basquiat";0;0;1;14;0;0;1;14
"costa art";0;0;1;4;0;0;1;4
soubrette;0;0;1;119;0;0;1;119
"sculpture violon";0;0;3;5;0;0;3;5
"easy sacha";0;0;4;10;0;0;2;10;0;0;2;10
"pasqua philippe";0;0;4;6.75;0;0;1;6;0;0;1;7;0;0;2;7
"galerie d'art en ligne contemporain";0;0;3;1.3333333333333;0;0;3;1.3333333333333
"speedy graphito oeuvre";0;0;1;4;0;0;1;4
merienne;0;0;2;7;0;0;2;7
"galerie mondapart";0;0;1;5;0;0;1;5
"annina roescheisen";0;0;3;6;0;0;2;6;0;0;1;6
"fille pop art";0;0;1;6;0;0;1;6
"antoine mercusot";0;0;4;2;0;0;4;2
"baudoin lebon gallery";0;0;1;3;0;0;1;3
"oeuvre monumentale";0;0;2;6;0;0;2;6
"françois giraudeau";0;0;4;9;0;0;3;9;0;0;1;9
"envie d'art london";0;0;1;6;0;0;1;6
"peintre ben bella";0;0;1;2;0;0;1;2
ajee;0;0;2;6.5;0;0;2;6.5
"sculpture couple";0;0;1;34;0;0;1;34
iglesis;0;0;3;3;0;0;3;3
"nathalie dhenaut";0;0;1;5;0;0;1;5
"guy weladji";0;0;2;1.5;0;0;1;2;0;0;1;1
"champion morte";0;0;1;224;0;0;1;224
"scènes de ménage";0;0;2;69;0;0;2;69
"brigitte penicaud ceramiste";0;0;3;5;0;0;3;5
"rakel wajnberg";0;0;1;1;0;0;1;1
kyliss;0;0;1;1;0;0;1;1
"art contemporain";0;0;2;120.5;0;0;2;120.5
"brisson peinture";0;0;1;6;0;0;1;6
"hannah adamaszek";0;0;2;7;0;0;2;7
"sophie cavalié";0;0;1;3;0;0;1;3
m.chat;0;0;5;7.4;0;0;2;8;0;0;2;7;0;0;1;7
"haring keith oeuvres";0;0;1;9;0;0;1;9
"jerome mesnager cote";0;0;1;3;0;0;1;3
"cedric bacqueville";0;0;1;6;0;0;1;6
"jean pierre attal";0;0;6;6;0;0;2;6;0;0;3;6;0;0;1;6
"philippe berger";0;0;1;17;0;0;1;17
"vente d'art";0;0;4;1;0;0;2;1;0;0;2;1
"street art en france";0;0;1;58;0;0;1;58
dugave;0;0;1;7;0;0;1;7
"claire ge";0;0;1;5;0;0;1;5
"peter mc";0;0;1;5;0;0;1;5
"carl andre portrait";0;0;2;7;0;0;2;7
grisor;0;0;4;2.25;0;0;3;2.6666666666667;0;0;1;1
"achat peinture à l huile";0;0;1;92;0;0;1;92
"galerie d'art contemporain";0;0;2;4;0;0;1;4;0;0;1;4
"senorita rio";0;0;1;7;0;0;1;7
"bernard frize";0;0;1;38;0;0;1;38
"a nous paris";0;0;1;35;0;0;1;35
"peinture grecque contemporaine";0;0;1;10;0;0;1;10
"christine muller artiste peintre";0;0;1;5
"fabio coruzzi";0;0;2;8
"pierre dubrunquez";0;0;2;1.5;0;0;1;1
"peinture vache";0;0;3;23.666666666667;0;0;2;19.5;0;0;1;32
"renaud delorme";0;0;5;6.4;0;0;3;9.3333333333333;0;0;2;2
"christian zeimert";0;0;1;8;0;0;1;8
"photographe surréaliste";0;0;1;8;0;0;1;8
"alain godon";0;0;9;2.5555555555556;0;0;6;3.3333333333333;0;0;3;1
"la collégiale";0;0;1;7;0;0;1;7
"maya i";0;0;1;5;0;0;1;5
"kamel yahiaoui";0;0;1;8;0;0;1;8
simone;0;0;1;270;0;0;1;270
"gerard gallery";0;0;1;3;0;0;1;3
"vito hannibal acconci";0;0;1;63;0;0;1;63
4tag;0;0;1;5;0;0;1;5
"sculpture sculpture";0;0;1;9;0;0;1;9
"olivier catté";0;0;3;2.3333333333333;0;0;3;2.3333333333333
aïroh;0;0;1;3
"speedy grafito";0;0;2;7;0;0;2;7
"denis robert journaliste";0;0;1;43;0;0;1;43
"oswaldo guayasamin";0;0;2;8;0;0;1;8;0;0;1;8
"peter klasen oeuvres";0;0;1;1;0;0;1;1
"hervé di rosa oeuvres";0;0;1;5;0;0;1;5
"richard harper peintre";0;0;1;5;0;0;1;5
merrer;0;0;1;11;0;0;1;11
"thomas verny";0;0;1;1;0;0;1;1
"alain rivière";0;0;1;9;0;0;1;9
"tom wesselmann";0;0;14;6.4285714285714;0;0;10;6.3;0;0;1;5;0;0;3;7.3333333333333
"tableau collioure";0;0;1;88
"marbre bleu du bresil";0;0;1;41;0;0;1;41
"galerie art france";0;0;1;28;0;0;1;28
"art a vendre";0;0;1;1;0;0;1;1
"schneider jean pierre";0;0;2;7;0;0;2;7
"vente oeuvre d art";0;0;1;1;0;0;1;1
lemoduledezeer;0;0;2;4;0;0;1;4;0;0;1;4
"papillon crane";0;0;1;4
"denis robert art";0;0;3;3
"jeremy royer";0;0;1;7;0;0;1;7
"peinture combas";0;0;1;6;0;0;1;6
"3 cerises sur une étagère";0;0;1;3;0;0;1;3
"k haring oeuvre";0;0;1;6;0;0;1;6
"peinture art contemporain";0;0;5;2.8;0;0;1;2;0;0;1;3
"sibylle baltzer";0;0;1;4;0;0;1;4
"joan miro oeuvre";0;0;3;11
"levy samuel";0;0;1;11;0;0;1;11
"ivan tzonev";0;0;1;2
"étienne rey";0;0;1;7
"kongo artiste";0;0;2;9
"peinture full moon";0;0;4;8;0;0;2;8;0;0;1;8
"john crash";0;0;1;4;0;0;1;4
"maurice renoma";0;0;7;4.5714285714286;0;0;5;3.2;0;0;2;8
"jean michel basquiat biographie";0;0;2;9
"super mimi";0;0;3;9.3333333333333
"poes graffiti";0;0;2;7;0;0;2;7
pigeau;0;0;1;1
"toile peinture moderne";0;0;1;96
"hotel moschini";0;0;1;179
"mail nude";0;0;1;7;0;0;1;7
"gautier deblonde atelier";0;0;1;4
"tom wesselmann nature morte";0;0;1;25
"nathalie de frouville";0;0;1;17
"gilles de beauchene";0;0;1;6;0;0;1;6
"signification de nadine";0;0;1;75
"césar oeuvres";0;0;2;4;0;0;1;4
"speedy graphito prix";0;0;2;2;0;0;2;2
"tilt toulouse";0;0;1;9;0;0;1;9
"peinture art";0;0;2;29.5;0;0;2;29.5
"audoin desforges";0;0;7;6.1428571428571;0;0;7;6.1428571428571
henriksen;0;0;1;9;0;0;1;9
"achat paper board";0;0;6;39.666666666667;0;0;6;39.666666666667
"stéphanie guglielmetti";0;0;1;6;0;0;1;6
"prix des oeuvres d'art";0;0;1;17;0;0;1;17
"oeuvre d'art originale";0;0;4;2;0;0;4;2
"olivia clavel peintre";0;0;1;2;0;0;1;2
"robert smith the cure";0;0;1;42;0;0;1;42
"street sculpture";0;0;1;7;0;0;1;7
"galerie honfleur";0;0;2;35;0;0;2;35
ferniest;0;0;1;224;0;0;1;224
exhibe;0;0;3;81;0;0;2;85;0;0;1;73
"vente tampax";0;0;2;20.5;0;0;2;20.5
"gilles desrozier";0;0;1;9;0;0;1;9
"as i opened fire";0;0;4;6;0;0;3;5.6666666666667;0;0;1;7
"argentic galerie";0;0;2;6;0;0;1;6;0;0;1;6
"oeuvres du 21eme siecle";0;0;1;5;0;0;1;5
"art vente";0;0;2;1;0;0;2;1
"hanae sabir";0;0;1;1;0;0;1;1
"fernando costa";0;0;14;4.4285714285714;0;0;8;4;0;0;5;5;0;0;1;5
moiras;0;0;1;16;0;0;1;16
"alfonse dagada";0;0;1;4;0;0;1;4
"artiste peintre saint etienne";0;0;1;28;0;0;1;28
"chris morin";0;0;1;3;0;0;1;3
"desserle cecile";0;0;3;5;0;0;1;5;0;0;2;5
"bob achat";0;0;1;23;0;0;1;23
"carl andré oeuvres";0;0;3;3;0;0;3;3
"troy henriksen prix";0;0;3;1;0;0;3;1
"kenny scharf";0;0;1;93;0;0;1;93
"pablito zago";0;0;5;6.6;0;0;2;7;0;0;2;6;0;0;1;7
"sophie morisse";0;0;1;4;0;0;1;4
"damien hirst exposition";0;0;1;47;0;0;1;47
"sculpture contemporaine resine";0;0;3;2.3333333333333;0;0;3;2.3333333333333
"ou est ma part";0;0;1;6;0;0;1;6
moz;0;0;1;33;0;0;1;33
"l'homme jaune";0;0;1;4;0;0;1;4
"sculpture tube";0;0;1;9;0;0;1;9
"greenwood gallery";0;0;3;8.3333333333333;0;0;2;8;0;0;1;9
sculprure;0;0;1;4;0;0;1;4
infinissable;0;0;2;8;0;0;2;8
leadouze;0;0;1;3;0;0;1;3
"cailloux décoratifs";0;0;1;40;0;0;1;40
"mr brainwash obama";0;0;1;4;0;0;1;4
"oeuvre nils udo";0;0;1;7;0;0;1;7
"franck loisel";0;0;1;74;0;0;1;74
"orlan peintre";0;0;1;6;0;0;1;6
fly;0;0;2;9;0;0;1;10;0;0;1;8
"jieun park";0;0;1;8;0;0;1;8
"nicolas fremion";0;0;4;1;0;0;4;1
"drouet jean marie";0;0;2;4;0;0;2;4
"agnès baillon";0;0;1;8;0;0;1;8
"artiste obey";0;0;1;4;0;0;1;4
fotofever;0;0;1;4;0;0;1;4
"galerie d art en ligne";0;0;1;1;0;0;1;1
"pam black";0;0;1;9;0;0;1;9
"clement denis peintre";0;0;8;2;0;0;1;2;0;0;7;2
"galerie gabel biot";0;0;1;5;0;0;1;5
adoubement;0;0;1;106;0;0;1;106
"alex folla";0;0;1;5;0;0;1;5
"heiner meyer";0;0;1;3;0;0;1;3
"superman andy warhol";0;0;1;9;0;0;1;9
"street art shop";0;0;1;31;0;0;1;31
"marco barbon";0;0;2;8;0;0;2;8
"marine cattaneo";0;0;1;7;0;0;1;7
mchat;0;0;4;10;0;0;3;9.6666666666667;0;0;1;11
"isabelle cochereau";0;0;2;8;0;0;2;8
"nuances et lumiere";0;0;5;3.4;0;0;1;3;0;0;2;4;0;0;2;3
rds;0;0;1;82;0;0;1;82
"photographe belge contemporain";0;0;2;10;0;0;2;10
"tableau felin";0;0;1;18;0;0;1;18
"peinture tornade";0;0;1;2;0;0;1;2
malysse;0;0;1;11;0;0;1;11
"punky pink";0;0;1;10;0;0;1;10
"huang yan";0;0;2;51;0;0;2;51
"françoise gaujour";0;0;1;6;0;0;1;6
"deesse artiste";0;0;1;6;0;0;1;6
"jm robert";0;0;6;2;0;0;2;2;0;0;1;2;0;0;3;2
"mark jenkins";0;0;15;9.5333333333333;0;0;7;9;0;0;4;10;0;0;4;10
"galerie de nue";0;0;1;41;0;0;1;41
"bernard pras artiste";0;0;1;2;0;0;1;2
"galerie duret";0;0;4;3.5;0;0;2;3;0;0;2;4
"jonone street art";0;0;3;3;0;0;2;3;0;0;1;3
"sortez du cadre";0;0;1;27;0;0;1;27
"the french art studio";0;0;21;4.0952380952381;0;0;21;4.0952380952381
"gérard alary";0;0;1;5;0;0;1;5
"jacques villeglé affiches";0;0;2;3.5;0;0;2;3.5
rauzier;0;0;1;10;0;0;1;10
"galerie rollin rouen";0;0;1;48;0;0;1;48
"jean christophe ballot";0;0;2;6.5;0;0;2;6.5
"sculpture gorille";0;0;2;7.5;0;0;1;7;0;0;1;8
naked;0;0;1;259;0;0;1;259
"mark jenkins oeuvre";0;0;3;2;0;0;3;2
"biographie takashi murakami";0;0;2;3;0;0;1;3;0;0;1;3
"isabel espinoza";0;0;2;2;0;0;2;2
tirilly;0;0;1;20;0;0;1;20
"schlosser gerard";0;0;1;5;0;0;1;5
"franck fanon";0;0;1;11;0;0;1;11
"eric bourguignon";0;0;10;8.2;0;0;4;8.5;0;0;6;8
"sylvie fleury artiste";0;0;1;3;0;0;1;3
"photographie d'art noir et blanc";0;0;2;44;0;0;2;44
"petra danseuse etoile";0;0;4;3;0;0;4;3
"jeanne lorioz";0;0;1;3;0;0;1;3
"didier avril";0;0;3;5.3333333333333;0;0;2;5;0;0;1;6
"jeff aérosol";0;0;1;5;0;0;1;5
"franklinia alatamaha";0;0;1;38;0;0;1;38
"nom artiste contemporain";0;0;1;3;0;0;1;3
besher;0;0;1;3;0;0;1;3
"vente insectes";0;0;1;308;0;0;1;308
"hélène duclos";0;0;3;8.6666666666667;0;0;1;7;0;0;1;11;0;0;1;8
"clément cogitore";0;0;1;47;0;0;1;47
"francky boy";0;0;2;10;0;0;2;10
"vente art contemporain";0;0;5;1;0;0;4;1;0;0;1;1
"georges braque";0;0;1;137;0;0;1;137
"julien raynaud";0;0;1;5;0;0;1;5
"dubuffet oeuvres";0;0;6;5.5;0;0;3;5;0;0;1;6;0;0;2;6
"guillaume guerin biographie";0;0;2;6;0;0;2;6
"les oeuvres de raphael";0;0;1;39;0;0;1;39
"jean michel basquiat";0;0;2;138.5;0;0;2;138.5
"lievre des neiges";0;0;1;10;0;0;1;10
"liberty gallery";0;0;1;5;0;0;1;5
"rivers stores in brisbane";0;0;1;240;0;0;1;240
"feminin nude";0;0;1;8;0;0;1;8
"carl andre";0;0;8;6.375;0;0;7;6.2857142857143;0;0;1;7
"patrick guidot";0;0;1;6;0;0;1;6
"art jingle";0;0;6;4.8333333333333;0;0;1;4;0;0;3;5;0;0;2;5
"laetitia x";0;0;1;20;0;0;1;20
"spark peinture";0;0;1;8;0;0;1;8
"alex katz oeuvres";0;0;4;2.75;0;0;1;2;0;0;3;3
"achat tong";0;0;1;36;0;0;1;36
"david monllor";0;0;4;3;0;0;1;3;0;0;3;3
"narcose serie";0;0;1;10;0;0;1;10
"les survivants yan pei ming";0;0;1;8;0;0;1;8
"bernard pras biographie";0;0;1;2;0;0;1;2
"majoub ben bella";0;0;1;4;0;0;1;4
"marc josse";0;0;8;10.375;0;0;2;11;0;0;2;9.5;0;0;4;10.5
deblonde;0;0;1;3;0;0;1;3
"jacques verdier artiste";0;0;3;3.6666666666667;0;0;2;4;0;0;1;3
"pique nique peinture";0;0;1;6;0;0;1;6
"pastel 2";0;0;1;8;0;0;1;8
"peinture favelas";0;0;1;8;0;0;1;8
"ipso france";0;0;2;33.5;0;0;2;33.5
"sgarra peintre";0;0;1;3;0;0;1;3
"matt devine";0;0;1;47;0;0;1;47
"shaka artiste";0;0;1;6;0;0;1;6
"bernard fievre";0;0;1;6;0;0;1;6
"françoise pétrovitch";0;0;2;7;0;0;2;7
"galerie filles nues noir et blancs";0;0;1;37;0;0;1;37
"art vente en ligne";0;0;3;2;0;0;3;2
crocqs;0;0;1;45;0;0;1;45
"alexandre de poplavsky";0;0;1;6;0;0;1;6
"murakami peintre";0;0;6;4;0;0;2;4;0;0;4;4
"andy warhol oeuvres";0;0;1;19;0;0;1;19
"saint emilion";0;0;1;300;0;0;1;300
"pierre francois grimaldi";0;0;3;3;0;0;3;3
"vendre oeuvre d'art";0;0;1;1;0;0;1;1
bouclier;0;0;1;286;0;0;1;286
"biographie de jean dubuffet";0;0;1;4;0;0;1;4
"oeuvre d'art a vendre";0;0;3;1;0;0;1;1;0;0;1;1;0;0;1;1
"laurent roux";0;0;1;24;0;0;1;24
"florent chopin";0;0;1;6;0;0;1;6
"hideka tonomura";0;0;4;2;0;0;4;2
"expo street art lyon";0;0;1;84;0;0;1;84
"galerie art 83";0;0;1;2;0;0;1;2
"m. chat";0;0;5;7.2;0;0;3;8;0;0;2;6
"galeries art";0;0;2;6;0;0;2;6
artper;0;0;3;1.3333333333333;0;0;3;1.3333333333333
"philippe brosse";0;0;3;8;0;0;3;8
"jana & js";0;0;4;7.5;0;0;2;7;0;0;2;8
"sidorowicz hanna";0;0;1;6;0;0;1;6
"miro oeuvres";0;0;2;6;0;0;1;11;0;0;1;1
"pierre et gilles biographie";0;0;1;8
"chat peintre";0;0;1;5;0;0;1;5
"steven siegel";0;0;1;5;0;0;1;5
"vente tzarina aucun";0;0;1;12;0;0;1;12
"liu bolin sculpture";0;0;1;3;0;0;1;3
"anti artiste";0;0;1;5;0;0;1;5
"murielle belin";0;0;3;4.3333333333333;0;0;1;4;0;0;2;4.5
"snoopy ski";0;0;2;5;0;0;1;2;0;0;1;8
"j m robert";0;0;1;2;0;0;1;2
"charles thiefaine";0;0;1;5;0;0;1;5
"michel dubois peintre";0;0;1;5;0;0;1;5
"pierre fava";0;0;3;3;0;0;2;3;0;0;1;3
miss-tic;0;0;1;5;0;0;1;5
"bailly maitre grand";0;0;1;10;0;0;1;10
"caroline poulet";0;0;3;4.6666666666667;0;0;2;4;0;0;1;6
"edouard mazaré";0;0;1;4
"combas peintre";0;0;11;4.5454545454545;0;0;8;4.375;0;0;3;5
"compression de cesar";0;0;1;10;0;0;1;10
monlor;0;0;1;8;0;0;1;8
"statue art moderne";0;0;4;2;0;0;3;2;0;0;1;2
"galerie leadouze";0;0;3;3.3333333333333;0;0;1;2;0;0;1;4;0;0;1;4
"art en entreprise";0;0;1;38;0;0;1;38
"seen street art";0;0;1;5;0;0;1;5
"peintre van hove";0;0;1;11;0;0;1;11
"florence d'elle";0;0;2;9;0;0;1;10;0;0;1;8
"musées d'art à chattanooga";0;0;3;53.333333333333
fkdl;0;0;16;4.5;0;0;1;4;0;0;14;4.3571428571429;0;0;1;7
"photo d'art en ligne";0;0;1;4;0;0;1;4
"mr md";0;0;1;4;0;0;1;4
"claude levêque";0;0;1;9;0;0;1;9
"art life gallery";0;0;1;8;0;0;1;8
"galerie art";0;0;9;9.7777777777778;0;0;2;11;0;0;3;11;0;0;4;8.25
"oleary library";0;0;1;333
"femme en bas de soie";0;0;3;38;0;0;3;38
"galerie ligne treize";0;0;1;38;0;0;1;38
"carl andré";0;0;8;6.625;0;0;7;6.5714285714286;0;0;1;7
"aki kuroda prix";0;0;1;2;0;0;1;2
"tanc artiste";0;0;1;4;0;0;1;4
"louis stettner photos";0;0;1;8;0;0;1;8
"dubuffet peintre";0;0;1;10;0;0;1;10
"elizabeth gourlay";0;0;1;21
"caroline veille";0;0;1;19;0;0;1;19
mitrofano;0;0;1;10;0;0;1;10
"maxime boubekeur";0;0;1;29;0;0;1;29
"antigone peinture";0;0;1;7;0;0;1;7
"massimo vitali vente";0;0;1;12;0;0;1;12
obam;0;0;1;82;0;0;1;82
"thoma ryse";0;0;2;8
d'art;0;0;2;10.5;0;0;1;10;0;0;1;11
"appliques décoratives";0;0;1;341;0;0;1;341
"philippe binder";0;0;1;4;0;0;1;4
"timothée talard";0;0;1;4;0;0;1;4
zenoy;0;0;3;4;0;0;1;4;0;0;2;4
"francois morelet";0;0;1;9;0;0;1;9
"joseph kfoury";0;0;1;10;0;0;1;10
"richard di rosa";0;0;2;3;0;0;2;3
"carole benichou artiste";0;0;2;3.5;0;0;2;3.5
"robert sgarra";0;0;1;1;0;0;1;1
"papier beaux arts";0;0;1;97;0;0;1;97
"galerie brugier";0;0;2;6;0;0;1;6;0;0;1;6
"art entreprise";0;0;1;5
lokiss;0;0;4;10;0;0;3;10;0;0;1;10
"oeuvre de keith haring";0;0;1;6;0;0;1;6
"miss tie";0;0;2;5;0;0;2;5
"philippe pasqua prix";0;0;1;1;0;0;1;1
"peintre combas";0;0;3;3.3333333333333;0;0;3;3.3333333333333
wesselman;0;0;1;8;0;0;1;8
"galerie bettina";0;0;71;6.5633802816901;0;0;18;7.1666666666667;0;0;18;7
"peinture artistique";0;0;2;51;0;0;2;51
"frédéric garnier";0;0;1;26
"hedva ser";0;0;3;7;0;0;1;7;0;0;1;7
"leveque claude";0;0;1;7
"galerie street art lyon";0;0;2;45.5;0;0;2;45.5
"achat jambon";0;0;1;74
"jerome menager";0;0;1;5;0;0;1;5
"aline robin";0;0;3;5
"karl lagasse";0;0;8;3.75;0;0;4;3.75;0;0;4;3.75
"seen artiste";0;0;3;1.6666666666667;0;0;2;2
"christine mathieu photographe";0;0;1;10
"oeuvres de banksy";0;0;5;7.4;0;0;5;7.4
"jean-michel basquiat prix tableau";0;0;1;4;0;0;1;4
"orlan œuvres d'art";0;0;1;5
"oeuvre d'art en ligne";0;0;2;1;0;0;1;1
"tof vanmarque";0;0;2;3;0;0;1;4
"lamy artiste peintre";0;0;1;8;0;0;1;8
"monsieur chat street art";0;0;1;5;0;0;1;5
"serge labégorre";0;0;1;7;0;0;1;7
klazen;0;0;1;3;0;0;1;3
"galerie belgique";0;0;1;2;0;0;1;2
mrsex;0;0;4;16.25;0;0;2;14.5;0;0;2;18
"intime art";0;0;1;6;0;0;1;6
"wesselman tom";0;0;1;13
"david mesguich";0;0;1;6
"carole benzaken";0;0;1;61
"jingdong france";0;0;3;9.6666666666667;0;0;3;9.6666666666667
"crash john matos";0;0;1;3
"peinture pique nique";0;0;1;6;0;0;1;6
"rot robert";0;0;1;10;0;0;1;10
fava;0;0;1;42;0;0;1;42
"achat peinture huile";0;0;1;91;0;0;1;91
"peinture imagine";0;0;2;9;0;0;2;9
"barres peintre";0;0;1;3;0;0;1;3
"shepard fairey (obey)";0;0;1;8;0;0;1;8
"oeuvre banksy";0;0;3;9;0;0;1;8;0;0;2;9.5
"artiste contemporain photographie";0;0;1;1;0;0;1;1
"tony franck";0;0;2;7;0;0;2;7
"francoise danel";0;0;1;2;0;0;1;2
"david ratcliff";0;0;1;7;0;0;1;7
"ren hang";0;0;13;10;0;0;5;10;0;0;6;10;0;0;2;10
"alain vaissiere peintre";0;0;1;4;0;0;1;4
"eric vernhes";0;0;3;7.3333333333333;0;0;2;6;0;0;1;10
"vente trampoline";0;0;2;58;0;0;2;58
"bicha gallery";0;0;1;48;0;0;1;48
"charles fazzino";0;0;12;5;0;0;5;4.6;0;0;6;5.3333333333333;0;0;1;5
"arnaud puig";0;0;1;4;0;0;1;4
"acheter du street art";0;0;2;4;0;0;1;4;0;0;1;4
"peinture simpson";0;0;1;6;0;0;1;6
"speedy graphito cote prix";0;0;1;3;0;0;1;3
"liechtenstein museum of fine arts";0;0;1;229;0;0;1;229
"photographe gursky";0;0;3;10;0;0;2;10;0;0;1;10
"office du tourisme dinard";0;0;1;13;0;0;1;13
"photo d'art moderne";0;0;1;2;0;0;1;2
"dok graffiti";0;0;1;4;0;0;1;4
"pierre fava peintre";0;0;2;6.5;0;0;1;6;0;0;1;7
"cecile charron";0;0;1;5;0;0;1;5
"chat street art";0;0;1;4;0;0;1;4
"julie hauer";0;0;1;5;0;0;1;5
kikayou;0;0;2;2.5;0;0;1;3;0;0;1;2
"gwen marseille";0;0;1;5;0;0;1;5
"galerie miss tic";0;0;1;3;0;0;1;3
"takala photographe";0;0;1;6;0;0;1;6
"clement denis";0;0;2;4.5;0;0;1;4;0;0;1;5
"albert chubac";0;0;1;4;0;0;1;4
"guillaume piéchaud";0;0;1;3;0;0;1;3
"judith guion";0;0;1;3;0;0;1;3
fourbe;0;0;1;155;0;0;1;155
"philippe favier";0;0;1;9;0;0;1;9
"lucile callegari";0;0;6;5.5;0;0;3;5.3333333333333
"mimi le clown";0;0;4;6;0;0;4;6
"david gerstein prix";0;0;1;1;0;0;1;1
"crocodile sculpture";0;0;2;6;0;0;2;6
"murakami artiste";0;0;2;4.5;0;0;1;5;0;0;1;4
"ernest pignon-ernest";0;0;1;16;0;0;1;16
"agnes baudet";0;0;1;5;0;0;1;5
"i belong to you oeuvre d'arts";0;0;1;12;0;0;1;12
"robert barry";0;0;2;8;0;0;2;8
"hotel cambrai paris";0;0;1;192;0;0;1;192
"bagage homme blanc";0;0;1;18;0;0;1;18
"oeuvres d'art originales";0;0;1;5;0;0;1;5
"erwann tirilly";0;0;1;7;0;0;1;7
"clarisse rebotier";0;0;3;10;0;0;2;10;0;0;1;10
"envie d'art paris";0;0;1;4;0;0;1;4
"shinbashi hotel";0;0;1;195;0;0;1;195
"olivier catte";0;0;5;2;0;0;5;2
ideelart;0;0;1;3;0;0;1;3
"kiss a wookie";0;0;1;9;0;0;1;9
"aykaz arzumanyan";0;0;4;3;0;0;2;3;0;0;2;3
"jeune artiste";0;0;2;8;0;0;2;8
"l'homme en mouvement histoire des arts";0;0;2;4;0;0;2;4
"susanne stemmer";0;0;1;8;0;0;1;8
sadashiv;0;0;1;10;0;0;1;10
"mel ramos";0;0;3;4;0;0;1;3;0;0;1;4;0;0;1;5
"sculpteur cesar";0;0;6;9.1666666666667;0;0;3;8.3333333333333;0;0;3;10
"virginie barrou planquart";0;0;1;19;0;0;1;19
"gallerie bettina";0;0;5;6.6;0;0;2;6;0;0;3;7
"patrick marin";0;0;3;6;0;0;3;6
"patrick naggar";0;0;1;8;0;0;1;8
"jr oeuvre";0;0;2;6;0;0;2;6
"vente tableau art contemporain";0;0;1;1;0;0;1;1
"art diffusion";0;0;3;9.3333333333333;0;0;2;9;0;0;1;10
"bram van velde";0;0;1;22;0;0;1;22
"raphael denis";0;0;2;4.5;0;0;2;4.5
lorioz;0;0;1;7;0;0;1;7
"erin cone";0;0;2;7;0;0;2;7
"exposition lyon street art";0;0;1;95;0;0;1;95
"jamie hewlett";0;0;2;35;0;0;2;35
"charlelie couture peinture";0;0;3;2.6666666666667;0;0;2;3;0;0;1;2
"chantob nathan";0;0;1;1;0;0;1;1
"francois poulat";0;0;1;5;0;0;1;5
"vinz feel free";0;0;3;37.666666666667;0;0;3;37.666666666667
"photographie art moderne";0;0;1;4;0;0;1;4
sculpturee;0;0;1;5;0;0;1;5
"gregos street art";0;0;2;5;0;0;2;5
"valérie marty";0;0;1;10;0;0;1;10
klasen;0;0;2;4.5;0;0;2;4.5
"jean faucheur artiste";0;0;2;6;0;0;1;6;0;0;1;6
"jean-françois jonvelle";0;0;3;10.666666666667;0;0;3;10.666666666667
"galerie numero 1";0;0;3;7.6666666666667;0;0;1;3;0;0;2;10
"jean dubuffet œuvres d'art";0;0;1;5;0;0;1;5
danze;0;0;2;9;0;0;2;9
"pierre marie brisson artist";0;0;1;3;0;0;1;3
"peinture charlelie couture";0;0;1;2
"cousinade forcalquier";0;0;4;37.75;0;0;4;37.75
"achat oeuvre d'art";0;0;3;1;0;0;2;1;0;0;1;1
"galerie urbaine";0;0;5;4.6;0;0;5;4.6
"oeuvres banksy";0;0;1;8;0;0;1;8
"di rosa peintre";0;0;11;4.6363636363636;0;0;4;4;0;0;7;5
"stéphane gautier";0;0;3;6;0;0;3;6
"ernest pignon ernest biographie";0;0;1;7;0;0;1;7
"jean-pierre nadau";0;0;6;1;0;0;6;1
"john kacere";0;0;7;10.571428571429;0;0;3;10;0;0;3;11;0;0;1;11
"photographie art";0;0;4;26;0;0;4;26
"van hove peintre";0;0;1;10;0;0;1;10
"gilles aillaud oeuvres";0;0;1;5;0;0;1;5
"oeuvres d'art";0;0;7;6.2857142857143;0;0;5;7.2;0;0;2;4
"maria rivans";0;0;1;7;0;0;1;7
"tilt graffiti artist";0;0;1;39;0;0;1;39
"l art de la rue";0;0;1;9;0;0;1;9
brugier;0;0;2;8;0;0;2;8
"peintre jonone";0;0;1;4;0;0;1;4
"galerie maison dauphine";0;0;2;4.5;0;0;2;4.5
"roberto matta";0;0;2;161.5;0;0;1;165;0;0;1;158
"peintre rosa";0;0;1;11;0;0;1;11
"anne lacouture";0;0;3;4;0;0;2;4;0;0;1;4
"banksy oeuvre";0;0;7;8;0;0;5;8;0;0;2;8
"artistes sculpteurs contemporains";0;0;1;5;0;0;1;5
shigong;0;0;2;3;0;0;2;3
"philippe parreno biographie";0;0;2;4;0;0;2;4
"la fratrie artiste";0;0;1;6;0;0;1;6
"mahé boissel";0;0;1;4;0;0;1;4
"patrick naggar peintre";0;0;1;4;0;0;1;4
"eduardo chillida oeuvres";0;0;1;5;0;0;1;5
sculture;0;0;20;6.5;0;0;11;7.5454545454545;0;0;4;5.25;0;0;5;5.2
"aillaud peintre";0;0;1;7;0;0;1;7
"fond rouge noir";0;0;1;26;0;0;1;26
"ladislas kijno";0;0;1;39;0;0;1;39
"oeuvre art banksy";0;0;2;7;0;0;1;7;0;0;1;7
"gilles aillaud biographie";0;0;2;4;0;0;2;4
"toxic graffiti";0;0;1;3;0;0;1;3
rabarama;0;0;2;8;0;0;2;8
"akiza galerie";0;0;2;8.5;0;0;1;8;0;0;1;9
13517;0;0;1;6;0;0;1;6
shup;0;0;4;7.75;0;0;1;10;0;0;3;7
"emmanuel pons";0;0;1;7;0;0;1;7
"king of freedom";0;0;1;9;0;0;1;9
"femme artiste contemporaine";0;0;1;35;0;0;1;35
"yaacov agam oeuvres";0;0;2;8;0;0;2;8
"murakami oeuvre";0;0;2;2.5;0;0;1;2;0;0;1;3
"eva jospin biographie";0;0;1;4;0;0;1;4
"vivian maier";0;0;3;19.333333333333;0;0;3;19.333333333333
"la chapelle photo";0;0;1;8;0;0;1;8
"galerie brugier rigail";0;0;1;6;0;0;1;6
"jacques renoir";0;0;3;6.6666666666667;0;0;2;6.5;0;0;1;7
"vente collioure le seris 2002";0;0;1;42;0;0;1;42
"hako suisse";0;0;1;38;0;0;1;38
"anti street art";0;0;1;3;0;0;1;3
orgy;0;0;1;17;0;0;1;17
"zao wou ki oeuvres";0;0;2;16.5;0;0;2;16.5
"galerie art moderne";0;0;1;3;0;0;1;3
raynaud;0;0;1;50;0;0;1;50
"robert mapplethorpe biographie";0;0;1;2;0;0;1;2
"julien calot";0;0;1;2;0;0;1;2
"artiste india";0;0;1;6;0;0;1;6
"françois houtin";0;0;1;1;0;0;1;1
"arnaud franc";0;0;1;2;0;0;1;2
mp-262;0;0;1;8;0;0;1;8
"pop art tom wesselmann";0;0;1;5;0;0;1;5
"oeuvre d'art unique";0;0;3;1;0;0;3;1
"acheter art contemporain";0;0;3;1;0;0;2;1;0;0;1;1
"nurcan giz";0;0;1;8;0;0;1;8
"art life 2";0;0;1;4;0;0;1;4
"galeries d'art en ligne";0;0;1;1;0;0;1;1
"quik street art";0;0;1;7;0;0;1;7
"art contemporain galerie";0;0;1;6;0;0;1;6
"galerie sculpture contemporaine";0;0;1;1;0;0;1;1
"alejandra eggleton";0;0;1;33;0;0;1;33
"jean paul barray";0;0;1;5;0;0;1;5
"brack peintre";0;0;1;7;0;0;1;7
"henni alftan";0;0;2;5;0;0;2;5
"guyomard sylvie facebook";0;0;4;7;0;0;4;7
"jaké artiste";0;0;1;4;0;0;1;4
"miss toc";0;0;3;7;0;0;3;7
"moya metz";0;0;1;58;0;0;1;58
"multiple store";0;0;1;8;0;0;1;8
"basquiat artiste";0;0;1;7;0;0;1;7
levalet;0;0;8;6.25;0;0;7;6.2857142857143;0;0;1;6
"sculpture monumentale biot";0;0;2;2;0;0;2;2
"sculpture crocodile";0;0;2;2;0;0;1;2;0;0;1;2
"kiddy citny";0;0;3;5;0;0;3;5
"valérie hadida";0;0;2;2;0;0;2;2
"nathalie deshairs";0;0;1;3;0;0;1;3
"patrick loste artiste peintre";0;0;1;8;0;0;1;8
"macbeth peinture";0;0;2;10;0;0;2;10
"graffeur tilt";0;0;1;6;0;0;1;6
"affiche perrier";0;0;2;16.5;0;0;2;16.5
"pierre riba sculpteur";0;0;1;3;0;0;1;3
"valerie dupond";0;0;15;8;0;0;15;8
"gregory vigier";0;0;1;4;0;0;1;4
"yutao ge";0;0;2;1;0;0;2;1
"klasen peter";0;0;1;4;0;0;1;4
zalez;0;0;2;72.5;0;0;1;140;0;0;1;5
"richard orlinski prix panthere";0;0;2;6;0;0;2;6
"galerie wallpepper";0;0;3;4.6666666666667;0;0;2;3;0;0;1;8
"vente art en ligne";0;0;6;1;0;0;6;1
"toile peinture grand format";0;0;1;59;0;0;1;59
"artiste contemporain anglais";0;0;1;45;0;0;1;45
"cesar art";0;0;1;6;0;0;1;6
"papier beaux-arts";0;0;1;94;0;0;1;94
"mechanic art";0;0;6;6.8333333333333;0;0;2;7;0;0;1;6;0;0;3;7
"franck mercky";0;0;3;3;0;0;1;3;0;0;1;3;0;0;1;3
"galerie greenwood";0;0;4;4;0;0;4;4
"galerie bertheas";0;0;2;8;0;0;1;8;0;0;1;8
"leila rose";0;0;1;11;0;0;1;11
"michal batory";0;0;2;9;0;0;2;9
"oeuvres de ben";0;0;4;2.5;0;0;4;2.5
"uche okpa iroha";0;0;1;3;0;0;1;3
"3 cerises";0;0;1;7;0;0;1;7
"frederique prat";0;0;1;32;0;0;1;32
"misstic street art";0;0;1;5;0;0;1;5
"peinture fantome";0;0;2;3;0;0;2;3
"la chapelle photographer";0;0;1;8;0;0;1;8
"robert bradford wikipedia";0;0;1;4;0;0;1;4
"isabelle bonzom";0;0;1;3;0;0;1;3
"césar baldaccini compression";0;0;1;8;0;0;1;8
"christophe catelain";0;0;1;3;0;0;1;3
"raoul rauschenberg";0;0;1;7;0;0;1;7
guayasamin;0;0;8;8.75;0;0;4;8.5;0;0;4;9
"peter blake artiste";0;0;6;6.6666666666667;0;0;3;6;0;0;3;7.3333333333333
"pascale barret";0;0;1;9;0;0;1;9
"too drunk to fuck";0;0;1;29;0;0;1;29
"jonone cote";0;0;1;8;0;0;1;8
"beauté animale";0;0;1;22;0;0;1;22
"alex katz peintre";0;0;1;4;0;0;1;4
"max et charlotte";0;0;2;2;0;0;2;2
"laurence weiner";0;0;1;9;0;0;1;9
"peinture politique";0;0;1;11;0;0;1;11
"robert mapplethorpe";0;0;1;37;0;0;1;37
"oeuvres de benjamin vautier";0;0;1;7;0;0;1;7
"lampe verre de murano";0;0;1;33;0;0;1;33
"norman rockwell œuvres d'art";0;0;1;11;0;0;1;11
"albane de saint remy";0;0;2;7;0;0;1;7;0;0;1;7
fubiz;0;0;4;22.25;0;0;3;26;0;0;1;11
"tilt art";0;0;1;6;0;0;1;6
"vente sculpture terre cuite";0;0;1;3;0;0;1;3
"jean-michel basquiat oeuvres";0;0;1;10;0;0;1;10
darmigny;0;0;1;11;0;0;1;11
"acheter des oeuvres d'art";0;0;1;4;0;0;1;4
zoxx;0;0;1;10;0;0;1;10
camen;0;0;1;4;0;0;1;4
grandeetoile;0;0;1;12;0;0;1;12
"oeuvres annette messager";0;0;1;6;0;0;1;6
"sandy skoglund oeuvres";0;0;1;5;0;0;1;5
"gautier stephane";0;0;3;6;0;0;3;6
lebelhomme;0;0;2;5;0;0;2;5
"sebastien layral";0;0;1;5;0;0;1;5
"oeuvres art contemporain";0;0;1;2;0;0;1;2
"biographie de christian boltanski";0;0;1;9;0;0;1;9
"virginie epry";0;0;1;46;0;0;1;46
"sculpture gorille rouge";0;0;1;6;0;0;1;6
"peintures pop art";0;0;1;29;0;0;1;29
"crystal wagner";0;0;1;42;0;0;1;42
putov;0;0;1;8;0;0;1;8
"franck lundangi";0;0;2;2;0;0;2;2
"thibault brunet";0;0;3;9;0;0;2;9;0;0;1;9
"louis pons artiste peintre";0;0;1;7;0;0;1;7
"greg leon guillemin";0;0;3;5;0;0;1;5;0;0;2;5
"l bouro";0;0;1;9;0;0;1;9
"roy lichtenstein as i opened fire";0;0;1;3;0;0;1;3
"romero britto prix";0;0;1;9;0;0;1;9
"photos d'art en ligne";0;0;2;4;0;0;1;4;0;0;1;4
obey;0;0;2;94;0;0;2;94
flipo;0;0;19;6.4210526315789;0;0;9;5.1111111111111;0;0;7;6.5714285714286;0;0;3;10
galeriecollin;0;0;2;2;0;0;2;2
"banksy billet de banque";0;0;1;2;0;0;1;2
"el pascador";0;0;1;77;0;0;1;77
"banksy a vendre";0;0;1;9;0;0;1;9
faiveley;0;0;1;167;0;0;1;167
"page ltd";0;0;1;124;0;0;1;124
"pierrot men photo";0;0;3;28;0;0;3;28
pasqua;0;0;1;30;0;0;1;30
"etienne gros peintre";0;0;7;3;0;0;7;3
"google da vinci";0;0;1;379;0;0;1;379
"art galerie en ligne";0;0;1;1;0;0;1;1
"cesar peintre";0;0;1;6;0;0;1;6
"kuroda aki";0;0;3;5.3333333333333;0;0;2;5;0;0;1;6
"oeuvre d'art à vendre";0;0;1;1;0;0;1;1
"ox artiste";0;0;1;9;0;0;1;9
"elisabeth lecourt";0;0;4;7.25;0;0;4;7.25
"peinture d'art";0;0;1;23;0;0;1;23
"romain rivière";0;0;1;10;0;0;1;10
"pénélope fillon wikipedia";0;0;1;49;0;0;1;49
"guy de rougemont";0;0;1;6;0;0;1;6
"christy lee";0;0;1;6;0;0;1;6
"galerie jonone";0;0;4;5;0;0;4;5
"composition in blue";0;0;1;10;0;0;1;10
"david gerstein elegance";0;0;1;49;0;0;1;49
"artistes iraniens";0;0;1;9;0;0;1;9
"richard orlinski prix";0;0;4;7.75;0;0;1;7;0;0;1;7;0;0;2;8.5
"gerard mortier peintre";0;0;2;1;0;0;2;1
"peintre wilfred";0;0;1;3;0;0;1;3
"jacques lacroix";0;0;1;13;0;0;1;13
"francis martel";0;0;4;8;0;0;3;8;0;0;1;8
"""fabrice hyber""";0;0;1;6;0;0;1;6
gohardashti;0;0;2;8;0;0;2;8
"jérôme mesnager";0;0;5;3.4;0;0;5;3.4
"cote oeuvre d art";0;0;1;21;0;0;1;21
"kenneth noland";0;0;1;69;0;0;1;69
"richard baron";0;0;1;9;0;0;1;9
"galerie sbk";0;0;1;7;0;0;1;7
"acheter tableau art";0;0;2;2.5;0;0;1;3;0;0;1;2
"peinture murale gris dior";0;0;1;21;0;0;1;21
"gautier deblonde";0;0;1;3;0;0;1;3
"spark artiste";0;0;1;8;0;0;1;8
"envie d'art";0;0;10;4.1;0;0;6;4;0;0;2;4;0;0;2;4.5
"jerome mesnager";0;0;20;4;0;0;10;3.4;0;0;7;4.4285714285714;0;0;3;5
"mahjoub ben bella prix";0;0;1;3;0;0;1;3
"michael batory";0;0;1;10;0;0;1;10
"helder batista";0;0;5;5.4;0;0;1;5;0;0;2;6;0;0;2;5
"anne valerie dupond";0;0;2;10;0;0;2;10
"follow your art";0;0;1;9;0;0;1;9
"jeff koons lips";0;0;1;7;0;0;1;7
"leon guillemin";0;0;2;4;0;0;2;4
"laetitia giraud";0;0;3;4;0;0;3;4
"isabelle vayron";0;0;2;5;0;0;2;5
scuplture;0;0;2;5.5;0;0;2;5.5
"jean hélion biographie";0;0;1;7;0;0;1;7
"li fang";0;0;2;15.5;0;0;2;15.5
telemaque;0;0;1;38;0;0;1;38
"galerie w paris";0;0;1;5;0;0;1;5
"artiste jonone";0;0;5;1.6;0;0;3;1.3333333333333;0;0;2;2
"carles valverde";0;0;1;4;0;0;1;4
"achat contemporain paris";0;0;1;5;0;0;1;5
"vente tableau contemporain";0;0;4;2;0;0;3;2;0;0;1;2
"lachapelle photo";0;0;1;7;0;0;1;7
"kim chou";0;0;2;12;0;0;2;12
"jean dubuffet oeuvre";0;0;1;6;0;0;1;6
"street art france";0;0;1;61;0;0;1;61
"sandy skoglund biographie";0;0;1;4;0;0;1;4
"florian marco";0;0;2;2;0;0;1;2;0;0;1;2
seaty;0;0;4;10;0;0;4;10
"jane serge";0;0;1;32;0;0;1;32
"pauline dufour";0;0;5;5;0;0;4;5;0;0;1;5
"costa peintre";0;0;2;5.5;0;0;1;4;0;0;1;7
mpah;0;0;1;1;0;0;1;1
"sylvie fleury biographie";0;0;2;2;0;0;2;2
"oleg dou";0;0;4;5.5;0;0;2;7;0;0;2;4
"costume vert";0;0;1;30
saudek;0;0;3;9;0;0;1;8
"femme nue au jardin";0;0;1;27
"art sculpture";0;0;2;4.5
"galerie d'art en ligne";0;0;13;1;0;0;3;1;0;0;6;1
"toile cirée contemporaine";0;0;2;77;0;0;1;69
"artiste jr";0;0;1;9
"arman artiste";0;0;1;10
"eric deville";0;0;1;4
"pascal frament";0;0;1;2
"gregoire guillemin";0;0;1;10
"peter hoffer peintre";0;0;2;3.5
"moulin rudelle muret";0;0;1;89
"david lachapelle biographie";0;0;1;4
"art sur internet";0;0;1;1
"severine bernard";0;0;1;6;0;0;1;7
"spark benjamin";0;0;1;7
"bernard pras exposition";0;0;1;4
"peinture dark vador";0;0;2;4;0;0;4;4
"ventes peinture";0;0;1;5
"jacques villeglé oeuvres";0;0;1;2
"orn art";0;0;1;4
"homme pressé";0;0;11;7.0909090909091;0;0;1;7
"charlie chaplin peinture";0;0;1;8;0;0;1;10
"elsa guillaume";0;0;1;7
"tony soulie artist";0;0;1;7
"blue gun france";0;0;1;10
"miss tic galerie";0;0;1;3
"georges-philippe & nathalie vallois";0;0;1;90
scullpture;0;0;1;6
"cynthia nu";0;0;1;7
"li hong li";0;0;1;8
"peinture fond rouge";0;0;1;9
"david la chapelle photo";0;0;1;8
"paysage fantastique";0;0;1;26
"jean michel turpin";0;0;1;5
"vente art contemporain en ligne";0;0;1;1;0;0;1;1;0;0;1;1
"centaure 620";0;0;1;65
"alex katz collages";0;0;1;36
"david crepin";0;0;1;77
"fabrice hyber savon";0;0;1;9
"antoine correia";0;0;1;4
"christoff debusschere";0;0;1;9
"petit bonhomme blanc";0;0;2;8;0;0;1;8
"galerie artiane honfleur";0;0;1;3;0;0;1;5
"nicolas nicolini";0;0;3;5.3333333333333
"cedrix crespel";0;0;2;5.5;0;0;2;5
"déesse sculpture";0;0;2;6;0;0;1;6
"mb factory";0;0;2;9.5;0;0;1;9;0;0;2;8
"charlotte lelong";0;0;1;7
arsper;0;0;2;1;0;0;1;1
poes;0;0;3;5;0;0;3;4;0;0;5;4
verny;0;0;1;54;0;0;1;50
"huet alain";0;0;2;9.5
"sandy skoglund";0;0;11;8;0;0;1;8
"bloomfield hills mi venus freeze";0;0;1;74
totomobile;0;0;1;31
speedygraphito;0;0;18;7
"artistes luxembourgeois";0;0;1;9
pras;0;0;2;5;0;0;3;6.6666666666667
"etiyé dimma poulsen";0;0;1;3
"peintre irlandais contemporain";0;0;1;8
"veil de noel";0;0;1;2;0;0;3;3;0;0;1;2
"portrait miroir";0;0;1;4
"john william waterhouse œuvres d'art";0;0;1;8;0;0;1;9
"sculpture panda";0;0;1;3
jonvelle;0;0;3;11.333333333333;0;0;1;1
"expo lyon street art";0;0;1;100
"nature morte vivante";0;0;1;10
"oeuvres art";0;0;1;4
"david lachapelle";0;0;2;10.5;0;0;13;10.538461538462
"romero britto";0;0;10;11.5;0;0;15;7;0;0;7;8.1428571428571
"gwenael billaud";0;0;1;7
"alain clement";0;0;2;4;0;0;2;4.5
"lionel sourisseau";0;0;1;3
"francois mendras";0;0;1;3
"jamel shabazz";0;0;2;10;0;0;2;10
"roland cat wikipedia";0;0;1;1
"peinture jazz contemporain";0;0;1;26
kn;0;0;1;100
"tableau toile paris";0;0;1;87
"galerie w";0;0;11;3.2727272727273;0;0;5;4
"françois morellet";0;0;11;8.6363636363636;0;0;2;9.5
r8;0;0;1;269
"site vente art";0;0;1;1
"claude leveque biographie";0;0;1;2
"exposition damien hirst";0;0;1;32
"charles guyot";0;0;1;1;0;0;1;1
"photographe d'art";0;0;2;25
"jean pierre nadau";0;0;1;4
terorotua;0;0;1;10
"aurore de sousa";0;0;1;5
"argent 1er titre";0;0;1;23
"antoine geiger";0;0;3;7.3333333333333
"marc davet";0;0;2;7
"bruce clarke";0;0;2;9;0;0;1;9
"george platt";0;0;1;6
"sculpture chaussure";0;0;1;5
"nick walker street art";0;0;1;5
"art achat";0;0;1;2
"turpin michel";0;0;1;7
"acheter de l art";0;0;1;3;0;0;2;3
"oeuvre de banksy";0;0;8;7.875;0;0;7;9.4285714285714
"bar noma";0;0;1;20
"isis nasa";0;0;1;10
"dave lachapelle photography";0;0;1;5
"bernard langenstein";0;0;1;3
"photographe lachapelle";0;0;2;4
"david harber";0;0;1;5
"art traffik";0;0;1;2
"michal lukasiewicz technique";0;0;2;13
"miguel chevalier biographie";0;0;1;9
"keith haring œuvres d'art";0;0;2;8
"obey shepard fairey biographie";0;0;1;3
"laurence dreyfus";0;0;3;8;0;0;1;9
"sylvie fleury";0;0;1;7
"thierry carrier";0;0;1;5;0;0;1;4
"peter mclane";0;0;1;2
"quentin shih dior";0;0;1;9
"ron english";0;0;1;4;0;0;3;10.333333333333
"guy denning";0;0;6;5;0;0;3;5;0;0;1;5
"kong orlinski";0;0;1;3;0;0;1;3
"peinture audrey hepburn";0;0;1;9
"antonio segui peintre";0;0;1;5
"sculpture disque vinyle";0;0;1;36
"ivan messac";0;0;1;5;0;0;1;5;0;0;1;5
"max ernst œuvres d'art";0;0;1;8;0;0;1;9
"otto dix biographie simple";0;0;1;44
"oeuvre d'art sur le sport";0;0;1;6
"philippe huart";0;0;1;7
"jingle art";0;0;1;7
"thierry dussac";0;0;4;5
"jimi hendrix peinture";0;0;2;7
jago;0;0;1;46
"biographie falco";0;0;1;7
quadriptyque;0;0;1;19
"château d'arpaillargues";0;0;1;191
"tapis en soie";0;0;1;33
"photographie de mode urbaine";0;0;1;43
"jonas “sun7” bournat";0;0;2;3
"monsieur le chat";0;0;4;5;0;0;2;6;0;0;2;7
"vente fromage";0;0;1;282
"priscilla moore";0;0;1;8
"mr sex";0;0;2;26.5;0;0;1;29
"klasen peintre";0;0;2;2;0;0;3;3
"achat sculpture";0;0;4;1
"""enki bilal""";0;0;1;1
"dark vador artwork";0;0;3;4
"site d'oeuvre d'art";0;0;1;1
juliendurix;0;0;1;2
"gérard schlosser";0;0;5;10.6;0;0;1;5
"alexandre moliera";0;0;4;7
"claude champy";0;0;1;7
"bernard chauveau";0;0;4;5;0;0;2;6
"mi hyun kim";0;0;1;10
"hervé di rosa";0;0;9;4.1111111111111;0;0;1;5;0;0;3;3.3333333333333
margaux;0;0;1;274
"frédérick gagné";0;0;2;4
"artiste peintre lyon";0;0;1;93
voyeur;0;0;2;220
"gottfried salzmann";0;0;2;5
folla;0;0;2;31
"hiro ando";0;0;1;1;0;0;4;1;0;0;2;1
"alain josseau";0;0;1;4
"oeuvre d'art géométrique";0;0;1;9
"james mackeown";0;0;1;4
"gilles soudry";0;0;1;1
"santo roberto";0;0;1;4
"jean georges inca";0;0;1;2
"jacques deret";0;0;1;3
"perrier affiche";0;0;1;29
"louis nicolas darbon";0;0;1;6
mitrofanoff;0;0;3;10;0;0;3;9
"sandra krasker";0;0;2;4
"banksy street art oeuvres";0;0;1;10
"je suis charlier";0;0;1;7
"god dog";0;0;1;5;0;0;1;4
"photographie artistique noir et blanc";0;0;1;57
"prince and princess art gallery";0;0;2;5
"livraison peinture";0;0;1;95
"martin schoeller";0;0;1;34
"oeuvre de benjamin vautier";0;0;1;6
arkiv;0;0;1;9
"naked portrait";0;0;1;4
"reçu 5 sur 5";0;0;2;8
"la chapelle artiste";0;0;1;8
"gerstein david";0;0;1;5;0;0;1;3
ducatteau;0;0;1;7
"philippe frisée";0;0;1;3
"nathan chantob artiste peintre";0;0;3;2
"pinceau d'art";0;0;1;92
"herve di rosa artiste peintre";0;0;2;4
"herve di rosa";0;0;1;4;0;0;2;5;0;0;3;5.3333333333333
"des academies et arts hotel";0;0;1;192
"peter mc lane";0;0;1;3
"takala photo";0;0;1;1
"galerie double s";0;0;2;4;0;0;1;6
"daniel authouart";0;0;7;8;0;0;5;9;0;0;2;9
"biographie de jeff koons";0;0;1;7
noart;0;0;1;10;0;0;1;10
"joachim monvoisin";0;0;1;5
"george platt lynes";0;0;1;10
"philippe berry sculpteur";0;0;1;4
"thierry pelletier";0;0;1;12
"roys people";0;0;1;10
"miguel chevalier oeuvres";0;0;1;6
"tableau jonone";0;0;1;1
"galeries d art contemporain";0;0;1;4
"philippe assalit";0;0;1;3
"peinture poissons";0;0;1;92
"polar achat";0;0;1;33;0;0;1;32
"achat bob";0;0;1;19
"déesse artiste";0;0;1;2
"aurélie nemours biographie";0;0;1;10
"joseph chiaramonte";0;0;1;10
"site d'art en ligne";0;0;1;1
"rue de l'art";0;0;1;11
"musées d'art à asheville";0;0;3;45
"fanny dubois";0;0;5;8;0;0;3;9
"mel ramos superman";0;0;1;3
"hank china";0;0;1;1;0;0;4;1.5
"cornette de saint cyr";0;0;4;25
"greg gorman";0;0;3;7.3333333333333
"isabelle bartoli";0;0;7;2.8571428571429
"cesar artiste contemporain";0;0;1;3
"dam gallery";0;0;1;6
"françoise petrovitch";0;0;3;8;0;0;3;8.3333333333333;0;0;1;8
"biographie de keith haring";0;0;3;10;0;0;1;7
"romain cadilhon";0;0;1;22;0;0;1;5
"raymond hains biographie";0;0;1;4
"seen seen";0;0;1;79;0;0;1;74
"biographie de banksy";0;0;7;10;0;0;2;8
gouala;0;0;1;9
"artistes contemporains belges";0;0;1;9
jef;0;0;2;17.5
"béatrice meunier";0;0;2;2
sculptire;0;0;1;8
"atila biro";0;0;1;5
miffy;0;0;1;89
francton;0;0;1;9
"axel de paris medium";0;0;1;45
"ronald dupont artiste peintre";0;0;2;5;0;0;1;5
"jon one";0;0;2;4;0;0;8;5;0;0;4;5
"atlas blue";0;0;2;46.5
"miro svolik";0;0;3;6.6666666666667
"télémaque peintre";0;0;1;5
"lord anthony cahn";0;0;1;8;0;0;1;8
"charbonnel sculpteur";0;0;3;6;0;0;2;5.5
"renaud peinture";0;0;1;48;0;0;1;46
"l'abbaye d'alspach hotel";0;0;1;174
"thierry diers";0;0;2;7.5
"galerie d'art contemporain en ligne";0;0;3;1
"dominique mulhem";0;0;7;4.2857142857143;0;0;2;5
"laurence wiener";0;0;1;9
"victoria klotz";0;0;1;3
stoul;0;0;2;5;0;0;1;6
"cesar santos";0;0;4;6.75
"victoria mann";0;0;1;6
oxana;0;0;1;31
"marie louise sorbac";0;0;1;6;0;0;2;7;0;0;1;7
"galerie street art en ligne";0;0;2;7
"peinture de salvador dali";0;0;1;47
"edouard buzon";0;0;1;1;0;0;1;2
youmin;0;0;3;7.3333333333333
"anne brunet";0;0;1;5;0;0;1;12
"carole goujon";0;0;1;3
"sérgio ferro";0;0;1;2
"œuvre médias mixtes";0;0;1;11
"lou ros";0;0;1;7
nadau;0;0;1;23
jmrobert;0;0;1;2
"philippe vasseur peintre";0;0;1;2;0;0;1;2
"bear galerie";0;0;1;5
"peinture turquoise";0;0;1;75
"morin paris";0;0;1;5
"étienne gros";0;0;1;5
glineur;0;0;1;10
"jimmy who";0;0;1;9
rossicontemporary;0;0;1;77
trovic;0;0;1;7
"mathieu nozieres";0;0;1;3
"orlan paris";0;0;1;10
"loup sculpture";0;0;1;9
"bernard moninot";0;0;3;5;0;0;2;7
jonnbone;0;0;1;5
aerosol;0;0;1;15
"richard dubure";0;0;1;3
"thomas müller";0;0;2;25
"galerie roy sfeir";0;0;2;4
"oeuvres joan miro";0;0;1;1
"samhart gallery";0;0;2;4.5;0;0;1;5
"john andrew perello";0;0;1;3
"galerie dorval lille";0;0;1;7;0;0;3;8
"beatrice meunier";0;0;1;7;0;0;2;7.5
"marc combas";0;0;1;2
"cadre peinture moderne";0;0;1;89
artop;0;0;5;8
"orlan oeuvre";0;0;1;3
hyber;0;0;3;6
"progress gallery";0;0;2;8
"raymond hains";0;0;6;9.5;0;0;10;9.5
"benjamin aman";0;0;1;4
"claude leveque";0;0;12;8.3333333333333;0;0;2;10;0;0;3;10.333333333333
"poirier artiste";0;0;1;10
"julian page";0;0;2;5
"egon schiele biographie";0;0;1;26
takala;0;0;2;4;0;0;1;7;0;0;4;5
"tapis boccara";0;0;1;5
catte;0;0;4;3;0;0;3;4.3333333333333;0;0;2;3
cadeo;0;0;1;5;0;0;1;7
"jerry hall jeune";0;0;3;1;0;0;2;1;0;0;1;1
"claude l'eveque";0;0;2;5
dan23;0;0;12;7.4166666666667;0;0;7;6.7142857142857
"galerie street art";0;0;3;30.666666666667
"achat d'art en ligne";0;0;1;2
"hamish fulton";0;0;1;7
"gérard rancinan";0;0;2;7.5
"artiste bresilien britto";0;0;1;5
"antoine josse art";0;0;1;6
"galerie gillig";0;0;1;4;0;0;1;4
"marie brisson";0;0;1;4
skunkdog;0;0;1;4;0;0;1;8
streichenberger;0;0;1;7
capocci;0;0;2;7
durra;0;0;1;15
laveri;0;0;1;6
"aurélie bauer peintre";0;0;1;10
jehane;0;0;1;26
"french art studio";0;0;1;3
"miss van";0;0;1;11
"caroline maurel";0;0;1;9
"de la villeglé";0;0;1;5
"jone one";0;0;1;6
"max de bruhl";0;0;1;11
"pierre et gilles oeuvres";0;0;1;10
mbfactory;0;0;1;9
"23 25 rue jean jacques rousseau 75001 paris";0;0;2;10
"zelda bomba";0;0;1;3
"philippe favier artiste";0;0;1;9
"fabien leaustic";0;0;1;3
"marylin cavin";0;0;2;5
"greenwood gallery paris";0;0;2;8
"philippe charpentier";0;0;3;4.6666666666667
takashi;0;0;2;5.5
enviedart;0;0;5;4.6;0;0;1;4
"armand artiste";0;0;1;9
lestie;0;0;1;6
"troy artist";0;0;1;2
artphotoby;0;0;1;2
"sandrine gousset";0;0;2;8
"beaufils peintre";0;0;1;7;0;0;2;5.5
"exposition miss tic";0;0;2;7.5
muntadas;0;0;1;10
"monika nowak";0;0;3;5
"cactus sculpture";0;0;2;5
"isa marcelli";0;0;1;9
"jef aerosol vente";0;0;1;1
sculptures;0;0;1;5;0;0;5;5.8
"shaka street art";0;0;2;4
"oeuvre de basquiat";0;0;1;9
"suck dart";0;0;1;6
"nils udo";0;0;2;8
"sculpture a vendre";0;0;1;1;0;0;1;1
tonyone;0;0;1;7
"nathalie adrait";0;0;1;1
"andrew painter artiste";0;0;1;10
"rob van hoek";0;0;1;7
"miss au masculin";0;0;3;8.6666666666667;0;0;1;9
"balloon girl banksy";0;0;1;9
"street art miss tic";0;0;2;6;0;0;1;6
"guillaume collignon";0;0;1;7
banksy;0;0;2;25
toma-l;0;0;1;6
"cha noir";0;0;1;4
"lucien ghomri";0;0;3;5
"bousserez vincent";0;0;1;18
"planete serie";0;0;1;6;0;0;2;6
"christy lee rogers";0;0;1;3
"basquiat oeuvres";0;0;4;7.25;0;0;1;8
"arman sculpture";0;0;1;11
guilleme;0;0;1;6;0;0;1;2
carybe;0;0;2;8
"roméro britto";0;0;1;5
"katrin bremermann";0;0;1;2
"macadam gallery";0;0;1;8
"art en ligne";0;0;3;2
"charlotte perrot";0;0;5;4
benharrouche;0;0;1;10
"mustapha azeroual";0;0;2;5
"amateur d'art";0;0;3;9.3333333333333
"patrice larue";0;0;1;10
chabiron;0;0;2;7
"tableau authouart";0;0;1;19
"objet banal devient oeuvre d'art";0;0;1;10
guyasamin;0;0;2;9
nesler;0;0;1;6
shuck2;0;0;1;8
"francois malingrey";0;0;2;5;0;0;1;5
"sculpture déesse";0;0;1;6
"bertrand desprez";0;0;1;7
"wang yan cheng";0;0;2;7;0;0;6;8
"tanguy tolila";0;0;1;5
fusako;0;0;1;11
orlinski;0;0;17;8.1764705882353;0;0;2;8
"soly cissé";0;0;1;7
ferreira;0;0;1;13
combass;0;0;2;7.5
"elephant art contemporain";0;0;1;7
"di rosa";0;0;12;4;0;0;2;4
"veilhan xavier";0;0;1;9
"patrick gonzales";0;0;1;10
"cruz familia";0;0;1;3
"philippe azema";0;0;1;1
"le bel homme";0;0;1;7
"bernard quentin";0;0;4;11.5
"biographie arman";0;0;2;10
krm;0;0;12;2.8333333333333;0;0;1;2
"ariele rozowy";0;0;1;5
"galerie la boheme";0;0;1;7
"dani olivier";0;0;1;10
"did dontzoff";0;0;2;3
x;0;0;1;5
kokekoko;0;0;1;6
"georges cabot";0;0;1;5
"jerome revon";0;0;2;11
"antonio asis";0;0;1;8
"jacques villeglé";0;0;1;5
"nil udo";0;0;1;9
combasse;0;0;1;6
"vente sculpture";0;0;1;1;0;0;1;1
"peinture martin luther king";0;0;2;5
"oeuvre d'art moderne";0;0;2;1
"jonone marianne";0;0;2;9
c215;0;0;2;21
"buddy di rosa";0;0;1;5
"pierre boncompain";0;0;1;5
"gustave singier";0;0;2;6;0;0;1;8
"x pras";0;0;1;6
"pascal ito";0;0;1;10
"mis tic";0;0;1;12
"john one street art";0;0;1;3
"cesar baldaccini";0;0;2;5.5
"chan mo";0;0;1;8
"djinane alsuwayeh";0;0;1;4
"mr le chat";0;0;3;6
"galerie wagner";0;0;3;5
raison;0;0;1;5
"gabriel paris";0;0;1;19
"georgianna robertson";0;0;2;16
"durix julien";0;0;1;3
"ben goossens";0;0;1;10
"tony soulié";0;0;2;4
"herve lewis";0;0;1;5
"nicolas hugo";0;0;1;4
surian;0;0;3;8.3333333333333
"alexandre akar";0;0;1;10
sculptuer;0;0;1;5
"richard orlinski cote";0;0;1;10
"vanessa cooper";0;0;1;1
"david gery";0;0;1;8
"cadre oeuvre d'art";0;0;1;9
"miguel ortiz";0;0;8;9.125
"patrick martin";0;0;1;20
"miguel chevalier";0;0;1;10
"philippe bonan";0;0;1;2
"artistes contemporains";0;0;7;8.5714285714286;0;0;4;9.75
"vente aquarelles en ligne";0;0;1;73
bernadine;0;0;1;4
"jef aerosol";0;0;14;5.0714285714286;0;0;6;5
"brugier rigail";0;0;4;7
"bilal bahir";0;0;1;2
"shepard fairey vote";0;0;1;2;0;0;1;1
"atlas artiste";0;0;1;7
"peinture toute surface 44";0;0;1;26
poplavsky;0;0;1;5
"robert combas";0;0;20;5.4;0;0;6;5.1666666666667
"ozier lafontaine martinique";0;0;1;23
"technique puzzle";0;0;1;26
"peinture monochrome";0;0;3;10
"kumi sugai";0;0;3;3
"vincent chenut";0;0;6;7;0;0;1;5
"mr chat paris";0;0;1;9
"pade design";0;0;1;7
"affiche warhol";0;0;1;8;0;0;2;8
"le diamantaire";0;0;3;9;0;0;2;9
"anne decup";0;0;2;2.5
"bouillon d'art";0;0;1;4
carl.andre;0;0;1;7
"thierry lo";0;0;2;3
"artop lille";0;0;1;6
brusorio;0;0;1;2
"ernest pignon";0;0;1;12
"miami vice art";0;0;1;6
"jean michel basquiat oeuvre";0;0;1;10
"mahjoub ben bella wikipedia";0;0;1;1
"combas peintre cote";0;0;1;4
"thomas tramp";0;0;1;4
"kongo graffiti";0;0;1;9
"galerie virtuelle art contemporain";0;0;1;2
"niels udo";0;0;1;8
"dita ventees";0;0;3;9.6666666666667
"cesar sculpteur";0;0;10;5.1
artser;0;0;1;1
"francine van hove peinture";0;0;2;7;0;0;1;1
"duy anh nhan duc";0;0;1;15
"street art obey";0;0;1;10
"pierre françois grimaldi";0;0;2;2
"poes artiste";0;0;1;1
"costa artiste";0;0;1;4;0;0;1;4
"jean pierre schneider";0;0;1;5
"why detroit";0;0;2;7.5
"vasseur philippe";0;0;1;14
oeuvres;0;0;1;11
"photo art contemporain";0;0;1;2;0;0;1;2
e-galleries;0;0;1;9
"eduardo kac";0;0;1;10
"peinture mortier";0;0;1;1
"mahjoub ben bella";0;0;3;4;0;0;1;4
"bill blast";0;0;1;4
"jean du buffet";0;0;1;11;0;0;1;12
"murakami peinture";0;0;1;5
"agnes baillon";0;0;2;7;0;0;1;7
durrey;0;0;1;9
"tom nelson";0;0;2;6
"carole benichou";0;0;1;8
"dawn joseph";0;0;1;21
"cadeaux rigolos";0;0;1;36
moscovino;0;0;2;4
"peintre dubuffet";0;0;2;4
"laforet orange";0;0;1;9
"levalet street art";0;0;2;6;0;0;2;6
"jonone a vendre";0;0;1;5;0;0;1;6
"philippe soussan";0;0;1;5;0;0;1;4
"monteoliveto gallery";0;0;1;43
"bernar venet sculpteur";0;0;1;10
"foot fetish x";0;0;1;5
"denis christophel";0;0;1;3
"l'atlas street art";0;0;1;7
"miss tik";0;0;1;7
"dan 23";0;0;3;8;0;0;1;8
"rometo britto";0;0;1;7
"alain buyse";0;0;1;9
"sculteur cesar";0;0;1;10
destarac;0;0;1;11
"la soubrette";0;0;1;17
"david jehan";0;0;4;7
"artiste keith haring";0;0;1;8
"ramzi adek";0;0;1;5
"galerie alb";0;0;1;11
"moya peintre";0;0;1;6
stani;0;0;2;4
"britto romero";0;0;2;7;0;0;1;8
fazino;0;0;1;8
"jacques ibert oeuvre";0;0;2;5
"mr chat";0;0;10;6.1;0;0;3;6
"angel l ortiz";0;0;1;5
"anne guillon";0;0;1;7;0;0;1;7
"anthony knapik-bridenne";0;0;1;5
"sergio moscona";0;0;1;3
ayline;0;0;3;10
"galerie nicolas hugo";0;0;1;5
"sally fuerst";0;0;1;5
"jean hélion";0;0;1;10;0;0;1;11
"photographie d'art";0;0;1;27
"butz & fouque";0;0;1;1
"yoann merienne";0;0;3;2
"jace artiste";0;0;2;9;0;0;1;10
"hd galerie";0;0;1;5
"pretty portal";0;0;1;7
"biographie banksy";0;0;1;8
"ced vernay";0;0;3;4
"fkdl street art";0;0;1;7
"jean claude deutsch";0;0;1;4
"capton peintre";0;0;2;5
"achat tableau contemporain";0;0;1;3
"gerard quenum";0;0;1;6
"caroline fraser";0;0;1;9
"françois grimaldi";0;0;1;11
"peinture zeus";0;0;1;9
"toma l";0;0;1;6
"bruno catalano biographie";0;0;1;1
"pierre riba";0;0;1;4;0;0;1;3
"karine paoli";0;0;1;7
"patrick moya";0;0;2;5
"bernard gaume";0;0;1;1
"open art galerie dijon";0;0;4;7;0;0;1;6
"jésus marche sur les eaux tibériade";0;0;1;9
galeries;0;0;7;8.1428571428571;0;0;2;8.5
"guillaume herbaut";0;0;2;10
n61;0;0;1;8
labegorre;0;0;2;8
"olivier masmonteil";0;0;1;11;0;0;1;11
"claire trotignon";0;0;3;4
"fabien granet";0;0;2;4.5
"richard orlinski";0;0;32;7.03125;0;0;11;7.3636363636364
"emmanuelle bousquet";0;0;1;7
"yoel benarouche";0;0;1;7
"topolino peintre";0;0;2;1
"m chat street art";0;0;1;5
"j'irai decrocher la lune";0;0;1;9
"adam nidzgorski";0;0;3;3
"galerie d'art";0;0;6;10.666666666667;0;0;7;6.2857142857143
"robert combas prix";0;0;1;6
"m chat";0;0;1;7;0;0;1;8
"jean dubuffet oeuvres";0;0;2;6
soussan;0;0;1;34
"galerie françois giraudeau";0;0;1;9
"destarac peintre";0;0;2;4
"etienne rey";0;0;1;6
"loulou picasso biographie";0;0;1;4
"benjamin spark";0;0;1;9
"akiza la galerie";0;0;2;9
"mathieu mercier";0;0;3;8.3333333333333;0;0;1;9
"koala nue";0;0;1;5
"art et entreprise";0;0;1;6
"artiste cesar";0;0;4;11
"marie pierre fontaine";0;0;1;3
"galerie couteron";0;0;1;6
durix;0;0;8;4.5
gangal;0;0;1;5
"dominique regnier";0;0;1;13
berrocal;0;0;1;43
kasimir;0;0;1;29
"galerie audet colmar";0;0;2;9
stettner;0;0;1;8
"takashi murakami oeuvres";0;0;1;4
bouro;0;0;1;8
"shepard fairey biographie";0;0;2;3
"oxana x";0;0;1;10;0;0;1;10
johnone;0;0;5;6
moyoshi;0;0;2;4
"photo jr achat";0;0;1;3
"kiki picasso";0;0;9;7.1111111111111;0;0;4;7
"francis latreille";0;0;1;8
"timothee talard";0;0;1;2
"ernest pignon ernest oeuvres";0;0;9;7;0;0;4;7
"philip pasqua";0;0;1;6
"dganit blechner";0;0;1;7;0;0;1;7
gnidzaz;0;0;1;4
"ben artiste";0;0;4;4.75;0;0;2;5
"artistes ivoiriens";0;0;1;9
"basquiat biographie";0;0;1;9
"jean françois jonvelle";0;0;1;11
"c215 biographie";0;0;2;9
"marvin aillaud";0;0;1;4
"philippe croq";0;0;1;7;0;0;1;7
"acheter oeuvre d'art";0;0;2;1
"oeuvres d'arts";0;0;1;7
"philippe pradalie";0;0;1;3
"blek le rat oeuvre";0;0;1;8
"liu bolin prix";0;0;1;4
"segui antonio";0;0;1;9
"julien airault";0;0;1;3
dtone;0;0;2;6.5;0;0;2;5
"boudon sculpteur";0;0;1;6;0;0;1;7
"pascal goet";0;0;1;6
misstic;0;0;14;8.5714285714286;0;0;4;8.25
"lawrence weiner";0;0;2;10
"ben oeuvres";0;0;1;2
"didier triglia";0;0;1;7
"renk artiste";0;0;1;6
"bettina galerie";0;0;1;8;0;0;1;8
"bernard pras";0;0;5;5.4;0;0;2;5.5
"philippe pasquat";0;0;1;7
"jim kazanjian";0;0;1;6
"sabine danze";0;0;2;5
"aki kuroda";0;0;7;5.2857142857143;0;0;1;6
"oeuvres basquiat";0;0;1;6
"acheter photo jr";0;0;1;4
cedki;0;0;1;2
"david david artiste";0;0;1;5
mygalo;0;0;1;3
"christophe goutal";0;0;1;4
"françois malingrey";0;0;3;5.6666666666667;0;0;2;5
"jo di bona";0;0;1;7
"daniella x";0;0;4;8
"galerie audet";0;0;1;8
"alva bernadine";0;0;2;10
"villéglé oeuvres";0;0;1;1
arietti;0;0;4;3.25;0;0;1;3
"jean jacques surian";0;0;3;8
"artiste costa";0;0;1;4
"gregoire leon guillemin";0;0;2;3
hearsey;0;0;1;5
"frank fischer";0;0;1;7;0;0;1;7
"m. chat graffiti";0;0;1;8
"etienne buraud";0;0;1;2
"artiste déesse";0;0;2;6
"alain hatat";0;0;2;5.5;0;0;1;6
"miss tic oeuvres";0;0;1;5
"peintre paris 1";0;0;1;18
"christof monnin";0;0;3;10;0;0;2;10
"véronique masurel";0;0;5;4
"sui jianguo";0;0;3;7.6666666666667
"jean michel basquiat in italian";0;0;12;8;0;0;4;9
"la souris sur le gateau";0;0;1;9
"cesar artiste";0;0;5;6;0;0;1;6
"masked blonde";0;0;1;4
"helene de saint lager";0;0;1;11
"investir dans l'art";0;0;3;7
"massimo vitali";0;0;5;7;0;0;1;8
"artiste l'atlas";0;0;1;7
"shepard fairey";0;0;2;11;0;0;1;5
"sebastien mehal";0;0;2;7
"basquiat oeuvre";0;0;2;8.5
"richard orlinski king kong";0;0;1;4
"clément alain";0;0;1;5
"yves zurstrassen";0;0;1;3
"coca cola sophia";0;0;1;9
"sarah mapple";0;0;1;7
"galerie waltman";0;0;1;7
"galerie delorme";0;0;1;4
"le sculpteur césar";0;0;1;11
"steve hickok";0;0;1;6
"tony frank";0;0;8;7.75
"ski sex";0;0;1;10
"ann grim";0;0;1;6
"cesar compression";0;0;1;16
"césar expansion";0;0;1;5
hatat;0;0;1;20;0;0;1;10
"crane pasqua";0;0;1;4
"christian bilger";0;0;1;8
"charlelie cout";0;0;1;2
jakè;0;0;1;4
"sculpture panthere noire";0;0;2;6
sen2;0;0;1;4
"peintre jean dubuffet";0;0;1;7
"le chat street art";0;0;3;4
fulcrand;0;0;1;2
"jean michel basquiat œuvres d'art";0;0;15;9.6666666666667
"henri iglesis";0;0;5;3
"mecanic art";0;0;3;6;0;0;2;7
"vincent richeux peintre";0;0;1;2
"daniela x";0;0;3;10
"james coignard";0;0;1;9;0;0;1;10
"kami voituriez";0;0;1;1
"miss tic street art";0;0;1;8;0;0;1;7
"ruta jusionyte";0;0;3;9
"galerie collin";0;0;2;4;0;0;1;4
"galerie bettina paris";0;0;2;9;0;0;1;7
"drouet peintre";0;0;1;5;0;0;1;5
"pras bernard";0;0;1;4
jr;0;0;1;57
"jean marie drouet";0;0;4;6.25
"gerard boudon";0;0;1;10
"peinture gouache";0;0;1;97
"vincent peters";0;0;1;8;0;0;1;10
"lachapelle photographe";0;0;1;6
"galerie hus";0;0;2;10.5;0;0;1;11
izabeau;0;0;1;4
"catherine klein";0;0;1;10
"marie drouet";0;0;1;10
"tilt street art";0;0;1;5
"collection d'art";0;0;1;11
"passe-partout torrent";0;0;1;20
"no orange";0;0;1;8
nidzgorski;0;0;1;4
"solene lalonde";0;0;1;40
boudro;0;0;1;10;0;0;1;8
"armand scholtès";0;0;1;11
"jasmine black";0;0;1;21
basquiat;0;0;1;17
"etienne cail";0;0;4;8.75
"under construction gallery";0;0;5;5;0;0;1;5
"galerie raison d'art";0;0;1;6
"achat d'oeuvre d'art";0;0;1;1
"galerie envie d'art";0;0;2;3
"jeremie lenoir";0;0;1;5
"photo artistique noel";0;0;1;10
"telemaque peintre";0;0;2;6
"adami valerio oeuvres";0;0;1;10
"elle prendra";0;0;1;10
"alexandre joly facebook";0;0;1;14
"josi paula";0;0;2;7
"artiste le chat";0;0;1;8
"elodie lachaud";0;0;1;4
"gabriel jones";0;0;1;4
"bonhomme blanc";0;0;2;10
"galerie jean denis walter";0;0;2;7.5
"annabelle tattu";0;0;1;4
"jack hironimus";0;0;1;3
"adrien leguay";0;0;1;3
"gallerie d'art";0;0;1;10
"dope gallery";0;0;1;5
"peter mayr";0;0;1;7
jadikan;0;0;1;8
abelardo;0;0;1;9
"nain porte quoi";0;0;2;11
"james brown peintre";0;0;1;21
"oeuvre de takashi murakami";0;0;1;4
"apanage des faibles";0;0;1;7
"dani divine x";0;0;1;18
"fabien verschaere";0;0;2;2.5
"cadeaux marilyn monroe";0;0;1;68
"cecile plaisance";0;0;1;10;0;0;2;9
"callegari lucile";0;0;1;5
"art dok";0;0;1;6
"loan nguyen";0;0;1;8
"guy boyer";0;0;1;9
"sculpture crocodile rouge";0;0;1;2
one4you;0;0;1;18
"agnes dubart";0;0;2;8.5
"alex katz";0;0;2;8
"ki to la gloire";0;0;5;7.4
gregos;0;0;2;7
"solene x";0;0;3;7.3333333333333
"zao wou ki peintures";0;0;1;19
mesnager;0;0;5;4;0;0;4;4
"haude bernabé";0;0;1;9
"peinture demon";0;0;1;8
"le chat artiste";0;0;1;7
"fred calmets";0;0;1;4
"peintre vietnamien contemporain";0;0;1;8;0;0;1;9
"galerie claire corcia";0;0;2;5.5
"jean michel basquiat oeuvres";0;0;4;7;0;0;2;9
"el ultimo viaje del buque fantasma";0;0;1;9
"béatrice terra";0;0;2;1
"utopie tangible";0;0;1;5
"orlinski prix";0;0;6;7.8333333333333;0;0;1;8
"luc grateau";0;0;1;3
catelain;0;0;4;2.5
"tilt graffiti";0;0;2;7
"talus taylor";0;0;1;49
"alexandre durand";0;0;3;10
"sculpture bronze contemporain";0;0;1;49
"thomas canto";0;0;3;7
bodnariu;0;0;5;4.8
leyto;0;0;1;8
"isabelle de mars";0;0;1;3
dontzoff;0;0;1;3
akiza;0;0;1;11
"wally wood disney";0;0;1;6
"artistes allemands contemporains";0;0;1;7
ecloz;0;0;1;5
"patrick delaunay peintre";0;0;1;4
"marchal mithouard";0;0;1;8
"leopold rabus";0;0;1;8
"qui est césar baldaccini";0;0;1;8
"galerie gilbert dufois";0;0;1;4
"miss tic artiste";0;0;1;5
"galerie art internet";0;0;3;1
"fazzino charles";0;0;1;4;0;0;1;5
"troy henriksen";0;0;4;3;0;0;4;3
"galerie stammegna";0;0;1;5
chamizo;0;0;3;7.6666666666667
"kate barry";0;0;1;36
tanc;0;0;6;6
artspar;0;0;1;1
"mwenze kibwanga";0;0;1;4
"torrick ablack";0;0;1;4
"alexandre mulliez";0;0;1;1
"combas peinture";0;0;1;5
"michel gueranger";0;0;2;4
"tom bartos nude";0;0;1;10
"roy lichtenstein";0;0;1;199
"louis stettner";0;0;1;10
"alain rivière-lecoeur";0;0;1;3
"stephane ducatteau";0;0;2;4.5;0;0;1;5
"francois morellet";0;0;5;10;0;0;1;9
"pierrot men madagascar";0;0;1;30
"francois millo";0;0;1;7
"miss tic biographie";0;0;2;5
"antonio segui";0;0;4;9.75
"thomas jorion";0;0;3;4
"yi ling";0;0;3;7.3333333333333
"obey artiste peintre";0;0;1;2
"tal coat prix";0;0;1;2
"pierre cornudet";0;0;2;2
"marin patrick";0;0;1;9
"alfons alt";0;0;1;10
flugo;0;0;1;8
"sculpture richard orlinski";0;0;1;7;0;0;1;7
"john one artiste";0;0;1;4
"claude leveque oeuvres";0;0;2;5
"my an";0;0;1;8
"banksy œuvres d'art";0;0;1;8
"anne cindric";0;0;2;4
"monika nowak art";0;0;2;5
"tao chambery";0;0;1;9
"masmonteil olivier";0;0;1;7
"richard orlinski tarif";0;0;1;5
aboudia;0;0;1;8
"gilles peinture";0;0;1;1
"sculpture homme valise";0;0;1;10
"boutique art contemporain";0;0;2;2
"cesar le sculpteur";0;0;1;7
"galeries d'art contemporain";0;0;1;2
"patrick fauconnier";0;0;1;12
"nathalie grall";0;0;1;6
"herve lewis photo";0;0;2;5
"serge labegorre";0;0;1;7
cieu;0;0;1;9
"sculpteur orlinski";0;0;1;6
"madame figaro logo";0;0;1;1
"fabienne arietti";0;0;3;5
"cote combas";0;0;1;5
"gordon hopkins peintre";0;0;1;1
"catalano sculpteur prix";0;0;1;2
"john levee";0;0;2;5
"jeff koons biographie";0;0;1;7
"sandra david";0;0;1;5
"lucile chombart de lauwe";0;0;1;8
"sculpture mickey";0;0;1;6
"capri sculpture";0;0;1;8
"keith haring oeuvre";0;0;1;6
"keith haring oeuvres connu";0;0;1;6
"cine x atlas paris";0;0;1;55
"shepard fairey obey street art";0;0;1;10
"galerie sbk lyon";0;0;2;9
"peintre hopkins";0;0;1;1
"girl with ball lichtenstein";0;0;2;10
"jean hélion peintre";0;0;1;8
"chamizo peintre";0;0;2;11
"art to be gallery lille";0;0;1;7
"galerie ricci";0;0;1;3
"galeries bruxelles art contemporain";0;0;1;4
"juliette schwartz";0;0;1;6
"maxime acker";0;0;1;7
"andrea michaelsson";0;0;1;2
"christophe fischer";0;0;1;7
"eva jospin artiste";0;0;1;5
"mesnager jerome";0;0;1;4
"britto paris";0;0;1;9
"banksy biographie";0;0;1;10
"laurent maes";0;0;1;9
bernar;0;0;1;10
"yves krief";0;0;1;6
"octave pixel";0;0;4;6.25
"colorfield gallery";0;0;1;8
"corinne dalle";0;0;1;2
"galerie grand rue";0;0;1;5
"vente d oeuvre d art en ligne";0;0;5;1
"vente oeuvre d'art";0;0;1;1
"elder batista";0;0;3;11
"prix de sculpture";0;0;1;5
"martin reyna";0;0;1;5
"toxic street artist";0;0;3;4
"toxic graffiti artist";0;0;1;4
"tn rouge";0;0;2;16
"robert combas portrait";0;0;1;5
"acheter une toile d'artiste";0;0;1;4
"jonvelle jean francois";0;0;1;11
"ellen priest";0;0;1;3
"peintre irlandais";0;0;2;6
"marc gerenton";0;0;1;3
"georges dumas";0;0;2;11
"nue jardin";0;0;1;35
"cesar baldaccini sculptures";0;0;2;5
"sculptures monumentales";0;0;1;9
"ralph gibson somnambulist";0;0;1;9
"obey street art";0;0;1;10
"orlinda lavergne";0;0;1;6
"jean dubuffet biographie courte";0;0;1;4
"huart philippe";0;0;1;6
"achat art en ligne";0;0;1;1
tairou;0;0;2;8
"richard harper";0;0;1;5
"brisson pierre";0;0;1;8
"mackeown peintre";0;0;2;5
"oeuvre de cesar";0;0;1;6
scupture;0;0;1;7
smael;0;0;1;6
"marcel dumont";0;0;2;7
"ronald dupont";0;0;1;9
"mercier mathieu";0;0;1;10
"street art galerie en ligne";0;0;2;8
"sculpture cesar prix";0;0;1;6
"nadal peintre";0;0;1;8
"erro biographie";0;0;1;6
"richard orlinski acheter";0;0;1;1
"couture peintre";0;0;1;9
"michel four";0;0;1;9
"oeuvre art";0;0;1;2
averly;0;0;1;9
"jm robert peintre";0;0;1;2
"baroja collet";0;0;1;1
"jacques mahé";0;0;1;9
"lorioz peintre";0;0;1;5
"peintre beaufils";0;0;1;6
"eric de ville";0;0;2;4
"vente art internet";0;0;1;1
"oeuvre d'art humoristique";0;0;1;56
"sculpture art moderne";0;0;1;2
"sandrine paumelle";0;0;2;4
"hiro ando samurai cat";0;0;1;7
"basquiat in italian";0;0;1;9
"artigas planas";0;0;1;1
"julien airault peintre";0;0;2;2
"gerard rancinan";0;0;1;8
"philippe pasqua prix des oeuvres";0;0;1;1
"pierre grimaldi";0;0;1;1
goddog;0;0;1;4
"nicolas dubreuille";0;0;1;5
"art sper";0;0;2;1
"arman oeuvre";0;0;1;7
"roy sfeir";0;0;1;5
joneone;0;0;1;5
"vente sculpture en ligne";0;0;1;1
"eric bourse galerie en ligne";0;0;1;3
"francoise petrovich";0;0;1;7
"li wei";0;0;1;4
"achat art contemporain en ligne";0;0;1;1
"gaspard mitz";0;0;1;1
"danielle le bricquir";0;0;1;8
"patrick villas sculpteur";0;0;1;3
"bear galerie uzes";0;0;1;9
"du buffet peintre";0;0;2;7
adek;0;0;1;16
"oeuvre d'art contemporaine";0;0;1;1
"vincent ruffin";0;0;2;10
"chacha 1";0;0;2;6
"luc dratwa";0;0;1;5
"tairou bodian";0;0;2;1
"marie le gargasson";0;0;1;5
"eric en ville";0;0;1;6
"jonone artiste peintre";0;0;1;2
planeteserie;0;0;1;7
"the painters project";0;0;1;2
"galerie d'art bruxelles";0;0;1;9
"guy oberson";0;0;1;18
"michael bastow";0;0;1;7
"catalano bruno prix des oeuvres";0;0;3;2
"marie oger";0;0;1;11
"messager peintre";0;0;4;8
"valerie hadida sculpture";0;0;1;3
"sculpteur charbonnel";0;0;1;6
"georges autard";0;0;1;5
"peinture marché aux fleurs";0;0;1;7
"antoine de laboulaye";0;0;1;3
"raynaud artiste";0;0;1;8
"sculpture achat";0;0;1;1
"alain vaissiere";0;0;1;5
poés;0;0;1;10
"nues feminin";0;0;1;19
"shepard fairey œuvres d'art";0;0;1;2
"jonone the chronicles";0;0;1;42
"le diamentaire";0;0;1;9
"acheter art";0;0;1;1
"pignon ernest pignon";0;0;1;6
"remi delaplace";0;0;1;7
"christophe charbonnel";0;0;1;6
"nicolas moreau peintre";0;0;1;5
"jerry hall 1980";0;0;1;8
valentin_caro;0;0;1;8
"sculpture japonaise contemporaine";0;0;1;9
"bernard saint maxent";0;0;1;9
"claude lévêque";0;0;1;11
"romero brito";0;0;1;8
"acheter de l'art";0;0;1;3
bastardoz;0;0;1;4
split-rocker;0;0;1;16
"jean françois rauzier";0;0;1;7
"acheter un tableau d'artiste";0;0;1;3
"mesnager artiste";0;0;1;2
"deesse statue";0;0;1;4
"kurt mair peintre";0;0;1;10
"ben bella artiste";0;0;1;2
"nicolas gasiorowski";0;0;1;11
xintao;0;0;2;6
dysform;0;0;1;3
"keith haring crack down";0;0;1;3
"sculpture monumentale";0;0;1;3
"marty de montereau";0;0;2;1
"photographie art contemporain";0;0;1;2
"prix des sculptures de bruno catalano";0;0;1;6
"peintre artiste contemporain";0;0;2;5
"l.a. ii";0;0;1;8
"carlos garcia roman";0;0;1;7
"mr brainwash prix";0;0;1;1
"denis robert";0;0;1;48
"laurent durrey";0;0;2;10
"prix sculpture bruno catalano";0;0;1;5
"agustin sirai";0;0;1;5
"marie ge";0;0;1;10
nowak;0;0;1;59
"prix sculpture";0;0;1;4
guybert;0;0;1;6
"galerie gastaud";0;0;1;7
lachize;0;0;2;7.5
"alex katz paysage";0;0;1;7
"sculpture oeuvre d'art";0;0;2;4
"cote bruno catalano";0;0;2;6.5
"manuel cohen";0;0;1;5
sgarra;0;0;1;4
"francois morellet oeuvre";0;0;2;9
"galerie en ligne";0;0;2;1.5
"vente photographie";0;0;2;9.5
"obey fairey";0;0;1;8
"combas artiste peintre";0;0;2;4
"reinhard gorner";0;0;1;6
levigne;0;0;1;29
"cortade art";0;0;1;7
"balloon dog jeff koons prix";0;0;1;9
"laure d'hauteville";0;0;1;7
vanessa;0;0;1;194
"serge delaune";0;0;2;2
"miss. tic";0;0;1;6
"peinture street art";0;0;7;10
chenut;0;0;1;48
"michelle auboiron";0;0;1;6
