artsper;24;0.11267605633803;213;1;7;0.051470588235294;136;1;14;0.35;40;1;3;0.081081081081081;37;1
"bruno catalano prix";8;0.25806451612903;31;4.5161290322581;4;0.30769230769231;13;4.1538461538462;2;0.22222222222222;9;4.2222222222222;2;0.22222222222222;9;5.3333333333333
jonone;7;0.041176470588235;170;4.9117647058824;2;0.023255813953488;86;4;3;0.055555555555556;54;5.8703703703704;2;0.066666666666667;30;5.8
sculpture;6;0.0091883614088821;653;7.0061255742726;2;0.0064102564102564;312;6.7628205128205;4;0.032258064516129;124;7.0322580645161
"vincent richeux";5;0.11363636363636;44;4.0227272727273;0;0;11;4.0909090909091;2;0.076923076923077;26;4;3;0.42857142857143;7;4
"banksy oeuvres";5;0.053191489361702;94;6.5744680851064;5;0.086206896551724;58;6.2413793103448;0;0;26;7.1923076923077;0;0;10;6.9
iemza;4;0.4;10;4.1;2;0.5;4;4;1;0.25;4;4;1;0.5;2;4.5
"miss tic";4;0.027210884353741;147;5.5918367346939;1;0.01219512195122;82;5;2;0.041666666666667;48;6.3333333333333;1;0.058823529411765;17;6.3529411764706
chanoir;4;0.22222222222222;18;1.0555555555556;0;0;2;1;4;0.33333333333333;12;1.0833333333333;0;0;4;1
"galerie d'art";4;0.068965517241379;58;7.2068965517241;4;0.11111111111111;36;6.8055555555556;0;0;8;7.875
"tairou bodian";3;0.5;6;1;2;0.5;4;1;1;1;1;1
"jerome mesnager";3;0.088235294117647;34;3.9411764705882;2;0.1;20;3.35;1;0.33333333333333;3;5
"dominic grisor";3;0.5;6;1.5;3;0.5;6;1.5
"ron english";3;0.10714285714286;28;4.8928571428571;3;0.13636363636364;22;4.5909090909091;0;0;5;6.2;0;0;1;5
"jef aerosol";3;0.042253521126761;71;6.5070422535211;3;0.078947368421053;38;7.6052631578947;0;0;26;5.3076923076923;0;0;7;5
"annette messager";3;0.036144578313253;83;8.0722891566265;3;0.053571428571429;56;7.7678571428571;0;0;21;8.7142857142857;0;0;6;8.6666666666667
orlinski;3;0.09375;32;6.96875;1;0.047619047619048;21;6.9047619047619;1;0.14285714285714;7;7;1;0.25;4;7.25
"kiki picasso";3;0.14285714285714;21;6.3809523809524;2;0.14285714285714;14;6;0;0;5;7;1;0.5;2;7.5
"hank china prix";3;0.375;8;1;2;0.5;4;1;0;0;2;1;1;0.5;2;1
"ernest pignon ernest oeuvres";2;0.13333333333333;15;7.2;1;0.2;5;7.2;1;0.125;8;7;0;0;2;8
"philippe pasqua prix";2;0.5;4;1.25;0;0;2;1;2;1;2;1.5
"robert barry";2;0.18181818181818;11;3.8181818181818;2;0.25;8;3.75;0;0;3;4
"vente photographie";2;0.28571428571429;7;8.7142857142857;2;0.4;5;8.6;0;0;1;9;0;0;1;9
"dominique grisor";2;0.33333333333333;6;1;1;0.2;5;1;1;1;1;1
"alain godon";2;0.08695652173913;23;2.3478260869565;2;0.2;10;4.1;0;0;8;1;0;0;5;1
"keith haring oeuvres";2;0.043478260869565;46;5.3695652173913;2;0.083333333333333;24;4.8333333333333;0;0;13;5.9230769230769;0;0;9;6
"robert bradford";2;0.25;8;2.375;2;0.28571428571429;7;2.4285714285714;0;0;1;2
"bruno catalano prix sculptures";2;0.4;5;4;1;0.33333333333333;3;4;0;0;1;4;1;1;1;4
"daniel authouart";2;0.074074074074074;27;8.8518518518519;0;0;5;8;2;0.125;16;9;0;0;6;9.1666666666667
"thomas jorion";2;0.095238095238095;21;4.1428571428571;2;0.18181818181818;11;4.2727272727273;0;0;10;4
"lou ros";2;0.28571428571429;7;6.4285714285714;2;0.28571428571429;7;6.4285714285714
"gerstein prix";2;0.4;5;1;2;0.66666666666667;3;1;0;0;2;1
"artiste contemporain en vogue";2;1;2;2;1;1;1;2;1;1;1;2
"charlotte perrot";2;1;2;4;1;1;1;4;1;1;1;4
"richard orlinski";2;0.040816326530612;49;6.3673469387755;1;0.047619047619048;21;6.5714285714286;0;0;25;6.2;1;0.33333333333333;3;6.3333333333333
"flipo peintre";2;0.66666666666667;3;1;1;1;1;1;1;0.5;2;1
"fabien verschaere";2;0.5;4;2;2;0.66666666666667;3;2;0;0;1;2
"arnaud franc";2;0.4;5;4;1;0.33333333333333;3;4;0;0;1;4;1;1;1;4
krm;2;0.22222222222222;9;2.5555555555556;2;0.4;5;3;0;0;4;2
"eva jospin";2;0.052631578947368;38;4.9473684210526;1;0.05;20;4.75;1;0.1;10;5.5;0;0;8;4.75
"ced vernay";2;0.22222222222222;9;4;2;0.4;5;4;0;0;1;4
"sergio moscona";2;0.28571428571429;7;3.2857142857143;2;0.5;4;3.5;0;0;3;3
levalet;2;0.10526315789474;19;6.8947368421053;2;0.13333333333333;15;6.4;0;0;3;8.3333333333333;0;0;1;10
"patrick delaunay";2;0.25;8;3.125;2;0.28571428571429;7;3;0;0;1;4
"bernard pras";2;0.047619047619048;42;3.7142857142857;2;0.068965517241379;29;3.1034482758621;0;0;8;5.125;0;0;5;5
"ben bella peintre";2;0.2;10;2;1;0.33333333333333;3;2;1;0.25;4;2;0;0;3;2
"james coignard";2;0.5;4;20.5;2;0.5;4;20.5
gzstore;2;1;2;1.5;1;1;1;1;1;1;1;2
"artiste en vogue";2;0.5;4;2.25;1;1;1;2;1;0.5;2;2;0;0;1;3
"claire fanjul";2;0.66666666666667;3;2.6666666666667;2;0.66666666666667;3;2.6666666666667
"sculpture panthere noire";2;0.4;5;7.6;1;0.33333333333333;3;7.3333333333333;1;1;1;6;0;0;1;10
"françoise petrovitch";2;0.058823529411765;34;9.0588235294118;2;0.074074074074074;27;8.8148148148148;0;0;5;10;0;0;2;10
"li wei artiste";2;0.4;5;5;2;0.4;5;5
"eduardo kac";2;0.095238095238095;21;10.095238095238;2;0.14285714285714;14;10;0;0;6;10.166666666667;0;0;1;11
"hervé di rosa";2;0.08695652173913;23;4;2;0.125;16;4;0;0;5;3.6;0;0;2;5
"corine pagny";1;0.5;2;3;1;0.5;2;3
leyto;1;0.5;2;3;1;0.5;2;3
"olivier catte";1;1;1;2;1;1;1;2
"artiste obey";1;0.5;2;4;1;0.5;2;4
"alben artiste";1;0.16666666666667;6;9.3333333333333;0;0;1;9;1;0.25;4;9.5
"jacques villegle oeuvres";1;1;1;1;1;1;1;1
"lorioz peintre prix";1;1;1;1;1;1;1;1
fazzino;1;0.045454545454545;22;7.9545454545455;0;0;7;8.4285714285714;1;0.16666666666667;6;9.1666666666667
"olivier sultan";1;0.5;2;3;1;1;1;2;0;0;1;4
"herve di rosa";1;0.16666666666667;6;4.8333333333333;1;0.25;4;4.25;0;0;2;6
"eric peyret peintre";1;0.33333333333333;3;1;1;0.33333333333333;3;1
"joan longas";1;0.5;2;3;1;0.5;2;3
"sun hyuk kim";1;0.25;4;1.25;1;0.25;4;1.25
"peintre milo";1;1;1;4;1;1;1;4
"flexo zed";1;0.5;2;4;1;1;1;3
"jean michel gnidzaz";1;0.5;2;2;1;0.5;2;2
"artiste light painting";1;1;1;20;1;1;1;20
"andoche praudel";1;0.5;2;4;1;0.5;2;4
www.artsper.com;1;1;1;1;1;1;1;1
"charlelie couture peinture";1;0.5;2;2;1;1;1;2;0;0;1;2
"tete de mort diamant artiste";1;1;1;10;1;1;1;10
canogar;1;1;1;5;1;1;1;5
dirosa;1;0.2;5;5.8;1;0.2;5;5.8
"pierre budet";1;0.2;5;4;1;0.2;5;4
"andre masson art";1;1;1;6;1;1;1;6
"casey baugh";1;1;1;10;1;1;1;10
capocci;1;0.11111111111111;9;6;1;0.16666666666667;6;6;0;0;1;6
"romain tichit";1;0.076923076923077;13;4;1;0.1;10;4;0;0;1;4
"yo marchand";1;0.25;4;3;1;0.5;2;3;0;0;2;3
"sandra david";1;0.25;4;4.5;1;0.25;4;4.5
"galerie nicolas hugo";1;0.5;2;5;1;1;1;5
"nigel cox";1;1;1;4;1;1;1;4
"benjamin carbonne";1;0.2;5;1;1;0.2;5;1
"yutao ge";1;0.33333333333333;3;1;1;0.5;2;1
"cyprien clément-delmas";1;1;1;6;1;1;1;6
"thierry bigaignon";1;1;1;3;1;1;1;3
"sylvain coulaud";1;0.33333333333333;3;2;1;1;1;2;0;0;2;2
"robert combas biographie";1;0.33333333333333;3;5.6666666666667;1;0.5;2;5.5;0;0;1;6
"monsieur chat";1;0.021276595744681;47;6;1;0.058823529411765;17;6.7058823529412;0;0;5;6.2
"sandy skoglund";1;0.035714285714286;28;9.2142857142857;0;0;1;8;1;0.0625;16;9.5
"jola sidi";1;0.5;2;4;1;0.5;2;4
"art traffik";1;1;1;2;1;1;1;2
"léo galamez";1;1;1;2;1;1;1;2
"juliette clovis";1;0.14285714285714;7;3;1;0.14285714285714;7;3
escougnou;1;1;1;5;1;1;1;5
"eva jospin forêt";1;0.25;4;8.75;1;0.5;2;8
"kong orlinski";1;1;1;3;1;1;1;3
"clément denis";1;0.5;2;5;1;0.5;2;5
"shepard fairey biographie";1;0.25;4;3.25;1;0.25;4;3.25
"françois bard";1;0.2;5;2.6;1;0.2;5;2.6
"dan gerbo";1;0.33333333333333;3;7;1;1;1;7
"gilles capton";1;1;1;3;1;1;1;3
"mesnager jerome";1;0.33333333333333;3;3.3333333333333;1;1;1;4
"christophe barthes de ruyter";1;1;1;5;1;1;1;5
"edmée delsol artiste";1;1;1;2;1;1;1;2
"annette messager oeuvres";1;0.066666666666667;15;6.8;1;0.083333333333333;12;6.75;0;0;2;7;0;0;1;7
"jr oeuvres";1;0.5;2;6;1;0.5;2;6
"orlinski crocodile prix";1;1;1;4;1;1;1;4
"clement cogitore";1;1;1;12;1;1;1;12
"jonone prix";1;0.2;5;1;0;0;1;1;1;0.33333333333333;3;1
rancinan;1;0.066666666666667;15;6.3333333333333;1;0.1;10;6;0;0;3;7;0;0;2;7
"prix sculpture";1;0.14285714285714;7;3;0;0;3;3;1;0.25;4;3
"sculpture contemporaine platre";1;0.33333333333333;3;3;1;0.33333333333333;3;3
mesnager;1;0.1;10;3.6;1;0.25;4;4.5
"catalano bruno prix des oeuvres";1;0.14285714285714;7;3.4285714285714;1;0.33333333333333;3;3;0;0;3;3;0;0;1;6
"théo haggai";1;1;1;1;1;1;1;1
"peter klasen peintre";1;1;1;1;1;1;1;1
"nathan chantob artiste peintre";1;0.5;2;2;1;0.5;2;2
"willis from tunis";1;1;1;33;1;1;1;33
"godon peintre";1;0.25;4;2.5;1;1;1;3;0;0;1;3
"oeuvre de cesar baldaccini";1;0.33333333333333;3;3;1;0.33333333333333;3;3
"claire trotignon";1;0.090909090909091;11;4.2727272727273;1;0.1;10;4.3;0;0;1;4
"lindsay garreau";1;0.5;2;3;1;0.5;2;3
"steve hickok";1;0.33333333333333;3;5.3333333333333;1;0.33333333333333;3;5.3333333333333
"remi delaplace";1;1;1;3;1;1;1;3
"lucien murat";1;0.11111111111111;9;6.2222222222222;1;0.25;4;6.5;0;0;4;6;0;0;1;6
"billet banksy";1;0.33333333333333;3;1;1;1;1;1
"jean hélion";1;0.083333333333333;12;7.3333333333333;1;0.1;10;7.6;0;0;1;6;0;0;1;6
"charlélie couture peinture";1;0.5;2;2.5;1;0.5;2;2.5
"richard orlinski prix panthere";1;0.25;4;8;1;0.33333333333333;3;8;0;0;1;8
"nyaba leon ouedraogo";1;1;1;5;1;1;1;5
"david gerstein";1;0.055555555555556;18;3.6111111111111;1;0.1;10;4;0;0;6;3.1666666666667;0;0;2;3
"petra wunderlich";1;1;1;2;1;1;1;2
"toma l";1;0.25;4;4.25;1;0.33333333333333;3;4.3333333333333;0;0;1;4
"alexandre joly artiste";1;1;1;4;1;1;1;4
"sandy skoglund biographie";1;0.2;5;4;1;0.5;2;4;0;0;3;4
"hideka tonomura";1;0.125;8;2.75;1;0.2;5;3.2;0;0;3;2
"now art";1;1;1;5;1;1;1;5
"oeuvre de annette messager";1;0.25;4;4.75;1;0.33333333333333;3;5;0;0;1;4
"luc chopplet";1;0.25;4;1;1;0.25;4;1
"valerie belmokhtar";1;0.2;5;8.6;1;0.5;2;8;0;0;3;9
"combas robert";1;0.0625;16;5.125;1;0.14285714285714;7;4;0;0;5;6;0;0;4;6
"ambiance architecture";1;1;1;13;1;1;1;13
"timothée talard";1;0.5;2;4;1;0.5;2;4
"olivier lelong";1;0.5;2;2.5;1;0.5;2;2.5
"carl andre";1;0.125;8;6;1;0.125;8;6
"davide galbiati";1;1;1;14;1;1;1;14
"marc josse";1;1;1;10;1;1;1;10
gnidzaz;1;0.25;4;3.25;1;0.25;4;3.25
"michael cailloux";1;1;1;123;1;1;1;123
"bernard pras oeuvre";1;1;1;2;1;1;1;2
"oeuvres en noir et blanc";1;1;1;5;1;1;1;5
"iemza acheter";1;1;1;1;1;1;1;1
"kool koor";1;0.01010101010101;99;3.7575757575758;1;0.5;2;4
"tracey emin oeuvres";1;0.5;2;2.5;1;0.5;2;2.5
"vivian maier";1;0.5;2;20;1;0.5;2;20
"fabrice hyber biographie";1;1;1;2;1;1;1;2
"airault peintre";1;0.5;2;2;1;0.5;2;2
"yang yongliang";1;0.026315789473684;38;6.1842105263158;1;0.03030303030303;33;6.0606060606061;0;0;5;7
"galerie jonone";1;1;1;1;1;1;1;1
"patrick gonzales";1;0.25;4;10.75;1;0.33333333333333;3;11
"maxime frairot peintre";1;1;1;4;1;1;1;4
"corinne dalle";1;1;1;5;1;1;1;5
"bastien cuenot";1;0.33333333333333;3;1;1;0.33333333333333;3;1
"speedy graphito prix";1;0.25;4;1;1;0.25;4;1
"michelle auboiron";1;0.14285714285714;7;6;0;0;2;6;1;1;1;6
"claude viallat oeuvres";1;0.5;2;8;1;0.5;2;8
"joan miro oeuvres";1;0.05;20;9;1;0.0625;16;11;0;0;1;1;0;0;3;1
"etienne buraud";1;0.5;2;3;1;0.5;2;3
"luc grateau";1;1;1;4;1;1;1;4
"christophe charbonnel artiste";1;1;1;6;1;1;1;6
"françois malingrëy";1;0.071428571428571;14;5.2142857142857;1;0.071428571428571;14;5.2142857142857
"live in art";1;1;1;2;1;1;1;2
keymi;1;0.125;8;8.625;0;0;2;8;1;0.33333333333333;3;8;0;0;3;9.6666666666667
"gregoire leon guillemin";1;0.2;5;3;0;0;1;3;1;0.33333333333333;3;3
"gilbert dufois";1;1;1;3;1;1;1;3
"combas art";1;0.5;2;5;1;0.5;2;5
"objet banal devient oeuvre d'art";1;0.33333333333333;3;10;1;0.33333333333333;3;10
"brno del zou";1;0.33333333333333;3;3;1;0.5;2;3;0;0;1;3
"di rosa peintre";1;0.2;5;5;0;0;1;5;1;0.25;4;5
"torrick ablack wikipedia";1;0.5;2;2;0;0;1;2;1;1;1;2
"yann stofer";1;1;1;16;1;1;1;16
quik;1;0.0058139534883721;172;1.3546511627907;1;0.013333333333333;75;1.2133333333333;0;0;22;1.3636363636364
"laurence dreyfus";1;0.083333333333333;12;8.75;0;0;2;9;1;0.16666666666667;6;9
"sun mi ahn";1;0.33333333333333;3;6;1;0.33333333333333;3;6
"orn art";1;1;1;4;1;1;1;4
"gz store";1;0.25;4;1.75;1;0.33333333333333;3;2
"miguel chevalier";1;0.05;20;9.5;1;0.0625;16;9.25;0;0;2;10;0;0;2;11
"christine barres";1;0.16666666666667;6;3.1666666666667;1;0.25;4;3.25;0;0;1;3;0;0;1;3
"serge mendjisky";1;0.2;5;7;1;0.2;5;7
"miss van";1;0.038461538461538;26;6.9230769230769;1;0.076923076923077;13;6;0;0;12;7.9166666666667;0;0;1;7
"john kacere";1;0.2;5;10.4;1;0.33333333333333;3;10
"peinture visage homme";1;1;1;12;1;1;1;12
"leopold rabus";1;0.2;5;6;1;0.33333333333333;3;6;0;0;2;6
grisor;1;0.2;5;1.6;1;0.25;4;1.75;0;0;1;1
"anthony lietart";1;1;1;5;1;1;1;5
"tof vanmarque";1;1;1;2;1;1;1;2
"jean charles quillin";1;0.5;2;7;1;0.5;2;7
"oeuvre de eduardo kac";1;0.125;8;9.5;1;0.25;4;10
"arno elias";1;0.2;5;4.2;1;0.25;4;4;0;0;1;5
"di rosa richard";1;1;1;3;1;1;1;3
"philippe brosse";1;0.14285714285714;7;4;0;0;2;4;1;0.2;5;4
"gordon hopkins";1;0.16666666666667;6;3;1;0.25;4;3;0;0;2;3
"galerie ricci";1;1;1;3;1;1;1;3
ecloz;1;0.125;8;4.5;1;0.25;4;4;0;0;3;5;0;0;1;5
"yazid oulab";1;0.33333333333333;3;4.6666666666667;1;0.33333333333333;3;4.6666666666667
"artistes contemporains";1;0.066666666666667;15;8.7333333333333;0;0;4;8.25;1;0.5;2;8
"robert sgarra";1;0.2;5;3.2;1;0.5;2;3;0;0;3;3.3333333333333
"françois morelet";1;1;1;11;1;1;1;11
"alain longeaud";1;1;1;2;1;1;1;2
"pierre-marie brisson artiste peintre";1;0.5;2;2;1;0.5;2;2
"didier avril";1;0.5;2;6;0;0;1;6;1;1;1;6
"cesar oeuvre";1;0.33333333333333;3;5.6666666666667;1;0.33333333333333;3;5.6666666666667
"marcus egli";1;0.33333333333333;3;6;1;0.5;2;5.5;0;0;1;7
"luke newton";1;1;1;4;1;1;1;4
destarac;1;0.33333333333333;3;4;1;0.5;2;3.5
"gérard clisson";1;0.5;2;3;1;0.5;2;3
"villeglé jacques";1;0.5;2;3;1;0.5;2;3
"sophie cavalie";1;1;1;3;1;1;1;3
"etienne cail";1;0.33333333333333;3;8;1;0.33333333333333;3;8
"ann grim";1;0.5;2;5.5;1;0.5;2;5.5
"takashi murakami oeuvres";1;0.1;10;2.5;1;0.125;8;2.375;0;0;2;3
"benjamin artiste";1;0.33333333333333;3;6.3333333333333;1;0.33333333333333;3;6.3333333333333
"jef aerosol oeuvres";1;1;1;2;1;1;1;2
"philippe azema";1;0.33333333333333;3;2;1;0.5;2;2
"oeuvres keith haring";1;0.16666666666667;6;5.8333333333333;1;0.16666666666667;6;5.8333333333333
"alain vaissiere peintre";1;1;1;4;1;1;1;4
"roméro britto";1;0.5;2;4.5;1;0.5;2;4.5
arsper;1;0.2;5;1;1;1;1;1
"lampe carlo nason";1;1;1;2;1;1;1;2
"jaké artiste";1;0.25;4;4;1;0.5;2;4;0;0;1;4;0;0;1;4
"le tabouret";1;1;1;58;1;1;1;58
"filles en bas de soie";1;1;1;2;1;1;1;2
"galerie la ligne";1;1;1;68;1;1;1;68
"thomas verny peintre";1;1;1;1;1;1;1;1
jisbar;1;1;1;1;1;1;1;1
"tony soulié prix";1;0.33333333333333;3;2.6666666666667;0;0;1;3;1;1;1;3
"gérard boudon sculpteur";1;0.25;4;8.25;1;0.25;4;8.25
"mathieu mercier";1;0.038461538461538;26;10.076923076923;1;0.055555555555556;18;10.833333333333;0;0;7;8.1428571428571;0;0;1;10
demiak;1;0.5;2;2;1;0.5;2;2
"julian opie";1;0.16666666666667;6;5.3333333333333;1;0.5;2;6
"affiche jr";1;0.25;4;5.5;1;0.25;4;5.5
"arroyo peintre";1;0.2;5;5;1;0.25;4;5;0;0;1;5
"compression de césar";1;0.33333333333333;3;7;1;1;1;7;0;0;2;7
"peter klasen";1;0.038461538461538;26;3.4230769230769;1;0.0625;16;3.0625;0;0;6;4;0;0;4;4
"mengzhi zheng";1;0.5;2;4.5;1;0.5;2;4.5
"sandra mulliez hegedus";1;0.5;2;20;1;0.5;2;20
"achat oeuvre banksy";1;1;1;1;1;1;1;1
"shaka artiste";1;0.33333333333333;3;5.6666666666667;1;1;1;5;0;0;2;6
"hank china";1;0.083333333333333;12;1;1;0.14285714285714;7;1;0;0;4;1;0;0;1;1
"stephane ducatteau";1;0.16666666666667;6;7.1666666666667;1;0.33333333333333;3;7.3333333333333;0;0;1;6;0;0;2;7.5
"maurizio nannucci";1;1;1;10;1;1;1;10
"biographie jean dubuffet";1;1;1;6;1;1;1;6
"expansion cesar";1;0.2;5;6;1;0.25;4;6
"art to be gallery lille";1;0.2;5;4.2;1;0.25;4;4;0;0;1;5
"philippe pasqua";1;0.023809523809524;42;6.2619047619048;1;0.047619047619048;21;5.8095238095238;0;0;14;6.5714285714286;0;0;7;7
sester;1;1;1;13;1;1;1;13
"richard orlinski crocodile";1;1;1;7;1;1;1;7
"françois morellet biographie";1;0.16666666666667;6;7;1;0.16666666666667;6;7
"speedy graphito oeuvre";1;1;1;1;1;1;1;1
"galerie art";1;0.071428571428571;14;10.071428571429;0;0;7;9.5714285714286;1;0.14285714285714;7;10.571428571429
"jacques villeglé";1;0.021276595744681;47;5.063829787234;1;0.033333333333333;30;5.0333333333333;0;0;12;4.5833333333333;0;0;5;6.4
"fabrice hyber";1;0.027777777777778;36;7.4722222222222;0;0;21;7.8571428571429;0;0;12;6.75;1;0.33333333333333;3;7.6666666666667
rozowy;1;1;1;5;1;1;1;5
"jacques pellegrin artiste peintre";1;0.5;2;10;1;0.5;2;10
"annette messager oeuvre";1;0.25;4;7;1;0.5;2;7;0;0;2;7
"valerie le merrer";1;0.5;2;2;1;0.5;2;2
"carl andré";1;0.052631578947368;19;6.1052631578947;1;0.058823529411765;17;6;0;0;1;7;0;0;1;7
"kamel yahiaoui";1;0.33333333333333;3;6.3333333333333;1;0.5;2;6;0;0;1;7
"laurent dauptain";1;0.14285714285714;7;4;1;0.25;4;4
"tom wesselman";1;1;1;3;1;1;1;3
"aude carre";1;0.33333333333333;3;6;1;0.33333333333333;3;6
"jef aerosol prix";1;0.25;4;1;1;0.25;4;1
"oeuvre banksy";1;0.0625;16;7.75;1;0.083333333333333;12;7.75;0;0;2;8.5;0;0;2;7
"lucile callegari";1;0.25;4;7.5;1;0.5;2;7
"oeuvre ernest pignon ernest";1;0.33333333333333;3;6;0;0;1;6;1;0.5;2;6
"françois glineur";1;0.5;2;2.5;1;0.5;2;2.5
"l'atlas artiste";1;0.090909090909091;11;6.6363636363636;1;0.25;4;6;0;0;6;7;0;0;1;7
"artsper societe";1;0.5;2;1;1;0.5;2;1
"jean marc dallanegra";1;0.25;4;4;0;0;1;4;1;0.5;2;4;0;0;1;4
"eva jospin biographie";1;0.33333333333333;3;4;0;0;1;4;1;1;1;4;0;0;1;4
"combas peintre";1;0.0625;16;5.0625;0;0;1;4;1;0.071428571428571;14;5.2142857142857;0;0;1;4
"achat oeuvre d'art";1;0.2;5;1;0;0;2;1;1;0.5;2;1;0;0;1;1
"gregoire guillemin biographie";1;1;1;1;1;1;1;1
"moz artiste";1;0.5;2;2;1;0.5;2;2
"pius fox";1;0.5;2;7;1;0.5;2;7
"françois malingrey";1;0.037037037037037;27;5.0740740740741;1;0.16666666666667;6;5;0;0;4;5
"finbarr dac";1;1;1;5;1;1;1;5
"david lachapelle biographie";1;0.083333333333333;12;4;1;0.083333333333333;12;4
"mr brainwash prix";1;0.5;2;1;1;1;1;1
"lithographie combas";1;0.16666666666667;6;5.5;1;0.33333333333333;3;5.6666666666667;0;0;2;5.5;0;0;1;5
"richard orlinski prix";1;0.2;5;7.4;0;0;1;7;1;0.33333333333333;3;7.3333333333333;0;0;1;8
"costa artiste peintre";1;1;1;2;1;1;1;2
"toxic art";1;1;1;3;1;1;1;3
gief;1;0.14285714285714;7;10;1;0.14285714285714;7;10
"nature morte contemporaine";1;1;1;67;1;1;1;67
"banksy billet";1;0.25;4;1;1;0.5;2;1;0;0;2;1
"anne guillon";1;0.33333333333333;3;7.6666666666667;1;0.33333333333333;3;7.6666666666667
"daniel de spirt";1;0.5;2;9;1;0.5;2;9
"shepard fairey oeuvres";1;0.16666666666667;6;3.6666666666667;1;0.16666666666667;6;3.6666666666667
"jr artiste";1;0.2;5;9.8;1;0.5;2;14
"statue a vendre";1;0.5;2;19.5;1;1;1;20;0;0;1;19
"street art galerie";1;0.14285714285714;7;10;1;0.14285714285714;7;10
"ben vautier oeuvres";1;1;1;8;1;1;1;8
"monika nowak";1;0.125;8;4;1;0.14285714285714;7;4;0;0;1;4
"katrin bremermann";1;0.33333333333333;3;4;1;0.33333333333333;3;4
"thomas bossard artist";1;1;1;2;1;1;1;2
"alain josseau";1;0.33333333333333;3;3;1;0.33333333333333;3;3
"miss tic biographie";1;1;1;4;1;1;1;4
"jacque villeglé";0;0;1;4;0;0;1;4
bondary;0;0;1;9;0;0;1;9
"di rosa herve";0;0;3;4;0;0;3;4
"le bel homme";0;0;1;8
"oeuvres de bernard pras";0;0;1;3
orlinki;0;0;1;7
"kyungwoo chun";0;0;1;9
"biographie de eduardo kac";0;0;1;6;0;0;1;6
guilleme;0;0;5;5;0;0;3;5
"catherine klein";0;0;4;9;0;0;1;9
"investir dans l'art";0;0;4;9;0;0;1;9
"nathalie grall";0;0;2;7.5;0;0;1;7
kacere;0;0;2;8;0;0;2;8
"francky boy";0;0;2;7.5;0;0;1;10;0;0;1;5
"rancinan gérard";0;0;1;5
"vera molnar";0;0;2;68
"julien airault";0;0;2;2.5;0;0;1;3
"lawrence weiner";0;0;18;10.111111111111;0;0;3;11
"maya i";0;0;2;8;0;0;2;8
"pete doherty";0;0;1;96;0;0;1;96
"britto happy";0;0;2;8
"spark peintre";0;0;1;8
"severine boutry";0;0;1;3
"oeuvre de bansky";0;0;3;6.3333333333333
"daphné navarre";0;0;4;3;0;0;2;3
piens;0;0;1;30;0;0;1;30
"zed time";0;0;1;42
"anne valérie dupond";0;0;5;9.6;0;0;3;10
"jeanne lorioz peintre";0;0;3;5;0;0;2;5
"jean louis audibert";0;0;1;1
rabus;0;0;2;10.5;0;0;1;11
"elise oudin gilles";0;0;2;3
"vente oeuvre d'art en ligne";0;0;2;1
"monsieur chat paris";0;0;4;9.75;0;0;3;10
"galerie d'art sur internet";0;0;1;1
"galerie loft paris";0;0;2;6
"vente sculpture";0;0;3;1;0;0;1;1
"berry philippe";0;0;4;9;0;0;2;9;0;0;2;9
"oeuvre d'art unique";0;0;2;1;0;0;2;1
rancillac;0;0;3;22
jaké;0;0;1;5;0;0;1;5
artspar;0;0;1;1
"galerie charron";0;0;1;4
"planète série";0;0;18;5.2222222222222;0;0;1;6
"jurassic park";0;0;2;216
"peinture ange";0;0;3;82.333333333333
"manolo chretien";0;0;1;6;0;0;1;6
krief;0;0;1;63
"sous bock";0;0;1;92
xxxx;0;0;2;156.5
wolverine;0;0;1;215;0;0;1;215
"pasqua philippe";0;0;2;6;0;0;2;6
"art peinture contemporaine";0;0;2;4;0;0;1;4
"sex au ski";0;0;1;10;0;0;1;10
"ernest pignon ernest oeuvre";0;0;5;7;0;0;4;7
"la souris sur le gateau";0;0;2;8.5;0;0;1;9;0;0;1;8
"peinture de foule";0;0;1;10;0;0;1;10
"nicolas touron";0;0;1;6;0;0;1;6
"œuvres d'art à l'encre";0;0;1;9
"deesse statue";0;0;2;4;0;0;2;4
"art aborigene contemporain";0;0;3;38.333333333333;0;0;3;38.333333333333
"ben oeuvres";0;0;2;2;0;0;1;2
feuerman;0;0;1;11;0;0;1;11
"jasmine black";0;0;1;19;0;0;1;19
"tom wesselmann biographie";0;0;1;3
brugier;0;0;3;10;0;0;1;15;0;0;2;7.5
"oeuvre de jean michel basquiat";0;0;1;5
"jean-michel basquiat oeuvres";0;0;4;7;0;0;2;6;0;0;2;8
"olivier leroy photographe";0;0;2;4;0;0;1;4;0;0;1;4
"toxic artiste peintre";0;0;1;1;0;0;1;1
"basquiat skull";0;0;1;4
"antoine geiger";0;0;4;8;0;0;3;8;0;0;1;8
"benoit lison";0;0;1;6;0;0;1;6
"art des lèvres";0;0;1;30
"koala photographie";0;0;2;10
"luxury memory";0;0;1;1
szafran;0;0;1;36;0;0;1;36
"iker valle";0;0;1;8;0;0;1;8
"grisor peintre";0;0;2;1;0;0;2;1
"jeunes artistes";0;0;1;7
"requin tigre";0;0;1;86
"leonardo agosti";0;0;1;8
"biographie christian boltanski";0;0;1;14
takala;0;0;8;5.875;0;0;6;7
"orta artiste";0;0;1;6
"jim morrison young";0;0;1;10
"david monllor";0;0;1;3
kerbidi;0;0;2;10.5;0;0;1;10;0;0;1;11
"lawrence wiener";0;0;2;9
"galerie bertrand";0;0;1;10
"snoopy ski";0;0;2;3;0;0;1;4;0;0;1;2
"jean-michel berts paris";0;0;1;11
oeuvrette;0;0;1;9;0;0;1;9
"valerie hadida";0;0;2;3
"oeuvre d'art contemporaine";0;0;13;1.0769230769231;0;0;6;1
"charlotte champion";0;0;2;3;0;0;1;3;0;0;1;3
"biographie jeff koons";0;0;2;8;0;0;1;8
"salopette homme";0;0;1;97
"violon arman";0;0;4;6;0;0;3;6
"jean luc beaufils";0;0;1;4
"robert mapplethorpe oeuvres";0;0;2;4
"zed artiste";0;0;3;2;0;0;1;2;0;0;2;2
"galerie d'art contemporain bruxelles";0;0;1;7
"galerie art jingle";0;0;1;6
"agam artiste";0;0;1;8;0;0;1;8
"artistes malgaches";0;0;1;24
"mr lindt";0;0;1;6
"lucien ghomri";0;0;2;3;0;0;1;3
"robert combas peintre";0;0;1;4
"kouka artiste";0;0;1;3;0;0;1;3
"karl andre";0;0;3;6.3333333333333;0;0;2;6;0;0;1;7
youngboy;0;0;3;65.333333333333;0;0;3;65.333333333333
poe's;0;0;1;5
"art de vendre";0;0;2;4;0;0;1;4
jonona;0;0;1;6;0;0;1;6
"sumi e";0;0;4;32.5
"anne brégeaut";0;0;2;8
"biographie de arman";0;0;2;10;0;0;2;10
"adele moreau";0;0;1;4;0;0;1;4
"nicolas moreau peintre";0;0;2;5
"barres peintre";0;0;1;3;0;0;1;3
"peinture dubuffet";0;0;2;6;0;0;2;6
alary;0;0;3;99.666666666667;0;0;3;99.666666666667
"thierry bamas";0;0;5;21;0;0;1;23
"norman rockwell oeuvres";0;0;1;12
"fournier belgique";0;0;1;26
"bernard buffet";0;0;1;51
"oeuvre de sculpture";0;0;3;9.3333333333333;0;0;3;9.3333333333333
"bete rouge";0;0;2;41.5
"galerie collégiale";0;0;1;4
"art code barre";0;0;1;8
"pez artiste";0;0;1;10;0;0;1;10
"jonone cote";0;0;2;7;0;0;1;7
"galerie garnier delaporte";0;0;1;4;0;0;1;4
*#0011#;0;0;4;6.75;0;0;2;7;0;0;1;7;0;0;1;6
"yves gellie";0;0;1;7;0;0;1;7
"galerie jousse";0;0;1;38
"yoel benharrouche peintre";0;0;1;8
"galerie sculpture contemporaine";0;0;1;1;0;0;1;1
"pierre cornudet";0;0;1;1
"richard orlinski tarif";0;0;2;5;0;0;2;5
"edouardo kac";0;0;2;10;0;0;2;10
"dubuffet oeuvres";0;0;6;5;0;0;6;5
"philippe lopez";0;0;2;22
"thierry michelet";0;0;2;8
"ivan messac";0;0;1;6;0;0;1;6
c215;0;0;1;21
"torrick ablack";0;0;1;4;0;0;1;4
sculptire;0;0;1;6;0;0;1;6
"peinture napoleon";0;0;3;70;0;0;3;70
"lampe en verre de murano";0;0;2;42.5
"jeanne lorioz";0;0;4;3;0;0;4;3
"balloon dog";0;0;24;9.9166666666667;0;0;8;9.25;0;0;4;11
"scorpion sculpture";0;0;1;10;0;0;1;10
"carrier france";0;0;3;100
"cat soubbotnik";0;0;1;7
"butz et fouque";0;0;1;1
araki;0;0;3;44
"rita hayworth";0;0;1;157
"angele guerre";0;0;1;2;0;0;1;2
"budet joel";0;0;1;49;0;0;1;49
"galerie zimmerling & jungfleisch";0;0;2;2;0;0;2;2
"frederic adrait";0;0;1;10;0;0;1;10
"jean dubuffet biographie courte";0;0;2;3
"alb galerie";0;0;1;9;0;0;1;9
"art unique";0;0;1;3;0;0;1;3
zooportrait;0;0;3;5;0;0;3;5
layral;0;0;1;7
"vente tableau art contemporain";0;0;1;1;0;0;1;1
athur;0;0;3;20
"vente singe";0;0;1;46;0;0;1;46
villéglé;0;0;2;5
"galerie audet";0;0;2;5.5;0;0;1;4
"keith haring crack down";0;0;1;2
michou;0;0;3;82.333333333333
"christophe catelain";0;0;2;3.5;0;0;1;3
"aurelie nemours";0;0;4;43.5
"les oeuvres d'art";0;0;3;7.3333333333333
"patrick cornillet";0;0;2;3
"portrait miroir";0;0;1;6
"peintre new yorkais contemporain";0;0;1;8;0;0;1;8
"sarah white x";0;0;1;4
"malika mokadem photographe";0;0;2;10;0;0;2;10
"oeuvre d'art du 21eme siecle";0;0;1;8
lussigny;0;0;1;2;0;0;1;2
"takashi murakami biographie courte";0;0;1;3
"les oeuvres";0;0;1;38
"galerie d'art londres";0;0;1;18;0;0;1;18
"vente pignon";0;0;1;64
"fille chien";0;0;1;96
"jean-françois rauzier";0;0;1;7
"oeuvre braque";0;0;1;31;0;0;1;31
"panthere orlinski";0;0;1;1;0;0;1;1
"street art en france";0;0;2;59;0;0;2;59
"sculpture murale";0;0;4;43.25;0;0;4;43.25
"florence d’elle";0;0;1;10
mulhem;0;0;1;3;0;0;1;3
"alain huet";0;0;2;7.5;0;0;1;8
"galerie street art";0;0;3;27.666666666667
"thibault brunet";0;0;2;9;0;0;1;9
"jean pierre giovanelli";0;0;1;9;0;0;1;9
"richard orlinski king kong";0;0;1;4;0;0;1;4
"sandra ghosn";0;0;2;9
"millesime gallery";0;0;2;5;0;0;1;5
"ayline olukman";0;0;1;4;0;0;1;4
braoudé;0;0;2;10;0;0;2;10
"john crash matos";0;0;1;4
nouna;0;0;1;18;0;0;1;18
"nom des oeuvres de keith haring";0;0;1;7;0;0;1;7
"galerie onega";0;0;2;6
"spark artiste";0;0;1;7;0;0;1;7
stripart;0;0;1;7
"peinture parking";0;0;1;74
"galerie bruno massa";0;0;3;10;0;0;1;10
"oeuvre d'art en papier";0;0;1;6
"la galerie d'art";0;0;2;5.5;0;0;1;4
"bansky toile";0;0;2;8.5
"envie dart";0;0;3;4;0;0;1;4;0;0;2;4
obey;0;0;3;79.333333333333;0;0;3;79.333333333333
tuxon;0;0;3;19
"apple or";0;0;3;6
"brigitte penicaud";0;0;1;4;0;0;1;4
"sanguine peinture";0;0;1;35
"photographie noir et blanc technique";0;0;1;15;0;0;1;15
"gérard schlosser";0;0;3;4;0;0;1;4;0;0;1;4;0;0;1;4
"vente tzarina aucun";0;0;3;12.666666666667;0;0;3;12.666666666667
"thomas canto";0;0;14;7.6428571428571;0;0;7;7.7142857142857;0;0;2;7
"oeuvre d'art en chocolat";0;0;1;6
"galerie sbk lyon";0;0;2;7;0;0;1;7;0;0;1;7
"galeries d'art bruxelles";0;0;1;11
"art en ligne peinture";0;0;3;2;0;0;2;2
"claude levêque";0;0;3;9;0;0;3;9
aniel;0;0;3;91;0;0;3;91
"artiste murakami";0;0;1;3;0;0;1;3
"galerie sbk";0;0;1;4;0;0;1;4
"agnes dubart";0;0;1;10
"conrad marca relli";0;0;1;10
"samuel levy";0;0;3;5.3333333333333;0;0;1;5;0;0;1;5
"monsieur chat street art";0;0;1;5
"mimi le clown";0;0;1;5;0;0;1;5
"art jingle";0;0;6;4.6666666666667;0;0;3;5;0;0;1;5
"banksy oeuvre";0;0;15;7.5333333333333;0;0;11;7.3636363636364;0;0;4;8
hominium;0;0;2;4
sibony;0;0;1;4
"galerie olivier waltman";0;0;1;5
"de troy peintre";0;0;1;10
"tom wesselmann oeuvres";0;0;3;3.3333333333333
"francoise petrovitch";0;0;4;8.75;0;0;4;8.75
kintgen;0;0;1;11;0;0;1;11
"artiste arman";0;0;3;11.333333333333;0;0;1;10
"bill bate";0;0;1;9;0;0;1;9
"jean francois rauzier";0;0;3;6
"photo art contemporain";0;0;3;2.6666666666667
"buste de femme sculpture";0;0;1;112
"art popo";0;0;1;7;0;0;1;7
"panthere rouge";0;0;1;9
shuck2;0;0;2;7.5;0;0;1;8
"laetitia x";0;0;2;18;0;0;2;18
madamoiselle;0;0;1;10
"toon x";0;0;1;42
"toile cirée contemporaine";0;0;2;75.5;0;0;2;75.5
"sculpture art";0;0;1;3
"wes wilson";0;0;2;13.5;0;0;2;13.5
"cadeau bleu blanc rouge";0;0;1;9;0;0;1;9
"bouillon d'art";0;0;3;4
zalez;0;0;6;5;0;0;4;5;0;0;2;5
"philippe berry sculpteur";0;0;4;5.25;0;0;1;5;0;0;1;8
caresses;0;0;1;509
"orlan oeuvre";0;0;1;6
"morgan paslier";0;0;2;4;0;0;2;4
"galerie collégiale lille";0;0;4;4
"pivot san marco biennale";0;0;1;191
"oeuvre d'art pas cher";0;0;3;2;0;0;2;2
"raimond hains";0;0;12;8.6666666666667
"gwenael billaud";0;0;4;4
"auto portrait peinture";0;0;3;83.333333333333
"claude lévêque artiste";0;0;1;5
"costa sculpteur";0;0;2;2.5;0;0;1;2
"oeuvres de jr";0;0;5;5;0;0;5;5
artacat;0;0;1;2
"gregory watin";0;0;1;2
lolacola;0;0;2;3;0;0;2;3
"richard di rosa";0;0;1;4;0;0;1;4
"catwoman milk";0;0;1;10;0;0;1;10
"les 3 garces";0;0;2;9.5
aboudia;0;0;3;8
"ben l'artiste français";0;0;1;3
"peinture incas";0;0;1;10
"david maheo";0;0;1;3;0;0;1;3
"artiste belge contemporain";0;0;1;8
sumi;0;0;1;70;0;0;1;70
"cecile desserle peintures";0;0;1;6;0;0;1;6
"charbonnel christophe";0;0;2;7
"art de la vente";0;0;1;3
"k haring oeuvre";0;0;1;5;0;0;1;5
"mac carthy artiste";0;0;1;20
"pascale barret";0;0;1;9;0;0;1;9
"galerie bruxelles art contemporain";0;0;1;6
"galerie en ligne";0;0;11;1.7272727272727;0;0;2;2;0;0;3;2
"photographie d\'art";0;0;2;18
"y warhol";0;0;3;37
"clement peintre";0;0;2;6;0;0;2;6
"clarisse rebotier";0;0;3;4;0;0;2;4;0;0;1;4
"guy boyer";0;0;1;9;0;0;1;9
"vincent descotils";0;0;5;8;0;0;4;8;0;0;1;8
"troy henriksen prix";0;0;1;1;0;0;1;1
moyoshi;0;0;5;4;0;0;2;4
"xin art";0;0;1;4
"oeuvre ionesco";0;0;3;49.333333333333
"lyle carbajal";0;0;2;4
ommer;0;0;1;5
"historique photographie";0;0;1;88
"olivier vincent";0;0;2;14;0;0;2;14
"œuvre médias mixtes";0;0;1;23
"john matos";0;0;2;5;0;0;1;5;0;0;1;5
"exposition damien hirst";0;0;1;26
"deesse gaia";0;0;1;67;0;0;1;67
"mensing artistes";0;0;23;6.9130434782609
"peinture julien";0;0;1;18;0;0;1;18
"buffet artiste";0;0;1;5;0;0;1;5
"combas peinture";0;0;1;4
"mist graffeur";0;0;2;9.5;0;0;2;9.5
"saudade art";0;0;1;5
"acheter peinture biot";0;0;1;46
"valerie hadida sculpture";0;0;2;3;0;0;1;3;0;0;1;3
"tableaux banksy";0;0;2;10;0;0;2;10
"vente peinture";0;0;5;28.2
"corto maltes";0;0;3;46.666666666667;0;0;3;46.666666666667
"oeuvres de jean michel basquiat";0;0;1;6
"sculpture sculpture";0;0;2;7;0;0;2;7
hatat;0;0;1;13;0;0;1;13
"sylvie guilleme";0;0;1;2
"musées d'art à chattanooga";0;0;3;51.333333333333;0;0;3;51.333333333333
yzeult;0;0;1;2;0;0;1;2
"gerstein david";0;0;5;3.4;0;0;2;4
"oeuvres basquiat";0;0;1;5
"damien hirst oeuvres";0;0;8;5.875;0;0;3;6.6666666666667;0;0;2;6
"olivier lelong photographe";0;0;1;2;0;0;1;2
"galerie art moderne";0;0;4;4.25;0;0;3;4.3333333333333
wesselman;0;0;1;3;0;0;1;3
"trudy good";0;0;1;5;0;0;1;5
"artiste keith haring";0;0;1;7
"tableau artiste contemporain";0;0;3;4
facto;0;0;3;84.333333333333;0;0;3;84.333333333333
"aurélie bauer peintre";0;0;1;9;0;0;1;9
arman;0;0;4;42.5
"art vente";0;0;1;1;0;0;1;1
"soubrette x";0;0;1;61
"murakami peintre";0;0;7;3.7142857142857;0;0;1;6;0;0;3;3.6666666666667;0;0;3;3
"kokian prix";0;0;1;6
"bar refaeli";0;0;1;133
"russian monroe";0;0;1;9
fuck;0;0;1;178
"hannah adamaszek";0;0;1;8;0;0;1;8
mrsex;0;0;3;15.333333333333;0;0;2;15;0;0;1;16
"sandrine paumelle";0;0;3;5;0;0;1;5
"kate winslet";0;0;1;180
"achat art en ligne";0;0;2;1
pananka;0;0;2;4;0;0;1;5
"galerie riviere faiveley";0;0;2;8;0;0;2;8
"banksy biographie";0;0;1;12;0;0;1;12
"elodie gregoire";0;0;4;6;0;0;2;6
"isabelle bonzom";0;0;2;5;0;0;2;5
"nobuyoshi araki galerie";0;0;1;6
"galerie wagner";0;0;2;5
"oeuvre d'art moderne";0;0;5;1.4;0;0;4;1.5;0;0;1;1
"liu bolin biographie";0;0;5;2.4;0;0;1;2;0;0;1;2
"gérard alary";0;0;1;4;0;0;1;4
"luzia simons";0;0;1;5
"peintre nadal";0;0;1;8
"didier triglia";0;0;5;4.8
koolkoor;0;0;1;3;0;0;1;3
saudek;0;0;2;11;0;0;2;11
"achat tableau artiste peintre";0;0;1;3
navarro;0;0;1;280;0;0;1;280
"vincent ruffin";0;0;1;8
fazino;0;0;5;9.6
"joan pere viladecans";0;0;2;1;0;0;2;1
"shepard fairey vote";0;0;2;1.5;0;0;1;2
"aujf paris";0;0;1;36
"otto schade";0;0;2;6
"yan pei ming";0;0;2;38;0;0;1;38;0;0;1;38
"peinture pop art";0;0;2;17.5
"pierre cornette de saint cyr";0;0;2;17.5
"art attack pierre a secret";0;0;1;8
"mark jenkins";0;0;10;10.3;0;0;7;10;0;0;2;11;0;0;1;11
"bernar venet oeuvres";0;0;1;4
"peinture animaux";0;0;1;28
"juliette schwartz";0;0;1;7;0;0;1;7
trives;0;0;1;21;0;0;1;21
"erro portrait";0;0;1;5;0;0;1;5
lilou.com;0;0;1;92
"catalano artiste";0;0;1;5;0;0;1;5
"bouillon d'art bordeaux";0;0;1;4;0;0;1;4
"oeuvre keith haring";0;0;4;5.25;0;0;1;6
"eric lapierre";0;0;4;6.25
poplavski;0;0;2;6;0;0;2;6
"marchand art";0;0;3;73.333333333333;0;0;3;73.333333333333
"eric brugier";0;0;1;7
"cassius clay";0;0;2;11;0;0;2;11
"mp 77";0;0;1;9;0;0;1;9
"anne et patrick poirier oeuvres";0;0;1;4
scultures;0;0;4;5.25
"sculpture pingouin";0;0;1;36
"juliette choné";0;0;2;3;0;0;1;3
nowart;0;0;4;3;0;0;2;3
"mb factory chamonix";0;0;1;6
"oeuvre d'art sur la peur";0;0;1;2
"charlie chaplin superman";0;0;1;1;0;0;1;1
"elodie grégoire";0;0;1;7
"petit jeune";0;0;2;22;0;0;2;22
"marin kasimir";0;0;3;5.3333333333333
"monsieur le chat";0;0;11;5.7272727272727;0;0;3;5;0;0;3;6;0;0;5;6
"justine smith";0;0;2;8;0;0;1;7;0;0;1;9
"thierry feuz";0;0;2;9.5
correia;0;0;1;55
"bansky oeuvres";0;0;1;6
"jana & js";0;0;1;7;0;0;1;7
"adeline spengler";0;0;4;5;0;0;1;5
"photo bel homme";0;0;3;71;0;0;3;71
"ren hang gallery";0;0;1;10;0;0;1;10
carybe;0;0;1;6;0;0;1;6
galeries;0;0;38;7.2105263157895;0;0;6;7.6666666666667
speedygraphito;0;0;20;7
"jean michel basquiat oeuvre";0;0;1;7
rakel;0;0;1;10
"philippe pasqua biographie";0;0;1;5;0;0;1;5
"gilles aillaud";0;0;3;11;0;0;1;11
"art moderne sculpture";0;0;1;2
"john william waterhouse œuvres d'art";0;0;4;9.75;0;0;2;9;0;0;1;11
"henry lamy";0;0;2;3.5
banq;0;0;1;65;0;0;1;65
"marc cerrone";0;0;3;21.333333333333
bailart;0;0;1;10;0;0;1;10
"galerie d'art france";0;0;2;7
banksy,;0;0;1;32;0;0;1;32
"e pignon ernest";0;0;2;7;0;0;2;7
"tableau collioure";0;0;2;85;0;0;2;85
"galeries art contemporain bruxelles";0;0;2;9;0;0;1;9
atila;0;0;3;57;0;0;3;57
"ipso france";0;0;2;31.5;0;0;2;31.5
"chaton vente";0;0;3;97.333333333333
eppelé;0;0;1;6
"taureau peinture";0;0;3;40.333333333333;0;0;3;40.333333333333
wesselmann;0;0;2;8
"william blast";0;0;1;3;0;0;1;3
"gilles mercier";0;0;1;18;0;0;1;18
"peinture sky";0;0;2;10
"miss tuc";0;0;1;5;0;0;1;5
"alain clement artiste peintre";0;0;2;4;0;0;2;4
"sayed haider raza";0;0;1;10;0;0;1;10
"combasse peintre";0;0;1;3;0;0;1;3
"romero brito";0;0;2;7.5;0;0;1;8
"art contemporain vente";0;0;1;1;0;0;1;1
"jeff aerosol";0;0;6;4.3333333333333;0;0;4;4;0;0;2;5
"guy mansuy";0;0;1;2
"jeanne susplugas";0;0;2;13
"galerie d'art contemporain en ligne";0;0;4;1;0;0;2;1
"francois bard";0;0;3;1
"murielle belin";0;0;2;10;0;0;2;10
"fred ebami";0;0;1;10
"francois morellet";0;0;20;9.4;0;0;2;9.5
"biographie de willy ronis";0;0;1;8;0;0;1;8
camen;0;0;4;6.75;0;0;2;8;0;0;2;5.5
"john levee";0;0;3;5.6666666666667
"claire bianchi";0;0;2;4;0;0;2;4
ronenglish;0;0;1;5
"andrew painter";0;0;1;12
mr.chat;0;0;1;6;0;0;1;6
rivieras;0;0;1;161
"bertrand desprez";0;0;3;6.3333333333333;0;0;1;7
"dubuffet peintre";0;0;2;5;0;0;1;5;0;0;1;5
"tableau 21eme siecle";0;0;1;5
"internet arts";0;0;1;1;0;0;1;1
"chat jaune paris";0;0;1;10;0;0;1;10
"moulin rouge";0;0;1;230
"marilyn andy warhol";0;0;1;49
"shirley jaffe artiste";0;0;2;4;0;0;2;4
"elisabeth lecourt";0;0;6;2.5;0;0;2;4;0;0;3;1
desserle;0;0;2;6;0;0;2;6
danze;0;0;1;9;0;0;1;9
"ceccotti sergio";0;0;1;2
"damien hirst exposition";0;0;2;39;0;0;2;39
oeuvre;0;0;1;137
"oeuvre david";0;0;2;10;0;0;2;10
"anne messager";0;0;3;8;0;0;1;6;0;0;1;12
"seen seen";0;0;2;59;0;0;1;66
"thierry carrier";0;0;3;3.6666666666667
"x sculpture";0;0;1;6;0;0;1;6
"oeuvre damien hirst";0;0;1;4
oneiro;0;0;1;8
"eduardo arroyo";0;0;1;9;0;0;1;9
"marie bagot";0;0;1;10
"roland cat wikipedia";0;0;1;1
"greg guillemin catwoman";0;0;1;6;0;0;1;6
"banksy toile";0;0;9;8.4444444444444;0;0;5;8.6;0;0;4;8.25
youssoufi;0;0;3;72.333333333333
"sculpture art contemporain";0;0;7;2
"jef aérosol";0;0;12;4.5833333333333;0;0;5;5
"les oeuvres de banksy";0;0;2;9.5;0;0;1;10
"oeuvre jean michel basquiat";0;0;1;7
"herve telemaque";0;0;2;6;0;0;1;7;0;0;1;5
"vertigo peinture";0;0;1;8
"eric bourse galerie en ligne";0;0;2;4;0;0;2;4
"oeuvre erro";0;0;1;6
"fuck suck";0;0;1;27
"roch vandromme";0;0;4;5.5;0;0;2;7
"hopkins peintre";0;0;1;1;0;0;1;1
mpah;0;0;1;7;0;0;1;7
"wesselmann oeuvres";0;0;3;5;0;0;1;5
"césar expansion";0;0;5;6;0;0;1;6;0;0;1;6
opalka;0;0;3;32
"flowers warhol";0;0;1;62
"mr chat paris";0;0;3;8;0;0;1;8
"magic summer";0;0;1;58
"anne vignal";0;0;2;4;0;0;2;4
"combas peintre cote";0;0;1;3;0;0;1;3
"jacques poli";0;0;3;10
"morellet artiste";0;0;1;6
"galerie filles nues noir et blancs";0;0;1;36
"kloe vano";0;0;1;3;0;0;1;3
"flipo emmanuel";0;0;1;1
"david harber";0;0;1;93;0;0;1;93
"cornette de saint cyr";0;0;3;23.333333333333;0;0;1;18
"sculpture tete";0;0;1;97;0;0;1;97
"zao wouki";0;0;3;45
"oeuvre miro";0;0;1;1
"leila amat ortega";0;0;1;6
"galerie d'art bruxelles";0;0;2;10
"orlinski crocodile";0;0;1;7;0;0;1;7
"en vente";0;0;1;23
"art conceptuel disney";0;0;1;19
"richard orlinski panthere prix";0;0;1;5;0;0;1;5
"james coignard artist";0;0;1;55;0;0;1;55
"takashi murakami biographie";0;0;1;3
"renaud peinture";0;0;1;45
"marie houset";0;0;2;4.5;0;0;1;4
"butz & fouque";0;0;2;2
"emmanuel albaret";0;0;1;20
"artiste benjamin";0;0;1;6;0;0;1;6
"oeuvres d'art moderne";0;0;1;1
"basquiat oeuvre";0;0;1;7
carbonel;0;0;1;63
"galerie d'art internet";0;0;2;1.5
"banksy achat";0;0;1;2
"galerie art france";0;0;1;28;0;0;1;28
"oswaldo guayasamin el grito";0;0;1;4
"peinture danseuse";0;0;3;62
"sculpture murakami";0;0;1;3;0;0;1;3
"galerie aka";0;0;1;9
"alva bernadine";0;0;3;1
"aa bronson";0;0;2;10
"mont venus";0;0;1;83
rackel;0;0;1;10;0;0;1;10
napaljarri;0;0;1;9;0;0;1;9
"philippe croq";0;0;1;8;0;0;1;8
"galerie roy sfeir";0;0;2;4.5
"galerie d'art contemporain montreal";0;0;1;27;0;0;1;27
"sculpture crocodile orlinski";0;0;2;7;0;0;1;7;0;0;1;7
sculputure;0;0;1;7;0;0;1;7
navabi;0;0;2;41.5
"biographie erro";0;0;1;8
"pignon ernest oeuvre";0;0;8;6;0;0;2;6;0;0;1;6
"site galerie d'art";0;0;1;2
"toile artiste";0;0;1;72
"miss tic paris";0;0;2;8
"oeuvre d'art colère";0;0;1;7
"britto romero";0;0;5;8.2;0;0;3;8.6666666666667
combass;0;0;1;6;0;0;1;6
colombo;0;0;1;267
"marco barbon";0;0;1;8;0;0;1;8
samsofy;0;0;1;17;0;0;1;17
"sculpture à vendre";0;0;20;1
"le belhomme";0;0;1;3
"jessica leguillon";0;0;1;5
laveri;0;0;2;4;0;0;2;4
"raphael denis";0;0;2;6;0;0;2;6
"jm peinture";0;0;1;9
"benjamin carbonne peintre";0;0;1;1;0;0;1;1
"achat sculpture contemporaine";0;0;1;1;0;0;1;1
ramos;0;0;3;69.666666666667
"bagage homme blanc";0;0;1;19;0;0;1;19
"christine coulaud";0;0;1;125;0;0;1;125
bansky;0;0;3;29.333333333333;0;0;1;30
"brigitte perrier";0;0;2;4;0;0;1;6;0;0;1;2
"fleury sylvie";0;0;1;7
merienne;0;0;2;7.5;0;0;1;9;0;0;1;6
voyeur;0;0;2;229;0;0;2;229
"achat sculpture";0;0;9;1;0;0;7;1;0;0;1;1;0;0;1;1
"caroline poulet";0;0;6;4;0;0;2;4;0;0;3;4;0;0;1;4
"marc gerenton";0;0;3;4.3333333333333
jakè;0;0;5;4.2;0;0;2;4
"christof monnin peinture";0;0;4;5.5;0;0;2;10
millo;0;0;3;66
"nus feminin";0;0;1;36;0;0;1;36
"jean helion";0;0;5;4.6;0;0;2;4;0;0;2;5
"mr le chat";0;0;1;6;0;0;1;6
"hugo mulliez";0;0;2;7
"oeuvres de miro";0;0;1;11
"elsa guillaume";0;0;3;5;0;0;3;5
"natalia rak";0;0;4;3.75;0;0;3;3;0;0;1;6
"sebastien mehal";0;0;2;8;0;0;2;8
manquin;0;0;1;32
"annabelle tattu";0;0;1;4;0;0;1;4
"mahjoub ben bella wikipedia";0;0;3;3.3333333333333;0;0;2;3;0;0;1;4
"mahé boissel";0;0;2;4.5;0;0;2;4.5
"vente mundos";0;0;1;2;0;0;1;2
"louis soutter";0;0;2;90.5;0;0;2;90.5
"sculpture japonaise contemporaine";0;0;2;7
"nathan chantob";0;0;1;2;0;0;1;2
"jerome lagarrigue";0;0;7;4.5714285714286;0;0;5;4
"laurent durrey";0;0;2;9.5;0;0;1;10
"envie art";0;0;3;3.6666666666667;0;0;3;3.6666666666667
"vente d";0;0;1;38
"annette messager ses oeuvres";0;0;4;5
"flower puppy";0;0;1;8;0;0;1;8
"dennis nona";0;0;1;4
"the fisher king";0;0;3;55.333333333333;0;0;3;55.333333333333
"galerie mecanica";0;0;1;4
"franck bernhard";0;0;1;5
"jacques villeglé affiches lacérées";0;0;2;6;0;0;1;6
lebelhomme;0;0;1;8;0;0;1;8
arbus;0;0;3;71
"mapplethorpe robert";0;0;1;15
"oeuvre sculpture";0;0;1;9;0;0;1;9
nasty;0;0;2;42
"oeuvre de miro";0;0;1;1;0;0;1;1
"terra infirma";0;0;1;6
"artiste peintre yo";0;0;4;4.5
"technique pop art";0;0;1;23;0;0;1;23
"carlos betancourt";0;0;1;29
"yaacov agam agamograph";0;0;1;1
"art fetish";0;0;1;6
cedrix;0;0;2;6.5;0;0;1;5
damez;0;0;2;8;0;0;2;8
"kiosque paris";0;0;1;97
"tableau de keith haring";0;0;3;8
"keith haring oeuvres noir et blanc";0;0;1;9
"galerie street art en ligne";0;0;4;7;0;0;2;7;0;0;1;7
"expansion césar";0;0;4;6
"monnin peintre";0;0;2;1;0;0;2;1
"art belgique";0;0;1;9
"correia antoine";0;0;1;4
"tableau d artiste";0;0;1;48
"galerie vidal saint phalle";0;0;1;5;0;0;1;5
"andy warhol superman";0;0;1;5
"stephane jacob";0;0;1;12
"bicha gallery";0;0;2;50.5;0;0;2;50.5
"noe two prix";0;0;3;3;0;0;3;3
"chase school of fine and applied arts";0;0;1;7;0;0;1;7
"debusschere christoff";0;0;1;10
"nadine vergues";0;0;2;8
"philippe gronon";0;0;1;14
"oeuvre d'art originale";0;0;3;2;0;0;2;2;0;0;1;2
"solene ballesta";0;0;1;6;0;0;1;6
"charlotte colbert";0;0;2;6;0;0;1;6
"kiss the wookie";0;0;1;5
"art galerie en ligne";0;0;2;1;0;0;2;1
youmin;0;0;3;6
"maxime boubekeur";0;0;1;29;0;0;1;29
"arbres oeuvre d'art";0;0;1;6;0;0;1;6
"marie drouet";0;0;1;10;0;0;1;10
"christof monnin prix";0;0;5;9;0;0;1;10;0;0;1;6;0;0;3;9.6666666666667
"jean georges inca";0;0;2;2;0;0;1;2;0;0;1;2
"bateau ivre strasbourg";0;0;3;48
"julien durix";0;0;25;1.48;0;0;8;1.625
henni;0;0;3;67.333333333333;0;0;3;67.333333333333
"futurisme italien";0;0;3;46
"pascaline marre";0;0;2;8;0;0;2;8
"misstic street art";0;0;1;5;0;0;1;5
"suck fuck";0;0;3;16.666666666667;0;0;3;16.666666666667
"serge labégorre";0;0;1;7;0;0;1;7
"k roll";0;0;3;65.666666666667
"stephanie cabrera";0;0;1;7
"guy weladji";0;0;4;2.5;0;0;2;2;0;0;2;3
"toile d artiste peintre";0;0;1;67;0;0;1;67
"caroline veith";0;0;2;2.5
"sculpture britto";0;0;1;8;0;0;1;8
"photo d'art en ligne";0;0;1;4;0;0;1;4
"sculpture bruno catalano prix";0;0;3;4;0;0;2;4
"baby smile";0;0;1;75
"andré nadal";0;0;1;5;0;0;1;5
"gerard schlosser";0;0;3;3;0;0;3;3
"zenoy graffiti";0;0;1;3;0;0;1;3
"oeuvre art";0;0;5;2.8;0;0;1;3
"séverine bernard";0;0;2;10;0;0;1;10
"luther allison";0;0;3;66
"photo d'art noir et blanc";0;0;1;35
"art peinture";0;0;1;22
"michele auboiron";0;0;1;5;0;0;1;7
"joseph beuys oeuvres";0;0;6;10;0;0;1;10
"art vente en ligne";0;0;1;1
"galerie schwab beaubourg";0;0;2;7;0;0;1;8;0;0;1;8
"galerie bettina von arnim";0;0;1;5;0;0;1;6
"john christoforou";0;0;2;8
"tableau art moderne a vendre";0;0;1;2
"galerie loft";0;0;2;5
"vente d'art";0;0;2;1
kyliss;0;0;2;1;0;0;3;1
"galerie ad";0;0;1;8
"cercle noir";0;0;1;65
"photo surealiste";0;0;1;9
kouka;0;0;5;8.2;0;0;5;9.6;0;0;1;7
gilardi;0;0;1;78
"wu build";0;0;1;9
"lucy orta";0;0;3;36
"florence d'elle";0;0;1;8
"oeuvre annette messager";0;0;3;8
"hermann nitsch performance";0;0;1;8
"jean pierre attal";0;0;1;6;0;0;1;6
"vente de photo";0;0;1;28
"sarah white";0;0;3;87.666666666667
lubriques;0;0;3;63
"julien durix prix";0;0;1;1
"roman opalka biographie";0;0;1;8
"your love";0;0;3;95.333333333333
rex;0;0;1;237
"jacques verdier artiste";0;0;1;4
"dance with me";0;0;1;195
"françoise pétrovitch";0;0;5;8.8
"galeries d'art londres";0;0;1;19
"christian silvain";0;0;1;3
"melon espagne";0;0;3;89
"oeuvre monumentale";0;0;6;6
miss-tic;0;0;2;5;0;0;1;9
"chat peintre";0;0;3;5.6666666666667
"charlie roberts";0;0;2;9
"fernando costa artiste";0;0;1;3
"java bleue";0;0;1;78
"galerie colin";0;0;1;4
"philippe berger";0;0;1;22
"galerie vrais reves";0;0;1;10
"oeuvre sculpteur";0;0;3;30
"speedy grafito";0;0;1;7;0;0;1;8
"patrick braoude";0;0;1;13
"cesar sculpteur oeuvres";0;0;1;4
"femme fatale rousse";0;0;1;88
"barry cawston";0;0;1;4
"françois pompon ours blanc";0;0;1;19
"eros psyche";0;0;1;97
"like a boy";0;0;1;39
"priska lorane";0;0;1;3;0;0;1;3
"vincent ringler";0;0;1;3
"thoma ryse";0;0;1;2;0;0;1;2
"cédrix crespel";0;0;2;4;0;0;1;4
assalit;0;0;5;5.2;0;0;3;5.6666666666667;0;0;4;5.75
"galerie ricci menton";0;0;1;4
"roger schall";0;0;4;1
"françois cellier";0;0;1;11
"art entreprise";0;0;4;3.25
mrlolo;0;0;1;5
"oswaldo guayasamin";0;0;2;5
zenoy;0;0;2;3;0;0;1;3
"peinture pique nique";0;0;1;5
vaubourg;0;0;3;35
"artwork kindred";0;0;1;19
"ben bella peintre prix";0;0;1;3
"panthere neige";0;0;3;57
"tom wesselmann";0;0;24;4.5833333333333;0;0;3;5;0;0;5;8.8
"jeremy royer";0;0;1;7
"jef aerosol sitting kid";0;0;1;5
"open art dijon";0;0;1;4;0;0;1;5
"maurice renoma";0;0;4;3.75;0;0;5;3.8
"david ratcliff";0;0;1;7
"cyril olanier";0;0;1;2
"petit coquillage";0;0;1;65
oksana;0;0;1;52
"too drunk";0;0;3;55
"leveque claude";0;0;1;7
"bernard chauveau éditeur";0;0;1;6
"nathalie grenier peintre";0;0;1;5
"sculpture mousse expansive";0;0;1;26
"toshinobu sugimoto";0;0;1;75
"biographie takashi murakami";0;0;1;3
"jeux de massacre";0;0;1;50
"jingdong france";0;0;1;7;0;0;1;6
poligrafa;0;0;1;8
"banksy krakow";0;0;1;7
"kate knight art";0;0;1;10
"sculpture bouddha";0;0;1;50
"jacques pellegrin";0;0;1;10
"annette mesager";0;0;1;7;0;0;1;8
"under construction";0;0;1;79
fantomas;0;0;1;200
"agnès baillon";0;0;1;4
"césar oeuvres";0;0;4;4.5
"vente d'art en ligne";0;0;1;1
"galerie street art lyon";0;0;2;46
startart;0;0;1;5
couet;0;0;3;70
"l'homme en mouvement histoire des arts";0;0;1;4
"jean michel basquiat peinture";0;0;1;10
"léopold rabus";0;0;2;7
"peinture de bernard buffet";0;0;2;8.5;0;0;1;7
"ren hang";0;0;13;9.3076923076923;0;0;8;10;0;0;1;9
"sculpture loup";0;0;1;9
klotz;0;0;3;73.333333333333
"kiddy citny";0;0;2;6
"tony franck";0;0;2;6.5
"construction géométrique";0;0;1;88
"fernando costa";0;0;7;4;0;0;4;5.25;0;0;3;5
"nuances et lumiere";0;0;2;2
"raymond moretti";0;0;3;17
"sculpture contemporain";0;0;1;2
"lapierre eric";0;0;1;6
"cecile charron";0;0;2;3.5
"art'n pepper";0;0;2;8
"gwen marseille";0;0;1;5
"sophie morisse";0;0;1;4;0;0;4;4
moz;0;0;4;37
"greenwood gallery";0;0;1;10
"publicite art";0;0;3;24.666666666667
automn;0;0;3;73
"anri sala";0;0;3;47.333333333333
"atelier morales";0;0;1;3
"francois poulat";0;0;1;8;0;0;1;10
"oeuvre d'art fruit";0;0;1;8
"jonone street art";0;0;1;3
grandeetoile;0;0;2;9
"street art shop";0;0;1;30
"francois morrelet";0;0;1;9
"jeune artiste";0;0;5;7.2;0;0;1;8
"noelle koning";0;0;1;5
"susanne stemmer";0;0;1;6
"isabelle cochereau";0;0;1;7
pra¨s;0;0;1;6
charlelie;0;0;1;40
"artiste peintre amiens";0;0;2;47.5
"françoise gaujour";0;0;2;8.5
"bernard pras artiste";0;0;1;2
"art archaique";0;0;1;34
"art mexicain contemporain";0;0;1;35
"the french art studio";0;0;12;4
rauzier;0;0;2;10
"frost blue";0;0;1;50
"robert smith cure";0;0;1;46
"sculpture gorille";0;0;2;8
"vinz feel free";0;0;1;78
"sylvie fleury artiste";0;0;1;3
"miroir 110 x 80";0;0;1;46
"photographie d'art noir et blanc";0;0;1;33
"stephane gautier";0;0;1;5;0;0;1;5
"etienne gros peintre";0;0;1;4
"costa fernando";0;0;1;4
"eric peyret";0;0;1;2
"griffon bruxellois";0;0;4;41.25
"oeuvre romero britto";0;0;1;5
"vente art contemporain";0;0;3;1;0;0;6;1
"max ernst oeuvres";0;0;1;13
"oeuvres d'ernest pignon ernest";0;0;1;5
"gerard titus carmel";0;0;3;8
"alex katz oeuvres";0;0;1;3
"troy henriksen prix tableau";0;0;1;1
"jim morrisson";0;0;3;17;0;0;1;11
"artistes australiens";0;0;1;10
"michael alford";0;0;1;3
reas;0;0;3;40
"michel dubois peintre";0;0;1;5
"stéphane gautier";0;0;2;4.5
"cet art";0;0;1;8
"alex guofeng cao";0;0;1;5
asiat;0;0;3;82.333333333333
"peintre combas";0;0;1;3;0;0;3;5;0;0;1;5
"oeuvres d'art disparues";0;0;1;80
"andreas gursky photographe";0;0;1;10
"edouard mazaré";0;0;1;9
"oeuvre papier";0;0;2;7.5;0;0;1;5
"jm robert";0;0;4;1.75;0;0;1;2
"mimi the clown";0;0;5;5.2;0;0;6;5.6666666666667;0;0;1;6
benetti;0;0;3;92.666666666667
"oeuvre d'art triangle";0;0;1;5
"galerie brugier rigail";0;0;1;5;0;0;1;7
"jan pruski";0;0;1;2
"i belong to you oeuvre d'arts";0;0;1;14
"tom wesselmann pop art";0;0;2;6
"speedy graphito cote prix";0;0;1;4
"peinture chat";0;0;3;23
"peinture tigre";0;0;3;55.333333333333
"michel le belhomme";0;0;1;3;0;0;1;3
"nuance et lumiere";0;0;1;2;0;0;3;3
"cousinade forcalquier";0;0;4;42
"zao wou ki lithographie";0;0;1;41
raynaud;0;0;3;39
"orlan photographe";0;0;1;4;0;0;1;4
"dali bernard pras";0;0;1;12
"artiste india";0;0;1;8
"baldaccini cesar";0;0;1;5
"acheter art contemporain";0;0;3;1;0;0;1;1
"pin up aslan";0;0;2;30
"nurcan giz";0;0;4;4
foujita;0;0;3;69.666666666667
"azz og mo ass orgie del";0;0;1;226
"peinture jericho";0;0;1;7
"déesse sculpture";0;0;2;6;0;0;1;8
"willy ronis";0;0;3;45
murielle;0;0;1;93
"patrick loste artiste peintre";0;0;2;7;0;0;1;7
"guyomard sylvie facebook";0;0;3;8
decup;0;0;1;9;0;0;1;1
guayasamin;0;0;2;9;0;0;2;11
"oeuvre wagner";0;0;1;79
"paris iii";0;0;1;80
dollarblue;0;0;1;10
tadini;0;0;1;7
"peinture inca";0;0;2;3;0;0;1;3
"home alone 6";0;0;2;18
"survivants yan pei ming";0;0;1;7
"site oeuvre d'art";0;0;2;1
"quentin carnaille";0;0;1;10;0;0;4;11
"raynaud artiste peintre";0;0;1;3
"sabine jeannot";0;0;1;2
"art fang";0;0;3;46.666666666667
"antoine josse";0;0;1;10;0;0;1;10
"street art jonone";0;0;1;2
"e galleries";0;0;1;23
leguay;0;0;3;87
"benjamin deroche";0;0;2;7;0;0;2;7;0;0;2;7
"elias artiste";0;0;1;9
"superman andy warhol";0;0;1;4
"galerie mondapart";0;0;1;5
"lolita beach";0;0;3;27
"thomas labarthe";0;0;1;4;0;0;1;5
"oeuvre d'art a vendre";0;0;1;1;0;0;3;1
"catherine lambermont";0;0;1;5
"expo street art lyon";0;0;2;66
"exposition art urbain lyon";0;0;1;100
"christine muller peintre";0;0;2;5
"rené botti";0;0;1;4;0;0;3;4
"jacqueline schäfer";0;0;1;8
"claude mollard";0;0;2;3;0;0;1;4;0;0;2;4.5
"victor richardson";0;0;1;10
king;0;0;1;296
"statue art moderne";0;0;1;2
"ronald dupont artist";0;0;1;4
fkdl;0;0;1;6;0;0;10;5.7
"nathalie dhenaut";0;0;4;5;0;0;2;4
"klasen peter";0;0;1;3
m.chat;0;0;4;6
"eduardo arroyo oeuvres";0;0;2;5
"charles christopher hill";0;0;1;4
"laurent roux";0;0;2;23.5
"cecile colombo";0;0;3;4;0;0;2;5;0;0;1;5
"peinture vache";0;0;2;19
"peinture perspective";0;0;3;73
"yaacov agam oeuvres";0;0;2;3.5
"nathalie deshairs";0;0;1;4
"oeuvres de keith haring";0;0;1;6
"andre nadal";0;0;1;6;0;0;1;5
"cedric bacqueville";0;0;1;5
"wifredo lam oeuvres";0;0;1;18
"galerie d'art contemporain";0;0;2;2.5;0;0;1;10;0;0;2;2.5
"antoine veron";0;0;2;4
"artistes contemporains japonais";0;0;1;9
eppele;0;0;1;7
lijn;0;0;1;76
"a nous paris";0;0;2;37
"clement denis";0;0;1;5;0;0;1;4
"oeuvres de max ernst";0;0;1;8
"albane de saint remy";0;0;1;7
"ralph gibson";0;0;1;13
"oeuvre de keith haring";0;0;4;5.5
"couple paysage";0;0;1;7
raigon;0;0;1;8
"galerie bettina";0;0;1;7;0;0;4;7.25;0;0;1;8
e-valet;0;0;1;9
"jef aerosol beaubourg";0;0;1;9;0;0;2;9
"tal coat";0;0;3;16
"peter wüthrich";0;0;1;3
"vente memoire";0;0;3;56
"laurence weiner";0;0;3;10
lilo;0;0;1;292
"alex katz posters";0;0;1;46
"oeuvre de jr";0;0;2;6
"christophe charbonnel sculpteur";0;0;3;6.3333333333333
samarine;0;0;2;10;0;0;1;12;0;0;2;12
"antigone peinture";0;0;1;9
"eric ville";0;0;1;4
"philippe gourier";0;0;2;6;0;0;1;8
festy;0;0;3;82.333333333333
"l'atlas graffiti";0;0;1;15
"oeuvres de takashi murakami";0;0;2;2
"guy dening";0;0;1;10
"gilles de beauchene";0;0;1;7;0;0;1;7
"valerio adami";0;0;1;24
"peinture artistique";0;0;4;81.5
"lampe verre de murano";0;0;1;35
"shaka art";0;0;1;3
"olivier catté";0;0;1;3;0;0;2;1.5
"jeff koons œuvres d'art";0;0;3;5
"karl lagasse";0;0;1;4;0;0;2;4;0;0;1;4
"greg leon guillemin";0;0;1;7;0;0;9;7.3333333333333
fubiz;0;0;5;19.2
"jospin eva";0;0;1;9;0;0;1;9
"munch cri";0;0;1;93
ciril;0;0;3;88
"vente collioure le seris 2002";0;0;4;37
"platt lynes";0;0;1;10;0;0;1;10
"eric vernhes";0;0;2;6
"dark planet";0;0;3;28
"achat oeuvre d'art en ligne";0;0;3;1
"frédéric garnier";0;0;1;24
"arnaud puig";0;0;1;4
"peinture art contemporain";0;0;2;4;0;0;1;3;0;0;3;2.6666666666667
cervera;0;0;1;93
"chris morin";0;0;4;3.25;0;0;2;4
"aline robin";0;0;3;6;0;0;1;6
"india leire";0;0;1;5
"seen artiste";0;0;1;1
"sculpture contemporaine resine";0;0;1;2
"pierre et gilles biographie";0;0;1;6
"sculpture de césar";0;0;1;9
"oeuvres de banksy";0;0;6;6.5;0;0;2;6
"francois mendras";0;0;1;3
"artistes sculpteurs contemporains";0;0;1;4;0;0;1;4
bossard;0;0;3;83.333333333333
"planete seie";0;0;1;3
"crash street art";0;0;1;7
"hotel moschini";0;0;1;172
"nathalie de frouville";0;0;1;16
"affiche poster";0;0;3;98.333333333333
"banksy œuvres d-art";0;0;1;6;0;0;6;7.8333333333333;0;0;2;7.5
"cecile decorniquet";0;0;2;5.5
"pierre pignon";0;0;2;4
"james coignard peintre";0;0;1;10;0;0;1;10
"galerie raison d'art lille";0;0;1;10
"artistes mexicains";0;0;1;10;0;0;1;10
"artiste contemporain photographie";0;0;1;1
"francoise danel";0;0;1;2
"pierre ardouvin";0;0;1;44
"galerie honfleur";0;0;1;38
"tilt toulouse";0;0;1;8;0;0;1;9;0;0;1;9
exhibe;0;0;3;65.666666666667
"basquiat jean michel";0;0;3;65.666666666667
"vente trampoline";0;0;2;57.5
"charles fazzino";0;0;7;4.7142857142857;0;0;5;5.4;0;0;2;5
"sculpteur cesar";0;0;2;9;0;0;1;10;0;0;1;10
"oeuvre d'art photographie";0;0;1;2
"vendre oeuvre d'art";0;0;1;1;0;0;1;1
"astral peinture mur mimosa";0;0;3;18.666666666667
"artistes egyptiens";0;0;1;19
"colignon pascale";0;0;1;308
"galerie fluegel-roncak";0;0;1;4
"bambi artiste";0;0;2;4;0;0;3;1.3333333333333;0;0;1;1
"antoine de la boulaye";0;0;1;2
"bram van velde";0;0;3;22
"carl andré oeuvres";0;0;1;4
"oeuvre d'art portrait";0;0;1;6
rienc;0;0;1;2
"albert chubac";0;0;3;4
"beatrice terra";0;0;1;1
"immagini di rosa";0;0;1;1
"galerie d'arts contemporains";0;0;1;3
"exposition lyon street art";0;0;2;86.5
"philippe favier";0;0;2;8.5
"achat oeuvre d'art entreprise";0;0;4;3
"drouet jean marie";0;0;1;4
rero;0;0;3;50
"erwann tirilly";0;0;1;4
"speedy graffito";0;0;2;7
"obey artiste";0;0;1;4
"crystal wagner";0;0;1;40
"coccinelle vente";0;0;1;87
klasen;0;0;3;2;0;0;5;3
"panier suspendu";0;0;1;30
hormoz;0;0;1;21
"mel ramos";0;0;4;4;0;0;1;1
"gerard mortier peintre";0;0;3;1
"pierre koppe";0;0;1;3
"keith haring nom de ses oeuvres";0;0;4;8.5
"jean christophe ballot";0;0;1;7
"galerie d art en ligne";0;0;2;1
"scuba girl";0;0;3;15
"catherine klein peintre";0;0;1;5
"bois du bouchet";0;0;1;40
"francine van hove";0;0;4;10;0;0;4;11
"galerie urbaine";0;0;1;5;0;0;3;4
"jean-pierre nadau";0;0;8;2.25
diamantaire;0;0;1;47
"césar baldaccini";0;0;5;5.6;0;0;2;6;0;0;1;6
"l art de la rue";0;0;1;9
"bonhomme blanc qui marche";0;0;1;12
"andreas gursky oeuvres";0;0;1;4
"tableau romero britto";0;0;2;6.5
combas;0;0;63;5.7301587301587;0;0;41;7.1707317073171;0;0;9;6.7777777777778
"vente skateboard";0;0;1;53
"fontaine contemporaine";0;0;1;33
"art inspiration";0;0;1;77
"video star x";0;0;2;98
"pussy little";0;0;1;23
"photographie d'art en ligne";0;0;2;2.5
"jock sturges";0;0;1;30
"oeuvres d'art";0;0;4;7;0;0;1;7;0;0;2;7
"charles thiefaine";0;0;1;2
"art africain";0;0;3;90.333333333333
"aillaud peintre";0;0;2;8
"peinture murale gris dior";0;0;1;22
"jérôme mesnager";0;0;2;3.5;0;0;3;4
"m. chat";0;0;2;5;0;0;1;8
taki;0;0;1;50
"oeuvre art banksy";0;0;1;8
sculture;0;0;26;7.0769230769231;0;0;2;9;0;0;9;5.4444444444444
"vente canevas";0;0;1;41
"karel de gendre";0;0;2;4.5
"andy pioneer galleries";0;0;1;79
"galerie d'art belgique";0;0;1;3
"yann houri";0;0;2;3;0;0;1;3
"peintre buffet";0;0;3;5;0;0;4;7
"jeff koons flower puppy";0;0;1;6
"stephane joannes";0;0;1;2
"schlosser gerard";0;0;1;3
"jacques renoir";0;0;2;6.5
"camille couturier";0;0;1;134
"de romero";0;0;1;32
"guy de rougemont";0;0;1;8;0;0;1;8;0;0;1;9
matryochka;0;0;1;4;0;0;1;4
"tom wesslmann";0;0;1;4
adami;0;0;3;98
"roberto matta";0;0;1;188;0;0;1;166
"jacque villegle";0;0;1;5
"art chat";0;0;1;19
"cri munsch";0;0;1;71
"philippe parreno biographie";0;0;1;5
"oeuvres banksy";0;0;3;5.6666666666667;0;0;1;8
"all is vanity";0;0;1;27
"sculpture resine";0;0;3;17.666666666667
"adam manu";0;0;2;6
"alejandra eggleton";0;0;1;31
"sculpture monumentale biot";0;0;1;28
"philippe binder";0;0;1;10;0;0;1;5
"leon spilliaert";0;0;2;62.5
"césar baldaccini compression";0;0;1;9;0;0;1;9
"statue deesse";0;0;1;4;0;0;1;4
litao;0;0;1;7
"willy ronis le petit parisien";0;0;3;1;0;0;1;5
"amaury mulliez";0;0;1;5;0;0;1;4
"vente carlin";0;0;3;45.333333333333
"street art chat";0;0;1;5;0;0;1;4
"valerie dupond";0;0;15;8;0;0;3;7
"anna belle x";0;0;2;10
"vente art en ligne";0;0;2;1
"gille aillaud";0;0;1;7
"yoann merienne peintre";0;0;2;2
"biographie norman rockwell";0;0;3;36
"how are you";0;0;1;97
banski;0;0;1;29
"art en vogue";0;0;1;2
"julien calot";0;0;3;2.6666666666667;0;0;1;2
"bernard prass";0;0;1;3
"come medicis";0;0;1;76
"oeuvre jr";0;0;2;4
"romero britto prix";0;0;1;8;0;0;1;8;0;0;2;5
"julian schnabel";0;0;3;70
"arnaud liard";0;0;1;3
"christine barres peintre";0;0;1;3
"galerie walter";0;0;1;9
murakami;0;0;1;44
"truc anh";0;0;1;7
"biographie gautier";0;0;2;75
"jonvelle les 100 plus belles photos";0;0;2;1
gorodine;0;0;2;7
"valérie hadida";0;0;2;2
"banksy billet de banque";0;0;1;1
"jacques lacroix";0;0;5;9.4
"sculpture sumo";0;0;1;4;0;0;1;4
"artiste peintre japonais contemporain";0;0;2;9
"maja desnuda";0;0;1;48
"peinture abstrait";0;0;3;72
"christy lee";0;0;1;5
"edition prestige";0;0;3;84
"nature mort peinture";0;0;3;89.666666666667
"fuck the wall";0;0;1;6
"oeuvre pop art";0;0;1;35
"biographie keith haring";0;0;3;9
"photographie vente";0;0;2;15
"i love you so";0;0;3;72.333333333333
"envie d'art";0;0;5;3.8;0;0;1;4;0;0;2;5
"oeuvre unique";0;0;1;1
"sculpture platre";0;0;1;28
"claude closky";0;0;1;31
"mahjoub ben bella prix";0;0;1;2
"art sculture";0;0;1;3
"shepard fairey oeuvre";0;0;2;2
"helder batista";0;0;1;5;0;0;3;6.3333333333333
"oeuvre joan miro";0;0;1;11
"toile peinture grand format";0;0;2;74.5
flipo;0;0;6;8.3333333333333;0;0;5;9.4;0;0;2;7.5
"isabelle vayron";0;0;2;4
"extase x";0;0;3;54
"leon guillemin";0;0;1;3
"genesis eduardo kac";0;0;2;17
scuplture;0;0;4;5.75;0;0;1;5
"vente tableau contemporain";0;0;4;2
lecoeur;0;0;3;58
"jean hélion biographie";0;0;2;2
"jean dubuffet oeuvre";0;0;5;5.2
telemaque;0;0;4;34.5
"peinture politique";0;0;1;10
"ouie fm";0;0;1;87
"jef aerosol biographie";0;0;1;4
"peinture buffet";0;0;1;9;0;0;1;9
"costume vert";0;0;1;27
"photo d'art pas cher";0;0;1;4
"street art france";0;0;1;61
"gravure brian";0;0;3;86
"jean dubuffet";0;0;3;66.333333333333
"pauline dufour";0;0;1;5;0;0;1;5
"carlo nason";0;0;2;5.5
boxeuse;0;0;3;87
"oeuvres annette messager";0;0;2;5
"galerie d4art";0;0;1;4
"reflective sculpture";0;0;1;7
"ben bella";0;0;1;41
"pierre alechinsky biographie";0;0;3;41.333333333333
"cci marseille provence";0;0;1;94
"oleg dou";0;0;4;4.5
"oeuvre colette";0;0;1;46
"moulin rudelle muret";0;0;1;91
"tapis en soie";0;0;1;32
"jean michel chesné";0;0;1;3
mrchat;0;0;2;6;0;0;1;8
"cecile desserle";0;0;3;5;0;0;1;5;0;0;7;5
seaty;0;0;5;9.2;0;0;1;10
"photographie de mode urbaine";0;0;1;38
"elisabeth frering";0;0;1;6
"dark vador artwork";0;0;1;4;0;0;1;6
ferreira;0;0;2;9;0;0;1;12
lovemessenger;0;0;3;38
topor;0;0;1;60
"perroquet vente";0;0;1;71
"acheter banksy";0;0;2;2;0;0;1;2
"composition suprématiste";0;0;2;7
"ben bella mahjoub";0;0;4;3;0;0;1;2
"emma peel";0;0;1;63
"oeuvre de max ernst";0;0;1;7
"google da vinci";0;0;1;379
"blue green";0;0;1;98
"nu peinture";0;0;3;84.333333333333
"vente smoking";0;0;1;44
"gregoire guillemin";0;0;1;10;0;0;4;10
"mickael shumacher";0;0;3;46.333333333333
"oeuvre d'art thème noel";0;0;1;4
batory;0;0;3;16.666666666667
"mimmo rotella oeuvres";0;0;1;7
"art sculpture";0;0;4;3.5;0;0;1;4
"mr sex";0;0;1;27
"art aborigene";0;0;1;82
"vente squelette";0;0;3;72.333333333333
"artiste peintre lyon";0;0;1;74
kokekoko;0;0;2;10
"sophia loren";0;0;1;155
"yvan messac";0;0;1;4;0;0;1;5
"galerie d'art en ligne";0;0;19;1.1052631578947;0;0;9;1;0;0;4;1
"tourisme dinard";0;0;1;34
"sylvie fleury oeuvres";0;0;1;3
"bernard chauveau";0;0;2;5.5;0;0;2;6.5;0;0;2;6.5
"gérard rancinan photos";0;0;2;6
"pierre alechinsky";0;0;1;62
"trio show";0;0;1;3
lelong;0;0;3;77.333333333333
"richard orlinski ours";0;0;2;7;0;0;2;7.5
"huart philippe";0;0;1;1;0;0;2;5.5
"isa marcelli photography";0;0;1;9
"coignard peintre";0;0;2;10
"site d'oeuvre d'art";0;0;1;1
"artiste jr";0;0;6;9.5;0;0;2;11;0;0;1;11
"alexandre moliera";0;0;1;8
"caroline yates";0;0;1;5
"arman artiste";0;0;8;9;0;0;2;10.5;0;0;1;10
"gautier deblonde";0;0;2;4
"james mackeown";0;0;1;3
"hervé télémaque";0;0;7;4.1428571428571;0;0;1;6
"norma bessières";0;0;2;6
"dganit blechner";0;0;1;4
"photo d'art contemporain";0;0;3;2;0;0;1;2
"ventes peinture";0;0;2;5
"biographie anne fine";0;0;2;96.5
"gregoire dalle";0;0;1;5
"nuance et lumière";0;0;1;2;0;0;2;3;0;0;2;3
"de jef";0;0;1;10
"perrier affiche";0;0;1;22
"manhattan mappa";0;0;1;11
"hiro ando";0;0;1;3;0;0;1;1
"galerie d'art luxembourg";0;0;1;25
"vente art contemporain en ligne";0;0;1;1
"yoel benharrouche";0;0;1;7;0;0;2;7
ronis;0;0;1;61
"spectacle chicago";0;0;3;43
"hugo peintre";0;0;1;28
"oeuvres d'art à vendre";0;0;1;1
"abandon loader";0;0;3;96
"paysage fantastique";0;0;1;36
"xavier lavictoire";0;0;1;6;0;0;1;7
moriette;0;0;1;7
"jean michel turpin";0;0;2;8
"herve all";0;0;2;4
"reve americain";0;0;3;95
"louis nicolas darbon";0;0;1;6
"god dog";0;0;1;4
"antoine correia";0;0;3;4
"romero britto";0;0;18;7.3333333333333;0;0;9;8
hiquily;0;0;1;8
"wifredo lam";0;0;1;34
"louis stettner";0;0;2;8
"obey artiste peintre";0;0;1;3
"david mesguich";0;0;1;4
"alfredo lopez";0;0;1;5
"pierre riba";0;0;1;4
"m le chat";0;0;3;9.3333333333333
"gérard rancinan";0;0;1;7;0;0;1;7
"dussac peintre";0;0;1;4
combasse;0;0;4;5.5;0;0;1;6
"fabien granet";0;0;1;5
"pierre boncompain";0;0;3;4.3333333333333
"antonio segui";0;0;6;9.6666666666667;0;0;7;10
"jean dubuffet oeuvres";0;0;1;6
"etienne rey";0;0;2;8
durix;0;0;6;5.5;0;0;1;3
"galerie perahia";0;0;3;6.3333333333333
"durix julien";0;0;1;3;0;0;1;3
"acheter de l'art";0;0;1;3;0;0;1;3
"richard harper peintre";0;0;1;5
"gérard schlosser peintre";0;0;1;5
chamizo;0;0;3;8;0;0;3;8
peintre;0;0;1;4
bennaroch;0;0;2;10
"sebastien bayet";0;0;1;4
"elodie wysocki";0;0;3;5
"hervé perdriel";0;0;1;2
"aneth messager";0;0;1;8
"amandine levy";0;0;1;6
"pretty portal";0;0;2;6
"oeuvre de banksy";0;0;9;6.1111111111111;0;0;1;6
"sculpture achat";0;0;2;1
enviedart;0;0;3;3;0;0;2;4
"mesnager street art";0;0;2;3;0;0;3;3
"france mitrofanoff";0;0;1;3
"play like beckham";0;0;1;9
"oeuvre chat";0;0;1;5
"peinture street art";0;0;1;9;0;0;2;10
"marianne jonone";0;0;1;10
"ramzi adek";0;0;3;5
"laurent bouro";0;0;3;3;0;0;2;3
"jeff koons flower";0;0;1;7
"olivier masmonteil";0;0;1;8
"joel knafo";0;0;2;4
skunkdog;0;0;1;4
"robert combas prix";0;0;1;8
"eduardo chillida";0;0;1;10
"hermaphrodite femme";0;0;1;26
"claire louria";0;0;1;6
"noe two exposition";0;0;1;10
"miss. tic";0;0;1;7;0;0;1;6
microgalerie;0;0;1;12
"shepard fairey obey";0;0;1;10
"yrjö edelmann";0;0;1;4
"sculpture richard orlinski";0;0;1;7
"peintre lamy";0;0;1;8
"andré cervera";0;0;1;6
"christophe lachize";0;0;1;4
"jone one";0;0;2;6
"artiste turk";0;0;3;6
"eva jospin artiste";0;0;1;5
"victor soren";0;0;2;5
"sylvie le page";0;0;1;11
morin;0;0;1;176
"mist peintre";0;0;1;9
"petit bonhomme blanc";0;0;1;8
"galerie vidal";0;0;1;6
"tilt graff";0;0;1;9
"marie piselli";0;0;1;4
racinan;0;0;1;7
"christian chapiron";0;0;1;6;0;0;2;6
mygalo;0;0;4;3;0;0;1;3
"peintre irlandais";0;0;1;7
"easy sacha";0;0;3;10
"dan rawlings";0;0;3;2.3333333333333
"richard orlinsky";0;0;2;6
"eduardo kac oeuvres";0;0;1;10
"marianne garnier";0;0;5;8
"jimmy de bock";0;0;1;9
"claude champy";0;0;1;8;0;0;2;8
"cesar artiste";0;0;4;8
"skate licorne";0;0;2;6
"roland topor oeuvres";0;0;1;8
"coq multicolore";0;0;1;6
"massimo vitali";0;0;1;7
"photo surréaliste";0;0;1;9;0;0;2;9
"vente art";0;0;1;1;0;0;3;1.6666666666667
"galerie ko21";0;0;1;6
"balloon dog prix";0;0;1;10;0;0;1;8
"delorme peintre";0;0;2;9.5
cornillet;0;0;1;8
"jonathan callan";0;0;2;5
"jerome menager";0;0;1;5
"robert combasse";0;0;1;5
romerobritto;0;0;1;8
"banksy prix";0;0;2;7
"guillaumette duplaix";0;0;1;1
"lesage pierre";0;0;1;10
"guy denning";0;0;3;4;0;0;1;4
"70s pin up";0;0;1;9
"crocodile sculpture";0;0;1;7
"mike angelo";0;0;1;28
"peintre couture";0;0;1;7
"patrick bastardoz";0;0;1;4
"gilles desrozier";0;0;1;7
"pignon ernest";0;0;1;10
"fernando costa prix";0;0;1;1
"arnaud paillard";0;0;3;5.3333333333333
"la collégiale";0;0;1;6
"galerie wallpepper";0;0;2;6.5
"serge beninca";0;0;1;4
"nathalie grenier";0;0;1;5
"norma bessiere";0;0;1;3
"alain bertrand facebook";0;0;1;8
"bernard quentin";0;0;1;11
"combas peintre prix";0;0;3;6
cosentino;0;0;1;120
"antoine bono";0;0;1;7
"robin gerris";0;0;1;5
lanyon;0;0;1;9
"acheter sculpture";0;0;1;1
"zapato chaussure";0;0;1;10
"françois millo";0;0;1;5
"david eason";0;0;1;19
"didier marien";0;0;1;5
"buffet peintre";0;0;3;10;0;0;4;9.25
"ariele rozowy";0;0;1;3
"jean skull";0;0;1;9
"galerie oneiro";0;0;1;5
"beaufils peintre";0;0;4;5.75;0;0;4;5
"did dontzoff";0;0;1;3;0;0;1;3
"aykaz arzumanyan";0;0;1;3
"richeux vincent";0;0;1;4
"pignon ernest pignon";0;0;1;6
belie;0;0;1;16
"envie d art";0;0;1;4
lisman;0;0;1;4
"patrick moya";0;0;1;4;0;0;1;4
"noé two";0;0;1;3
moschini;0;0;4;4.25
"john one peintre";0;0;2;2.5
"gilles candelier";0;0;1;9
"galerie gabel biot";0;0;1;5
"peinture jimi hendrix";0;0;1;10
"orlinski panthere";0;0;1;10
"jean michel basquiat œuvres d'art";0;0;5;10.6;0;0;4;11.25
"banksy tag";0;0;2;9.5
"toxic graffiti";0;0;1;3
"laure andre";0;0;1;8;0;0;3;8
"prix des sculptures de bruno catalano";0;0;2;5;0;0;1;10
"gustave singier";0;0;1;6
sculptures;0;0;4;6;0;0;2;5.5
"la fille et le chien";0;0;1;20
"benjamin spark";0;0;3;10
"eric kellerman";0;0;1;6
"rudolf hausner";0;0;1;2
"galerie argentic";0;0;3;8
"koala nue";0;0;1;2
baydi;0;0;1;18
"jorg doring";0;0;3;7
"end of my day";0;0;1;8
"tony soulié";0;0;3;3
"labégorre peintre";0;0;3;8
"mist artiste";0;0;1;6
"herve lewis";0;0;1;5
"galerie nue";0;0;2;6
hannaka;0;0;1;3;0;0;2;4
"jacques villegle";0;0;2;5
guinio;0;0;2;6
"sculpture cesar prix";0;0;5;6.8
"alexandre mulliez";0;0;1;1
"tableau ben";0;0;2;8
"ernest pignon ernest paris";0;0;2;10
liwei;0;0;1;6
"sex ski";0;0;1;10
"acheter oeuvre d'art";0;0;1;1
"boudon sculpteur";0;0;3;7
"fetish des pied";0;0;1;23
"vente aquarelles en ligne";0;0;1;72
"sandro giordano";0;0;2;6
"marc laffolay";0;0;1;4
artop;0;0;1;9;0;0;1;8
"francoise petrovitch peintre";0;0;1;5
"orlan artiste";0;0;8;9.875
"kumi sugai";0;0;1;3
"robert combas";0;0;24;5.0416666666667;0;0;7;4.8571428571429
toma-l;0;0;1;4
"david de lachapelle photographer";0;0;1;9
"jana js";0;0;1;6
"compression de cesar";0;0;3;9.3333333333333
"bernard venet";0;0;2;8.5
"planete serie";0;0;6;5.6666666666667;0;0;7;3.1428571428571
"orlan oeuvres";0;0;1;5
"cha noir";0;0;2;6.5
"yoda chanel";0;0;1;2
triglia;0;0;1;8
"ernest pignon";0;0;6;10.666666666667
"francoise gaujour";0;0;1;8
"jean francois gambino sculpteur";0;0;2;6
"eric michel artiste";0;0;1;10
"pierre fava";0;0;2;5
"olivier moriette";0;0;1;3
villeglé;0;0;4;4;0;0;2;4.5
"ne penser à rien";0;0;1;38
"van der elst";0;0;1;24
aroa;0;0;2;6;0;0;3;6.6666666666667
"jonone artiste peintre";0;0;1;2
"achat art contemporain";0;0;2;1
"uwe ommer";0;0;1;9
"mahjoub ben bella biographie";0;0;1;1
"ballon dog";0;0;2;8;0;0;1;11
"triglia didier";0;0;1;6
takashi;0;0;4;5.5;0;0;1;6
"galerie collin";0;0;2;5;0;0;1;5
"xin tao";0;0;3;4
"nolwenn samson";0;0;1;1;0;0;1;2
"petra danseuse etoile";0;0;2;10
"shaka street art";0;0;5;4
"peinture chapeau melon";0;0;2;8
"tilt artiste";0;0;2;2;0;0;1;6
"keep calm and believe in your dreams";0;0;1;9
"fabienne arietti";0;0;2;4
"crespel cedrix";0;0;2;3
"jean-michel basquiat";0;0;1;104
"artop galerie";0;0;1;5
"cesar sculpteur";0;0;5;7;0;0;4;6.25
"galerie dorval lille";0;0;1;9;0;0;1;10
"nadal peintre";0;0;1;10
"vincent richeux peintre";0;0;1;3
"marie rauzy";0;0;1;6
"ko 21";0;0;1;10
"philippe buil";0;0;1;2
"kami voituriez";0;0;1;2;0;0;1;1
"louis blanc photographie";0;0;1;8
"gorille sculpture";0;0;2;8
"drouet peintre";0;0;2;5
"cap ton";0;0;1;7
"jean faucheur artiste";0;0;1;5
"sculpture cactus";0;0;3;9
"omar ronda";0;0;3;6
"art en ligne";0;0;3;1
"robin gunnigham";0;0;2;5.5
"robert combas cote";0;0;1;4
"sylvie guyomard";0;0;1;5
"david jaunay";0;0;2;5
"derrick santini";0;0;1;6
"yanko tihov";0;0;8;5.875
"arman tableau";0;0;1;5
"orlinda lavergne";0;0;1;6;0;0;1;6
"poes artiste";0;0;1;1
"galerie hus";0;0;6;10.833333333333
"olivia clavel";0;0;1;5
"philippe huart";0;0;1;2
"galerie cédric bacqueville";0;0;1;4
"julien poupart";0;0;1;10
"jonone graffiti";0;0;1;7
"etienne gros";0;0;3;5
poes;0;0;1;7;0;0;1;7
"dt one";0;0;1;5
"jimmy ruf";0;0;1;3
"sculpteur césar";0;0;1;11
"alex maclean";0;0;1;10
misstic;0;0;27;8;0;0;4;8.25
"noe two";0;0;3;3
"wang yan cheng";0;0;6;7;0;0;1;9
"ernest pignon ernest biographie";0;0;1;8
"galerie d art";0;0;1;10
"peinture punk";0;0;1;7
"li wei artist";0;0;1;11
"michel audiard sculpteur";0;0;1;8;0;0;1;9
"mahjoub ben bella";0;0;3;3.3333333333333;0;0;2;3
"milo peintre";0;0;1;4
"robert combas oeuvres";0;0;2;3;0;0;1;3
"acheter de l'art contemporain";0;0;1;1
"alain clément";0;0;1;5;0;0;2;3
"troy artiste";0;0;1;3
"dubuffet biographie";0;0;2;4
"galeries art";0;0;1;7
"costa artiste";0;0;1;4;0;0;2;4
"fazzino charles";0;0;1;5
"peter hoffer";0;0;1;7
"tableau c215";0;0;1;3
"marie oger";0;0;1;9
"aki kuroda";0;0;3;5.3333333333333;0;0;2;5.5
"photographie d'art";0;0;1;17;0;0;2;18
tanc;0;0;5;5;0;0;4;2.25
villegle;0;0;1;6
"narcose serie";0;0;1;10
"billet banksy a vendre";0;0;1;4
moneykill;0;0;1;9
"jonone paris";0;0;1;7
bouro;0;0;4;7.5
"clothilde lasserre";0;0;2;3.5
"oedipe à colone";0;0;1;29
"philippe parreno artiste";0;0;1;5
"john caroll";0;0;1;6
"laetitia giraud";0;0;3;4
"bertrand gillig";0;0;1;5
"photo artistique noel";0;0;1;9
"miroir de l'art";0;0;5;8.6
"bruce clarke";0;0;2;9
"loup orlinski";0;0;3;2
"laure andré";0;0;1;7
"vente unik";0;0;1;10
"ernest pignion ernest";0;0;1;11
"galerie art en ligne";0;0;3;1.3333333333333
"takashi murakami flower ball";0;0;1;11
"ren hang photo";0;0;1;15
"gregory berben";0;0;2;8
"daphne corregan";0;0;1;9
"jin bo";0;0;2;6;0;0;2;7
capton;0;0;2;3.5
"bernard buffet paysage";0;0;1;7
"artiste chinois wei";0;0;3;10
"godon alain";0;0;1;1
"gaspard mitz";0;0;3;1;0;0;1;1
"christoff debusschere";0;0;3;9;0;0;4;9
hyber;0;0;1;8
"dominique jousseaume";0;0;1;6
"carlos cruz diez";0;0;1;12
"ben artiste nice";0;0;1;5
"nick walker";0;0;3;6.3333333333333;0;0;1;4
"gabriel jones";0;0;1;4
tlux;0;0;1;9
"jean faucheur";0;0;1;8
"cesar sculpture";0;0;3;8.6666666666667
"hugo laruelle";0;0;2;4;0;0;2;4.5
"oksana x";0;0;2;21
"max ernst œuvres d'art";0;0;5;7.2
"galerie rivière faiveley";0;0;1;8;0;0;2;8
muntadas;0;0;1;9
"carole benichou artiste";0;0;1;6
pradalié;0;0;1;4
wes21;0;0;1;10
"thierry alet";0;0;1;4
"lisa ballard";0;0;2;9
"jean luc beaufils artiste peintre";0;0;1;3
zilez;0;0;1;14
"vincent breed";0;0;1;7;0;0;1;7
"galerie claire gastaud";0;0;1;7
"jeremy besset artiste";0;0;2;14
"guillaume guerin biographie";0;0;2;7
"marie louise sorbac";0;0;1;7
"claude leveque";0;0;9;9.7777777777778;0;0;3;10.666666666667
"philippe calm";0;0;1;1
"ernest pignon-ernest";0;0;1;11
"jr oeuvre";0;0;1;5
"galeries d'art";0;0;1;2;0;0;1;2
"gallerie d'art";0;0;1;8
"chris morin eitner";0;0;3;3.6666666666667;0;0;2;3
velver;0;0;1;3
"million butterflies";0;0;2;9
dan23;0;0;3;7.6666666666667;0;0;1;8
"pierre lesage";0;0;2;9
"m chat";0;0;11;6.5454545454545;0;0;7;8
"nadine defer";0;0;1;4
"catherine lopes curval";0;0;1;5
"x pras";0;0;1;7
miistic;0;0;1;6
"peintre dubuffet";0;0;1;4
catte;0;0;5;3.8;0;0;3;3
"greg leon";0;0;1;7
"rimero britto";0;0;2;7
"peinture coccinelle";0;0;1;22
"leo caillard";0;0;3;10.666666666667
streichenberger;0;0;1;7
"julien allegre";0;0;1;10
"benjamin laurent aman";0;0;1;4
"philippe pradalié";0;0;1;4
"joel hubaut";0;0;1;5
"aurelie deplus";0;0;1;1;0;0;2;1
dallanegra;0;0;2;4.5
"oeuvre d'art miroir";0;0;1;10
"pablito zago";0;0;1;5;0;0;2;7
"emerge gallery";0;0;1;7
"du buffet peintre";0;0;2;7
"dominique piveteaud";0;0;1;6
"fabrice hyber oeuvres";0;0;1;6
"loan nguyen";0;0;1;9
feirrera;0;0;1;9
gangal;0;0;2;6
"monteoliveto gallery";0;0;1;40
colorfield;0;0;1;10
"bonhomme blanc";0;0;1;10
"oeuvre basquiat";0;0;1;7
"thierry dussac";0;0;1;5
"oeuvre de takashi murakami";0;0;3;3
"nils udo";0;0;7;7.7142857142857;0;0;4;7.5
"benharrouche yoel peintre";0;0;5;8;0;0;1;8
"peintre artiste contemporain";0;0;1;5
"pierre marie brisson";0;0;1;2;0;0;1;3
artnpepper;0;0;1;7
"gastineau massamba";0;0;1;5
stoul;0;0;1;6;0;0;1;6
"ben artiste";0;0;2;5;0;0;3;4.3333333333333
"sculpture mickey";0;0;2;5
"galerie schwab";0;0;1;5
"anne grim";0;0;1;10
"philippe berry";0;0;72;6.375;0;0;23;6.4347826086957
"mechanic art";0;0;2;7;0;0;2;7.5
"shirley jaffe";0;0;1;4
"gottfried salzmann";0;0;1;5
"david kassan";0;0;1;1
"banksy billet de banque prix";0;0;1;1
annya;0;0;1;3
"lucas rollin";0;0;1;2
"camilo alvarez";0;0;1;10
"tal coat artist";0;0;2;9
"liu bolin prix";0;0;1;4
"vache oeuvre d'art";0;0;1;8
"peinture dark vador";0;0;1;4
begarat;0;0;1;4
"jeff aérosol";0;0;2;5
"philippe croix";0;0;1;8
dtone;0;0;1;5
"marko righo";0;0;1;9
"bernard buffet portrait";0;0;1;7
"galerie open your eyes";0;0;1;9
"galerie gabel";0;0;2;4
"peinture toute surface 44";0;0;1;27
"renk artiste";0;0;1;6;0;0;2;6
"jana et js";0;0;1;6;0;0;2;6
godon;0;0;1;11
banksy;0;0;1;22;0;0;2;27
"nyne factory";0;0;2;7
skoglund;0;0;2;11
"prix sculpture bruno catalano";0;0;3;8
"miguel chevalier biographie";0;0;1;3
"sculpture orlinski";0;0;1;5
haggai;0;0;1;12
"vente d'oeuvre d'art";0;0;1;1
"peintre beaufils";0;0;1;4
"sculpture bacchus";0;0;4;8
"sculpteur japonais contemporain";0;0;1;10
"renaud bargues";0;0;1;3
"no art";0;0;2;5
"christophe goutal";0;0;2;3
"cesar baldaccini sculptures";0;0;1;6
"vanité philippe pasqua";0;0;1;3
picka;0;0;3;7.6666666666667
mondapart;0;0;1;6
"antoni muntadas";0;0;1;5
"guy de lussigny";0;0;2;7
"galerie du buisson";0;0;1;9
"corinne rubens";0;0;1;3
"galerie artiane";0;0;1;4;0;0;1;5
gregos;0;0;2;7.5
"sculpture panthere";0;0;2;7.5
"el diablo x";0;0;1;26
"oeuvre d'art contemporain";0;0;1;1
"patrick villas";0;0;1;5
"dan rawlings art";0;0;1;1
"frank fischer";0;0;3;6
"peinture dissection";0;0;1;4
"artiste déesse";0;0;5;4.6
"pascal heranval";0;0;2;1
"barthes christophe";0;0;1;9;0;0;1;11
"aurelie mantillet";0;0;2;8
"le diamantaire";0;0;6;10.333333333333
"photo art moderne";0;0;2;2
"alain schank";0;0;1;5
"sen2 figueroa";0;0;1;2
"di rosa";0;0;10;4.6;0;0;2;4.5
"emmanuel pons";0;0;2;7.5
"photographe surréaliste";0;0;1;10
"thomas agrinier";0;0;1;5
"les renés dessin animé";0;0;1;10
"galerie art contemporain";0;0;3;5;0;0;6;7
"jana and js";0;0;1;8
"peinture clint";0;0;1;10
"greenwood gallery paris";0;0;1;5;0;0;1;5
"philippe charpentier";0;0;1;8;0;0;2;1.5
"julie mechali";0;0;1;5
miss.tic;0;0;1;7
"petit poulet";0;0;1;26
"peintre leo galamez";0;0;1;2
oueuvres;0;0;1;10
"tony frank";0;0;9;7.8888888888889;0;0;2;8.5
"phillipe berry";0;0;1;6
"balloon dog bernardaud";0;0;3;10;0;0;2;3
"jean michel basquiat in italian";0;0;4;8;0;0;1;8
"luc dratwa";0;0;2;8
"alain godon cote";0;0;1;10;0;0;1;10
"kaws boba fett";0;0;1;5
"lithographie banksy";0;0;1;1
"hiquily philippe";0;0;1;7
"filip mirazovic";0;0;1;8
"christine muller";0;0;2;6;0;0;1;6
"jeff koons chien ballon";0;0;1;9
aerosol;0;0;2;17
goddog;0;0;1;4;0;0;1;4
"fernando garcia";0;0;1;10
"jésus marche sur les eaux tibériade";0;0;2;8.5
artser;0;0;1;1
"flèche jaune";0;0;2;31
"obey tableau";0;0;1;2
"miss tic street art";0;0;1;5
"ski sex";0;0;1;10
goet;0;0;1;10;0;0;1;10
timmers;0;0;2;4.5
"jacqueline schafer";0;0;1;9
"eric bourguignon";0;0;2;7
"banksy a vendre";0;0;1;4
"carlos cruz";0;0;1;11
"durix peintre";0;0;2;4
"francois morelet";0;0;1;9;0;0;1;9
"jingle art";0;0;1;9
"mr jago";0;0;1;6
"bernar venet";0;0;7;8.1428571428571;0;0;1;8
"grands artistes contemporains";0;0;1;4
"duong le thai";0;0;3;5.6666666666667
"peters vincent";0;0;1;9
"remy pagard";0;0;1;6
"marie laure gerard";0;0;1;3
trovic;0;0;2;5
"rafael gomez barros";0;0;1;3
"francois malingrey";0;0;2;5
"françois machado";0;0;3;6
"rafiy okefolahan";0;0;2;1
"easy sasha";0;0;1;10
miss.van;0;0;1;7
"galerie w";0;0;10;5
grisors;0;0;1;10
"morellet françois";0;0;1;9
"timothee chaillou";0;0;1;2
"charlelie couture new york";0;0;1;5
"duane michals oeuvres";0;0;2;5
"jean bouilhou";0;0;2;29
"tableau artiste";0;0;1;20
"romain saintonge";0;0;1;5
"elodie lachaud";0;0;2;4
"richard orlinski sculpteur";0;0;2;7
yemza;0;0;2;4
"tabouret sculpteur";0;0;1;6
"cesar art";0;0;1;8
"frederic deprun";0;0;1;4
"joachim monvoisin";0;0;2;5
ioye;0;0;1;4
oeuvres;0;0;3;10
lokiss;0;0;1;10
koor;0;0;7;11.142857142857;0;0;5;9.2
"under construction gallery";0;0;2;4.5
"sculpture panda";0;0;1;4
"speedy graphito";0;0;20;7.85;0;0;5;8
"izabeau jousse";0;0;2;3.5;0;0;3;3
"african geisha";0;0;2;9.5
brodlim;0;0;1;2;0;0;1;2
"takashi murakami oeuvres principales";0;0;1;4
"jerry hall jeune";0;0;2;1;0;0;2;1
"francesco ferrante";0;0;1;10
"oeuvre de berg ou de gainsbourg";0;0;5;10;0;0;11;10
"irina ionesco nue";0;0;1;4
"mccarthy usa";0;0;1;8
"peintre bernard buffet";0;0;3;10
besher;0;0;1;2
"sculpture palette";0;0;2;10
"flipo pezenas";0;0;1;2
"artiste contemporain belge";0;0;1;10
"vendre sculpture";0;0;1;2
mchat;0;0;2;10.5
"thomas bossard";0;0;4;4
"photographer david lachapelle";0;0;1;6
"shepard fairey";0;0;18;10;0;0;9;10.444444444444
pras;0;0;4;6.75
"hermann nitsch";0;0;1;7
auboiron;0;0;1;9;0;0;5;9
"bernard rancillac";0;0;7;9.5714285714286
"peintre ben bella";0;0;1;2
"galerie under construction";0;0;2;4
"valerie marty";0;0;1;8
"arthur dorval";0;0;2;3
"huart peintre";0;0;1;9
"c'est nous les gars de menilmontant";0;0;1;5
"valérie marty";0;0;1;9
"lauwrence weiner";0;0;3;11
"achat oeuvre art";0;0;1;1
"la micro galerie";0;0;1;7
"ouvre-moi la galerie";0;0;1;13
"gregory vigier";0;0;1;4
"audoin desforges";0;0;2;6
"monsieur chat graffiti";0;0;2;7
"art pussy";0;0;1;16
"alain buyse";0;0;1;10
"tilt graffiti";0;0;2;7
"paris hilton";0;0;2;203
"christian croset";0;0;1;9
"clotilde ancarani";0;0;1;6
"cedrix crespel";0;0;4;4.25
glineur;0;0;1;6
"le diamentaire";0;0;1;10
"artiste costa";0;0;1;4
"francois glineur";0;0;1;1
"galerie numero 1";0;0;1;5
artper;0;0;1;1
"guy ferrer";0;0;1;8
"mario kolaric";0;0;1;5
"robert peintre";0;0;1;10
"oeuvres joan miro";0;0;2;1
"ben nice";0;0;1;10
"alexandre joly facebook";0;0;1;9
"galerie brugier-rigail";0;0;1;7
"bear galerie";0;0;1;6
"photographie oeuvre d'art";0;0;1;3
"mercier mathieu";0;0;1;9
artspert;0;0;1;1
"souris sur le gateau";0;0;2;9
"jorge enrique";0;0;1;4
"orlinski prix";0;0;1;6
zokatos;0;0;1;3
"in art";0;0;1;6
"jean moiras";0;0;2;15
tafeta;0;0;1;4
"julien raynaud";0;0;1;4
"jean philippe berger";0;0;2;1
deret;0;0;1;50
sculpture.;0;0;1;8
"bansky oeuvre";0;0;1;8
"damien gard";0;0;1;8
"artiste aveugle";0;0;1;123
"sculpture d art";0;0;1;1
"flesh dance";0;0;1;24
"tal coat oeuvres";0;0;1;9
"galerie nuances et lumière";0;0;2;4
"john matos crash";0;0;1;3
"jean gilles badaire peintre";0;0;1;7
"adela burdujanu";0;0;1;5
"francoise petrovich";0;0;1;7
gillig;0;0;1;16
"jean michel basquiat oeuvres";0;0;4;7
"chuck elliott";0;0;1;4
"david gerstein prix";0;0;2;1
"charles henry sommelette";0;0;2;5
"george clooney";0;0;1;217
simafra;0;0;1;3
"benjamin gozlan";0;0;1;9
"ivan plusch";0;0;1;1
"sculpture art contemporain pas cher";0;0;1;1
"sarah schmidt";0;0;1;11
"galerie d'art en ligne contemporain";0;0;1;1
"david sitbon";0;0;1;6
"vincent peters";0;0;1;8
"bas de soie";0;0;1;77
"art contemporain photographie";0;0;1;2
"ki to la gloire";0;0;1;5
"fred calmets";0;0;1;4
"gottfried salzmann aquarelliste";0;0;1;5
btoy;0;0;1;7
"sculpture art moderne";0;0;1;1
"jonone artiste";0;0;2;2
"street art noir et blanc";0;0;1;10
"photographie jr";0;0;1;11
risote;0;0;1;9
bamas;0;0;1;30
mackeown;0;0;2;4
"tableau jeune artiste";0;0;4;9
"genevieve claisse a vendre";0;0;1;9
joneone;0;0;1;6
"mist artiste peintre";0;0;4;7
"hedva ser";0;0;2;7
"galerie ariel sibony";0;0;1;8
"claire ge";0;0;1;6
"collectionneur averti";0;0;2;6
denning;0;0;1;11
"kathleen petyarre";0;0;3;5
"chamizo prix";0;0;1;5
"peintre ernest pignon ernest";0;0;1;6
"portraits de femmes";0;0;1;1
"christophe charbonnel";0;0;3;7
"argentic galerie";0;0;1;6
"photographie art contemporain";0;0;1;2
"moya peintre";0;0;1;6
"mb factory";0;0;1;9
cumbone;0;0;1;6
"nom artiste contemporain";0;0;1;4
"art compression";0;0;1;9
"alfons alt";0;0;1;8
"pierrot men";0;0;2;20
"john duffin";0;0;1;8
"ronald dupont";0;0;1;6
"olivier ribardiere";0;0;2;5
"street art galerie en ligne";0;0;1;7
"abie loy kemarre";0;0;1;8
"lachapelle photographe";0;0;1;8
"open art galerie dijon";0;0;1;7
"thierry diers";0;0;1;7
"galerie alb";0;0;3;9
"murakami artiste";0;0;1;3
"eugène begarat peintre";0;0;1;1
"oeuvre de shepard fairey";0;0;3;3
"arman violon";0;0;1;5
"david ferreira facebook";0;0;1;8
"didier hoffmann";0;0;5;7
"romero britto sculpture";0;0;1;7
"louis audibert";0;0;1;9
schmite;0;0;1;29
"artistes espagnols";0;0;1;10
"beaufils jean luc";0;0;1;4
"galerie gastaud";0;0;1;6
"jon one";0;0;2;6
"xavier blondeau";0;0;1;5
bernadine;0;0;1;6
"fanny dubois";0;0;1;8
"marie madeleine nue";0;0;1;8
"chantal dugave";0;0;1;7
"eric bourse";0;0;1;1
"padraig creston";0;0;1;10
"angelique white";0;0;1;8
"terra peintre";0;0;1;1
"photographe lachapelle";0;0;1;10
"miroir portrait";0;0;1;8
"achat oeuvres d'art";0;0;1;1
"lachapelle david";0;0;1;7
bernar;0;0;1;12
"anne valerie dupond";0;0;1;9
"cesar artiste contemporain";0;0;1;3
"octave pixel";0;0;2;4.5
"emmanuel flipo";0;0;1;2
"morellet francois";0;0;1;11
"panthere sculpture";0;0;1;8
"phil couture";0;0;2;8
pentaptyque;0;0;1;8
"hoffmann peintre";0;0;1;20
"galerie virtuelle art contemporain";0;0;1;3
"elder batista";0;0;1;5
"gallerie collin";0;0;1;5
"catalano sculpteur prix";0;0;1;2
"valerie hadida sculptures";0;0;1;2
"tableau jace";0;0;1;6
"acheter tableau paris";0;0;1;2
"graffiti jonone";0;0;1;5
"claude charlier";0;0;2;7
"atlas artiste";0;0;1;5
"cesar le sculpteur";0;0;1;8
"david gouny";0;0;1;4
"ernest pignon ernest";0;0;7;8.8571428571429
"herve di rosa artiste peintre";0;0;1;5
"galerie delorme";0;0;1;5
baldaccini;0;0;2;4
"artistes en vogue";0;0;1;3
"galerie bacqueville";0;0;1;7
"rolf saint agnes";0;0;1;4
"orlinski sculpteur";0;0;1;6
"martin reyna";0;0;1;4
km67;0;0;1;8
susplugas;0;0;1;5
"jasper johns oeuvres pop art";0;0;1;15
"les topiaires";0;0;1;17
"gregos street art";0;0;1;7
skateroom;0;0;1;16
"objet d'art contemporain";0;0;2;2
"oeuvre de françois morellet";0;0;1;5
"tag banksy";0;0;1;9
"lamy peintre";0;0;1;6
morisse;0;0;1;11
"clement denis peintre";0;0;1;2
bremermann;0;0;1;9
"galerie brugier";0;0;1;6
csculpture;0;0;1;6
"timothée chaillou";0;0;1;2
"annette messager biographie";0;0;2;6
boudro;0;0;1;9
"le prix";0;0;1;1
"déesse artiste";0;0;1;4
"galerie duret";0;0;1;4
"sculpture a vendre";0;0;1;1
"artiste pez";0;0;1;9
"françois morellet";0;0;2;10
"kenny hunter";0;0;1;6
"oeuvre de murakami";0;0;1;3
valentin_caro;0;0;1;9
"olivier courty";0;0;1;3
"pascal frament";0;0;1;1
"achat banksy";0;0;1;2
"françois morellet oeuvres";0;0;1;7
"yoel benarouche";0;0;1;7
"chanoir artiste";0;0;1;2
"klasen peintre";0;0;1;2
"l'art de la rue";0;0;4;8
"le turk";0;0;1;10
"sculpture monumentale contemporaine";0;0;1;2
"photos david lachapelle";0;0;1;4
"sébastien bayet artiste peintre";0;0;1;4
"peinture multicolore";0;0;1;21
"julien grudzinski";0;0;1;3
"jonone prix toile";0;0;4;1
"tony soulier";0;0;1;10
"la soubrette";0;0;1;23
"la peur dans l'art";0;0;1;1
"mendjisky serge";0;0;1;5
"prix sculpture catalano";0;0;1;3
gastineau;0;0;1;26
"christof monnin peintre";0;0;1;1
"oeuvre d'art controversée";0;0;1;50
"thomas verny";0;0;1;1
sgarra;0;0;1;4
"alain godon reproduction";0;0;1;7
kennis;0;0;1;85
"le bal à jo";0;0;1;7
"khawater 1";0;0;5;9
"voss artiste peintre";0;0;1;12
nesler;0;0;1;7
"mr chat";0;0;5;7.2
"anne berry";0;0;3;9
"leo galamez";0;0;1;2
"florian marco";0;0;1;2
"achat tableaux contemporains";0;0;3;2
"fetish art";0;0;2;17
"romero britto technique";0;0;1;10
"jean marie drouet";0;0;1;4
"troy henriksen";0;0;4;3
"artiste enjoy";0;0;1;1
"black stockings nude";0;0;1;11
"art voyeur";0;0;1;9
