artsper;20;0.05524861878453;362;1.0027624309392;15;0.049019607843137;306;1.0032679738562;4;0.10526315789474;38;1;1;0.055555555555556;18;1
jonone;11;0.073825503355705;149;2.7651006711409;10;0.088495575221239;113;3.0265486725664;0;0;22;2.4090909090909;1;0.071428571428571;14;1.2142857142857
"bernard pras";10;0.076335877862595;131;3.6488549618321;5;0.055555555555556;90;3.1444444444444;4;0.13793103448276;29;4.7586206896552;1;0.083333333333333;12;4.75
chanoir;6;0.42857142857143;14;1.9285714285714;3;0.42857142857143;7;2;2;0.4;5;1.8;1;0.5;2;2
"jacques villeglé";4;0.07843137254902;51;5.2352941176471;3;0.075;40;5.2;0;0;6;4.3333333333333;1;0.2;5;6.6
"shepard fairey oeuvres";4;0.28571428571429;14;2.1428571428571;3;0.25;12;2;1;1;1;3;0;0;1;3
"jan saudek";3;0.063829787234043;47;9.063829787234;3;0.071428571428571;42;8.8809523809524;0;0;1;11;0;0;4;10.5
"oleg dou";3;0.375;8;4.5;3;0.42857142857143;7;4.7142857142857;0;0;1;3
"christine barres";3;0.42857142857143;7;3.1428571428571;2;0.5;4;3.25;1;0.33333333333333;3;3
"richard di rosa";3;0.23076923076923;13;3.1538461538462;2;0.2;10;3.2;0;0;1;1;1;0.5;2;4
"galerie d'art";3;0.046153846153846;65;6.7230769230769;3;0.057692307692308;52;6.8461538461538;0;0;10;5.6;0;0;3;8.3333333333333
"robert combas";3;0.034090909090909;88;3.8863636363636;3;0.058823529411765;51;3.4117647058824;0;0;27;4.5555555555556;0;0;10;4.5
"nils udo";3;0.024793388429752;121;6.7355371900826;2;0.021978021978022;91;6.4175824175824;1;0.052631578947368;19;7.7894736842105;0;0;11;7.5454545454545
"troy henriksen prix";2;0.66666666666667;3;1;0;0;1;1;2;1;2;1
"miss tic";2;0.013157894736842;152;6.6842105263158;2;0.021739130434783;92;6.0760869565217;0;0;50;7.64;0;0;10;7.5
"eric lapierre artiste";2;1;2;1;2;1;2;1
"massimo vitali";2;0.1;20;6.7;1;0.2;5;7;1;0.2;5;7
"charles fazzino";2;0.076923076923077;26;4.3076923076923;2;0.090909090909091;22;4.0909090909091;0;0;2;6;0;0;2;5
"philippe croq";2;0.28571428571429;7;2;2;0.28571428571429;7;2
"biographie jean dubuffet";2;0.25;8;5;2;0.25;8;5
durix;2;0.10526315789474;19;4.4210526315789;2;0.14285714285714;14;4;0;0;5;5.6
"fabien verschaere";2;0.33333333333333;6;2.1666666666667;2;0.33333333333333;6;2.1666666666667
"sylvie fleury biographie";2;1;2;2;1;1;1;2;1;1;1;2
"monsieur chat";2;0.036363636363636;55;5.9090909090909;2;0.057142857142857;35;5.4571428571429;0;0;18;6.5;0;0;2;8.5
"jacques villeglé oeuvres";2;0.4;5;2;2;0.4;5;2
"hom nguyen prix";2;1;2;4;1;1;1;4;1;1;1;4
levalet;2;0.064516129032258;31;6.3870967741935;2;0.08695652173913;23;6.2173913043478;0;0;5;7.4;0;0;3;6
"philippe berry";2;0.02247191011236;89;4.6741573033708;2;0.035714285714286;56;6.8392857142857;0;0;25;1;0;0;8;1
"olivier masmonteil";2;0.090909090909091;22;4.6363636363636;1;0.066666666666667;15;4.4666666666667;1;0.16666666666667;6;5;0;0;1;5
"balloon dog";2;0.051282051282051;39;6.974358974359;1;0.052631578947368;19;6.7894736842105;1;0.076923076923077;13;7.0769230769231;0;0;7;7.2857142857143
"jonone prix";2;0.33333333333333;6;1;0;0;3;1;2;0.66666666666667;3;1
"robert bradford";2;0.18181818181818;11;2.3636363636364;1;0.33333333333333;3;2;1;0.14285714285714;7;2.5714285714286;0;0;1;2
"gaspard mitz";2;0.2;10;1.4;1;0.33333333333333;3;1.3333333333333;1;0.5;2;1
"vincent richeux";2;0.18181818181818;11;4;1;0.125;8;4;1;0.33333333333333;3;4
"eva jospin";2;0.041666666666667;48;3.0833333333333;2;0.05;40;2.425;0;0;2;7.5;0;0;6;6
"yutao ge";2;1;2;2;1;1;1;2;1;1;1;2
"jean dubuffet oeuvres";2;0.08695652173913;23;5.4782608695652;2;0.14285714285714;14;5.2142857142857;0;0;2;6;0;0;7;5.8571428571429
"valerie hadida";2;0.25;8;2.125;1;0.16666666666667;6;2.1666666666667;1;0.5;2;2
"tanc artiste";2;0.66666666666667;3;2;2;0.66666666666667;3;2
"france mitrofanoff";2;0.66666666666667;3;2;2;0.66666666666667;3;2
"obey artiste";2;0.5;4;2.5;2;1;2;3
"lucien murat";2;0.16666666666667;12;2.6666666666667;2;0.2;10;2.5;0;0;1;3;0;0;1;4
"galerie nue";2;0.66666666666667;3;5.6666666666667;1;1;1;3;0;0;1;3;1;1;1;11
"antoine geiger";2;0.076923076923077;26;4.5384615384615;2;0.11764705882353;17;4.6470588235294;0;0;9;4.3333333333333
"herve di rosa";2;0.33333333333333;6;4.3333333333333;1;0.25;4;4;1;0.5;2;5
"jef aerosol";2;0.033898305084746;59;5.0847457627119;2;0.054054054054054;37;5.1351351351351;0;0;14;5;0;0;8;5
"nicolas nicolini";2;1;2;2;2;1;2;2
"fabrice hyber";2;0.052631578947368;38;5.8947368421053;2;0.060606060606061;33;5.7575757575758;0;0;5;6.8
"guy weladji";2;0.66666666666667;3;4;2;0.66666666666667;3;4
"keith haring oeuvres";2;0.031746031746032;63;6.6349206349206;2;0.046511627906977;43;6.3255813953488;0;0;16;7.3125;0;0;4;7.25
"cesar santos";2;1;2;5;2;1;2;5
"jm robert peintre";2;0.66666666666667;3;2;0;0;1;2;2;1;2;2
"pierre cornudet";2;0.66666666666667;3;1.3333333333333;2;0.66666666666667;3;1.3333333333333
"ody saban";2;0.25;8;4;2;0.25;8;4
"li wei";2;0.08;25;4.72;2;0.090909090909091;22;4.6818181818182;0;0;3;5
"tony soulie";2;1;2;4;2;1;2;4
"yazid oulab";2;0.4;5;4;2;0.5;4;4;0;0;1;4
"herbert oehm";2;1;2;3;2;1;2;3
"béatrice terra";2;0.66666666666667;3;1;2;0.66666666666667;3;1
"investir dans l'art";1;0.16666666666667;6;8.1666666666667;1;0.25;4;8.75;0;0;2;7
"anthony murphy";1;1;1;5;1;1;1;5
"olivier long peintre";1;0.33333333333333;3;3.6666666666667;1;0.33333333333333;3;3.6666666666667
"galerie art";1;0.035714285714286;28;8.8571428571429;1;0.04;25;8.68;0;0;2;11;0;0;1;9
"sergio ferro";1;0.33333333333333;3;2;1;0.33333333333333;3;2
"nicole wendel";1;0.33333333333333;3;2;1;0.33333333333333;3;2
"peintre new yorkais contemporain";1;0.33333333333333;3;9;1;0.33333333333333;3;9
"sérigraphie oeuvre";1;0.5;2;10;1;0.5;2;10
"florent chopin";1;0.25;4;5.25;1;0.25;4;5.25
"robert barry";1;0.052631578947368;19;3.6842105263158;1;0.058823529411765;17;3.6470588235294;0;0;2;4
"jace artiste";1;0.33333333333333;3;8;1;0.33333333333333;3;8
"jon one";1;0.083333333333333;12;3.3333333333333;1;0.11111111111111;9;3.1111111111111;0;0;2;4;0;0;1;4
"sculpture monumentale";1;0.1;10;3.3;0;0;1;3;1;1;1;3
"françois glineur peintre";1;0.33333333333333;3;2;1;1;1;2;0;0;2;2
"pierre pignon";1;1;1;2;1;1;1;2
www.artsper.com;1;1;1;1;1;1;1;1
"stéphanie nava";1;0.33333333333333;3;3;1;0.33333333333333;3;3
orlinski;1;0.033333333333333;30;6.7666666666667;1;0.071428571428571;14;6.5714285714286;0;0;13;6.9230769230769;0;0;3;7
"levalet artiste";1;0.33333333333333;3;2;1;0.5;2;2;0;0;1;2
"romain saintonge";1;1;1;4;1;1;1;4
rancinan;1;0.0625;16;6.125;1;0.076923076923077;13;6;0;0;3;6.6666666666667
"takashi murakami prix";1;1;1;1;1;1;1;1
"shirley jaffe artiste";1;0.25;4;3.25;1;0.25;4;3.25
"sebastien bayet";1;0.2;5;1;1;0.5;2;1;0;0;3;1
"hermann nitsch oeuvres";1;1;1;3;1;1;1;3
"jean-michel turpin";1;0.33333333333333;3;6.3333333333333;1;0.33333333333333;3;6.3333333333333
tanc;1;0.055555555555556;18;4.8888888888889;1;0.1;10;4.3;0;0;4;5.5;0;0;4;5.75
"jean-charles millepied";1;0.5;2;4.5;0;0;1;5;1;1;1;4
"gerard boudon";1;0.33333333333333;3;1.6666666666667;1;0.5;2;1;0;0;1;3
"keymi puzzle";1;1;1;11;1;1;1;11
"philippe dannic";1;0.16666666666667;6;7;1;0.16666666666667;6;7
"natalia rak";1;0.16666666666667;6;4;1;0.25;4;4;0;0;2;4
"galeries d'art";1;0.25;4;3;1;0.25;4;3
"gaelle villedary";1;0.16666666666667;6;5.3333333333333;1;0.25;4;5.25;0;0;1;5;0;0;1;6
"zenoy prix";1;1;1;1;1;1;1;1
"c215 acheter";1;1;1;8;1;1;1;8
"caroline veith";1;0.33333333333333;3;6.6666666666667;1;0.33333333333333;3;6.6666666666667
"aboudia peintre ivoirien";1;0.33333333333333;3;2.3333333333333;1;0.5;2;2;0;0;1;3
"oeuvres de keith haring";1;0.2;5;6.4;1;0.2;5;6.4
"sébastien bayet artiste peintre";1;0.25;4;1;1;0.5;2;1
"bastien cuenot";1;0.5;2;1;1;0.5;2;1
"peinture jeanne lorioz";1;0.25;4;4;1;0.33333333333333;3;4;0;0;1;4
"tom wesselmann oeuvres";1;0.16666666666667;6;4.6666666666667;1;0.25;4;4.5;0;0;2;5
"francoise petrovitch";1;0.0625;16;7.375;1;0.066666666666667;15;7.3333333333333;0;0;1;8
"gwenael billaud";1;0.5;2;2;1;0.5;2;2
"galerie du marais";1;1;1;19;1;1;1;19
"clément denis";1;0.5;2;5;1;0.5;2;5
"robert mapplethorpe oeuvres";1;0.33333333333333;3;5;1;0.5;2;5;0;0;1;5
"billet banksy";1;0.25;4;1;1;0.25;4;1
"françois bard";1;0.25;4;2;1;0.25;4;2
"didier majewski";1;1;1;3;1;1;1;3
"andoche praudel";1;0.33333333333333;3;4;1;0.33333333333333;3;4
"bernard buffet";1;0.0092592592592593;108;10.277777777778;1;0.014084507042254;71;9.9577464788732;0;0;25;10.88;0;0;12;10.916666666667
"noelle koning";1;1;1;4;1;1;1;4
"oeuvre d'art chaussure";1;0.33333333333333;3;7.6666666666667;1;0.33333333333333;3;7.6666666666667
"butz et fouque";1;0.25;4;2;0;0;1;1;1;0.33333333333333;3;2.3333333333333
"bard peintre";1;1;1;1;1;1;1;1
"inception gallery";1;1;1;8;1;1;1;8
"charlotte lelong";1;0.16666666666667;6;6;1;0.16666666666667;6;6
"lou camino";1;0.5;2;2;1;0.5;2;2
"marc figueras paintings";1;1;1;10;1;1;1;10
"keith jarrett koln";1;1;1;48;1;1;1;48
"oeuvre d'art du 21eme siecle";1;0.33333333333333;3;4.3333333333333;0;0;2;4;1;1;1;5
"didier triglia";1;0.125;8;5.5;1;0.33333333333333;3;5.6666666666667;0;0;5;5.4
"laure krug";1;0.25;4;1;1;0.25;4;1
sculpture;1;0.0066225165562914;151;10.019867549669;1;0.0125;80;10.8;0;0;58;9.0344827586207;0;0;13;9.6153846153846
iemza;1;0.083333333333333;12;4;1;0.1;10;4;0;0;2;4
"artistes indiens";1;0.5;2;7.5;1;1;1;6
"sandrine paumelle";1;0.2;5;4.4;1;0.2;5;4.4
"guo peng";1;0.33333333333333;3;4;1;0.33333333333333;3;4
"yoel benharrouche artiste peintre";1;1;1;4;1;1;1;4
"tairou bodian";1;0.5;2;1;1;1;1;1;0;0;1;1
aranthell;1;0.25;4;5;1;0.25;4;5
"jean dubuffet peintre";1;0.33333333333333;3;3.3333333333333;1;0.5;2;3;0;0;1;4
"ramzi adek";1;0.2;5;5;1;1;1;5
"zhuo qi";1;0.5;2;1;1;0.5;2;1
"carole goujon";1;0.33333333333333;3;4;1;0.33333333333333;3;4
"christophe catelain";1;1;1;1;1;1;1;1
"tony soulie artist";1;1;1;6;1;1;1;6
"beatrice terra";1;1;1;1;1;1;1;1
"emma vidal";1;0.14285714285714;7;2.1428571428571;1;0.14285714285714;7;2.1428571428571
"alex katz oeuvres";1;0.33333333333333;3;4.3333333333333;1;0.5;2;5
"manu perez paris";1;1;1;7;1;1;1;7
"godon alain";1;0.5;2;2;1;0.5;2;2
"serge delaune";1;0.25;4;1.75;1;0.33333333333333;3;2
"télémaque artiste";1;1;1;4;1;1;1;4
"bernard pras oeuvre";1;0.2;5;2.2;1;0.33333333333333;3;2.3333333333333;0;0;2;2
"""eva jospin""";1;1;1;1;1;1;1;1
"artiste l'atlas";1;1;1;6;1;1;1;6
"ben artiste";1;0.052631578947368;19;3.6842105263158;1;0.071428571428571;14;3.3571428571429;0;0;3;4.6666666666667;0;0;2;4.5
"david gerstein";1;0.0625;16;3.25;1;0.125;8;3.125;0;0;1;4;0;0;7;3.2857142857143
"hideki yoshida";1;1;1;8;1;1;1;8
"charles guyot";1;0.2;5;1;1;0.2;5;1
"sculpture orlinski";1;0.5;2;7;1;0.5;2;7
"artistes contemporains";1;0.02;50;9.56;1;0.03125;32;9.625;0;0;13;8.6153846153846;0;0;5;11.6
"achat banksy";1;1;1;2;1;1;1;2
"mira maodus";1;0.5;2;4.5;1;0.5;2;4.5
"jacques ibert biographie";1;0.5;2;15;1;0.5;2;15
"biographie dubuffet";1;0.5;2;3.5;1;0.5;2;3.5
"beaufils jean luc";1;0.33333333333333;3;3;1;1;1;3
"dok graffiti";1;0.5;2;1;1;0.5;2;1
"hermann nitsch";1;0.076923076923077;13;8.6923076923077;1;0.11111111111111;9;8.4444444444444;0;0;2;9.5;0;0;2;9
"bruno mallart";1;0.25;4;5.5;1;0.25;4;5.5
"adela burdujanu";1;0.14285714285714;7;4;0;0;5;4;1;1;1;4
"georges bru";1;0.25;4;2;1;0.25;4;2
"di rosa peintre";1;0.14285714285714;7;2.1428571428571;1;0.25;4;2;0;0;2;2;0;0;1;3
"ben vautier oeuvres";1;0.2;5;8;1;0.25;4;8;0;0;1;8
"debbie smyth";1;1;1;14;1;1;1;14
"jean françois lefranc";1;0.5;2;2.5;1;0.5;2;2.5
"reeve schumacher";1;0.5;2;1;1;0.5;2;1
"alain louiset";1;1;1;3;1;1;1;3
"clémence veilhan";1;1;1;6;1;1;1;6
"tableau obey";1;1;1;1;1;1;1;1
"david monllor";1;0.33333333333333;3;3;0;0;1;3;1;0.5;2;3
"oeuvre de bansky";1;0.090909090909091;11;8;1;0.1;10;7.9;0;0;1;9
"durix peintre";1;0.33333333333333;3;4.3333333333333;1;0.5;2;4.5
"bernard pras biographie";1;0.33333333333333;3;2;1;0.5;2;2;0;0;1;2
"flowers d andy warhol";1;1;1;7;1;1;1;7
"galerie giraudeau";1;0.5;2;6;1;1;1;6;0;0;1;6
"patrick delaunay";1;0.0625;16;3.3125;1;0.066666666666667;15;3.2666666666667;0;0;1;4
"izabeau jousse";1;0.16666666666667;6;4.1666666666667;1;0.5;2;4
"artiste jonone";1;1;1;1;1;1;1;1
"le cirque matisse";1;0.2;5;5;1;0.2;5;5
"yoel benharrouche prix";1;0.5;2;7.5;1;0.5;2;7.5
"annya sand";1;0.33333333333333;3;4;1;0.33333333333333;3;4
"peintre buffet";1;0.11111111111111;9;7.4444444444444;1;0.16666666666667;6;7.1666666666667;0;0;1;8;0;0;2;8
"crocodile orlinski";1;1;1;5;1;1;1;5
"chris morin eitner";1;0.16666666666667;6;3;1;0.25;4;2.5;0;0;2;4
"raymond hains";1;0.023809523809524;42;6.3095238095238;1;0.025641025641026;39;6.1794871794872;0;0;3;8
"marcel dumont";1;0.5;2;8;1;0.5;2;8
"françois morellet";1;0.0125;80;7.475;1;0.014492753623188;69;7.3188405797101;0;0;8;8.625;0;0;3;8
"villéglé oeuvres";1;1;1;1;1;1;1;1
"cote artiste contemporain";1;1;1;59;1;1;1;59
"eric bourguignon";1;0.14285714285714;7;8.4285714285714;1;0.14285714285714;7;8.4285714285714
"oswaldo guayasamin";1;0.2;5;6.6;1;1;1;5
"liu bolin biographie";1;0.33333333333333;3;2;1;0.33333333333333;3;2
"thomas bossard";1;0.25;4;4;1;0.5;2;4
"pierre marie brisson";1;0.11111111111111;9;1.5555555555556;1;0.16666666666667;6;1.5;0;0;2;1.5;0;0;1;2
"wesselmann tom";1;0.5;2;3;1;0.5;2;3
"edmond bellefroid";1;0.33333333333333;3;3;1;0.33333333333333;3;3
"rafael navarro";1;0.33333333333333;3;2;1;0.33333333333333;3;2
"lucile callegari prix";1;0.5;2;1;1;0.5;2;1
"karl lagasse";1;0.125;8;4;1;0.25;4;4;0;0;4;4
"michel delamarre";1;0.5;2;8.5;1;1;1;4
"shaka artiste";1;0.25;4;4.5;1;0.33333333333333;3;4;0;0;1;6
"césar oeuvres";1;0.5;2;4;1;0.5;2;4
"fernando costa";1;0.071428571428571;14;5.5;0;0;4;6;1;0.33333333333333;3;6
"peter lippmann";1;0.076923076923077;13;3.3076923076923;1;0.076923076923077;13;3.3076923076923
"combas peintre";1;0.047619047619048;21;4.3809523809524;1;0.16666666666667;6;3.8333333333333;0;0;10;4.8;0;0;5;4.2
combas;1;0.01219512195122;82;5.4268292682927;1;0.017241379310345;58;5.1034482758621;0;0;13;6.0769230769231;0;0;11;6.3636363636364
"murakami peintre";1;0.33333333333333;3;3;1;0.5;2;3;0;0;1;3
"lucien murat artiste";1;0.33333333333333;3;1;1;0.5;2;1;0;0;1;1
"max charvolen artiste";1;1;1;1;1;1;1;1
"lawrence weiner oeuvres";1;0.5;2;1.5;1;0.5;2;1.5
"tete de panthere noire";1;1;1;18;1;1;1;18
vol%;1;1;1;3;1;1;1;3
"oeuvre orlan";1;0.25;4;3.5;1;0.25;4;3.5
"peintre irlandais";1;0.5;2;6.5;1;0.5;2;6.5
artspers;1;0.25;4;1;1;0.25;4;1
"oeuvre unique";1;0.5;2;1;1;0.5;2;1
"nicolas fremion";1;1;1;8;1;1;1;8
"jieun park";1;0.1;10;8.4;1;0.125;8;8.125;0;0;1;10;0;0;1;9
"etiyé dimma poulsen";1;0.5;2;5;1;0.5;2;5
"pierre dubrunquez";1;0.125;8;2;1;0.14285714285714;7;2;0;0;1;2
"takashi murakami oeuvres";1;0.125;8;2.25;1;1;1;3
"acheter photo jr";1;0.5;2;3;1;1;1;3;0;0;1;3
"li lihong artist";1;0.5;2;2;1;0.5;2;2
"gabriela bodin";1;1;1;4;1;1;1;4
villegle;1;0.25;4;5.25;1;0.33333333333333;3;5.6666666666667;0;0;1;4
"troy peintre";1;0.5;2;3;1;0.5;2;3
"arman oeuvre";1;0.058823529411765;17;9.1764705882353;1;0.071428571428571;14;9;0;0;3;10
"mahjoub ben bella";1;0.1;10;3;1;0.2;5;3;0;0;2;3;0;0;3;3
"chanoir artiste";1;0.16666666666667;6;2;0;0;1;2;1;0.2;5;2
"valérie vaubourg";1;1;1;2;1;1;1;2
"stéphane joannes";1;0.5;2;2;1;0.5;2;2
"laure fissore";1;0.14285714285714;7;5;1;0.14285714285714;7;5
"gottfried salzmann";1;0.33333333333333;3;5;1;0.33333333333333;3;5
jisbar;1;0.5;2;2.5;1;0.5;2;2.5
"benjamin carbonne";1;0.1;10;1;1;0.125;8;1;0;0;2;1
zonder;1;1;1;10;1;1;1;10
"corine pagny";1;1;1;3;1;1;1;3
"catherine seher";1;0.33333333333333;3;4;1;0.33333333333333;3;4
"miroir de l art";1;1;1;9;1;1;1;9
"hervé di rosa";1;0.03030303030303;33;4.3333333333333;1;0.03448275862069;29;4.2068965517241;0;0;2;5;0;0;2;5.5
"christophe goutal";1;0.25;4;3.25;1;0.5;2;3;0;0;1;4;0;0;1;3
"damien gard";1;1;1;8;1;1;1;8
"orlinski crocodile prix";1;1;1;6;1;1;1;6
devals;1;0.5;2;8;1;0.5;2;8
"eduardo chillida oeuvres";1;0.33333333333333;3;6;1;0.5;2;6;0;0;1;6
"peintre en vogue";1;0.5;2;2;1;0.5;2;2
"carme albaiges";1;0.5;2;1;1;1;1;1;0;0;1;1
"peter blake pop art";1;0.5;2;6;1;0.5;2;6
"toxic artiste";1;1;1;1;1;1;1;1
"bruno catalano prix";1;0.11111111111111;9;5.2222222222222;1;0.25;4;4.5;0;0;4;6;0;0;1;5
"thomas jorion";1;0.16666666666667;6;2.8333333333333;1;0.16666666666667;6;2.8333333333333
mesnager;1;0.125;8;3.25;1;0.14285714285714;7;3.1428571428571;0;0;1;4
"christoff debusschere";1;0.1;10;7.8;1;0.14285714285714;7;8.1428571428571
"hideka tonomura";1;0.5;2;1;1;0.5;2;1
"toxic graffiti";1;0.33333333333333;3;4;1;0.5;2;4;0;0;1;4
"yann houri for sale";1;1;1;5;1;1;1;5
"césar baldaccini";1;0.03448275862069;29;6.2758620689655;1;0.04;25;6.08;0;0;4;7.5
"charles bataille artiste peintre";1;0.5;2;10;1;0.5;2;10
"oeuvre d'art fantastique";1;0.25;4;4.25;1;0.25;4;4.25
"ariane michel";1;0.5;2;14;1;0.5;2;14
"natalia rack";1;1;1;4;1;1;1;4
"hiro ando samurai cat";1;1;1;9;1;1;1;9
"art peur";1;0.5;2;2.5;1;0.5;2;2.5
"delphine couturier brochand";1;0.5;2;2;1;1;1;1;0;0;1;3
cedki;1;0.25;4;4;1;0.25;4;4
"jef aérosol";1;0.14285714285714;7;4.4285714285714;1;0.14285714285714;7;4.4285714285714
"rob hay";1;1;1;1;1;1;1;1
"l'art et les mots";1;1;1;9;1;1;1;9
"manu perez artiste";1;0.125;8;2;1;1;1;2;0;0;4;2
"raynaud art";1;1;1;7;1;1;1;7
"sculpture contemporaine platre";1;1;1;3;1;1;1;3
"artiste ben";1;0.076923076923077;13;3.4615384615385;1;0.14285714285714;7;3;0;0;3;4;0;0;3;4
"toma artiste peintre";1;0.5;2;4;1;0.5;2;4
"gérard clisson";1;1;1;3;1;1;1;3
"maxime frairot peintre";1;1;1;4;1;1;1;4
"akiza galerie";1;0.5;2;6;1;0.5;2;6
"guy boyer peintre";1;1;1;1;1;1;1;1
"guy ferrer";1;0.25;4;5.25;1;0.25;4;5.25
"wang yan cheng";1;0.052631578947368;19;6.5789473684211;1;0.11111111111111;9;7.5555555555556;0;0;9;6.2222222222222;0;0;1;1
"speedy graphito";1;0.02;50;6.06;1;0.14285714285714;7;7.2857142857143;0;0;3;7
"moya patrick";1;0.5;2;4;1;0.5;2;4
"le module de zeer";1;0.5;2;9.5;1;1;1;10
"juliette clovis";1;0.5;2;1;1;1;1;1;0;0;1;1
"renaud bargues";1;1;1;2;1;1;1;2
"joaquim falco";1;0.5;2;7;1;1;1;10
misstic;1;0.014925373134328;67;8.4328358208955;1;0.03448275862069;29;9;0;0;6;9.5
"jean francois rauzier";1;0.14285714285714;7;7.5714285714286;1;0.2;5;7.4;0;0;2;8
"boudon sculpteur";1;0.5;2;7;1;0.5;2;7
"johanna heeg";1;1;1;1;1;1;1;1
"montmartre 1930";1;1;1;8;1;1;1;8
"patrick villas sculpteur";1;1;1;3;1;1;1;3
"peter klasen";1;0.041666666666667;24;3.0833333333333;1;0.043478260869565;23;3.0434782608696;0;0;1;4
"raynaud julien";1;0.5;2;5.5;1;0.5;2;5.5
"guy oberson";1;0.1;10;8.9;1;0.1;10;8.9
"damien hirst biographie";1;0.16666666666667;6;4.5;1;0.16666666666667;6;4.5
"tudi deligne";1;1;1;3;1;1;1;3
"sculpture cactus";1;1;1;17;1;1;1;17
"james mackeown paintings";1;0.33333333333333;3;1;1;0.33333333333333;3;1
"germain plouvier";1;0.33333333333333;3;3.3333333333333;1;0.33333333333333;3;3.3333333333333
"jean dubuffet biographie";1;0.076923076923077;13;4.0769230769231;1;0.125;8;4.125;0;0;5;4
"lin felton";1;0.5;2;1;1;1;1;1
"biographie keith haring";1;0.14285714285714;7;9.5714285714286;0;0;3;9;1;0.5;2;10
"georges cabot";1;1;1;4;1;1;1;4
"henri sarla";1;1;1;1;1;1;1;1
"galerie gilbert dufois";1;0.2;5;4.4;1;0.5;2;4;0;0;2;5
"kool koor";1;0.1;10;2.9;1;0.2;5;2.4;0;0;5;3.4
"ron english";1;0.052631578947368;19;5.3684210526316;1;0.058823529411765;17;4.9411764705882;0;0;2;9
yelan;1;0.5;2;7.5;1;1;1;7;0;0;1;8
"thomas verny";1;0.33333333333333;3;1.3333333333333;1;0.33333333333333;3;1.3333333333333
"artiste en vogue";1;1;1;2;1;1;1;2
"francine van hove";1;0.090909090909091;11;6.5454545454545;1;1;1;9
"roch vandromme";1;0.5;2;5;1;0.5;2;5
villeglé;1;0.03030303030303;33;5.2424242424242;1;0.25;4;5.5
ecloz;1;0.25;4;4.5;1;0.5;2;4;0;0;1;5;0;0;1;5
"claire trotignon";1;0.076923076923077;13;4.1538461538462;1;0.5;2;4
"mambo street art";1;1;1;4;1;1;1;4
"olivier catté";1;1;1;1;1;1;1;1
"toxic street artist";1;0.5;2;4.5;1;0.5;2;4.5
"jan saudek photographe";1;0.2;5;5.4;0;0;1;5;1;0.5;2;6
"jonas sunset";1;0.33333333333333;3;2.6666666666667;1;1;1;2;0;0;2;3
"elle d";1;0.5;2;3.5;1;0.5;2;3.5
"ben goossens";1;1;1;4;1;1;1;4
"oeuvre de banksy";1;0.03030303030303;33;7.8484848484848;1;0.043478260869565;23;7.6521739130435;0;0;8;8.375;0;0;2;8
"françoise danel";1;1;1;2;1;1;1;2
"tony soulié";1;0.11111111111111;9;3.1111111111111;1;0.2;5;3;0;0;2;3;0;0;2;3.5
triglia;1;0.1;10;5.2;1;0.11111111111111;9;5.2222222222222;0;0;1;5
"galerie street art en ligne";1;0.33333333333333;3;6;1;0.5;2;6;0;0;1;6
"vanessa cooper";1;0.33333333333333;3;3.3333333333333;1;0.33333333333333;3;3.3333333333333
"galerie silbereis";1;1;1;3;1;1;1;3
"michel gueranger";1;1;1;3;1;1;1;3
"david gouny";1;0.5;2;3;1;0.5;2;3
"obey tableau";1;0.5;2;2;1;0.5;2;2
"jean luc lacroix";1;1;1;1;1;1;1;1
"nathan chantob";1;0.066666666666667;15;1.8;0;0;10;1.9;0;0;3;1.3333333333333;1;0.5;2;2
rauschenberg;0;0;1;83;0;0;1;83
"oeuvres de miro";0;0;10;11;0;0;10;11
streetartgalerie;0;0;1;7;0;0;1;7
"roxane stroobant";0;0;1;4;0;0;1;4
"keith haring";0;0;2;92;0;0;2;92
arbus;0;0;1;69;0;0;1;69
"tableau de keith haring";0;0;5;9.8;0;0;5;9.8
"10:15 saturday night";0;0;1;20;0;0;1;20
chillida;0;0;3;19;0;0;3;19
"stephane jacob";0;0;2;12;0;0;2;12
"maxime boubekeur";0;0;1;23;0;0;1;23
"chat peinture";0;0;2;17;0;0;2;17
"isabelle espinoza";0;0;1;2;0;0;1;2
lebelhomme;0;0;3;3;0;0;2;3;0;0;1;3
"christof monnin prix";0;0;1;8;0;0;1;8
mastin;0;0;1;35
"nadine vergues";0;0;2;7.5;0;0;1;7;0;0;1;8
"perlin pinpin";0;0;2;30
"sandy skoglund interview";0;0;1;4
"artiste deesse";0;0;2;5;0;0;2;5
"murano lampe";0;0;1;31
"benoit mercusot";0;0;1;4
"éva jospin";0;0;1;8
"x kamasutra";0;0;1;54
"vente tableau contemporain";0;0;5;2;0;0;1;2
dubart;0;0;1;4
"smiley sur toile";0;0;1;51
"julian opie oeuvres";0;0;2;1;0;0;2;1
"oxana x";0;0;1;9;0;0;1;9
"vente manege";0;0;2;47
viallat;0;0;1;42
"baloon dogs";0;0;1;9
"david gerstein disco large";0;0;2;56.5
"gerstein fisher";0;0;1;192
"galerie du buisson";0;0;1;10
"galerie 22";0;0;1;10
"nicolas jousse";0;0;1;2
"galerie bettina";0;0;1;6
"philippe hiquily";0;0;4;8;0;0;2;9
"eric ceccarini";0;0;1;9;0;0;1;9
huart;0;0;2;58.5
"bert stern";0;0;4;24.5
"sabine danzé";0;0;4;1
"oeuvre monochrome";0;0;3;9
"zenoy graffiti";0;0;1;3;0;0;1;3
"eric de ville";0;0;1;7
fulcrand;0;0;1;2
"kate barry photographe";0;0;1;33
gielczynski;0;0;1;1
malabart;0;0;1;28
"coquillage vente";0;0;1;91
"lokiss graffiti";0;0;1;11
"collectionner l'art contemporain";0;0;1;46
"dominique mulhem";0;0;1;3
"art australie";0;0;2;61
"56 boulevard de strasbourg";0;0;1;11;0;0;1;11
seiwert;0;0;1;10
basquit;0;0;1;118;0;0;1;118
"guy denning techniques";0;0;1;2
"cédrix crespel";0;0;2;3
"pippa young";0;0;5;8
"miro joan oeuvres";0;0;1;2
"bart somers";0;0;3;8
"peinture buffet bernard";0;0;1;10;0;0;1;10
"nicolas de montaigut";0;0;1;6
"eduardo chilida";0;0;5;9.8;0;0;1;9
"steve hickok";0;0;2;12
"denis walter";0;0;1;9;0;0;1;9
"born to be alive";0;0;1;92
"l artiste peintre lily";0;0;1;4
nils-udo;0;0;6;8.1666666666667;0;0;6;8.1666666666667
"oeuvre sur papier";0;0;1;4
"solo project";0;0;1;8;0;0;1;8
"superman andy warhol";0;0;1;7;0;0;1;7
"françoise gaujour";0;0;1;6
"troy henriksen";0;0;2;3;0;0;1;3
"bernard rancillac";0;0;12;8;0;0;1;10
"christophe lachize";0;0;2;4;0;0;2;4
"shirley jaffe";0;0;5;4.2;0;0;4;4;0;0;1;5
"pierre francois grimaldi";0;0;6;2.3333333333333;0;0;2;3
"alben artiste";0;0;2;7;0;0;2;7
"orlan artiste";0;0;24;10.041666666667;0;0;17;9.9411764705882;0;0;7;10.285714285714
"jacques villéglé";0;0;2;6
"fantastique art";0;0;2;39;0;0;2;39
wei;0;0;2;57;0;0;2;57
"jean pierre schneider";0;0;1;8;0;0;1;8
"street machine";0;0;1;51;0;0;1;51
"loup artwork";0;0;1;9;0;0;1;9
kolb;0;0;1;69;0;0;1;69
"philippe berry sculpteur";0;0;1;6;0;0;1;6
"alain huet";0;0;10;9.5;0;0;1;8;0;0;2;10
"thibault brunet";0;0;9;8.3333333333333;0;0;9;8.3333333333333
"aillaud peintre";0;0;2;8;0;0;2;8
"petit calin";0;0;2;94;0;0;2;94
berrocal;0;0;1;64;0;0;1;64
"helmut newton sumo";0;0;1;16;0;0;1;16
"koons dog";0;0;1;16;0;0;1;16
"acheter de l'art contemporain";0;0;1;1;0;0;1;1
"christine drummond";0;0;1;5;0;0;1;5
rigail;0;0;2;13.5;0;0;2;13.5
"jacque villeglé";0;0;4;5;0;0;4;5
"le bel homme";0;0;2;7;0;0;2;7
"jean françois rauzier";0;0;1;7;0;0;1;7
"biographie de eduardo kac";0;0;1;7;0;0;1;7
"catherine klein";0;0;3;8;0;0;3;8
"flower puppy koons";0;0;4;9.25;0;0;1;7;0;0;3;10
"nathalie grall";0;0;5;7.2;0;0;1;9
"de filippi";0;0;1;21;0;0;1;21
"opalka oeuvres";0;0;3;10;0;0;1;10;0;0;2;10
"francois harray";0;0;1;2;0;0;1;2
"galerie brugier rigail";0;0;3;5;0;0;3;5
"vera molnar";0;0;1;35;0;0;1;35
nouna;0;0;1;26;0;0;1;26
gordillo;0;0;1;91;0;0;1;91
"statue deesse";0;0;2;4;0;0;2;4
"galerie onega";0;0;4;5.25;0;0;4;5.25
"david tom";0;0;1;31;0;0;1;31
"photo d'art contemporain";0;0;3;2;0;0;3;2
"antoni tàpies";0;0;1;42;0;0;1;42
"kamasutra nu";0;0;1;26;0;0;1;26
"kiss a wookie";0;0;1;9;0;0;1;9
stripart;0;0;1;6;0;0;1;6
"as i opened fire lichtenstein";0;0;1;3;0;0;1;3
"anne valérie dupond";0;0;4;9.25;0;0;3;9;0;0;1;10
"oeuvre d'art en papier";0;0;2;4;0;0;2;4
"miss tic biographie";0;0;1;5;0;0;1;5
"bernard buffet peintre";0;0;1;8;0;0;1;8
"andy warhol flowers";0;0;2;20;0;0;2;20
rabus;0;0;9;10.222222222222;0;0;4;10;0;0;1;11;0;0;4;10.25
"elise oudin gilles";0;0;3;4.3333333333333;0;0;3;4.3333333333333
"brigitte penicaud";0;0;1;4;0;0;1;4
"masmonteil olivier";0;0;3;6;0;0;1;6;0;0;1;6;0;0;1;6
"oeuvre de duchamp";0;0;1;36;0;0;1;36
"thomas canto";0;0;5;6.4;0;0;5;6.4
"oeuvre d'art unique";0;0;2;1;0;0;2;1
"haring keith";0;0;2;90;0;0;2;90
"oeuvre 21eme siecle";0;0;3;9.6666666666667;0;0;2;10;0;0;1;9
"verney carron";0;0;1;58;0;0;1;58
patogenia;0;0;1;23;0;0;1;23
"monsieur chat street art";0;0;1;5;0;0;1;5
guilleme;0;0;7;4.4285714285714;0;0;5;5;0;0;2;3
"vente autruche";0;0;2;78;0;0;2;78
"galerie charron";0;0;5;3.6;0;0;2;2.5;0;0;3;4.3333333333333
braoudé;0;0;9;10.555555555556;0;0;3;9.6666666666667;0;0;5;11;0;0;1;11
"paul klimt";0;0;1;46;0;0;1;46
"jean francois gambino";0;0;2;6;0;0;1;7;0;0;1;5
"wes wilson";0;0;2;16;0;0;2;16
josseau;0;0;3;3;0;0;3;3
"3 cerises sur une étagère";0;0;1;2;0;0;1;2
"samuel levy";0;0;2;7;0;0;2;7
"roberta molin corvo";0;0;3;5.6666666666667;0;0;3;5.6666666666667
xxxx;0;0;1;153;0;0;1;153
fazzino;0;0;18;7.7222222222222;0;0;11;6.6363636363636;0;0;5;10;0;0;2;8
"thierry bamas";0;0;1;19;0;0;1;19
"oeuvre d'art en chocolat";0;0;1;6;0;0;1;6
"galerie collégiale lille";0;0;1;3;0;0;1;3
"massimo masetti";0;0;1;312;0;0;1;312
"emmanuel barcilon";0;0;3;5;0;0;3;5
"oeuvre d'art sur le sport";0;0;1;7;0;0;1;7
"guillemette schlumberger";0;0;1;3;0;0;1;3
moelo;0;0;1;21;0;0;1;21
"la souris sur le gateau";0;0;5;8;0;0;4;8;0;0;1;8
"oeuvre en fer";0;0;1;5;0;0;1;5
"vente sculpture";0;0;3;1;0;0;3;1
"artiste arman";0;0;4;10.5;0;0;2;10;0;0;2;11
"art contemporain street art";0;0;1;7;0;0;1;7
"tof vanmarque";0;0;3;3;0;0;2;3;0;0;1;3
"jean-pierre attal";0;0;1;2;0;0;1;2
"gerard schlosser";0;0;3;3.6666666666667;0;0;3;3.6666666666667
horkan;0;0;1;7;0;0;1;7
"marylin minter";0;0;2;10;0;0;2;10
"laurent frantz";0;0;1;312;0;0;1;312
"vente sculptures";0;0;1;1;0;0;1;1
colomer;0;0;3;71;0;0;3;71
"laetitia lesaffre";0;0;1;13;0;0;1;13
noart;0;0;6;14.5;0;0;4;16.25;0;0;2;11
"kim de molenaer";0;0;1;4;0;0;1;4
cruz-diez;0;0;1;10;0;0;1;10
severino;0;0;1;90
"photo art contemporain";0;0;12;2.0833333333333;0;0;11;2;0;0;1;3
"jean dubuffet oeuvres d'art";0;0;1;5;0;0;1;5
"kiosque paris";0;0;2;93;0;0;2;93
mappelthorpe;0;0;1;15;0;0;1;15
"evelyne postic peintre";0;0;2;4;0;0;2;4
"louis nicolas";0;0;1;17;0;0;1;17
"jo le taxi";0;0;1;65
"remy pagart";0;0;1;3;0;0;1;3
"denis rouvre biographie";0;0;1;4;0;0;1;4
"elisa haberer";0;0;1;9
brugier;0;0;4;8;0;0;4;8
"module de zeer";0;0;1;9
"film dichroique";0;0;1;21;0;0;1;21
"leo galamez";0;0;2;2;0;0;1;2
"fabrice hyber artiste";0;0;1;6
"marie sester";0;0;2;5
shaka;0;0;1;79;0;0;1;79
"jean michel turpin";0;0;1;6
"vente d'oeuvres d'art";0;0;4;1
"olivier courty";0;0;4;9.5;0;0;4;9.5
"gerstein art";0;0;1;3;0;0;1;3
"oeuvre de robert rauschenberg";0;0;1;9
"francois melloul";0;0;2;2
"achat drapeau français";0;0;1;57
"philippe bonan";0;0;5;1.8;0;0;2;1.5;0;0;3;2
"maison dauphine";0;0;1;10
"nicolas puyjalon";0;0;1;6
"jeu de lumieres";0;0;1;58
"arden quin";0;0;1;11
"jonone oeuvre";0;0;1;1
hains;0;0;1;10;0;0;1;10
"vladimir velickovic";0;0;2;45;0;0;2;45
catox;0;0;1;20;0;0;1;20
"tableau jonone";0;0;1;1;0;0;1;1
"chicago spectacle";0;0;2;35
"catarina bravo";0;0;1;4;0;0;1;4
"ours orlinski";0;0;1;7
"etienne cail";0;0;3;1.6666666666667
ln;0;0;2;85
"art et miss";0;0;1;9
"galerie nudes";0;0;1;73;0;0;1;73
"michelle maurin";0;0;1;6
"florence d'elle";0;0;3;6.6666666666667;0;0;1;8
"jospin eva";0;0;1;9;0;0;1;9
"la fascination du pire";0;0;1;39
dictatoriale;0;0;1;42
"obey shepard fairey biographie";0;0;1;3
"site d'art en ligne";0;0;1;1
"banksy prix";0;0;4;5.5;0;0;4;5.5
"cruz diez";0;0;6;9.6666666666667
"john one peintre";0;0;1;3;0;0;1;3
"priska lorane";0;0;1;3
"avant midi";0;0;1;41
"oeuvre d'art coeur";0;0;3;1;0;0;1;1
waroquier;0;0;1;39
"carl andré";0;0;38;6.3684210526316;0;0;2;8
"david et goliath le caravage";0;0;1;42
guayasamin;0;0;1;12;0;0;1;12
"peinture monochrome noir";0;0;1;7;0;0;1;7
"wilfred lang";0;0;2;2;0;0;2;2
btoy;0;0;4;6.75;0;0;2;7
"agnès baillon";0;0;2;5.5;0;0;2;5.5
"michel dubois";0;0;4;13.25;0;0;1;9
"peinture scene";0;0;1;26;0;0;1;26
"peinture de coq";0;0;1;19;0;0;1;19
"james aldridge";0;0;1;8;0;0;1;8
"james wigger";0;0;1;6
"charles fazzino paris";0;0;2;6;0;0;2;6
"luc tuymans";0;0;1;47;0;0;1;47
"rafael marquez";0;0;1;34;0;0;1;34
"l'homme en mouvement";0;0;12;9.5833333333333;0;0;3;10.333333333333;0;0;2;10
manolo;0;0;3;47;0;0;3;47
"coccinelle artiste";0;0;2;38;0;0;2;38
"galerie sylvie le page";0;0;1;3;0;0;1;3
taki;0;0;1;54;0;0;1;54
planas;0;0;1;76;0;0;1;76
"rero artiste";0;0;1;10
"artistes contemporains japonais";0;0;1;10;0;0;1;10
"julien raynaud artiste";0;0;2;2;0;0;2;2
"tal coat artist";0;0;2;8.5;0;0;2;8.5
obey;0;0;2;74;0;0;2;74
dallanegra;0;0;1;4;0;0;1;4
pagaer;0;0;1;2;0;0;1;2
"jacques trovic";0;0;1;8;0;0;1;8
"mecanica plus";0;0;1;80;0;0;1;80
"oeuvres d'art à vendre";0;0;1;1;0;0;1;1
bremermann;0;0;2;8.5;0;0;1;8;0;0;1;9
"jean-françois rauzier";0;0;2;7;0;0;2;7
"peggy brown";0;0;1;10;0;0;1;10
"peintre drouet";0;0;2;5;0;0;2;5
"andreas gursky";0;0;4;29.75;0;0;4;29.75
mulhem;0;0;1;2;0;0;1;2
kacere;0;0;3;9;0;0;3;9
"ced vernay";0;0;7;3.1428571428571;0;0;4;3.25;0;0;3;3
"patrick moya";0;0;14;3.1428571428571;0;0;13;3;0;0;1;5
"s'en souvenir";0;0;1;39;0;0;1;39
"remi delaplace";0;0;2;3;0;0;1;3;0;0;1;3
"chat dessin";0;0;2;92;0;0;2;92
"sandra ghosn";0;0;1;6;0;0;1;6
"claude closky";0;0;2;19;0;0;2;19
"ayline olukman";0;0;3;3;0;0;3;3
"biographie clovis";0;0;2;69;0;0;2;69
"lawrence weiner";0;0;20;7.2;0;0;19;7.1578947368421;0;0;1;8
"emmanuel film x";0;0;1;50;0;0;1;50
be1;0;0;2;73;0;0;2;73
"spark artiste";0;0;1;7;0;0;1;7
"nowart peintre";0;0;2;1;0;0;1;1;0;0;1;1
"eduardo chillida architecture";0;0;4;9.75;0;0;3;10;0;0;1;9
"lihong li";0;0;1;9;0;0;1;9
"seen street art";0;0;1;4;0;0;1;4
"cecile plaisance";0;0;1;9;0;0;1;9
"gerard alary";0;0;2;4;0;0;2;4
zalez;0;0;5;5.4;0;0;5;5.4
"bright green contact";0;0;1;120;0;0;1;120
"oeuvre braque";0;0;1;32;0;0;1;32
"speedy graphito prix";0;0;2;1;0;0;2;1
oswaldo;0;0;1;92;0;0;1;92
"étienne rey";0;0;1;7;0;0;1;7
"florence d’elle";0;0;1;8;0;0;1;8
"gérard schlosser";0;0;8;3;0;0;8;3
"the stranger";0;0;1;85;0;0;1;85
"berry philippe";0;0;3;5;0;0;3;5
"galerie street art";0;0;3;28.666666666667;0;0;3;28.666666666667
jaké;0;0;1;8;0;0;1;8
"planète série";0;0;5;5.8;0;0;5;5.8
"claude levêque";0;0;1;8;0;0;1;8
"dc a gritos";0;0;1;75;0;0;1;75
"espace verney carron";0;0;1;8;0;0;1;8
"brigitte aliot";0;0;1;3;0;0;1;3
"rosa peintre";0;0;1;9;0;0;1;9
"francky boy";0;0;1;3;0;0;1;3
"alain clavel";0;0;1;343;0;0;1;343
"oeuvre rubens";0;0;2;44;0;0;2;44
"annette messager oeuvres";0;0;14;6.2857142857143;0;0;14;6.2857142857143
"paris match";0;0;1;42;0;0;1;42
"galerie catherine houard";0;0;1;6;0;0;1;6
"nathalie grall gravure";0;0;2;8;0;0;2;8
llinas;0;0;1;57;0;0;1;57
"agnes dubart";0;0;6;7.5;0;0;6;7.5
"jacques pellegrin artiste peintre";0;0;1;10;0;0;1;10
"manolo chretien";0;0;3;4;0;0;3;4
"vente ligne sculpture africaine";0;0;1;19;0;0;1;19
"this life loader";0;0;1;6;0;0;1;6
"marchal mithouard";0;0;4;6.25;0;0;3;6.3333333333333;0;0;1;6
"andy warhol oeuvres";0;0;1;10;0;0;1;10
"art peinture contemporaine";0;0;6;2;0;0;4;1.5;0;0;2;3
"peintres russes";0;0;1;18;0;0;1;18
"nicolas touron";0;0;1;7;0;0;1;7
"galerie olivier waltman";0;0;4;5.25;0;0;4;5.25
"vente oeuvre d'art en ligne";0;0;1;1;0;0;1;1
"philippe mougin";0;0;1;24;0;0;1;24
"otto shade";0;0;2;6;0;0;2;6
"azz och mo ass orgie del";0;0;1;32;0;0;1;32
"jaké artwork";0;0;1;4;0;0;1;4
"shen jingdong";0;0;7;4;0;0;7;4
"mayank shyam";0;0;1;9;0;0;1;9
"petits prix";0;0;1;68;0;0;1;68
"jasmine black";0;0;4;21.75;0;0;1;24;0;0;3;21
"oeuvres de jr";0;0;1;5;0;0;1;5
"sylvie koechlin";0;0;1;9;0;0;1;9
"vente snow";0;0;2;98;0;0;2;98
"panthere rouge";0;0;1;10;0;0;1;10
peintin;0;0;1;9;0;0;1;9
"oeuvre de jean michel basquiat";0;0;8;9.25;0;0;5;9.4;0;0;3;9
"street art mr brainwash";0;0;1;11;0;0;1;11
"basquiat skull";0;0;1;4;0;0;1;4
hengki;0;0;1;2;0;0;1;2
"sculpture art";0;0;3;4;0;0;3;4
"deesse statue";0;0;1;4;0;0;1;4
"benoit lison";0;0;3;4.6666666666667;0;0;1;2;0;0;2;6
"ernest pignon ernest oeuvre";0;0;3;7;0;0;3;7
"photo contemporaine art";0;0;2;2.5;0;0;2;2.5
"violon arman";0;0;3;7.6666666666667;0;0;2;8;0;0;1;7
"biographie de banksy";0;0;2;12.5;0;0;2;12.5
"wilfred new york";0;0;1;2;0;0;1;2
"michèle destarac";0;0;1;2;0;0;1;2
shuck2;0;0;2;7;0;0;1;7;0;0;1;7
"9e concept";0;0;2;7.5;0;0;2;7.5
"prat frederic";0;0;1;9;0;0;1;9
"rancillac peintre";0;0;1;8;0;0;1;8
"raimond hains";0;0;12;6;0;0;12;6
"miguel ortiz";0;0;1;15;0;0;1;15
"luis heymann";0;0;1;350;0;0;1;350
"maelle de coux";0;0;1;4;0;0;1;4
"frairot peintre";0;0;2;3;0;0;2;3
"christophe charbonnel artiste";0;0;2;5.5;0;0;2;5.5
"elsa jean follando";0;0;1;3;0;0;1;3
"bertrand meunier";0;0;6;9.6666666666667;0;0;5;11;0;0;1;3
kerbidi;0;0;1;10;0;0;1;10
"jeff koons";0;0;2;55;0;0;2;55
"bouillon d'art";0;0;5;4;0;0;5;4
"elodie gregoire photographe";0;0;2;5;0;0;2;5
"galerie nu feminin";0;0;1;36;0;0;1;36
"vincent descotils";0;0;1;8;0;0;1;8
"orlan oeuvre";0;0;12;4.1666666666667;0;0;10;4;0;0;2;5
"philippe de la croix";0;0;1;7;0;0;1;7
"monochrome rose";0;0;1;7;0;0;1;7
"oeuvre d'art pas cher";0;0;2;2;0;0;2;2
"paris match galerie";0;0;1;8;0;0;1;8
"elodie gregoire";0;0;3;7;0;0;3;7
"jean hélion";0;0;14;4.2857142857143;0;0;14;4.2857142857143
fadier;0;0;1;9;0;0;1;9
"jacques de la villeglé";0;0;1;5;0;0;1;5
exuberante;0;0;1;74;0;0;1;74
"philippe berthommier";0;0;3;1;0;0;2;1;0;0;1;1
takala;0;0;16;4.5625;0;0;8;2.875;0;0;4;6.75;0;0;4;5.75
"joel denot";0;0;1;6;0;0;1;6
"cote jonone";0;0;1;6;0;0;1;6
"catwoman milk";0;0;1;4;0;0;1;4
"galerie graphem";0;0;2;7;0;0;2;7
"arnaud rabier";0;0;1;18;0;0;1;18
soleillant;0;0;1;68;0;0;1;68
aboudia;0;0;2;3;0;0;2;3
"photographe david lachapelle";0;0;2;7;0;0;2;7
"hank china prix";0;0;1;1;0;0;1;1
"biographie jeff koons";0;0;2;9.5;0;0;2;9.5
"muriel vanhove";0;0;1;3;0;0;1;3
"panthere des neige";0;0;1;53;0;0;1;53
"art acheter";0;0;1;2;0;0;1;2
"untitled skull basquiat";0;0;1;3;0;0;1;3
"les 3 garces";0;0;1;10;0;0;1;10
"sam francis oeuvres";0;0;2;6;0;0;2;6
"charlotte champion";0;0;2;1.5;0;0;2;1.5
"hammam vente";0;0;2;97;0;0;2;97
mambo;0;0;1;92;0;0;1;92
"louis delbaere";0;0;1;5;0;0;1;5
"luc grateau";0;0;2;1;0;0;1;1;0;0;1;1
"pez artiste";0;0;7;8.4285714285714;0;0;4;7.5;0;0;3;9.6666666666667
"jean luc beaufils";0;0;2;4;0;0;1;4;0;0;1;4
"zed artiste";0;0;1;2;0;0;1;2
"ange basso";0;0;1;3;0;0;1;3
"homo digitalis definition";0;0;1;10;0;0;1;10
"galerie bruxelles art contemporain";0;0;1;8;0;0;1;8
"photographie d\'art";0;0;1;31;0;0;1;31
"jacques damez";0;0;4;3;0;0;4;3
"gkm gallery";0;0;1;7;0;0;1;7
anca3;0;0;3;10;0;0;3;10
"lou blanc";0;0;1;24;0;0;1;24
"victoria mann";0;0;7;9;0;0;7;9
"oeuvre d'art volcan";0;0;6;5.1666666666667;0;0;5;5.2;0;0;1;5
"art photographique contemporain";0;0;1;2;0;0;1;2
"guy boyer";0;0;9;6.3333333333333;0;0;4;7.25;0;0;3;6;0;0;2;5
"olivier waltman";0;0;3;6.3333333333333;0;0;2;6;0;0;1;7
"peinture sur bitume";0;0;1;46;0;0;1;46
poe's;0;0;1;5;0;0;1;5
"knut berlin";0;0;2;45.5;0;0;2;45.5
"nue feminin";0;0;1;38;0;0;1;38
"sumi e";0;0;2;29;0;0;2;29
"joan miro oeuvres";0;0;11;10.090909090909;0;0;10;11;0;0;1;1
jadanse;0;0;1;2;0;0;1;2
"anne brégeaut";0;0;4;5.75;0;0;4;5.75
"stammegna galerie";0;0;1;5;0;0;1;5
"emmanuel debarre";0;0;1;11;0;0;1;11
"homère est morte";0;0;2;10;0;0;2;10
"pauline tonglet";0;0;1;2;0;0;1;2
"galerie en ligne";0;0;14;1.2857142857143;0;0;13;1.2307692307692;0;0;1;2
"myriam baudin";0;0;1;5;0;0;1;5
"lucien ghomri";0;0;1;3;0;0;1;3
"fernando garcia garcia";0;0;1;15;0;0;1;15
"oeuvres de ben";0;0;1;2;0;0;1;2
"clarisse rebotier";0;0;1;4;0;0;1;4
"biographie bernard buffet";0;0;2;7;0;0;1;7;0;0;1;7
"karl andre";0;0;1;6;0;0;1;6
marenne;0;0;2;93;0;0;2;93
"mensing artistes";0;0;18;5.8888888888889;0;0;18;5.8888888888889
dato;0;0;1;63;0;0;1;63
"gerstein david";0;0;2;3.5;0;0;1;5;0;0;1;2
moyoshi;0;0;4;2.25;0;0;3;1.6666666666667;0;0;1;4
"klimt madrid";0;0;1;70;0;0;1;70
"barry robert";0;0;1;3;0;0;1;3
"galerie collégiale";0;0;1;2;0;0;1;2
"boccara galerie";0;0;1;6;0;0;1;6
"artistes colombiens";0;0;1;6;0;0;1;6
"gabriel binder";0;0;1;326;0;0;1;326
"raymond hains oeuvres";0;0;8;5;0;0;8;5
mulliez;0;0;1;50;0;0;1;50
"olivier sultan";0;0;2;3;0;0;2;3
torrecilla;0;0;1;27;0;0;1;27
"peinture dubuffet";0;0;2;6;0;0;2;6
"pignon ernest oeuvre";0;0;1;6;0;0;1;6
"oeuvre d'art ombre et lumière";0;0;1;10;0;0;1;10
"pin up pop art";0;0;1;10;0;0;1;10
c215;0;0;2;28.5;0;0;1;37;0;0;1;20
"shepard fairey biographie";0;0;1;4;0;0;1;4
"ferreira david";0;0;3;3.6666666666667;0;0;3;3.6666666666667
"mist graffeur";0;0;1;10;0;0;1;10
"peinture julien";0;0;2;28.5;0;0;2;28.5
"artistes marocains contemporains";0;0;2;3;0;0;2;3
"vente art moderne";0;0;1;1;0;0;1;1
"sive 1";0;0;1;6;0;0;1;6
"combas peinture";0;0;1;5;0;0;1;5
"galerie garnier delaporte";0;0;3;3.3333333333333;0;0;2;3;0;0;1;4
"acheter peinture biot";0;0;1;43;0;0;1;43
"jonone cote";0;0;1;6;0;0;1;6
"nick walker artist";0;0;1;6;0;0;1;6
"la maison de kate barry";0;0;1;54;0;0;1;54
"jean-francois rauzier";0;0;1;8;0;0;1;8
"dan gerbo";0;0;4;7;0;0;3;7;0;0;1;7
"yves gellie";0;0;4;7.5;0;0;1;8;0;0;2;7;0;0;1;8
"corto maltes";0;0;1;66;0;0;1;66
nowak;0;0;2;74;0;0;2;74
"l'art en ligne";0;0;1;1;0;0;1;1
nyaba;0;0;2;5;0;0;1;4;0;0;1;6
"victoria klotz";0;0;1;2;0;0;1;2
saraiva;0;0;2;88;0;0;2;88
"virginia benedicto";0;0;2;8;0;0;1;8;0;0;1;8
"antoni clavé";0;0;3;42.666666666667;0;0;3;42.666666666667
"sylvie guilleme";0;0;1;1;0;0;1;1
"kurt cobain";0;0;1;189;0;0;1;189
"serge labegorre";0;0;1;6;0;0;1;6
"pochoir miss tic";0;0;1;6;0;0;1;6
"dubuffet oeuvres";0;0;14;4.6428571428571;0;0;10;4.5;0;0;3;5;0;0;1;5
"fetish pieds";0;0;1;48;0;0;1;48
"+""madame bovary"" -""trailer"" -""bande annonce"" -""extrait"" -""mp3"" -""musique"" -""ps3"" -""ps4"" -""xbox*"" -""wii*"" -""psp*"" -""sample"" -""chabrol"" -""flaubert"" -""100.romans.d.auteurs.french.pdf"" -""1949"" -""1969"" -""1933"" -""1991"" -""2000"" -""1934""";0;0;2;113;0;0;2;113
"les oeuvres d art";0;0;1;7;0;0;1;7
"asgar gabriel";0;0;1;4;0;0;1;4
"oeuvres de jean michel basquiat";0;0;1;9;0;0;1;9
"alexandre devals";0;0;2;3.5;0;0;2;3.5
"ivan messac";0;0;1;4;0;0;1;4
"yan pei ming survivants";0;0;5;10;0;0;3;10;0;0;2;10
"art miroir";0;0;1;21;0;0;1;21
"alain bonnefoit";0;0;2;20;0;0;2;20
"musées d'art à chattanooga";0;0;5;54.4;0;0;5;54.4
wesselman;0;0;4;10;0;0;4;10
"oeuvre jean paul sartre";0;0;2;65;0;0;2;65
"jean marie drouet peintre";0;0;2;4;0;0;1;4;0;0;1;4
"vente coquillage";0;0;1;71;0;0;1;71
"eric zambeaux";0;0;1;6;0;0;1;6
"artiste keith haring";0;0;1;10;0;0;1;10
"philippe lopez";0;0;1;15;0;0;1;15
"jeanne lorioz";0;0;4;4;0;0;4;4
"cat soubbotnik";0;0;2;9;0;0;2;9
"oeuvre d'ernest pignon ernest";0;0;1;5;0;0;1;5
"banksy tags";0;0;1;7;0;0;1;7
"veronique bourgeois";0;0;7;7;0;0;2;7;0;0;4;7;0;0;1;7
araki;0;0;1;44;0;0;1;44
010120;0;0;1;9;0;0;1;9
"galerie mecanica";0;0;2;3.5;0;0;2;3.5
"bouillon d'art bordeaux";0;0;1;5;0;0;1;5
"chien jeff koons achat";0;0;3;7.6666666666667;0;0;1;9;0;0;2;7
"museo chillida";0;0;1;83;0;0;1;83
"musa paradisiaca";0;0;1;72;0;0;1;72
"murielle vanhove";0;0;11;2.8181818181818;0;0;9;2.7777777777778;0;0;2;3
"nils udo maison d'eau";0;0;1;8;0;0;1;8
coumbas;0;0;1;6;0;0;1;6
"annabelle guetatra";0;0;1;6;0;0;1;6
"sun hyuk kim";0;0;1;1;0;0;1;1
sober;0;0;1;52;0;0;1;52
"damien hirst oeuvres";0;0;4;5.25;0;0;1;4;0;0;3;5.6666666666667
"hannah adamaszek";0;0;1;10;0;0;1;10
"sculpture terre cuite";0;0;2;34;0;0;2;34
"lievre des neiges";0;0;1;18;0;0;1;18
"bernar venet oeuvres";0;0;1;3;0;0;1;3
"peintre peter";0;0;1;6;0;0;1;6
"geisha nu";0;0;1;23;0;0;1;23
"artistes cubains";0;0;5;21.4;0;0;5;21.4
manbo;0;0;2;99;0;0;2;99
"art unique";0;0;1;2;0;0;1;2
"christian courrèges";0;0;3;5;0;0;3;5
"basquiat untitled skull";0;0;1;3;0;0;1;3
"torrick ablack";0;0;1;4;0;0;1;4
traffik;0;0;1;4;0;0;1;4
"eric peyret peintre";0;0;3;1;0;0;3;1
"art galerie";0;0;1;41;0;0;1;41
ponita;0;0;7;9.1428571428571;0;0;1;8;0;0;5;9.6;0;0;1;8
"solène ballesta";0;0;2;4;0;0;2;4
"jacques villeglé biographie courte";0;0;1;2;0;0;1;2
"répétition motif";0;0;1;7;0;0;1;7
"les oeuvres d'art";0;0;1;8;0;0;1;8
"david lachapelle artist";0;0;1;10;0;0;1;10
"galerie dart";0;0;1;3;0;0;1;3
prenat;0;0;3;23.333333333333;0;0;2;23.5;0;0;1;23
"didier chaigneau";0;0;1;176;0;0;1;176
"achat art en ligne";0;0;4;1;0;0;4;1
layral;0;0;1;4;0;0;1;4
"peinture pop art";0;0;1;17;0;0;1;17
"leveque artiste";0;0;1;5;0;0;1;5
laguette;0;0;1;26;0;0;1;26
"trudy good";0;0;1;6;0;0;1;6
"galerie audet";0;0;3;10.666666666667;0;0;1;10;0;0;2;11
scultures;0;0;3;8.6666666666667;0;0;3;8.6666666666667
"keith haring crack down";0;0;4;4.25;0;0;2;4.5;0;0;2;4
"lampe en verre de murano";0;0;1;39;0;0;1;39
"oeuvre d'art moderne";0;0;8;1;0;0;3;1;0;0;5;1
"galerie des petits carreaux";0;0;2;4;0;0;2;4
"gérard alary";0;0;2;4;0;0;1;4;0;0;1;4
"johanne 8";0;0;2;3.5;0;0;2;3.5
"galerie bertrand gillig";0;0;3;3.3333333333333;0;0;2;3;0;0;1;4
"vincent fillon";0;0;2;8;0;0;2;8
"cri peinture";0;0;2;80;0;0;2;80
"aquagirl occasion";0;0;1;17;0;0;1;17
"thierry feuz artiste peintre";0;0;1;3;0;0;1;3
kraftwerk;0;0;1;244;0;0;1;244
"fritz the cat";0;0;2;70;0;0;2;70
"format art";0;0;2;44.5;0;0;2;44.5
"art vente";0;0;1;1;0;0;1;1
"jonone galerie";0;0;1;2;0;0;1;2
"gregoire leon guillemin";0;0;2;3;0;0;1;3;0;0;1;3
"peintre grec contemporain";0;0;1;10;0;0;1;10
dho;0;0;1;25;0;0;1;25
"new york artist fort lauderdale fl";0;0;6;438;0;0;3;440;0;0;3;436
"le cha noir";0;0;1;5;0;0;1;5
"angele guerre";0;0;1;2;0;0;1;2
"shepard fairey vote";0;0;1;3;0;0;1;3
"vente de game boy";0;0;1;38;0;0;1;38
"alain crocq";0;0;2;7;0;0;2;7
"aida atelier";0;0;2;206;0;0;2;206
"diane arbus œuvres d'art";0;0;2;6;0;0;2;6
"art jingle";0;0;6;3.5;0;0;5;3.2;0;0;1;5
"michael kenna";0;0;2;71;0;0;2;71
"aujf paris";0;0;1;46;0;0;1;46
"weiner art";0;0;1;8;0;0;1;8
mrsex;0;0;10;14.2;0;0;7;14.428571428571;0;0;3;13.666666666667
"apple or";0;0;3;7;0;0;3;7
"yan pei ming";0;0;1;28;0;0;1;28
"jean noel laszlo";0;0;1;7;0;0;1;7
"jean dubuffet biographie courte";0;0;1;4;0;0;1;4
"michel le belhomme photographe";0;0;1;4;0;0;1;4
"mark jenkins";0;0;19;8.8947368421053;0;0;14;8.9285714285714;0;0;5;8.8
"peter lipman";0;0;5;2.6;0;0;5;2.6
kaws;0;0;1;64;0;0;1;64
arman;0;0;1;38;0;0;1;38
"te espero";0;0;1;48;0;0;1;48
"photo danseuse etoile";0;0;2;98;0;0;2;98
"banksy biographie";0;0;1;10;0;0;1;10
"tristan alexandre";0;0;3;3;0;0;3;3
"gilles capton";0;0;3;2.6666666666667;0;0;3;2.6666666666667
"bossa talents";0;0;1;2;0;0;1;2
"jr photographie";0;0;1;11;0;0;1;11
"la nuez";0;0;1;91;0;0;1;91
"emilie danchin";0;0;2;9;0;0;1;8;0;0;1;10
villéglé;0;0;1;4;0;0;1;4
"woman in red";0;0;1;66;0;0;1;66
"oeuvre en papier";0;0;1;6;0;0;1;6
"philippe pasqua prix";0;0;2;1;0;0;2;1
"puzzle d art";0;0;1;1;0;0;1;1
"guy mansuy";0;0;4;2;0;0;4;2
"cassius clay";0;0;4;11;0;0;1;11;0;0;3;11
"photo d art";0;0;1;31;0;0;1;31
"x bdsm";0;0;1;46;0;0;1;46
"luzia simons";0;0;1;5;0;0;1;5
"gregory watin";0;0;1;2;0;0;1;2
"florence d";0;0;2;7.5;0;0;2;7.5
"artiste peintre en vogue";0;0;2;1;0;0;2;1
"roman klonek";0;0;2;8;0;0;1;10;0;0;1;6
"de la villeglé";0;0;1;3;0;0;1;3
"art post-internet";0;0;1;9;0;0;1;9
"thomas ruff oeuvres";0;0;3;9.6666666666667;0;0;1;9;0;0;2;10
lemmers;0;0;1;6;0;0;1;6
"bouge paris";0;0;2;41;0;0;2;41
"oeuvre de bernard buffet";0;0;3;3.6666666666667;0;0;3;3.6666666666667
"john matos";0;0;1;4;0;0;1;4
"anne-flore cabanis";0;0;1;8;0;0;1;8
"francine van hove peintre";0;0;2;9.5;0;0;2;9.5
"shepard fairey (obey)";0;0;2;9;0;0;2;9
"anne et patrick poirier oeuvres";0;0;3;4;0;0;2;4;0;0;1;4
"sculpture pingouin";0;0;2;15;0;0;2;15
"mundo paralelo";0;0;1;29;0;0;1;29
holly;0;0;1;299;0;0;1;299
"the art of nick walker";0;0;1;6;0;0;1;6
nowart;0;0;3;3.6666666666667;0;0;1;3;0;0;2;4
"artiste tilt";0;0;1;7;0;0;1;7
"galerie art moderne";0;0;3;3;0;0;3;3
"bertrand desprez";0;0;5;6.4;0;0;3;6;0;0;2;7
espinoza;0;0;1;54;0;0;1;54
"otto schade";0;0;4;6;0;0;2;6;0;0;2;6
"tableau artiste contemporain";0;0;6;4;0;0;5;4;0;0;1;4
"artiste suedoise";0;0;2;63;0;0;2;63
"blue panaroma";0;0;1;73;0;0;1;73
"isabelle bonzom";0;0;2;3;0;0;2;3
"sandra zeenni";0;0;2;2.5;0;0;1;3;0;0;1;2
"100 silvia";0;0;1;88;0;0;1;88
"bansky oeuvres";0;0;1;8;0;0;1;8
"banksy oeuvre";0;0;9;8;0;0;4;7.25;0;0;1;8;0;0;4;8.75
"adeline spengler";0;0;2;5;0;0;2;5
truc-anh;0;0;1;3;0;0;1;3
"gilles aillaud";0;0;19;9.2105263157895;0;0;18;9.1666666666667;0;0;1;10
vanites;0;0;2;82;0;0;2;82
"annina x";0;0;3;9.6666666666667;0;0;3;9.6666666666667
keymi;0;0;7;8.4285714285714;0;0;4;8;0;0;2;9;0;0;1;9
"peinture animaux";0;0;2;21;0;0;2;21
trives;0;0;1;20;0;0;1;20
"uche okpa-iroha";0;0;2;2;0;0;2;2
"oeuvre keith haring";0;0;8;6.25;0;0;7;6;0;0;1;8
"alexandre durand";0;0;2;9.5;0;0;1;10
"jeff aerosol";0;0;9;4.2222222222222;0;0;2;5;0;0;1;5
"sculpture art contemporain";0;0;3;1.6666666666667;0;0;1;2;0;0;1;1
"jana & js";0;0;2;6.5
"art moderne sculpture";0;0;2;1.5;0;0;1;3
"biographie marcel duchamp";0;0;2;35
"tao chambery";0;0;1;10
"julien airault peintre";0;0;1;3
"annette messager";0;0;74;10.027027027027;0;0;20;11.15;0;0;5;11
"ipso france";0;0;2;36
"diane arbus oeuvres";0;0;2;6
seestudio;0;0;1;9
mallart;0;0;1;5
"jr oeuvres";0;0;2;4
"big blonde";0;0;1;57
"murielle belin";0;0;1;10
"nu féminin";0;0;1;43
"lithographie andy warhol";0;0;1;11
"francois morellet";0;0;40;7.35;0;0;9;8
"le chaperon rouge 2";0;0;1;11
"alison wilding";0;0;1;10
"galerie d’art";0;0;1;6
"claire bianchi";0;0;1;3;0;0;1;5
"john william waterhouse œuvres d'art";0;0;2;9;0;0;2;10;0;0;1;10
"mist art";0;0;2;5
"prix sculpture";0;0;1;1
gerstein;0;0;3;9.6666666666667
"helmuth newton";0;0;2;78
"rent a car";0;0;2;329
"galerie d'art contemporain en ligne";0;0;5;1;0;0;1;1
bandi;0;0;1;70
"james coignard";0;0;2;51.5
"philippe seené";0;0;1;33
"wou ki";0;0;1;49
"galerie vivendi paris";0;0;1;5
"phillipe pasqua";0;0;3;3;0;0;1;6
"carlos cruz-diez";0;0;5;7.4
mpah;0;0;2;1
"oeuvre david";0;0;1;10;0;0;1;11
opalka;0;0;2;16
"markus rock";0;0;1;37
"compression cesar";0;0;2;16
"jacques de villegle";0;0;2;5
speedygraphito;0;0;19;5;0;0;1;6
"eric lapierre";0;0;2;5
"miro oeuvres";0;0;2;11;0;0;2;1
"tete de poire";0;0;1;10
banq;0;0;1;64
nilsudo;0;0;1;6
atila;0;0;1;53
"cubas morales";0;0;1;94
eppelé;0;0;1;4;0;0;1;5
saudek;0;0;7;8.2857142857143;0;0;1;10
"francis apesteguy";0;0;3;4.6666666666667;0;0;1;4
"office de tourisme de dinard";0;0;1;13
"francois bard";0;0;3;1;0;0;1;4
galeries;0;0;30;9.1333333333333;0;0;2;7;0;0;1;7
"keith haring christmas";0;0;1;7
"erotisme masculin";0;0;2;81
"von wrede";0;0;2;7
rakel;0;0;1;18
malysse;0;0;3;9.3333333333333;0;0;1;10
"jean paul barray";0;0;3;5.3333333333333
"biographie de willy ronis";0;0;1;8
"monsieur le chat";0;0;4;5.75;0;0;2;8;0;0;3;6.3333333333333
verneret;0;0;2;16;0;0;2;11
"marin kasimir";0;0;2;4
rivieras;0;0;1;193
"vente insectes";0;0;1;246
"nicolas darbon";0;0;1;8
"thierry carrier";0;0;5;3.4;0;0;2;3
"tableau 21eme siecle";0;0;1;8
"artiste arabe nu";0;0;1;26
"alain rivière lecoeur";0;0;1;1
"galerie jean denis walter";0;0;1;6
"blue panorama";0;0;1;73
"cote bruno catalano";0;0;1;7
"fundacio joan miro";0;0;1;34
"victor richardson artist";0;0;1;7
"galerie claire corcia";0;0;3;3.6666666666667;0;0;1;6
"botticelli printemps";0;0;2;55
"césar expansion";0;0;5;5.6;0;0;1;6
"mini sculptures";0;0;1;3
"mit bas";0;0;1;63
"marc cerrone";0;0;1;18
"jacques poli";0;0;1;9
"onur art";0;0;1;5
"oeuvre de norman rockwell";0;0;1;19
"petra wunderlich";0;0;1;2
"monica bellucci x";0;0;1;35
"miss coco";0;0;1;10;0;0;1;11
"cornette de saint cyr";0;0;4;18.75;0;0;2;14.5
"oeuvre miro";0;0;1;11
wesselmann;0;0;4;10;0;0;4;11
"murakami sculpture";0;0;1;3
"selfie oeuvre d'art";0;0;2;9;0;0;2;9
"tieri trademark";0;0;2;1.5
honegger;0;0;2;87
"peur art";0;0;1;1
toselli;0;0;1;76
"oeuvre de georges rousse";0;0;1;24
mysogine;0;0;1;26
"pieds fetish";0;0;3;59
molinier;0;0;2;72
"gimp 2";0;0;1;180
"jeanne susplugas";0;0;8;4;0;0;1;5
"miroir art";0;0;2;21
"oeuvre gauguin";0;0;2;66
"david gerstein 5th avenue";0;0;1;1
crisco;0;0;2;93
"miss van";0;0;3;17
"marc gerenton";0;0;2;4
"fausto marci";0;0;1;8
"vente bouddha";0;0;1;45
"annette messager art";0;0;1;7
"galerie art france";0;0;1;14
"street girl";0;0;2;76
"dita ventees";0;0;1;9
"combas architecture";0;0;1;17
camen;0;0;3;7;0;0;2;8
velicovic;0;0;1;40
"gottfried salzmann peintre";0;0;4;8;0;0;3;8
"jacques benaroch";0;0;1;2;0;0;1;2
"art fessee";0;0;3;25.666666666667
"galerie roy sfeir";0;0;3;4.6666666666667;0;0;1;5
"joel andrianomearisoa";0;0;1;10
"biographie nils udo";0;0;1;4
"dubuffet peintre";0;0;1;4;0;0;1;6
annelides;0;0;2;82
"peinture nature";0;0;2;65
"thierry couet";0;0;1;2
carbonel;0;0;1;45
merrer;0;0;2;10
"biographie erro";0;0;1;6
"eduardo arroyo";0;0;13;6;0;0;3;7
"cote philippe pasqua";0;0;1;1
"costa artiste peintre";0;0;1;2;0;0;1;2
"marco barbon";0;0;2;3
"toma l";0;0;4;5;0;0;1;5;0;0;1;5
"le belhomme";0;0;1;2;0;0;1;3
"veronique masurel";0;0;1;2
"lolita galerie";0;0;1;48
"mahjoub ben bella wikipedia";0;0;1;4
"antoine de laboulaye";0;0;3;4
"nobuyoshi araki";0;0;3;23.333333333333
"dok artiste";0;0;2;1
"pretty boys";0;0;2;74
"sophie laguette";0;0;1;3
"la chapelle photographe";0;0;1;9
ramos;0;0;1;59
"bagage homme blanc";0;0;2;11.5
"femme et chien";0;0;1;42
"de gottal";0;0;1;4
"greet helsen";0;0;2;8
bansky;0;0;2;45.5
"laurence dreyfus";0;0;7;8;0;0;3;9
"stanley greene";0;0;3;17
"bernard chauveau editeur";0;0;1;6
"brigitte perrier";0;0;3;7.3333333333333;0;0;1;6
merienne;0;0;2;9.5;0;0;1;9
acet;0;0;1;43
"achat sculpture";0;0;3;1;0;0;1;1;0;0;1;1
"elizabeth gourlay";0;0;1;20
beninca;0;0;1;71
"caroline poulet";0;0;3;5
"nus feminin";0;0;1;35
"tatouage oeuvre d'art";0;0;1;28
brusadelli;0;0;1;7
"jean helion";0;0;9;4.5555555555556;0;0;1;5
moriette;0;0;2;7
"never let you go";0;0;1;74
"delphine vaute";0;0;2;10;0;0;2;10
"panthere blanche";0;0;1;24
"mr le chat";0;0;5;5;0;0;2;8.5
"annabelle tattu";0;0;3;2
"john william";0;0;2;69
"orlinski crocodile";0;0;1;7;0;0;1;7
combass;0;0;1;5
"mahé boissel";0;0;2;2
"jacek hazuka";0;0;1;1
"erro biographie";0;0;2;8;0;0;3;8
"jerome lagarrigue";0;0;2;7;0;0;1;5
uche;0;0;1;76
"jacques deret";0;0;1;1
"black magic woman";0;0;1;79
laveri;0;0;2;4;0;0;1;4
"laurent durrey";0;0;4;8;0;0;2;10
"jacques villeglé affiches lacérées";0;0;1;6
"fleury sylvie";0;0;1;8
"mapplethorpe robert";0;0;1;24
"oeuvre d'art hiver";0;0;1;3
matisse+;0;0;1;314
voyeur;0;0;3;207.33333333333
"rafael gomez";0;0;1;17
"art culinaire";0;0;1;64
"cali rezo";0;0;1;8;0;0;1;8
"oeuvre de miro";0;0;8;11.625;0;0;3;1
"peinture femme sous la pluie";0;0;1;19
"julien durix";0;0;19;1.4736842105263;0;0;14;2;0;0;3;1.6666666666667
"dissection art";0;0;1;10
"jan lisman";0;0;2;3
"arnaud le bel hermile";0;0;3;4
"robert longo oeuvres";0;0;1;7
"elsa guillaume";0;0;4;2
"bertrand noël";0;0;3;2;0;0;1;4
"robert zimmerman";0;0;3;75
juliendurix;0;0;1;2;0;0;1;2
cedrix;0;0;2;7
"vente mundos";0;0;1;2
"animal totem panthère";0;0;1;39
"oswaldo guayasamin oeuvres";0;0;1;2
"leopold rabus";0;0;1;5
"art belgique";0;0;1;6
"galerie vidal saint phalle";0;0;1;7
"andy warhol superman";0;0;5;7.4;0;0;2;8
"aurélie deplus";0;0;1;5
"philippe pasqua vanité papillons";0;0;1;1
"muller germany";0;0;1;94
"angel red";0;0;1;61
"romero brito";0;0;3;9
"biographie robert delaunay";0;0;2;66.5
nocturno;0;0;1;89
"hans hartung lithographie";0;0;1;9
"oeuvre d'art originale";0;0;4;1.5;0;0;2;2.5
"art galerie en ligne";0;0;3;1
"jean georges inca";0;0;1;2
"miss tik";0;0;3;6;0;0;2;8
"pascaline marre";0;0;3;10
carabas;0;0;1;47
"serge labégorre";0;0;1;7
"show me the way";0;0;1;75
"oeuvre de louis armstrong";0;0;1;5
"myriam mallart";0;0;1;76
"oeuvre art";0;0;5;2;0;0;2;2
"séverine bernard";0;0;1;10
"eric ville";0;0;1;6
"boccara design";0;0;1;7
moya;0;0;1;28
sintaxi;0;0;1;12
"tendance floue";0;0;2;52
combasse;0;0;4;5.75
"oeuvre d'art sur l'amour";0;0;3;3
"pierre fontaine";0;0;1;40;0;0;2;40;0;0;1;32
"david sitbon";0;0;1;6;0;0;1;8
"super mimi";0;0;3;9
"artiste cesar";0;0;3;10;0;0;1;11
"hervé télémaque";0;0;3;6
"oeuvre d'art peur";0;0;1;2
"césar baldaccini biographie courte";0;0;1;5
"anne brunet";0;0;2;9
dirosa;0;0;1;5
"roberto battistini";0;0;1;11
"kathleen petyarre";0;0;1;4;0;0;1;5
"femme jambes en l'air";0;0;2;6
"vendre oeuvres d'art";0;0;1;1
"corinne felgate";0;0;1;6
"jim kazanjian";0;0;1;6
"jamel shabazz";0;0;1;10
"dark vador artwork";0;0;1;3
"city never sleeps";0;0;1;11
"jean denis walter";0;0;1;8;0;0;1;6
mahéo;0;0;1;41
"sculpture moderne et contemporaine";0;0;1;6
"françoise petrovich";0;0;1;9
d'elle;0;0;1;11
"pierre fava";0;0;3;3
aerosol;0;0;3;16
morellet;0;0;1;11
"bernard pras van gogh";0;0;1;3
"charlotte perrot";0;0;2;3.5
"francois janin wikipedia";0;0;1;36
"oeuvre banksy";0;0;2;7.5;0;0;5;7.2
"pauline dufour";0;0;1;5
"miss tick";0;0;1;18
"delphine brochand";0;0;2;1;0;0;1;3
"françois mendras";0;0;1;2
"patrick loste";0;0;2;6
"la chapelle artiste";0;0;2;6
"luc lacroix";0;0;1;10
"alain crocq peintre";0;0;5;7
"m. chat";0;0;1;8
"chamizo peintre";0;0;1;9
"pop zelda";0;0;1;8
"madrague brigitte bardot";0;0;1;2
"christophe charbonnel";0;0;3;4.6666666666667;0;0;2;4.5
"semana lunes";0;0;1;7
"peinture art contemporain";0;0;1;1
"benjamin spark prix";0;0;2;3;0;0;1;2
jonol;0;0;1;4
"chat peintre";0;0;1;6
sculptures;0;0;3;11;0;0;7;9.7142857142857
"jr oeuvre";0;0;1;4
"acheter art contemporain";0;0;1;1
"envie d'art";0;0;1;3
"m chat";0;0;5;7.2
"vente art contemporain";0;0;1;1
"bonhomme blanc";0;0;1;9
"yang yongliang";0;0;4;2.25;0;0;1;1
"georgianna robertson";0;0;1;10
"nicolas hugo";0;0;1;4
"benjamin deroche";0;0;3;5;0;0;1;5
"indiana jane";0;0;1;10
balloon;0;0;1;158
"patrick poirier";0;0;1;6
mapplethorpe;0;0;2;11
laugero;0;0;3;11
"philippe pasqua tete de mort";0;0;1;5
"finbarr dac";0;0;1;5
"marie piselli";0;0;1;6;0;0;1;6
"little pussy";0;0;2;18.5
bacqueville;0;0;2;7
gozlan;0;0;1;69
hiro;0;0;3;15.666666666667
"photographie d art";0;0;2;27
"maxime frairot";0;0;2;4
"patrick villas";0;0;1;2;0;0;1;3
"nyaba leon ouedraogo";0;0;1;6
"patrick bailly maitre grand";0;0;2;7.5
"alain godon";0;0;1;1;0;0;1;1
stix;0;0;1;8
"philippe buil";0;0;1;2
"gilles verneret";0;0;1;3
kyliss;0;0;1;2
"ahn sun mi";0;0;1;5
"photographe surréaliste";0;0;1;9
"mahjoub ben bella biographie";0;0;1;4
zenoy;0;0;1;4
"yann houri";0;0;1;4;0;0;1;4
"kasimir malevitch œuvres d'art";0;0;1;8
rafiy;0;0;2;6
"greg gorman";0;0;3;5.3333333333333
scukpture;0;0;1;9
"bear galerie";0;0;4;7
"galerie mondapart";0;0;1;11
"françoise petrovitch";0;0;4;7.75;0;0;1;7
flipo;0;0;2;11;0;0;3;10.333333333333
"olivia clavel";0;0;2;5
"marilyn minter";0;0;1;10
"christophe fisher";0;0;1;8
"gabriel jones";0;0;1;4
"ruth johanne bodnariu";0;0;1;54
"chat street art";0;0;1;5
"braque oiseaux";0;0;2;30
pras;0;0;5;7.4;0;0;1;9
"stew street art";0;0;1;10
bodnariu;0;0;1;2
"fabienne claesen";0;0;1;8
"perrine butz";0;0;2;6
"cecile colombo";0;0;1;5;0;0;2;5
"manuel mesa";0;0;2;7
"guy boyer connaissance des arts";0;0;3;9
"bruce clarke";0;0;4;8.5
"bernar venet";0;0;1;9
"galerie baudoin lebon";0;0;1;8
"miss tic pochoir";0;0;2;6
"pack one million";0;0;3;10
"oeuvre de keith haring";0;0;1;9
"micro galerie";0;0;1;7
"max charvolen";0;0;1;5
"matisse cirque";0;0;2;7
"india leire";0;0;1;6
"oeuvre d'art portrait";0;0;1;9
freisa;0;0;1;10
"assaf matarasso";0;0;1;5
"solene ballesta";0;0;1;3
"sarah maple";0;0;1;4
"violaine godart";0;0;1;4
sarla;0;0;1;6
"pierre riba sculpteur";0;0;1;3
"david lachapelle";0;0;3;13
"quik lin felton";0;0;1;1
"henry lamy";0;0;2;4
"morellet artiste";0;0;1;7
assalit;0;0;3;6.3333333333333
"ipso facto";0;0;3;21.666666666667
"khawater 1";0;0;2;10
"marine cattaneo";0;0;1;6
"victor richardson";0;0;1;11
"chat jaune";0;0;1;10
"galerie d'art en ligne";0;0;2;1;0;0;3;1
"l'homme en mouvement histoire des arts";0;0;2;10
"alice gotheil";0;0;1;10
"erro artiste";0;0;1;5
"galerie argentic";0;0;1;8
nojnoma;0;0;6;5.3333333333333
"annina roescheisen";0;0;1;4
tieri;0;0;2;10
"murakami artiste";0;0;1;3
enviedart;0;0;1;4
"durix julien";0;0;1;3
"bruno fontana";0;0;2;4
"vente oeuvre d'art";0;0;1;1;0;0;3;1
"progress gallery";0;0;1;7
"herve lewis";0;0;2;5
"jean pierre tissier";0;0;1;5
"shepard fairey obey";0;0;1;10;0;0;1;11
"stew artiste";0;0;1;5
pelmont;0;0;1;9
stoul;0;0;7;5.8571428571429;0;0;1;5
"jean najean";0;0;1;30
"kiki picasso";0;0;5;6;0;0;2;7
"serie narcose";0;0;1;9
"richard dubure";0;0;3;2
"tableau ben";0;0;1;10
"damien le beherec";0;0;1;40
grisor;0;0;1;1
"orlanski sculpteur";0;0;2;8.5
"acheter oeuvre d'art";0;0;2;1
"chat art contemporain";0;0;1;9
"liu bolin prix";0;0;1;4
"akiza la galerie";0;0;1;8
unbo;0;0;1;7
"jean hélion peintre";0;0;4;4
millo;0;0;2;54
"pierre et gilles oeuvres";0;0;3;8
"lie with me";0;0;2;43
"galerie gabel";0;0;1;3
"djamel boucly";0;0;2;5
"renk artiste";0;0;1;5
"robert barry art conceptuel";0;0;1;9
"alain hatat";0;0;1;6
"vente art en ligne";0;0;1;1
"manu perez";0;0;2;14.5;0;0;1;13
pixart;0;0;1;23;0;0;1;15
"cesar artiste";0;0;2;8;0;0;1;8
"scholtes france";0;0;2;27
houard;0;0;1;12
"crus diez";0;0;1;11
"bernard venet";0;0;1;10;0;0;2;9.5
talard;0;0;1;10
"anne et patrick poirier";0;0;7;7.8571428571429
"bernard pras anamorphose";0;0;1;4;0;0;1;4
"vente art";0;0;1;2
"skunk dog";0;0;1;9
"artiste déesse";0;0;1;5
"anne decup";0;0;1;2
"gerard rancinan";0;0;3;5.6666666666667
shup;0;0;1;6
"as i opened fire";0;0;1;4
"margaret dearing";0;0;1;9
"fauconnier peintre";0;0;1;24
goet;0;0;1;11
"peintre godon";0;0;1;3
klasen;0;0;1;3
"macadam gallery";0;0;1;5
"uwe ommer";0;0;2;5
"robert mapplethorpe";0;0;3;26.333333333333
"jean pierre attal";0;0;2;6
"site vente art";0;0;1;1
"pascale lander";0;0;1;1
"olivia bloch";0;0;1;3
"star n2";0;0;1;8
"christine muller";0;0;1;5;0;0;2;6
"john one street art";0;0;1;3
shigong;0;0;1;3
"godon peintre";0;0;1;1
"anya spielman";0;0;1;6
"le chat street art";0;0;2;4
"jonone reproduction";0;0;1;7
"mr chat graffiti";0;0;1;8
"greg leon guillemin";0;0;2;7
jr;0;0;6;1;0;0;7;1
"galerie charlot paris";0;0;1;7
"jean marie drouet";0;0;3;5.3333333333333
"orlan biographie";0;0;1;6
"haring keith oeuvres";0;0;2;8.5
"romero britto oeuvres";0;0;1;3
"loan nguyen";0;0;3;9;0;0;1;9
"couture peintre";0;0;1;7
"aude carré";0;0;1;5;0;0;1;5
"mel ramos";0;0;1;5;0;0;1;5
chabadabada;0;0;2;45
"julien calot";0;0;1;3
oeuvres;0;0;1;8
"sculpteur chinois contemporain";0;0;1;4
"under construction gallery";0;0;2;5
gregos;0;0;2;6;0;0;1;6
"thierry rasine";0;0;1;1
"peintre jean michel basquiat";0;0;1;1
"mon pois";0;0;1;1
"catherine houard";0;0;1;8
"hedva ser";0;0;1;1
"jonone prix toile";0;0;1;1
"e galleries";0;0;3;9.3333333333333
quik;0;0;49;1.3061224489796;0;0;7;1.7142857142857
koor;0;0;35;8.2857142857143;0;0;1;10
velver;0;0;1;4
"shepard fairey";0;0;2;16
"tilt graffiti";0;0;2;7
"du buffet peintre";0;0;1;5
jadikan;0;0;1;4
"art to be";0;0;1;8
"ben l'artiste";0;0;1;5
"luke newton";0;0;1;9
"le chat orleans";0;0;1;10
"sourire requin";0;0;1;8
"klasen peintre";0;0;3;3
"di rosa";0;0;6;7.5;0;0;2;1
"romero britto";0;0;34;7.1176470588235;0;0;9;10.111111111111
"art fantastique";0;0;1;10
pinup;0;0;1;240
kouka;0;0;3;8.3333333333333;0;0;6;8.1666666666667
"christine bares";0;0;1;3
"jacqueline roberts";0;0;2;5
"oeuvre du 21eme siecle";0;0;1;10
"durix artiste";0;0;1;4
"wang yan cheng paintings";0;0;1;8
sculture;0;0;4;9.5;0;0;1;9
"david lynch art";0;0;1;27;0;0;1;28
bouro;0;0;1;9
"keith haring lucky strike";0;0;1;4
"fanny dubois artiste";0;0;2;1
"denis christophel";0;0;1;5
"sculpture miro";0;0;1;9
"malevitch suprematist composition";0;0;2;10
"feng hatat";0;0;1;6
gellie;0;0;1;11
"oeuvre de jean dubuffet";0;0;1;6;0;0;1;6
"herb ritts nude";0;0;1;5
"amandine levy";0;0;2;1.5
jemand;0;0;3;32
"buffet peintre";0;0;6;8;0;0;2;9
"patrick guidot";0;0;1;6
"wishlist homme";0;0;1;15
"valerie marty";0;0;1;8
"david ratcliff";0;0;1;7;0;0;2;7
e-gallery;0;0;2;7
krm;0;0;5;2.8;0;0;3;2
"galerie duret";0;0;1;8
"mr brainwash mural";0;0;1;6
"achat tableau art contemporain";0;0;1;1
nesler;0;0;1;6
"john perello";0;0;1;3
"angel duarte";0;0;1;1
"jerome mesnager";0;0;3;4.3333333333333;0;0;1;5
"frederic prat";0;0;1;6
"orlinski sculpteur";0;0;1;9
"christine muller facebook";0;0;1;10
"arman artiste";0;0;4;10.75
"tal coat oeuvres";0;0;1;7
"alex durand";0;0;3;10
"albert chubac";0;0;1;4
"robert indiana oeuvres";0;0;1;9
"jean faucheur";0;0;3;5
"cedrix crespel";0;0;1;4
"fred penelle";0;0;1;10
"combas robert";0;0;3;4.6666666666667
"a partir de 100";0;0;1;4
"philippe favier";0;0;1;6
"angelica x";0;0;1;30
"oksana x";0;0;2;19
"galerie lazarew";0;0;1;10
cieu;0;0;1;5;0;0;4;6
"aki kuroda";0;0;4;1;0;0;2;1
orlan;0;0;3;25.333333333333
"philippe vasseur peintre";0;0;1;2;0;0;1;1
artphotoby;0;0;2;2
"pierre riba";0;0;2;4;0;0;1;4
charlie;0;0;1;188
"claude viallat sans titre";0;0;1;6
"oeuvre chat";0;0;1;4
"e galerie";0;0;1;4
"titus carmel";0;0;2;11
"max ernst œuvres d'art";0;0;2;9
mordac;0;0;2;8
"gustave singier";0;0;1;6
"in inverse";0;0;1;10
"jean philippe berger";0;0;1;2
"yann stofer";0;0;2;10
"mister brainwash art";0;0;2;10
"cesar baldaccini";0;0;1;7;0;0;2;7
tirilly;0;0;1;11
"etienne rey";0;0;1;9
francky;0;0;1;103
"greffe art";0;0;2;9
"galerie art en ligne";0;0;2;1.5;0;0;3;1
"mathieu mercier";0;0;2;10
"ewan david eason";0;0;1;4
"vuk vidor";0;0;3;9
"baptiste dumont";0;0;2;11
"pablito zago";0;0;1;7
"georges buffet peintre";0;0;1;7
"marie houset";0;0;1;4
dibbon;0;0;1;3
"jean marc dallanegra";0;0;1;6;0;0;1;7
"tom wessellman";0;0;1;5
gangal;0;0;2;5
"diane arbus";0;0;3;21
bigaignon;0;0;1;9
"colorfield gallery";0;0;2;8;0;0;1;8
lafontan;0;0;2;7
"sébastien bayet";0;0;2;1
"william klein";0;0;1;1
"artiste pez";0;0;1;6
"ivan tzonev";0;0;1;9
"monika nowak";0;0;1;4
"armand artiste contemporain";0;0;1;7
sculputure;0;0;1;9
"jacques villegle";0;0;2;4;0;0;2;4
calirezo;0;0;2;7
"claire louria";0;0;1;6
"charles thiefaine";0;0;1;2
"rose iii";0;0;1;10
"gastineau massamba";0;0;1;2
popesco;0;0;1;45
"françois giraudeau";0;0;1;9
"keith haring oeuvre";0;0;2;8
"gallerie en ligne";0;0;1;2
arsper;0;0;1;1;0;0;1;1
"césar artiste";0;0;2;7
"michel le belhomme";0;0;1;4
"photographe italien plage";0;0;1;5
"miguel chevalier";0;0;3;8.3333333333333;0;0;3;9.3333333333333
"art surréalisme";0;0;2;50
"petit pompom";0;0;1;10
"kamel yahiaoui";0;0;3;7
"jone one";0;0;2;2.5
"jeff aérosol";0;0;1;5
"joelle troussier";0;0;1;4
eppele;0;0;1;9
"theo haggai";0;0;1;2
"luc lacroix france 2";0;0;1;4
"galerie vidal";0;0;2;9.5
"l'atlas artiste";0;0;3;7.3333333333333
"antoine correia";0;0;1;3;0;0;2;4.5
"silvia x";0;0;1;10
"affiche obey";0;0;4;8.25
"easy sacha";0;0;1;10
"tom wesselmann";0;0;3;6
"combas prix";0;0;1;6
gouala;0;0;1;14
artop;0;0;5;8;0;0;2;8
"nathan chantob artiste peintre";0;0;1;3
"art amour";0;0;1;1
"mr brainwash";0;0;3;20
"street art miss tic";0;0;2;5
"sebastien layral";0;0;1;4
"damien hirst oeuvre";0;0;1;5
"vente d'oeuvre d'art";0;0;2;1
"ambiance architecture";0;0;1;10
davidz;0;0;1;11
"laurent bouro";0;0;2;4
mygalo;0;0;2;3
"caroline maurel";0;0;1;4
"alain rivière";0;0;1;9
"shepard fairey œuvres d'art";0;0;1;4
"banksy billet";0;0;1;1
"greg minah";0;0;2;10
"marino marini peintre";0;0;3;9.6666666666667
picka;0;0;1;8
samsofy;0;0;1;18;0;0;1;16
"ernest pignon";0;0;3;10.666666666667
"banksy oeuvres";0;0;14;9.7142857142857;0;0;9;10
"terra peintre";0;0;2;1
"tracey emin oeuvre";0;0;1;4
xintao;0;0;1;2
"survivants yan pei ming";0;0;4;10
"philippe pasqua";0;0;16;6.6875;0;0;1;6
"ernest pignon-ernest";0;0;2;11
"peintre décorateur toulouse";0;0;1;74
mirô;0;0;1;1
"jana and js";0;0;1;7
"takashi murakami";0;0;3;13.333333333333
"oeuvre d'art fleur";0;0;1;10
"patrick bastardoz";0;0;1;4
"keith haring montreux";0;0;1;6
"oeuvres de banksy";0;0;3;8.3333333333333
"kiddy citny";0;0;1;5
"modelage oriental aixe sur vienne";0;0;1;68
"philippe heurtaux";0;0;1;3
"emmanuel pons";0;0;1;8
"jean michel basquiat œuvres d'art";0;0;2;1;0;0;1;1
"joël hubaut";0;0;2;8
"matisse le cirque";0;0;1;6
"galerie dorval lille";0;0;1;11
"galerie art contemporain";0;0;1;8
revon;0;0;1;12
"julien barcilon";0;0;1;3
"carlos cruz";0;0;1;11
"achat art contemporain";0;0;1;1
"shaka marchal mithouard";0;0;1;6
"tony frank";0;0;2;9.5;0;0;2;8
"galerie leadouze";0;0;1;3
"artsper societe";0;0;1;9
oksana;0;0;3;27.333333333333
"lachapelle photographe";0;0;1;7
"gilles desrozier";0;0;1;8;0;0;1;10
"expression 16";0;0;1;8;0;0;1;10
"stéphane jacob";0;0;1;12
"aline robin";0;0;2;6
"etienne gros";0;0;4;5
aroa;0;0;3;6;0;0;1;6
artjingle;0;0;1;4
"opalka biographie";0;0;1;8
goddog;0;0;2;4
"thierry diers";0;0;1;7;0;0;1;8
"keep calm and believe in your dreams";0;0;2;5
"gérard boudon sculpteur";0;0;1;8
mr.chat;0;0;1;6
"yago 2";0;0;1;48
"ernest pignon ernest biographie";0;0;1;9
"combas artiste";0;0;2;4.5
"oeuvre carton";0;0;1;8
"ren hang";0;0;6;10;0;0;1;10
"charpentier philippe";0;0;2;12
"cesar sculpteur";0;0;2;10;0;0;3;9.3333333333333
"dave lachapelle photography";0;0;1;7
graphem;0;0;1;11
misstik;0;0;1;5
bastardoz;0;0;2;4;0;0;1;4
buil;0;0;1;80
"biographie de ernest pignon ernest";0;0;2;8
lasttube;0;0;1;6
"achat oeuvre d'art";0;0;1;1
scholtes;0;0;3;28
"juliette montier";0;0;2;3
"art vente en ligne";0;0;2;1
"le turk";0;0;1;10
"carlos cruz diez";0;0;5;10
"vincent peters";0;0;1;8
"galerie hus";0;0;1;11
"kuroda aki";0;0;1;1
"rafiy okefolahan";0;0;1;1
"messager peintre";0;0;1;9
"miroir portrait";0;0;1;6
"amateur d'art";0;0;3;10.333333333333
"galerie w";0;0;4;5;0;0;1;5
exhibe;0;0;1;60
"renaud delorme";0;0;2;4
"oeuvre d'art en or";0;0;1;6
"robert combas cote";0;0;2;4;0;0;1;9
dugave;0;0;1;8
"banksy toile";0;0;1;9
"ron english propaganda";0;0;1;5
"udo nils";0;0;1;7
"thierry alet";0;0;1;5
"henri lamy";0;0;4;4
"galerie unik";0;0;1;5
"yahiaoui kamel";0;0;1;10
"anette messager";0;0;1;11
"oeuvre de erro";0;0;1;8
"thomas muller";0;0;3;26.666666666667
"rolf saint agnes";0;0;1;3
"wang yan";0;0;8;9.625
"art geometrique";0;0;2;19
"marcel reynaud";0;0;9;5
"sandy skoglund";0;0;1;8;0;0;2;8
"dominique clerc";0;0;1;7;0;0;1;7
"artiste jr";0;0;1;11
km21;0;0;1;10
"jerry hall jeune";0;0;1;1
"pierre tal coat";0;0;1;9
"iemza artiste";0;0;1;5
"oeuvre de ben";0;0;2;4
pechane;0;0;2;1
"foot fetish";0;0;1;7
"romain tichit";0;0;4;4
rauzier;0;0;1;11
"jean du buffet";0;0;1;10
"ron english art";0;0;1;4
"hervé telemaque peintre";0;0;2;5
"utopie tangible";0;0;1;5
vaute;0;0;6;10
"anna bocek";0;0;1;4
besher;0;0;3;4.3333333333333
"œuvres d’art nice";0;0;1;22
"patrick baillet";0;0;1;10
"peinture jonone";0;0;1;1
catte;0;0;5;4.6;0;0;1;3
"galerie d'art france";0;0;1;9
"vote shepard fairey";0;0;1;1
mchat;0;0;2;8.5
claire;0;0;1;10
"sculpture bronze contemporain";0;0;1;60
"eva jospin biographie";0;0;1;4
"galerie charlot";0;0;2;8
"fiona banner";0;0;2;11
"oeuvre jr";0;0;2;6
"sans titre 01";0;0;2;9;0;0;1;9
miss.tic;0;0;1;7
"alain clément";0;0;2;5;0;0;1;7
"melanie peduzzi";0;0;1;5
"valerie marty sculpture";0;0;1;3
"renk graffiti";0;0;5;6
"monocrome art";0;0;1;10
"troy henriksen cote";0;0;1;2
"crane papillon";0;0;1;3
adek;0;0;2;10.5
"panthere sculpture";0;0;1;10;0;0;2;9
"oeuvre d'art a vendre";0;0;2;1.5;0;0;2;1
"richard orlinski";0;0;10;6.2
"christophe fischer";0;0;1;8
"valérie marty";0;0;3;8
"fazzino charles";0;0;1;5
"nick walker";0;0;1;4;0;0;1;4
iglesis;0;0;1;2
one4you;0;0;1;12
"mustapha azeroual";0;0;1;5
"jm robert";0;0;3;2;0;0;1;2
"mr sex";0;0;3;26.333333333333
m.chat.com;0;0;1;5
"gérard titus carmel";0;0;2;5;0;0;3;7.3333333333333
"cyril paglino";0;0;1;21
"loulou picasso";0;0;1;6
"claire gastaud";0;0;3;6
"photo jr";0;0;1;11
"laurent maes";0;0;3;10.666666666667
"jacques lacroix";0;0;1;8
"fred calmets";0;0;1;4;0;0;1;5
"jean michel basquiat oeuvres";0;0;3;9.3333333333333
missvan;0;0;1;10
"raison d'art lille";0;0;1;7
"y galerie";0;0;1;2;0;0;1;2
"ben bella peintre";0;0;1;2;0;0;1;1
oulab;0;0;1;3
johnone;0;0;1;4
"capton peintre";0;0;1;5
"polly pearce nude";0;0;1;6
"yanne kintgen";0;0;1;7
"robert bradford wikipedia";0;0;2;5
"di rosa prix";0;0;1;5
"orlinski prix";0;0;1;6
catelain;0;0;2;3;0;0;1;2
"olivier masmonteil artiste peintre";0;0;1;6
"laetitia giraud";0;0;1;4
"nojnoma paris";0;0;2;9
"thomas verny peintre";0;0;1;1
"stephane gautier";0;0;3;3.3333333333333;0;0;1;3
"vente en ligne d'oeuvres d'arts";0;0;1;1
"louis nicolas darbon";0;0;1;6;0;0;2;6
leyto;0;0;1;4
"chien femme";0;0;1;98
"jérôme romain";0;0;1;3
"arnaud paillard";0;0;2;4.5
"madame et son chien";0;0;1;20
"jean francois lefranc";0;0;1;4
"a nous paris";0;0;3;27.333333333333
"shepard fairey bio";0;0;1;6
boudro;0;0;1;7
chamizo;0;0;1;7
"signature andy warhol";0;0;2;6.5
"mr chat";0;0;6;6.5;0;0;4;6
vesselman;0;0;1;11
"herve perdriel";0;0;1;3
"tao mon compte";0;0;1;4
"maxime foulon";0;0;1;7
"david lachapelle photography";0;0;1;7
"tableaux contemporains tournon";0;0;1;48
dimen;0;0;2;40
"jonone paris";0;0;1;6
"art d oeuvre";0;0;1;5
"mission polaire";0;0;2;18
capton;0;0;13;3.1538461538462;0;0;1;4
m.chat;0;0;3;7
"ralph gibson";0;0;2;11;0;0;1;11
"gilles molinier";0;0;2;5
"galerie ange basso";0;0;1;4
hyber;0;0;3;6.3333333333333
"roy lichtenstein";0;0;2;97.5
"oeuvre de jr";0;0;1;6
"gerard quenum";0;0;1;5
"obey shepard fairey";0;0;1;10;0;0;1;10
"jef aérosol street art";0;0;2;5
"oeuvre d'art arbre";0;0;1;3
"young jim morrison";0;0;1;9
"carl andre";0;0;5;7
"yi ling";0;0;1;5
"biographie ernest pignon ernest";0;0;7;8;0;0;3;9.3333333333333
"jo di bona";0;0;1;10;0;0;1;12
"oeuvre de coq";0;0;1;19
argentic;0;0;1;7;0;0;2;7
maodus;0;0;1;5
"patrick braoudé";0;0;1;11
"galerie vidal st phalle";0;0;1;7
"alfons alt";0;0;1;7
"vogue art";0;0;1;10
"gérard quenum";0;0;1;5
"arroyo peintre";0;0;2;5
"galerie claire gastaud";0;0;1;9
"ernest pignon ernest";0;0;20;10.6;0;0;5;11
"cesar sculpture";0;0;3;9
"claude lévêque";0;0;1;10;0;0;1;10
"stephane joannes";0;0;1;2
"reinhard gorner";0;0;3;6
"christian croset";0;0;1;9
"orlanda broom";0;0;1;12
"aurelie bauer";0;0;1;9
"eduardo chillida";0;0;18;9.2222222222222
"antonio segui";0;0;4;8.25;0;0;1;8
"claude leveque";0;0;6;9.6666666666667;0;0;2;10
"peinture zelda";0;0;1;6
arietti;0;0;1;5
"photo corps art";0;0;1;1
"william klein photo";0;0;1;1
moscovino;0;0;2;4
"lyle carbajal";0;0;1;4
"catherine klein peintre";0;0;3;3.3333333333333
"charles henry sommelette";0;0;1;4
"annie berthet";0;0;1;10
"eva jospin artiste";0;0;1;6
"cecile desserle";0;0;2;4
"vente d'art";0;0;1;1
"sculpture art moderne";0;0;1;2
"tableau arman";0;0;1;3
"achat art";0;0;1;1
"box orange";0;0;1;68
"theophile kintgen";0;0;1;9
"michel madore";0;0;1;4
"costa artiste";0;0;1;3
"banksy œuvres d'art";0;0;1;9
"galerie marie vitoux";0;0;1;9
"robert sgarra";0;0;1;3
"planete serie";0;0;5;6.6
"gérard schlosser peintre";0;0;1;4
"gerstein design";0;0;1;2
"charbonnel sculpteur";0;0;4;3.5
"jeff koons biographie";0;0;4;9
"orlinda lavergne";0;0;2;6
"galerie appartement";0;0;1;9
"le chat";0;0;1;7
"boccara gallery";0;0;1;6
"oeuvre d'art en pierre";0;0;1;9
"peintre wilfred";0;0;3;1
"portraits de femmes photos";0;0;2;1
"galerie nuances et lumière lyon";0;0;1;3
"cécile desserle";0;0;1;4
"boom art";0;0;1;4
"sam francis peintre";0;0;2;9
"cécile colombo";0;0;1;5
"jeune artiste contemporain";0;0;1;8
"jean dubuffet oeuvre";0;0;3;6
"anca 3";0;0;2;5
"ye xing qian";0;0;1;2
"daniel nadaud";0;0;2;5
"hamish fulton land art";0;0;1;8
"gallerie d art";0;0;2;5
"claire fahys";0;0;1;2
"monochrome noir";0;0;2;9.5
olanier;0;0;1;7
"renaud lichtenstein";0;0;1;88
"marie anne thieffry";0;0;3;3
"romain lardanchet";0;0;1;7
"hugo laruelle";0;0;1;3
godon;0;0;3;4
"irina ionesco photo d'eva";0;0;1;64
"arman violon";0;0;1;7
"guy de rougemont";0;0;2;8
"sculpture contemporaine pas cher";0;0;1;6
"elder batista";0;0;2;5
hellen;0;0;1;210
"peintre bernard buffet";0;0;1;8
"anne cindric";0;0;2;5
"art internet";0;0;2;3
"michele destarac";0;0;2;1
"sculpture césar";0;0;1;9
"laurence bruguiere";0;0;1;8
"alex katz";0;0;2;9
smael;0;0;1;8
benetou;0;0;1;2
"galerie loft";0;0;1;8
"kouka street art";0;0;1;8
"galerie bouillon d'art";0;0;1;5
"sculptures monumentales";0;0;2;9
"art en ligne";0;0;1;1
"oeuvres banksy";0;0;1;8
"julien cresp";0;0;1;4
"natalia portal";0;0;1;8
"hank china";0;0;1;1
"jan saudek photo";0;0;1;9
"robert combas prix";0;0;1;7
"nico sculpture";0;0;3;6
"laurent dauptain";0;0;1;4
"joel hubaut";0;0;1;9
"anne berry";0;0;2;9
"gerstein prix";0;0;1;3
artpser;0;0;1;1
atsper;0;0;1;1
"christian chapiron";0;0;1;5
"emmanuelle bousquet";0;0;1;7
"achat oeuvre street art";0;0;2;3
"peinture buffet";0;0;1;7
"jeune artiste";0;0;1;8
destarac;0;0;2;2
"artistes espagnols";0;0;4;9
oeuvre;0;0;1;8
"bruno catalano tarif";0;0;1;6
"alain josseau";0;0;1;3
"art pussy";0;0;1;10
"pascal jacquot";0;0;1;5
"tableau du 21eme siecle";0;0;3;10
"nuance et lumiere";0;0;1;3
"philip pasqua";0;0;1;6
vittoretti;0;0;1;3
"biographie banksy";0;0;4;9
"otto d'ambra";0;0;2;3
"gottfried salzmann aquarelliste";0;0;1;10
"balloon dog prix";0;0;1;10
"galerie envie d'art";0;0;1;3
"ayse kucuk";0;0;1;7
"photographie tour eiffel noir et blanc";0;0;1;19
"orlan œuvres d'art";0;0;1;7
"barthes de ruyter";0;0;1;3
"galerie nuances et lumière";0;0;2;3
"open art galerie";0;0;1;5
joneone;0;0;2;1
"albane de saint remy";0;0;1;8
"jacques verdier artiste";0;0;1;10
"mahjoub ben bella prix";0;0;1;3
"sylvie fleury";0;0;1;8
"gottfried honegger";0;0;2;9
"le corps dans l'art";0;0;1;7
chubac;0;0;1;8
"oeuvre d'art thème noel";0;0;1;9
"galerie cortade";0;0;1;9
"richard orlinski prix";0;0;1;6
"berge panossian";0;0;1;1
"achat tableau art";0;0;1;2
"artiste jean dubuffet";0;0;1;3
"galerie gillig";0;0;1;5
"antoine mercusot";0;0;1;2
gief;0;0;1;10
"oeuvres d'art contemporaines";0;0;2;2
"jerome festy";0;0;1;5
"adam nidzgorski";0;0;1;3
"anne messager";0;0;1;6
"sebastien levigne";0;0;1;10
"portrait de famille peinture";0;0;2;19
"herve lewis photographe";0;0;1;1
"tapis boccara";0;0;1;10
"jean michel basquiat in italian";0;0;1;10
"daniel authouart";0;0;2;10
"vente d art";0;0;2;1.5
"galerie schwab";0;0;1;5
"drouet peintre";0;0;1;5
mrchat;0;0;1;6
vanmarque;0;0;1;6
"valerie le merrer";0;0;1;3
"oeuvre d'art controversée";0;0;1;18
"galerie orlinda lavergne";0;0;1;3
"sculpteur christophe charbonnel";0;0;1;4
"georges autard";0;0;1;6
"oeuvre monumentale";0;0;2;6
"armand artiste";0;0;1;6
"claudy gielczynski peintre";0;0;2;3
"le chat peinture";0;0;1;10
"elisabeth von wrede";0;0;2;9.5
"portraits de femmes";0;0;1;1
"makhloufi origine";0;0;1;13
phaedra;0;0;1;95
"art en vogue";0;0;1;1
"pascale cayla";0;0;1;9
"evelyne postic";0;0;1;6
"oeuvre de cesar";0;0;1;5
"james mackeown";0;0;3;3
"david ferreira peintre";0;0;1;4
"oeuvre d'art en mouvement";0;0;1;5
"dussac peintre";0;0;1;3
"vente d'art en ligne";0;0;1;3
"louis blanc biographie";0;0;2;10
"oeuvre d'art papier";0;0;1;4
"sculpture gorille rouge";0;0;1;8
"peter blake artiste";0;0;1;6
"peintre artiste contemporain";0;0;1;5
"kaws plush";0;0;1;7
"oeuvre pomme";0;0;2;6.5
"didier avril";0;0;2;1
"peinture bernard buffet";0;0;1;10
"britto artiste";0;0;1;5
"emmanuel bousquet";0;0;1;9
"ne bay";0;0;1;4
"combas sculpture";0;0;4;9
"photo art moderne";0;0;1;2
"sculpture contemporaine a vendre";0;0;4;1
"lucile callegari";0;0;2;5.5
"fernando costa prix";0;0;1;1
"galerie carole kvasnevski";0;0;1;6
"cesar sculptures";0;0;1;10
"galerie nuances et lumieres";0;0;1;3
"christine muller peintre";0;0;1;5
"gérard rancinan";0;0;1;8
"oeuvre de joan miro";0;0;1;1
"william holman gallery";0;0;1;6
"composition in blue";0;0;1;10
"ivan alifan jdanov";0;0;1;1
"yann houri prix";0;0;1;1
"dessin chat graphique";0;0;1;10
"louis pon";0;0;1;8
"abie loy kemarre";0;0;1;7
"yan pei ming oeuvre";0;0;1;9
"sculpture d'art";0;0;1;2
catabase;0;0;1;17
"oeuvre coloré";0;0;1;9
"roger schall";0;0;1;2
"oeuvre ben";0;0;2;3
"cecile aurejac";0;0;2;9
"sophie sigorel";0;0;1;5
"couture peinture";0;0;1;4
