artsper;29;0.071078431372549;408;1.0024509803922;18;0.056962025316456;316;1.003164556962;2;0.033333333333333;60;1;9;0.28125;32;1
"robert combas";6;0.052631578947368;114;3.8333333333333;5;0.056818181818182;88;3.6590909090909;1;0.052631578947368;19;4.3684210526316;0;0;7;4.5714285714286
"hervé di rosa";5;0.14705882352941;34;3.6176470588235;4;0.13793103448276;29;3.448275862069;1;0.33333333333333;3;4.6666666666667;0;0;2;4.5
"fabien verschaere";4;1;4;2.25;2;1;2;2.5;2;1;2;2
"monsieur chat";4;0.014035087719298;285;6.3578947368421;2;0.016393442622951;122;5.6065573770492;2;0.016260162601626;123;6.9593495934959;0;0;40;6.8
jonone;4;0.028985507246377;138;3.3115942028986;3;0.027272727272727;110;3.1909090909091;0;0;23;3.7826086956522;1;0.2;5;3.8
"jeanne lorioz";3;0.5;6;4.3333333333333;2;0.5;4;4;1;0.5;2;5
"jef aerosol";3;0.04;75;4.6533333333333;2;0.037037037037037;54;4.5185185185185;1;0.083333333333333;12;4.9166666666667;0;0;9;5.1111111111111
"benjamin carbonne";3;0.42857142857143;7;1;3;0.6;5;1;0;0;2;1
"nils udo";3;0.028846153846154;104;7.9423076923077;3;0.04;75;7.7466666666667;0;0;14;8.7142857142857;0;0;15;8.2
"manu perez peintre";3;0.6;5;3.4;3;0.75;4;3.25
"galerie d'art";3;0.069767441860465;43;6.0232558139535;3;0.096774193548387;31;6.258064516129;0;0;12;5.4166666666667
"guillaumette duplaix";3;0.75;4;1;3;0.75;4;1
"shepard fairey oeuvres";3;0.1875;16;2;3;0.2;15;1.9333333333333;0;0;1;3
"charles fazzino";2;0.047619047619048;42;4.6428571428571;1;0.035714285714286;28;4.4285714285714;1;0.083333333333333;12;5.0833333333333;0;0;2;5
"shepard fairey biographie";2;0.22222222222222;9;3.5555555555556;2;0.22222222222222;9;3.5555555555556
"francois bard";2;0.25;8;1.875;1;0.33333333333333;3;1;1;0.2;5;2.4
"renaud delorme";2;0.66666666666667;3;2;1;0.5;2;2;1;1;1;2
"roland cat peintre";2;1;2;2;1;1;1;2;1;1;1;2
"dominique mulhem";2;0.22222222222222;9;3.6666666666667;1;0.16666666666667;6;3;1;0.33333333333333;3;5
"miss tic";2;0.016393442622951;122;5.6311475409836;2;0.021505376344086;93;5.2903225806452;0;0;22;6.7272727272727;0;0;7;6.7142857142857
"annette messager";2;0.018348623853211;109;10.192660550459;1;0.010989010989011;91;10.043956043956;0;0;6;10.833333333333;1;0.083333333333333;12;11
"marty de montereau";2;0.25;8;1;2;0.25;8;1
"eva jospin";2;0.046511627906977;43;2.906976744186;1;0.033333333333333;30;1.2333333333333;1;0.14285714285714;7;6.7142857142857;0;0;6;6.8333333333333
"mr brainwash mural";2;0.13333333333333;15;7.4;2;0.13333333333333;15;7.4
"jef aerosol biographie";2;0.5;4;4;1;1;1;4;1;0.33333333333333;3;4
"loulou picasso";2;0.16666666666667;12;6.4166666666667;2;0.16666666666667;12;6.4166666666667
"philippe bonan";2;0.33333333333333;6;1.3333333333333;1;0.25;4;1.5;0;0;1;1;1;1;1;1
"pierre dubrunquez";2;0.22222222222222;9;2;2;0.33333333333333;6;2
"philippe buil";2;0.4;5;2.4;2;0.5;4;2;0;0;1;4
"claude mollard";2;0.25;8;5.125;2;0.25;8;5.125
"kiddy citny biographie";2;0.66666666666667;3;2;1;0.5;2;2;1;1;1;2
"drm galerie";2;0.4;5;1.8;1;0.33333333333333;3;1.6666666666667;1;0.5;2;2
"di rosa peintre";2;0.25;8;2;1;0.16666666666667;6;2;1;0.5;2;2
"thomas jorion";2;0.13333333333333;15;2.1333333333333;2;0.14285714285714;14;2;0;0;1;4
"guy denning";2;0.33333333333333;6;5.1666666666667;1;0.5;2;5;1;0.5;2;5
"aki kuroda";2;0.18181818181818;11;3.9090909090909;1;0.14285714285714;7;5.5714285714286;0;0;2;1;1;0.5;2;1
"romain tichit";2;0.22222222222222;9;6;1;0.16666666666667;6;6.3333333333333;1;0.33333333333333;3;5.3333333333333
orlinski;2;0.13333333333333;15;6.0666666666667;2;0.22222222222222;9;6.1111111111111;0;0;5;6;0;0;1;6
mapplethorpe;2;0.066666666666667;30;7.9333333333333;2;0.076923076923077;26;7.8461538461538;0;0;3;8.3333333333333;0;0;1;9
"les oeuvres de keith haring";2;0.33333333333333;6;8;2;0.33333333333333;6;8
mesnager;2;0.090909090909091;22;3.5;1;0.071428571428571;14;3;1;0.125;8;4.375
aboudia;2;0.25;8;5.875;1;0.33333333333333;3;7.3333333333333;0;0;3;5;1;0.5;2;5
"michel le belhomme";2;0.11764705882353;17;4.1176470588235;2;0.13333333333333;15;4.1333333333333;0;0;2;4
"elsa guillaume";2;0.66666666666667;3;4;2;0.66666666666667;3;4
"bruno catalano prix";2;0.14285714285714;14;6;2;0.5;4;6;0;0;5;5.2;0;0;5;6.8
"france mitrofanoff";2;0.66666666666667;3;2;2;0.66666666666667;3;2
"philippe assalit";2;0.15384615384615;13;3;2;0.16666666666667;12;3;0;0;1;3
paxal;2;0.33333333333333;6;9.5;1;0.33333333333333;3;10;1;0.33333333333333;3;9
rancinan;1;0.083333333333333;12;5.5833333333333;1;0.16666666666667;6;5
"pierre et gilles oeuvres";1;0.2;5;7.4;1;0.2;5;7.4
"gérard titus carmel";1;0.090909090909091;11;5.8181818181818;1;0.1;10;5.9;0;0;1;5
"zed artiste";1;0.5;2;2;1;0.5;2;2
"valérie rauchbach";1;0.5;2;3;1;0.5;2;3
"jean francois rauzier";1;0.5;2;9;1;0.5;2;9
"lucile callegari prix";1;1;1;1;1;1;1;1
"ben bella peintre";1;0.16666666666667;6;1.3333333333333;0;0;3;1;1;0.33333333333333;3;1.6666666666667
"pascal frament";1;0.25;4;2.75;0;0;1;2;1;0.33333333333333;3;3
"lucien murat";1;0.047619047619048;21;2.1904761904762;1;0.055555555555556;18;2.1666666666667;0;0;1;3;0;0;2;2
koor;1;0.028571428571429;35;9.2571428571429;1;0.071428571428571;14;8.6428571428571;0;0;18;9.6666666666667;0;0;3;9.6666666666667
"bill blast";1;1;1;1;1;1;1;1
"les 3 garces";1;0.5;2;8;1;1;1;8
"gregory watin";1;0.5;2;2;1;0.5;2;2
"xavier veilhan";1;0.1;10;10.1;1;0.11111111111111;9;10;0;0;1;11
"emma vidal";1;0.125;8;2.625;0;0;2;2;1;0.25;4;3.25
"eva jospin galerie";1;0.33333333333333;3;3.6666666666667;1;1;1;4;0;0;2;3.5
"herbert oehm";1;1;1;3;1;1;1;3
"leopold rabus";1;0.16666666666667;6;5.8333333333333;1;0.33333333333333;3;6;0;0;1;5;0;0;2;6
"oeuvre de ernest pignon ernest";1;0.11111111111111;9;6.8888888888889;0;0;3;7;1;0.2;5;7
"oeuvre de annette messager";1;0.25;4;5.5;1;0.33333333333333;3;4.6666666666667;0;0;1;8
"jean gilles badaire";1;1;1;13;1;1;1;13
"isabelle bartoli";1;0.14285714285714;7;2.2857142857143;1;0.16666666666667;6;2.3333333333333;0;0;1;2
"alain vaissiere peintre";1;0.5;2;3;1;1;1;3;0;0;1;3
"theo haggai";1;0.33333333333333;3;1;0;0;1;1;0;0;1;1;1;1;1;1
"artyou galerie";1;1;1;4;1;1;1;4
"agnes baillon";1;0.090909090909091;11;4.1818181818182;1;1;1;4;0;0;1;4
"artiste en vogue";1;0.5;2;2;1;0.5;2;2
"jr oeuvre";1;0.33333333333333;3;6;1;1;1;6;0;0;2;6
"charlelie couture peinture";1;0.2;5;2;1;0.2;5;2
"rossella rossi";1;0.33333333333333;3;6.3333333333333;1;0.5;2;6;0;0;1;7
"marc stammegna";1;0.16666666666667;6;9.1666666666667;1;0.2;5;9;0;0;1;10
"ben bella mahjoub";1;1;1;2;1;1;1;2
"alain clément";1;0.14285714285714;7;4.4285714285714;1;0.25;4;4;0;0;3;5
"jef aérosol street art";1;0.33333333333333;3;5;1;0.33333333333333;3;5
quik;1;0.01123595505618;89;1.1123595505618;0;0;43;1.0232558139535;1;0.16666666666667;6;1
flipo;1;0.04;25;8.96;1;0.090909090909091;11;8.0909090909091;0;0;13;9.6153846153846;0;0;1;10
gregos;1;0.16666666666667;6;6.1666666666667;1;0.2;5;6.2;0;0;1;6
"jerome mesnager";1;0.0625;16;3.375;1;0.083333333333333;12;3.1666666666667;0;0;2;4;0;0;2;4
"antonio segui";1;0.076923076923077;13;9.0769230769231;1;0.083333333333333;12;9;0;0;1;10
"salzmann gottfried";1;1;1;6;1;1;1;6
"obey shepard fairey";1;0.5;2;11;1;0.5;2;11
"oeuvre d'art unique";1;0.33333333333333;3;1;1;0.33333333333333;3;1
"joseph beuys";1;0.5;2;32.5;1;1;1;30
"galeries d'art";1;0.125;8;6;0;0;6;7.3333333333333;1;0.5;2;2
"olivier long peintre";1;0.5;2;5;1;0.5;2;5
"claude lévêque artiste";1;0.5;2;5;1;0.5;2;5
"costa sculpteur";1;0.5;2;3;0;0;1;3;1;1;1;3
"anne brégeaut";1;0.11111111111111;9;6.7777777777778;1;0.14285714285714;7;7;0;0;2;6
"franck k";1;0.2;5;1.6;1;0.2;5;1.6
"françois bard";1;0.5;2;1.5;1;0.5;2;1.5
"guy boyer peintre";1;1;1;1;1;1;1;1
"juliette choné";1;0.25;4;4;1;0.33333333333333;3;4
"jm robert peintre";1;0.5;2;2;1;0.5;2;2
"murielle belin";1;0.16666666666667;6;9.3333333333333;1;0.2;5;9.2;0;0;1;10
"dok artiste";1;0.5;2;1;1;0.5;2;1
"jean helion";1;0.11111111111111;9;6.6666666666667;1;0.14285714285714;7;6.4285714285714;0;0;2;7.5
"natalia rak";1;0.125;8;5.625;1;0.14285714285714;7;5.7142857142857;0;0;1;5
"christophe catelain";1;1;1;1;1;1;1;1
"elisabeth lecourt";1;1;1;1;1;1;1;1
"joaquim falcó";1;0.25;4;10;0;0;1;7;1;1;1;11
"jerome lagarrigue";1;0.25;4;6;1;0.25;4;6
2artangels;1;0.33333333333333;3;3;1;0.33333333333333;3;3
"chanoir artiste";1;0.33333333333333;3;2;1;0.33333333333333;3;2
"gilles aillaud";1;0.03030303030303;33;9.1212121212121;1;0.041666666666667;24;8.9166666666667;0;0;8;9.5;0;0;1;11
"linge aux fenetres";1;1;1;35;1;1;1;35
"aurélie deplus";1;0.5;2;5;1;0.5;2;5
"jonone artiste peintre";1;0.33333333333333;3;2;1;0.5;2;1;0;0;1;4
"di rosa";1;0.03125;32;3.53125;1;0.0625;16;3.3125;0;0;12;4.3333333333333;0;0;4;2
"marina cavazza";1;1;1;5;1;1;1;5
"annina roescheisen";1;0.090909090909091;11;4.3636363636364;1;0.2;5;4
"delphine lebourgeois";1;0.33333333333333;3;3;1;0.5;2;3;0;0;1;3
"clement denis";1;0.16666666666667;6;5.8333333333333;0;0;3;6;1;1;1;4;0;0;2;6.5
"gaspard mitz";1;0.2;5;1.6;1;0.2;5;1.6
"jean marie drouet";1;0.1;10;6.5;0;0;1;7;1;0.33333333333333;3;7
"banksy billet de banque";1;0.5;2;2;1;0.5;2;2
"jean dubuffet oeuvres";1;0.027027027027027;37;5.4864864864865;0;0;6;6.8333333333333;1;0.125;8;5.625
"florian marco";1;0.25;4;8.5;1;0.5;2;7;0;0;2;10
"henri lamy";1;0.047619047619048;21;3.1904761904762;0;0;1;3;1;0.0625;16;3.0625
zenoy;1;0.33333333333333;3;1.6666666666667;1;0.5;2;1;0;0;1;3
"basquiat skull";1;0.5;2;4;1;0.5;2;4
brodlim;1;0.2;5;2;1;0.25;4;2;0;0;1;2
"pierre cornudet";1;1;1;1;1;1;1;1
"galerie art";1;0.0625;16;8.5;1;0.083333333333333;12;8.5;0;0;2;9;0;0;2;8
"galerie d'art france";1;1;1;4;1;1;1;4
"oeuvre de jean dubuffet";1;0.25;4;5;1;0.25;4;5
"galerie jean denis walter";1;0.33333333333333;3;5.3333333333333;1;0.33333333333333;3;5.3333333333333
"basquiat oeuvres";1;0.25;4;9.25;1;0.25;4;9.25
"julie hauer";1;1;1;2;1;1;1;2
"françois morellet oeuvres";1;0.33333333333333;3;6.3333333333333;1;0.5;2;6;0;0;1;7
"arthur dorval";1;0.2;5;2.2;1;0.5;2;3.5
"sculpture bruno catalano prix";1;1;1;3;1;1;1;3
"jérome zonder";1;1;1;13;1;1;1;13
fotover;1;1;1;1;1;1;1;1
gnidzaz;1;0.33333333333333;3;3.6666666666667;1;0.5;2;4.5;0;0;1;2
"sebastien micke";1;1;1;18;1;1;1;18
"fred calmets";1;0.33333333333333;3;4;1;0.5;2;4;0;0;1;4
"buffet artiste peintre";1;0.33333333333333;3;4.6666666666667;1;0.5;2;4;0;0;1;6
"jef aerosol sitting kid";1;0.5;2;7;1;0.5;2;7
"david gerstein";1;0.1;10;4;1;0.16666666666667;6;3.3333333333333;0;0;1;5;0;0;3;5
"xavier oriach";1;1;1;5;1;1;1;5
"thomas verny peintre";1;0.33333333333333;3;1;1;0.5;2;1;0;0;1;1
"oeuvre de keith haring";1;0.058823529411765;17;6.3529411764706;1;0.076923076923077;13;6.1538461538462;0;0;1;7;0;0;3;7
hiquily;1;1;1;28;1;1;1;28
"benjamin spark";1;0.041666666666667;24;8;0;0;3;8;1;0.071428571428571;14;8
"vente art";1;0.125;8;1.125;1;0.125;8;1.125
"dominique piveteaud";1;1;1;6;1;1;1;6
"pascal jacquot";1;0.25;4;2.75;1;0.33333333333333;3;2.6666666666667;0;0;1;3
"jacque villeglé";1;0.25;4;4;1;0.25;4;4
"alice gotheil";1;0.2;5;9.8;1;0.2;5;9.8
"michele maurin";1;0.5;2;4;1;0.5;2;4
"noma bar";1;0.5;2;9;1;0.5;2;9
"gabriel jones";1;0.5;2;3.5;1;1;1;3
"charles thiefaine";1;1;1;2;1;1;1;2
"jacques villeglé oeuvres";1;0.5;2;2.5;1;0.5;2;2.5
"frederic blaimont peintre";1;1;1;4;1;1;1;4
"françois morellet biographie";1;1;1;5;1;1;1;5
"ced vernay";1;0.11111111111111;9;2.8888888888889;1;0.25;4;3.25
"jeff koons œuvres d'art";1;0.11111111111111;9;7.8888888888889;0;0;7;7.7142857142857;1;1;1;9;0;0;1;8
"louis stettner photos";1;0.5;2;5.5;1;1;1;5;0;0;1;6
"michèle destarac";1;0.5;2;1.5;1;1;1;2
"oeuvres de jr";1;0.25;4;4.25;0;0;1;5;1;0.33333333333333;3;4
"billet banksy";1;0.5;2;1;1;0.5;2;1
"gwenael billaud";1;0.5;2;2;0;0;1;2;1;1;1;2
"butz et fouque";1;0.5;2;1;1;0.5;2;1
"valerie hadida";1;0.33333333333333;3;3;1;0.5;2;3;0;0;1;3
"robert barry";1;0.071428571428571;14;4.0714285714286;1;0.083333333333333;12;3.5833333333333;0;0;1;10;0;0;1;4
"john matos";1;0.5;2;5;1;0.5;2;5
"dolorès marat";1;0.5;2;15;1;0.5;2;15
"wagner galerie";1;0.5;2;10;1;0.5;2;10
"christine barres";1;0.090909090909091;11;3.6363636363636;1;0.1;10;3.7;0;0;1;3
"thomas ahl";1;1;1;5;1;1;1;5
"peintre buffet";1;0.16666666666667;6;6.5;1;0.33333333333333;3;5.3333333333333;0;0;3;7.6666666666667
"speedy graphito";1;0.027777777777778;36;5.0555555555556;1;0.035714285714286;28;4.7857142857143;0;0;7;6;0;0;1;6
"photo jr achat";1;1;1;6;1;1;1;6
"gerard escougnou";1;0.33333333333333;3;4;1;0.33333333333333;3;4
"jean christophe fischer";1;0.33333333333333;3;4;1;1;1;4
"manu pérez";1;0.33333333333333;3;10.333333333333;1;0.33333333333333;3;10.333333333333
"l'homme en mouvement";1;0.11111111111111;9;9.4444444444444;1;0.14285714285714;7;9.2857142857143;0;0;2;10
dirosa;1;0.2;5;5;0;0;2;5;0;0;2;5;1;1;1;5
"jaké artiste";1;1;1;3;1;1;1;3
"françois morellet";1;0.022727272727273;44;7.8863636363636;1;0.025641025641026;39;7.7692307692308;0;0;1;8;0;0;4;9
"seen artiste";1;1;1;3;1;1;1;3
"tony soulié";1;0.066666666666667;15;3.0666666666667;1;0.33333333333333;3;3.3333333333333;0;0;1;3
"gilles aillaud peintre";1;0.25;4;2;1;0.25;4;2
"oeuvres de bernard buffet";1;1;1;4;1;1;1;4
"keith haring oeuvres";1;0.012658227848101;79;7.126582278481;1;0.015873015873016;63;6.952380952381;0;0;12;7.75;0;0;4;8
"denis christophel";1;0.5;2;4.5;1;0.5;2;4.5
"oeuvre banksy";1;0.047619047619048;21;7.047619047619;1;0.066666666666667;15;6.7333333333333;0;0;5;7.8;0;0;1;8
"pignon ernest pignon";1;0.2;5;8;1;0.2;5;8
"jonone biographie";1;0.5;2;2;1;0.5;2;2
"miguel chevalier";1;0.038461538461538;26;7.5;1;0.038461538461538;26;7.5
"troy henricksen";1;1;1;3;1;1;1;3
"bruno catalano biographie";1;1;1;3;1;1;1;3
"bernard rancillac";1;0.05;20;8.05;1;0.05;20;8.05
"ben bella peinture";1;0.5;2;1;1;0.5;2;1
"christophe charbonnel";1;0.1;10;5.8;1;0.125;8;5.375;0;0;2;7.5
"hector sandoval";1;1;1;10;1;1;1;10
"artiste buffet";1;0.052631578947368;19;2.0526315789474;1;1;1;3
"robert bradford";1;0.16666666666667;6;2.3333333333333;1;0.25;4;2.5;0;0;2;2
"damien hirst oeuvre";1;0.2;5;4;1;0.2;5;4
"richard orlinski";1;0.022727272727273;44;6.2272727272727;1;0.066666666666667;15;5.8666666666667;0;0;3;6
"claude champy";1;0.14285714285714;7;8;0;0;5;7.8;1;0.5;2;8.5
"christian valette";1;0.5;2;15;1;0.5;2;15
"vincent peters";1;0.33333333333333;3;8;1;0.5;2;8;0;0;1;8
"survivants yan pei ming";1;0.5;2;10;1;0.5;2;10
"expansion cesar";1;0.5;2;7;1;0.5;2;7
goddog;1;0.14285714285714;7;4.2857142857143;1;0.5;2;4.5
"jon one";1;0.066666666666667;15;3.6666666666667;1;0.076923076923077;13;3.5384615384615;0;0;2;4.5
assalit;1;0.055555555555556;18;6.6111111111111;1;0.0625;16;6.75;0;0;2;5.5
"claire fanjul";1;0.5;2;3;0;0;1;3;1;1;1;3
"galerie barrou planquart";1;0.5;2;7;1;0.5;2;7
"bob verschueren";1;0.25;4;5;1;0.25;4;5
"peter klasen";1;0.043478260869565;23;3.6086956521739;1;0.076923076923077;13;3.3076923076923;0;0;8;4;0;0;2;4
yogananthan;1;1;1;7;1;1;1;7
poes;1;0.14285714285714;7;4;0;0;1;4;0;0;1;4;1;0.2;5;4
"wilfred lang";1;0.33333333333333;3;3;1;0.33333333333333;3;3
"rené botti";1;0.16666666666667;6;4;1;0.16666666666667;6;4
"aki kuroda peintre";1;0.25;4;5;1;0.25;4;5
"oeuvre de murakami";1;0.33333333333333;3;2.3333333333333;1;1;1;3;0;0;2;2
"hin chua";1;1;1;7;1;1;1;7
misstic;1;0.020833333333333;48;7.8958333333333;1;0.03448275862069;29;8.1034482758621;0;0;17;7.5882352941176;0;0;2;7.5
"lin felton";1;1;1;1;1;1;1;1
"barres christine";1;0.33333333333333;3;3;1;0.33333333333333;3;3
"philippe huart";1;0.25;4;2.5;1;0.33333333333333;3;2.6666666666667;0;0;1;2
"shepard fairey obey";1;0.2;5;9;1;1;1;10
"arman oeuvre";1;0.090909090909091;11;8.6363636363636;1;0.090909090909091;11;8.6363636363636
"wang yan cheng";1;0.04;25;8.4;1;0.083333333333333;12;9.5;0;0;10;7.5;0;0;3;7
"oeuvre jr";1;1;1;6;1;1;1;6
"thomas agrinier";1;0.16666666666667;6;5;1;0.16666666666667;6;5
"massimo vitali";1;0.066666666666667;15;6.2;1;0.076923076923077;13;6.1538461538462;0;0;2;6.5
"rero artiste";1;0.5;2;11;1;0.5;2;11
"bernard pras";1;0.016129032258065;62;3.3709677419355;1;0.019607843137255;51;3.0392156862745;0;0;3;4.6666666666667;0;0;8;5
"robert combas cote";1;0.25;4;4;1;0.33333333333333;3;4;0;0;1;4
"arman artiste";1;0.16666666666667;6;9.8333333333333;0;0;1;10;0;0;2;8;1;0.33333333333333;3;11
"philippe berry";1;0.014285714285714;70;4.0571428571429;1;0.029411764705882;34;7.0882352941176;0;0;26;1.2692307692308;0;0;10;1
"gordon hopkins";1;0.25;4;3;1;0.33333333333333;3;3;0;0;1;3
"lou ros";1;0.055555555555556;18;6.0555555555556;1;0.0625;16;6.0625;0;0;1;6;0;0;1;6
"marie anne thieffry";1;0.037037037037037;27;2;1;0.04;25;2;0;0;2;2
"nicolas dhervillers";1;0.2;5;5.2;1;0.25;4;5.25;0;0;1;5
"eric chabiron";1;0.5;2;4;1;0.5;2;4
"gerard rancinan";1;0.11111111111111;9;5.4444444444444;0;0;1;4;1;0.25;4;7.25
"cha noir";1;0.33333333333333;3;4.3333333333333;1;0.33333333333333;3;4.3333333333333
"ann grim";1;0.25;4;7.25;1;0.33333333333333;3;7
"biographie jean dubuffet";1;0.5;2;5.5;1;0.5;2;5.5
"patrizio di renzo";1;1;1;5;1;1;1;5
m.chat;1;0.14285714285714;7;6.4285714285714;1;0.16666666666667;6;6.1666666666667;0;0;1;8
arsper;1;0.2;5;1;0;0;3;1;1;0.5;2;1
"julian opie";1;1;1;7;1;1;1;7
"oeuvres de cesar";1;1;1;3;1;1;1;3
"mr brainwash obama";1;1;1;4;1;1;1;4
"banksy œuvres d'art";1;0.058823529411765;17;7.5294117647059;1;0.058823529411765;17;7.5294117647059
"ayline olukman";1;0.083333333333333;12;4;1;0.25;4;4;0;0;8;4
"takashi murakami";1;0.33333333333333;3;14.666666666667;1;0.33333333333333;3;14.666666666667
"ronald dupont artiste peintre";1;0.5;2;1.5;1;0.5;2;1.5
"marine cattaneo";1;0.25;4;5.25;0;0;1;5;1;0.33333333333333;3;5.3333333333333
"galerie ange basso";1;0.33333333333333;3;3;1;0.33333333333333;3;3
"jiri borsky";1;0.2;5;4.4;1;0.2;5;4.4
"philippe berry sculpteur";1;1;1;1;1;1;1;1
"mahjoub ben bella prix";1;1;1;2;1;1;1;2
"carl andre";1;0.035714285714286;28;6.3928571428571;1;0.045454545454545;22;6.2272727272727;0;0;6;7
jefaerosol;1;0.5;2;5;1;0.5;2;5
"joseph marzolla";1;1;1;4;1;1;1;4
"marcel dumont";1;0.33333333333333;3;7.6666666666667;1;1;1;7;0;0;2;8
"pez artiste";1;0.25;4;4.75;1;0.25;4;4.75
"luzia simons";1;0.5;2;5;1;0.5;2;5
"charbonnel christophe";1;0.5;2;4.5;1;0.5;2;4.5
"hervé lewis";1;0.33333333333333;3;1;1;0.33333333333333;3;1
"nathalie bo";1;1;1;20;1;1;1;20
"jimmy ruf";1;0.33333333333333;3;1.6666666666667;1;0.33333333333333;3;1.6666666666667
"charlelie couture";1;1;1;40;1;1;1;40
"lucile callegari";1;0.071428571428571;14;5.9285714285714;0;0;5;5.6;1;0.14285714285714;7;6.1428571428571;0;0;2;6
"clement alain";1;0.33333333333333;3;6.3333333333333;1;0.33333333333333;3;6.3333333333333
"pras bernard";1;1;1;3;1;1;1;3
"sculpture violon";1;1;1;13;1;1;1;13
"susannah martin artist";1;1;1;251;1;1;1;251
"bernard chauveau";1;0.083333333333333;12;7.1666666666667;1;0.1;10;7.1;0;0;2;7.5
"angèle guerre";1;0.5;2;2;1;0.5;2;2
"keith haring oeuvre";1;0.076923076923077;13;8.0769230769231;1;0.125;8;7.625;0;0;3;9;0;0;2;8.5
"oeuvre de ben";1;1;1;2;1;1;1;2
"nicolas cessieux";1;1;1;1;1;1;1;1
"manu perez artiste";1;0.047619047619048;21;2;1;0.125;8;2;0;0;9;2;0;0;4;2
"sunday b morning";1;0.25;4;2;1;0.25;4;2
"françoise pétrovitch";1;0.2;5;7.4;1;0.2;5;7.4
"yves zurstrassen";1;0.2;5;5.2;1;0.5;2;5.5;0;0;2;5;0;0;1;5
"oeuvres bansky";1;0.5;2;7.5;1;0.5;2;7.5
"3 cerises sur une étagère";1;0.2;5;4.2;1;0.33333333333333;3;4.3333333333333;0;0;2;4
"tony soulie";1;0.125;8;4.625;1;0.5;2;3;0;0;5;5.4;0;0;1;4
"acheter banksy";1;0.5;2;2;1;0.5;2;2
"oeuvre d'art 21eme siecle";1;0.25;4;6;1;1;1;6
"titus carmel";1;0.25;4;14.75;1;1;1;11
"mr brainwash prix";1;1;1;1;1;1;1;1
"bernhard prinz";1;0.5;2;3;1;1;1;3
"bruno fontana";1;0.125;8;4.125;1;0.16666666666667;6;4.1666666666667;0;0;2;4
"maurice renoma";1;0.14285714285714;7;3.5714285714286;1;0.14285714285714;7;3.5714285714286
"le cirque matisse";1;0.5;2;4;1;0.5;2;4
"dganit blechner";1;1;1;7;1;1;1;7
"albert chubac";1;0.090909090909091;11;3.1818181818182;1;0.1;10;3.1;0;0;1;4
"jonone prix";1;0.33333333333333;3;1;1;0.5;2;1;0;0;1;1
"oeuvre d'art sur le sport";0;0;1;8
"benoit averly";0;0;2;16.5
"la souris sur le gateau";0;0;5;9
"artiste arman";0;0;4;10.25;0;0;2;11
"tom wesselmann oeuvres";0;0;1;4
"michelle auboiron";0;0;4;5.5;0;0;1;7
feuerman;0;0;2;8
"tableau miss tic";0;0;1;2
"rancillac peintre";0;0;3;8
"jasmine black";0;0;1;32
"evelyne postic peintre";0;0;1;4
"artop gallery";0;0;1;3
"office de tourisme dinard";0;0;2;10;0;0;2;10
"maelle de coux";0;0;1;4
"sylvie koechlin";0;0;1;9;0;0;1;9
2m10;0;0;1;51;0;0;1;51
"olivier leroy photographe";0;0;6;10;0;0;5;10;0;0;1;10
"tableau jonone";0;0;1;1;0;0;1;1
"laurent martinez facebook";0;0;2;10;0;0;2;10
"jean-michel berts paris";0;0;1;11
"bouillon d'art";0;0;2;4.5
"sculpture art";0;0;10;4.8;0;0;1;4
"benoit lison";0;0;3;4.3333333333333;0;0;1;8
mapplethorphe;0;0;1;8;0;0;1;8
zalez;0;0;2;6;0;0;1;6;0;0;1;6
"étienne rey";0;0;1;6;0;0;1;6
"ron englis";0;0;1;4;0;0;1;4
"shen jingdong";0;0;2;3
"galerie catherine houard";0;0;7;6.1428571428571
takala;0;0;6;6;0;0;3;8
"pivot san marco biennale";0;0;1;197
"orta artiste";0;0;1;7;0;0;1;7
"hank china prix";0;0;2;1;0;0;2;1
"artiste pop art contemporain";0;0;1;14;0;0;1;14
"étienne gros";0;0;1;5
"audoin desforges photographe";0;0;1;6
"rebecca ferguson contact";0;0;1;308
manuperez;0;0;1;10
"monochrome rose";0;0;1;4
"david maheo";0;0;3;3;0;0;3;3
"paris match galerie";0;0;1;7;0;0;1;7
"galerie graphem";0;0;1;8
deblonde;0;0;1;5;0;0;1;5
"vincent descotils";0;0;5;8.6;0;0;1;8
"art photographique contemporain";0;0;1;2
"henri matisse cirque";0;0;3;4.6666666666667
"untitled skull basquiat";0;0;1;3
"galerie d'art contemporain bruxelles";0;0;1;9
"l'apanage des faibles";0;0;1;9
"pomme oeuvre d'art";0;0;2;5.5
"jacques villeglé";0;0;32;5.125;0;0;1;6;0;0;1;6
"lucien ghomri";0;0;2;3
"galerie art jingle";0;0;3;3.6666666666667
"agam artiste";0;0;1;11;0;0;1;11
lippmann;0;0;1;48
"robert combas peintre";0;0;3;5
"guy boyer";0;0;1;9
"hains raymond";0;0;2;6;0;0;2;6
"nicolas touron";0;0;7;8.4285714285714;0;0;7;8.4285714285714
"barbara stanley";0;0;2;6
"olivier waltman";0;0;2;7;0;0;1;7
moyoshi;0;0;3;4;0;0;2;4
"fabrice hyber";0;0;46;5.4130434782609;0;0;35;5.2857142857143;0;0;10;5.9;0;0;1;5
"joan miro oeuvres";0;0;12;7.75;0;0;2;1;0;0;1;1
"raymond hains oeuvres";0;0;3;5;0;0;2;5
"claude leveque oeuvres";0;0;1;5
"gloss contact";0;0;1;242
"jacques damez";0;0;5;3
"pierre bernard artist";0;0;1;7
"antonio seguí";0;0;1;7
"dumont marcel";0;0;1;4
"pub oeuvre d'art";0;0;1;8
"mensing artistes";0;0;20;6.8
fourbe;0;0;1;171;0;0;1;171
"buffet le peintre";0;0;1;6;0;0;1;6
"dan hillier bio";0;0;1;10;0;0;1;10
"virginia benedicto";0;0;3;9;0;0;3;9
"galerie garnier delaporte";0;0;1;3;0;0;1;3
"enrico meme";0;0;1;48;0;0;1;48
"richard orlinski tarif";0;0;2;4
nyaba;0;0;1;5;0;0;1;5
"sylvie guilleme";0;0;2;2;0;0;1;1
"jean marie drouet peintre";0;0;1;2;0;0;1;2
"laure krug";0;0;2;5;0;0;1;5
"oeuvres basquiat";0;0;3;8.6666666666667
"herve di rosa";0;0;6;2.8333333333333;0;0;5;3.2;0;0;1;1
"veronique bourgeois";0;0;1;8;0;0;1;8
"eric zambeaux";0;0;1;5;0;0;1;5
"galerie argentic paris";0;0;1;5
"speedy graphito for sale";0;0;1;1
"office du tourisme dinard";0;0;1;10;0;0;1;10
"qui est dubuffet";0;0;1;6
"damien hirst oeuvres";0;0;2;6
"balloon dog";0;0;7;8;0;0;6;6.3333333333333;0;0;1;18
"banksy tags";0;0;1;10
"torrick ablack";0;0;4;5
"murielle vanhove";0;0;8;2.375;0;0;6;2.1666666666667;0;0;1;3;0;0;1;3
"sun hyuk kim";0;0;1;1
"aki kuroda prix";0;0;1;2;0;0;1;2
"no name gallery";0;0;1;2;0;0;1;2
"jace artiste";0;0;2;7;0;0;2;7
"emmanuelle bousquet photographe";0;0;4;2.75
fasianos;0;0;1;9;0;0;1;9
traffik;0;0;1;5
"galerie dart";0;0;3;5.6666666666667;0;0;2;5;0;0;1;7
"françois malingrëy";0;0;1;7
"honegger peintre";0;0;3;2.3333333333333;0;0;1;2
"bonhome blanc";0;0;2;10
layral;0;0;2;4
"galerie riviere faiveley";0;0;1;7
"ionesco eva";0;0;1;211
"mr. brainwash";0;0;1;18;0;0;1;18
"oeuvre d'art moderne";0;0;5;1;0;0;2;1;0;0;3;1
"totem art contemporain";0;0;1;9;0;0;1;9
"jean dubuffet biographie courte";0;0;2;3
"biographie bansky";0;0;2;10;0;0;1;10
"gérard alary";0;0;1;4;0;0;1;4
"peter lipman";0;0;1;4
"vincent fillon";0;0;5;7.4;0;0;4;7.75;0;0;1;6
fazino;0;0;3;8;0;0;1;10
"peinture dubuffet";0;0;3;4.6666666666667;0;0;1;5;0;0;1;5
lussigny;0;0;1;2;0;0;1;2
"miroir oeuvre d'art";0;0;2;5;0;0;2;5
"füssli le cauchemar";0;0;1;41;0;0;1;41
"johanne 8";0;0;3;4;0;0;3;4
"tableau new york";0;0;2;80.5
"illy contact";0;0;1;126
"close chuck";0;0;1;30
"galerie wagner";0;0;2;6.5
"alain crocq";0;0;1;7;0;0;1;7
"bernard pra";0;0;1;4;0;0;1;4
"art jingle";0;0;2;3.5;0;0;2;3.5
"oeuvre en papier";0;0;2;7
"bouche ouverte";0;0;1;101;0;0;1;101
"yan pei ming";0;0;1;36;0;0;1;36
"pierre cornette de saint cyr";0;0;1;20
"michel le belhomme photographe";0;0;5;3.6
britto;0;0;1;10
scultures;0;0;4;9.75;0;0;2;10
"patrick delaunay";0;0;7;3.2857142857143
"patrick cornillet";0;0;1;3
"willy ronis oeuvres";0;0;1;5
"de mist";0;0;1;8;0;0;1;8
"emilie danchin";0;0;1;9;0;0;1;9
"anne-flore cabanis";0;0;1;10
"cecile desserle peintures";0;0;1;4;0;0;1;4
"art vente";0;0;1;1;0;0;1;1
keymi;0;0;4;6.75;0;0;1;8
"len friedman";0;0;1;440
"inde paysage";0;0;1;29
"catalano artiste";0;0;7;4;0;0;2;4;0;0;4;4
"erro mao";0;0;1;7
balloondog;0;0;3;7.6666666666667;0;0;2;8;0;0;1;7
"annette messager oeuvres";0;0;18;7.2777777777778;0;0;2;7.5
"petit jeune";0;0;1;26;0;0;1;26
"jana & js";0;0;2;6.5;0;0;2;6.5
"eric lapierre";0;0;2;5.5
"anne et patrick poirier oeuvres";0;0;1;4
nowart;0;0;10;3.3;0;0;1;3
"superman warhol";0;0;1;10
"galerie art moderne";0;0;2;4;0;0;1;3;0;0;1;5
"bambi puerto de la cruz";0;0;1;187;0;0;1;187
"peter lippmann wikipedia";0;0;2;9
"art & fun";0;0;1;10;0;0;1;10
"murakami peintre";0;0;1;3;0;0;1;3
"bansky oeuvres";0;0;1;9
"capton peinture";0;0;1;4
truc-anh;0;0;1;2
"peinture animaux";0;0;2;35.5
"villéglé oeuvres";0;0;1;1
"rent a car";0;0;1;332
"christophe barthes de ruyter";0;0;1;5
carybe;0;0;4;10.75;0;0;1;10;0;0;3;11
speedygraphito;0;0;16;4.4375;0;0;16;4.4375
saudek;0;0;5;9;0;0;5;9
"art moderne sculpture";0;0;1;2;0;0;1;2
"henry lamy";0;0;4;3.5
"phillipe pasqua";0;0;1;4
"jr oeuvres";0;0;1;5;0;0;1;5
banq;0;0;1;58;0;0;1;58
"roberto battistini";0;0;4;3
"alison wilding";0;0;1;10;0;0;1;10
"peintre milo";0;0;2;6;0;0;2;6
"hamburger pop";0;0;3;8;0;0;3;8
"galerie 3 cerises sur une étagère";0;0;1;4
"yan morvan";0;0;2;14.5
"alexandre durand";0;0;2;10
"norman rockwell œuvres d'art";0;0;1;10;0;0;1;10
"frédéric deprun";0;0;2;4
"cortade art montauban";0;0;1;11;0;0;1;11
"danemark chat";0;0;1;427
"leslie delamarre";0;0;1;4
"charles giulioli";0;0;1;18;0;0;1;18
"galerie olivier waltman";0;0;4;4.5;0;0;1;5
"remi delaplace";0;0;1;2
"hyber fabrice";0;0;2;8;0;0;1;9
"monsieur chat street art";0;0;2;5;0;0;1;5;0;0;1;5
"francoise petrovitch";0;0;9;7.7777777777778;0;0;2;8
"ernest pignon ernest oeuvre";0;0;4;7;0;0;1;7
"3 sardines saint etienne";0;0;1;54
"oeuvre d'art en chocolat";0;0;1;6
"sylvia katuszewski";0;0;1;2
"tom wesselmann biographie";0;0;1;9
"photo art contemporain";0;0;6;2
"andy warhol oeuvres";0;0;1;36
"la publicité et l'art";0;0;1;10;0;0;1;10
shuck2;0;0;2;7
"peinture torse homme";0;0;1;8;0;0;1;8
"fabrice hybert artiste";0;0;1;5
brugier;0;0;4;8.25;0;0;2;8;0;0;2;8.5
ruthy;0;0;1;9;0;0;1;9
"roux oeuvre maitrise";0;0;1;55;0;0;1;55
wesselmann;0;0;11;10
"john levee";0;0;4;5;0;0;1;6
"marilyn andy warhol";0;0;1;40
"laetitia x";0;0;4;20.5;0;0;2;20;0;0;1;19;0;0;1;23
"antoine geiger";0;0;11;5;0;0;9;5;0;0;2;5
"sculpture crocodile rouge";0;0;1;2
"oeuvres art";0;0;1;3;0;0;1;3
"orlan oeuvre";0;0;5;4.4;0;0;3;4.3333333333333
"thomas bossard peintre";0;0;1;3
"violon arman";0;0;1;10
"photo contemporaine art";0;0;2;2;0;0;1;2
"jacques de la villeglé";0;0;3;6.6666666666667
"prix sculpture";0;0;1;1;0;0;1;1
"raimond hains";0;0;11;6
"mini sculptures";0;0;2;3.5
"wesselman tom";0;0;1;4;0;0;1;4
"9e concept";0;0;3;7
"pascale barret";0;0;1;9;0;0;1;9
"artiste arabe nu";0;0;1;30
"bertrand meunier";0;0;5;12.4;0;0;4;14.5;0;0;1;4
hains;0;0;5;8.4;0;0;1;10
"lawrence wiener";0;0;2;7.5
"charlotte champion";0;0;4;2.25;0;0;3;2;0;0;1;3
"elsa jean follando";0;0;1;4;0;0;1;4
"sonia delaunay oeuvres";0;0;1;14
"vente bouddha";0;0;3;40.333333333333
"jerome mesnager prix";0;0;1;1
"herve telemaque";0;0;3;4.3333333333333;0;0;2;4;0;0;1;5
"jean luc beaufils";0;0;1;1;0;0;1;1
"biographie jeff koons";0;0;5;8.8;0;0;4;9
"flower puppy koons";0;0;1;10
"continuum tabouret vente";0;0;1;19;0;0;1;19
"robert mapplethorpe oeuvres";0;0;2;5
"yz yseult";0;0;1;6
"galerie en ligne";0;0;1;2;0;0;1;2
"clément cogitore";0;0;1;13;0;0;1;13
"oeuvre erro";0;0;1;8
"galerie bruxelles art contemporain";0;0;2;8;0;0;2;8
"clarisse rebotier";0;0;4;5;0;0;2;5;0;0;2;5
"jonone peintre";0;0;3;1.6666666666667;0;0;2;1;0;0;1;3
"young russell";0;0;1;43
"victoria mann";0;0;7;8.7142857142857;0;0;1;7
"karl andre";0;0;1;6;0;0;1;6
"jeunes artistes contemporains";0;0;5;7.6;0;0;1;2
"galerie claire corcia";0;0;4;6
"sumi e";0;0;1;44
kizu;0;0;1;40
"martine poppe";0;0;2;6
"vente peinture";0;0;2;40
"artiste jonone";0;0;4;1;0;0;4;1
"gigli ormond";0;0;1;19;0;0;1;19
"jean hélion";0;0;4;6
"dubuffet peintre";0;0;4;4;0;0;2;3.5;0;0;1;4;0;0;1;5
"wesselmann oeuvres";0;0;2;5;0;0;1;5
"peinture de gainsbourg";0;0;1;35;0;0;1;35
"grands noms";0;0;1;39;0;0;1;39
"peinture julien";0;0;3;20.666666666667;0;0;2;22;0;0;1;18
"bernard buffet";0;0;88;9;0;0;25;9.8;0;0;11;9.0909090909091
"galerie collégiale";0;0;1;3
"yves gellie";0;0;6;8.6666666666667;0;0;5;9;0;0;1;7
trichom;0;0;1;10;0;0;1;10
"britto love";0;0;1;10;0;0;1;10
"acheter peinture biot";0;0;1;48
"+""madame bovary"" -""trailer"" -""bande annonce"" -""extrait"" -""mp3"" -""musique"" -""ps3"" -""ps4"" -""xbox*"" -""wii*"" -""psp*"" -""sample"" -""chabrol"" -""flaubert"" -""100.romans.d.auteurs.french.pdf"" -""1949"" -""1969"" -""1933"" -""1991"" -""2000"" -""1934""";0;0;3;109
mitrofanoff;0;0;2;9.5;0;0;2;9.5
"inception gallery";0;0;4;8;0;0;4;8
"victoria klotz";0;0;1;3
"musées d'art à chattanooga";0;0;3;47
"dubuffet oeuvres";0;0;27;4.4814814814815;0;0;23;4.3913043478261;0;0;3;5;0;0;1;5
"norman rockwell oeuvres";0;0;1;22
"ivan messac";0;0;11;4.5454545454545;0;0;1;1
"oeuvre d'ernest pignon ernest";0;0;1;6
wesselman;0;0;3;10;0;0;3;10
"lucien gautier";0;0;1;350
"césar baldaccini ses oeuvres";0;0;3;4
"stephanie slama";0;0;1;5;0;0;1;5
"richard di rosa";0;0;8;8.875;0;0;6;11;0;0;1;4;0;0;1;1
"peintre peter";0;0;1;4;0;0;1;4
"jean paul barray";0;0;1;6;0;0;1;6
"miro sculpteur";0;0;1;15;0;0;1;15
"isabelle chapuis";0;0;4;8.5;0;0;4;8.5
nojoma;0;0;1;10;0;0;1;10
"galerie des petits carreaux";0;0;1;2
raboniak;0;0;3;9;0;0;3;9
"photo art bdsm";0;0;1;28;0;0;1;28
"moz artiste";0;0;2;1.5;0;0;1;1;0;0;1;2
"sandrine paumelle";0;0;1;5
"alain lame";0;0;1;275
"julie ferreira";0;0;1;325;0;0;1;325
"liu bolin biographie";0;0;5;2;0;0;2;2
"solène ballesta";0;0;4;3.75
"achat art en ligne";0;0;3;1
"clémence veilhan";0;0;1;8
"oeuvre miro";0;0;5;5;0;0;2;11;0;0;3;1
"adrien leguay";0;0;1;4
"galerie audet";0;0;2;10
"lisbeth delisle";0;0;1;5;0;0;1;5
"keith haring crack down";0;0;4;3
mrsex;0;0;9;13.888888888889;0;0;5;15.8;0;0;4;11.5
"didier triglia";0;0;5;4.6
"pochoir miss tic";0;0;1;6;0;0;1;6
malysse;0;0;5;9.4;0;0;4;9;0;0;1;11
"anne messager";0;0;1;9;0;0;1;9
carbonel;0;0;1;44
"marie houset";0;0;1;3
"déesse statue";0;0;1;4;0;0;1;4
"labyrinthe oeuvre d'art";0;0;1;10
"carles valverde";0;0;1;2;0;0;1;2
"jean dubuffet peintre";0;0;2;4
"aquagirl occasion";0;0;1;15
zooportrait;0;0;2;5;0;0;2;5
"thierry feuz artiste peintre";0;0;1;6;0;0;1;6
"ben vautier oeuvres";0;0;6;7.8333333333333;0;0;1;7;0;0;1;8
"oeuvre d'art du 21eme siecle";0;0;2;5.5;0;0;1;5;0;0;1;6
villéglé;0;0;2;5
roch3;0;0;1;6
"photos d art femmes";0;0;1;17
treit;0;0;1;2
"vente de sculpture";0;0;1;1
"bernar venet oeuvres";0;0;1;4
"apple or";0;0;4;6;0;0;3;7;0;0;1;3
"photo d art";0;0;1;43
"le lettrisme";0;0;1;174;0;0;1;174
"mark jenkins";0;0;24;8.4583333333333;0;0;15;7.8666666666667;0;0;7;9.5714285714286;0;0;2;9
"uche okpa iroha";0;0;1;1;0;0;1;1
sculpture;0;0;50;10.3;0;0;27;9.4444444444444;0;0;3;10
"gilles aillaud oeuvres";0;0;4;3.25;0;0;3;4;0;0;1;1
"philippe pasqua prix";0;0;3;1;0;0;2;1;0;0;1;1
"langlands & bell";0;0;1;252;0;0;1;252
"mes coloriages";0;0;2;31
"banksy oeuvre";0;0;23;7.7391304347826;0;0;16;7.4375;0;0;5;8.4;0;0;2;8.5
"jonone tableau";0;0;1;1;0;0;1;1
"sculpture murakami";0;0;1;4;0;0;1;4
"galerie art france";0;0;1;25;0;0;1;25
lachize;0;0;2;8.5;0;0;1;6;0;0;1;11
"uche okpa-iroha";0;0;1;1
ommer;0;0;1;6;0;0;1;6
"j.r artiste";0;0;1;11
"mesnager jerome";0;0;6;3;0;0;3;4
"alexis gorodine";0;0;2;6;0;0;2;6
"patrick dumas facebook";0;0;1;12;0;0;1;12
"the art of nick walker";0;0;1;7;0;0;1;7
"tao chambery";0;0;1;13
"photos de portraits de femmes";0;0;4;1
"juliette schwartz";0;0;3;3;0;0;2;4
"tableau artiste contemporain";0;0;2;4
"luc chopplet";0;0;1;1
"guy mansuy";0;0;1;2
"jef aérosol";0;0;2;4
"philippe croq";0;0;1;2
"galerie roy sfeir";0;0;2;4
"isabelle bonzom";0;0;1;4;0;0;1;4
"france beaudoin nue";0;0;1;130
"adeline spengler";0;0;2;4
"andréas gursky";0;0;3;14
"tableau godon";0;0;1;3;0;0;1;3
"alexandra blanc nue";0;0;1;48;0;0;1;48
"sylvain lang";0;0;3;5
"elodie gregoire";0;0;4;8;0;0;1;7
"oeuvre keith haring";0;0;7;7.4285714285714
"nudes galerie";0;0;1;103;0;0;1;103
"alain rivière lecoeur";0;0;1;2
"miro oeuvres";0;0;8;6;0;0;4;11;0;0;2;1;0;0;2;1
"molin corvo gallery";0;0;1;5
"julien airault peintre";0;0;1;2;0;0;1;2
"bertrand desprez";0;0;7;7
galeries;0;0;9;8;0;0;2;8.5
"marc cerrone";0;0;2;20.5
sculputure;0;0;1;10;0;0;1;10
"vincent morisse biographie";0;0;1;36
"bolin liu";0;0;1;10
"britto romero";0;0;1;14
"bertrand grégoire";0;0;1;6
"parreno philippe";0;0;1;13
"ipso france";0;0;2;28;0;0;2;28
"monsieur le chat";0;0;11;6.2727272727273;0;0;3;5;0;0;7;6.8571428571429;0;0;1;6
"the flat massimo carasi";0;0;1;6
"francois morellet";0;0;16;7.5;0;0;3;8;0;0;2;8
"galerie d'art contemporain en ligne";0;0;3;1;0;0;1;1
"pierre de fenoyl photographe";0;0;2;10.5;0;0;1;10;0;0;1;11
"sculpture art contemporain";0;0;4;2
schoony;0;0;1;15
"anne vignal";0;0;1;6;0;0;1;6
"basquiat sculpture";0;0;3;5;0;0;3;5
"jonone artist";0;0;1;4;0;0;1;4
"art care";0;0;1;4;0;0;1;4
"damien hirst exposition";0;0;1;48;0;0;1;48
"jeanne susplugas";0;0;5;4.4
"james coignard";0;0;2;53
leinwand;0;0;3;40;0;0;3;40
"gianni colosimo";0;0;1;1
"oeuvre d'art ombre et lumière";0;0;1;10;0;0;1;10
"murakami sculpture";0;0;1;2
"hopkins peintre";0;0;1;1;0;0;1;1
camen;0;0;2;8;0;0;2;8
mpah;0;0;1;1;0;0;1;1
"roch vandromme";0;0;2;4;0;0;1;4;0;0;1;4
"césar expansion";0;0;1;7
seestudio;0;0;2;10
"compression cesar";0;0;2;19.5
"flexo zed";0;0;1;9;0;0;1;9
"cornette de saint cyr";0;0;1;17;0;0;1;17
benarosh;0;0;1;9;0;0;1;9
toroptsov;0;0;1;6
"hoffer peintre";0;0;3;3;0;0;3;3
"benjamin carbonne peintre";0;0;2;1;0;0;2;1
"banksy achat";0;0;3;2
"mr chat graffiti";0;0;1;10;0;0;1;10
"bagage homme blanc";0;0;1;22;0;0;1;22
"eduardo arroyo";0;0;24;7.4583333333333;0;0;2;8;0;0;1;9
"my an";0;0;2;5.5
"toma l";0;0;7;4.2857142857143;0;0;5;4.2
"john kacere";0;0;1;11;0;0;1;11
"wes wilson portrait";0;0;1;8;0;0;1;8
"olivier leroy facebook";0;0;1;21;0;0;1;21
benettou;0;0;1;2;0;0;1;2
"stanley greene";0;0;4;29.5
"raphael denis";0;0;6;4.5;0;0;6;4.5
"bernard chauveau editeur";0;0;1;7
"elizabeth cummings artist";0;0;1;9
"joseph chiaramonte";0;0;1;5;0;0;1;5
"la chapelle photographe";0;0;4;9.75;0;0;2;9.5
"singier gustave";0;0;1;7
"petit rouge";0;0;1;47
"silvia calmejane";0;0;2;2;0;0;2;2
bansky;0;0;1;47
"achat sculpture";0;0;2;1;0;0;1;1;0;0;1;1
"blue panorama";0;0;1;84
"caroline poulet";0;0;3;6.6666666666667;0;0;2;7.5;0;0;1;5
"miss tic paris";0;0;1;9;0;0;1;9
nomilktoday;0;0;1;64
brusadelli;0;0;2;8.5
combass;0;0;10;11.1;0;0;9;11.333333333333
"mr le chat";0;0;4;5.5;0;0;2;6
"edouardo arroyo";0;0;1;7
"fazzino prix";0;0;1;9
"annabelle tattu";0;0;1;2
"mahé boissel";0;0;1;2;0;0;1;2
"erro biographie";0;0;3;8.3333333333333;0;0;1;8
"brunet anne";0;0;1;7
maohuang;0;0;1;2
"gerard alary";0;0;1;5;0;0;1;5
kraftwerk;0;0;2;368
"os gêmeos";0;0;1;43
"jacques villeglé biographie courte";0;0;3;2;0;0;3;2
"oeuvres de dubuffet";0;0;1;5;0;0;1;5
laveri;0;0;1;8
"jacek hazuka";0;0;2;4
"gérard boudon";0;0;3;5;0;0;3;5
"laurent allory";0;0;1;1;0;0;1;1
"tilt contact";0;0;1;240
voyeur;0;0;3;241.66666666667;0;0;3;241.66666666667
"arnaud rabier nowart";0;0;1;9
"pascale lander";0;0;2;3;0;0;2;3
"cali rezo";0;0;2;8
"flower puppy";0;0;1;10
"jacques villeglé affiches lacérées";0;0;5;6.6;0;0;5;6.6
"oeuvres de miro";0;0;5;9
"jan lisman";0;0;1;2
"mapplethorpe robert";0;0;1;22
henriksen;0;0;1;9;0;0;1;9
"matisse jazz";0;0;1;19;0;0;1;19
"oeuvre de miro";0;0;6;7.6666666666667;0;0;2;1
"vente mundos";0;0;1;2;0;0;1;2
"terra infirma";0;0;1;8
"robert longo oeuvres";0;0;1;8;0;0;1;8
"achat d oeuvre d art";0;0;2;1
"bertrand noël";0;0;2;2
"robert zimmerman";0;0;2;46.5;0;0;2;46.5
"peter blake oeuvres";0;0;2;4
"oeuvres de sonia delaunay";0;0;2;13
"oswaldo guayasamin oeuvres";0;0;1;3
"miro sculpture";0;0;1;10;0;0;1;10
cedrix;0;0;1;7;0;0;1;7
"nathan chantob";0;0;4;1.75;0;0;1;1;0;0;1;2
"robe longue fille";0;0;1;48;0;0;1;48
"jean luc lacroix";0;0;4;1;0;0;2;1
lebelhomme;0;0;1;3;0;0;1;3
horkan;0;0;1;8
naked;0;0;2;264;0;0;2;264
"roxane stroobant";0;0;3;5.3333333333333
"vincent dufresne";0;0;1;8;0;0;1;8
"galerie carole kvasnevski";0;0;1;5
jakè;0;0;3;3.6666666666667;0;0;1;2
"correia antoine";0;0;1;4
"dennis nona";0;0;1;10
"kessler contact";0;0;1;409
"tableau de keith haring";0;0;4;9.5;0;0;1;10
"andy warhol superman";0;0;2;7.5;0;0;1;8;0;0;1;7
"colette hyvrard";0;0;3;10;0;0;2;10
"nadine vergues";0;0;1;8
baltzer;0;0;1;35;0;0;1;35
"oeuvre d'art originale";0;0;3;1.6666666666667;0;0;3;1.6666666666667
"solene ballesta";0;0;2;4.5;0;0;2;4.5
"franck chambrun";0;0;4;5.75;0;0;1;7
"art galerie en ligne";0;0;1;1;0;0;1;1
"jean georges inca";0;0;1;2;0;0;1;2
lemmers;0;0;1;6;0;0;1;6
"jeff aerosol";0;0;6;4.5;0;0;6;4.5
"laurence dreyfus";0;0;12;8.3333333333333;0;0;3;9;0;0;1;9
youmin;0;0;1;9;0;0;1;9
"stephane jacob";0;0;1;11;0;0;1;11
"miss tik";0;0;1;5
"pascaline marre";0;0;1;9
"kim de molenaer";0;0;1;4
"les oiseaux de braque";0;0;1;27
"miss spiderman";0;0;1;10
"remy pagart";0;0;1;3
"philippe gronon";0;0;1;16;0;0;1;16
"murakami takashi";0;0;1;38
destarac;0;0;1;3
"takagi yuriko";0;0;1;9
"oeuvre d'art geometrique";0;0;1;26;0;0;1;26
"oeuvre art";0;0;5;2.4
"debusschere christoff";0;0;1;7
"aboudia peintre ivoirien";0;0;2;4;0;0;2;4
"carole a";0;0;1;10
"séverine bernard";0;0;1;7
"khawater 1";0;0;2;10
"gérard deschamps";0;0;1;266
"boccara design";0;0;1;5
clerc;0;0;1;300
"fabrice hyber artiste";0;0;1;5;0;0;1;5
mr.dob;0;0;2;8;0;0;2;8
"boccara tapis";0;0;1;15;0;0;1;15
combasse;0;0;1;6;0;0;1;6
"acheter de l art en ligne";0;0;1;1;0;0;1;1
"oeuvres de dali";0;0;1;22
"mr chat paris";0;0;1;10;0;0;1;10
"longo robert";0;0;2;28
"vente d'oeuvres d'art";0;0;1;1
"jean dubuffet oeuvres d'art";0;0;1;5
"florence d'elle photographe";0;0;1;8;0;0;1;8
"x avec les animaux";0;0;1;150
yelan;0;0;3;8.3333333333333;0;0;1;9
"romeo brito";0;0;1;9
"francois melloul";0;0;2;2;0;0;2;2
"army contact";0;0;1;246;0;0;1;246
"david sitbon";0;0;3;4
"schoeller martin";0;0;1;24
yahiaoui;0;0;2;42
"buffet peintre";0;0;21;7.2380952380952;0;0;9;7.7777777777778
"bertrand alain";0;0;1;36
"galerie d artiste";0;0;1;5
"nicolas jousse";0;0;1;2;0;0;1;2
"éva jospin";0;0;1;10;0;0;1;10
"ron english";0;0;15;4.7333333333333;0;0;5;5;0;0;3;5.3333333333333
"anri sala";0;0;2;50;0;0;2;50
"vente tableau contemporain";0;0;6;2;0;0;4;2;0;0;2;2
"brisson peinture";0;0;1;38;0;0;1;38
"schott paris";0;0;1;48;0;0;1;48
"etienne cail";0;0;4;1;0;0;2;1
"artphilein foundation";0;0;1;7
"site de vente de tableaux contemporains";0;0;1;2;0;0;1;2
"banksy acheter";0;0;5;2;0;0;2;2;0;0;3;2
"leo galamez";0;0;4;2
"yazid oulab artiste";0;0;1;3;0;0;1;3
"sébastien bayet";0;0;2;1;0;0;2;1
"fock art";0;0;1;25
"petra wunderlich";0;0;1;2
"julien durix";0;0;13;1.5384615384615;0;0;2;1;0;0;2;1
"john one peintre";0;0;3;2;0;0;3;2
"willy ronis le petit parisien";0;0;5;1;0;0;5;1
"damien hirst biographie";0;0;1;7
"sculpture déesse";0;0;2;4;0;0;1;4
dubart;0;0;2;6.5
"photographie art";0;0;2;36;0;0;2;36
"mambo artiste";0;0;1;7;0;0;1;7
"emma levine";0;0;1;5;0;0;1;5
"lucky strike keith haring";0;0;1;4;0;0;1;4
"sculptures and art";0;0;1;9;0;0;1;9
"gilles de beauchene";0;0;2;7.5;0;0;2;7.5
viallat;0;0;2;36.5
dagada;0;0;2;4
"les soeurs chevalme";0;0;2;5
"gerard schlosser";0;0;7;4.5714285714286;0;0;5;4.4;0;0;2;5
a-one;0;0;1;8;0;0;1;8
"baloon dogs";0;0;1;10;0;0;1;10
"li fang";0;0;2;15;0;0;2;15
"vente d'art";0;0;1;1
"gerstein fisher";0;0;1;193
"oeuvre d'art drole";0;0;1;5;0;0;1;5
vaute;0;0;1;10;0;0;1;10
"peinture monochrome noir";0;0;1;7;0;0;1;7
"office tourisme dinard";0;0;1;11
triglia;0;0;7;5.5714285714286;0;0;1;6
"oeuvres d'ernest pignon ernest";0;0;4;5.5;0;0;3;5.3333333333333;0;0;1;6
"eric michel";0;0;1;38
"cortade art";0;0;3;3
"marc gerenton";0;0;1;3
noart;0;0;2;10;0;0;2;10
"galleri gkm";0;0;1;2
jr?;0;0;1;12
"tilt street art";0;0;1;5;0;0;1;5
"clothilde lasserre";0;0;1;2;0;0;1;2
"galerie bettina";0;0;2;5.5;0;0;2;5.5
feipel;0;0;1;19;0;0;1;19
"idées série";0;0;1;6
"maison dauphine";0;0;2;14.5;0;0;2;14.5
dorval;0;0;1;8;0;0;1;8
"jean-maxime corneille";0;0;1;111
"philippe hiquily";0;0;5;6;0;0;1;7
banksi;0;0;1;40
"photographie art moderne";0;0;2;4;0;0;2;4
"isabelle espinoza";0;0;1;22
"takashi murakami paris";0;0;1;7
"gautier stephane";0;0;1;9;0;0;1;9
"michael bastow";0;0;2;6.5;0;0;1;6;0;0;1;7
"marcus egli";0;0;3;7;0;0;2;7
"bert stern";0;0;1;24;0;0;1;24
"murakami oeuvre";0;0;2;3;0;0;1;2;0;0;1;4
"pierre francois grimaldi";0;0;3;2.3333333333333;0;0;1;3
"zao wou ki oeuvres";0;0;2;19.5;0;0;2;19.5
"massimo vitali photographer";0;0;1;6;0;0;1;6
"déesse art";0;0;1;4
"sébastien bayet artiste peintre";0;0;2;1;0;0;2;1
fubiz;0;0;6;13.333333333333;0;0;6;13.333333333333
moriette;0;0;1;8;0;0;1;8
"tableau buffet";0;0;3;9;0;0;3;9
"bernard pras wiki";0;0;2;6.5;0;0;1;9
"maya hayuk";0;0;6;8.1666666666667;0;0;2;7.5;0;0;4;8.5
"eric de ville";0;0;4;5.5;0;0;1;4
"tableau romero britto";0;0;3;4.6666666666667;0;0;3;4.6666666666667
"thomas müller";0;0;4;17.25
"ours orlinski";0;0;1;7;0;0;1;7
"gérard rancinan photos";0;0;4;6;0;0;2;6;0;0;2;6
"jonone artiste";0;0;1;1
"julien raynaud artiste";0;0;3;2;0;0;1;2
fulcrand;0;0;5;2.4;0;0;2;3
"keith haring red-yellow-blue no.15";0;0;2;9;0;0;2;9
"capton peintre";0;0;1;4;0;0;1;4
"galerie ricci menton";0;0;1;4;0;0;1;4
"progress gallery";0;0;2;6
"m chat";0;0;19;8.0526315789474;0;0;3;8.3333333333333
"oxana x";0;0;1;10
"mr brainwash art";0;0;1;6;0;0;1;6
"michelle maurin";0;0;1;6;0;0;1;6
"roy lichtenstein biographie";0;0;1;33
"leonardo cremonini oeuvres";0;0;1;8;0;0;1;8
"collectionner l'art contemporain";0;0;1;44
"acheter art en ligne";0;0;1;1
"photomontage artiste contemporain";0;0;2;3
"oeuvres de keith haring";0;0;8;7;0;0;7;6.8571428571429;0;0;1;8
"jospin eva";0;0;2;10;0;0;2;10
"annette messager oeuvre";0;0;2;7;0;0;1;7;0;0;1;7
"the dude company";0;0;1;2
"jeff koons split rocker vase for sale";0;0;1;9;0;0;1;9
"stephane ducatteau";0;0;2;7
"basquiat untitled head";0;0;1;6;0;0;1;6
bremermann;0;0;1;8
"mr brainwash love is the answer";0;0;1;7
"anne valerie dupond";0;0;3;10;0;0;3;10
artyou;0;0;1;4
"orlan sculpture";0;0;1;10;0;0;1;10
"m chat street art";0;0;1;5
"andreas gursky";0;0;1;32
"cruz diez";0;0;5;9.8;0;0;3;9.6666666666667
streichenberger;0;0;3;8;0;0;1;8
"fine contact";0;0;1;641
"elisabeth frering";0;0;3;6.3333333333333;0;0;2;6;0;0;1;7
"claude rodriguez";0;0;1;17
"oeuvre monochrome";0;0;4;9.25;0;0;2;9;0;0;2;9.5
"jean françois rauzier";0;0;5;7.4;0;0;1;8
gzstore;0;0;3;2.6666666666667;0;0;1;3
nickwalker;0;0;1;3;0;0;1;3
"cesar artiste contemporain";0;0;1;4
"priska lorane";0;0;3;4;0;0;3;4
"bar noma";0;0;1;21
"jean michel basquiat in italian";0;0;10;10.2;0;0;2;11
"aurore de sousa";0;0;2;6;0;0;1;6
"philippe weisbecker";0;0;1;10
m-chat;0;0;1;5
"christine mathieu";0;0;1;17
"de belie";0;0;1;5
"sandro giordano in extremis";0;0;3;7;0;0;1;7;0;0;2;7
"combasse peintre";0;0;1;3;0;0;1;3
ideal-medium.com;0;0;1;29
"shepard fairey œuvres d'art";0;0;2;3
"florence d'elle";0;0;7;2;0;0;6;2;0;0;1;2
"obey shepard fairey biographie";0;0;1;4;0;0;1;4
"guillaume duprey";0;0;1;5;0;0;1;6
"a nous paris";0;0;1;41
"christian zeimert";0;0;2;4.5
artup;0;0;1;37
"hedva ser";0;0;2;4
"oeuvre d'art en ligne";0;0;2;1
"tony franck";0;0;1;9;0;0;1;11
"oeuvre d'art blanc";0;0;1;10
"david mesguich";0;0;2;8
"oswaldo guayasamin";0;0;5;5.2
"alain rivière";0;0;1;10
"tom wesselmann";0;0;29;3.7931034482759;0;0;4;5;0;0;2;5
"weiner lawrence";0;0;1;11;0;0;2;9
"jeremy royer";0;0;1;10
"pierre pignon";0;0;1;2
"joe winter";0;0;2;7.5
"cyril olanier";0;0;3;1.6666666666667
"galerie d'art contemporain";0;0;8;4.5;0;0;1;6;0;0;1;1
"yuriko takagi";0;0;2;8.5
"oeuvre annette messager";0;0;1;7
"michal batory portrait";0;0;1;7
"on kawara";0;0;1;39
"tal coat";0;0;3;12.333333333333
"oeuvre de jr";0;0;5;5.2;0;0;1;5
"benjamin artiste";0;0;2;8.5
"patrick villas";0;0;7;3.1428571428571
pigeau;0;0;2;9
deplus;0;0;1;30
"pierre emmanuel rastoin";0;0;1;3
"miroir 60 x 30 cm";0;0;1;60
"audoin desforges";0;0;5;6.6;0;0;1;6
"shaka art";0;0;1;22
garrett;0;0;1;235
"street art shop";0;0;1;36
"oeuvres de jeff koons";0;0;1;30
"robert smith the cure";0;0;1;46
"frédéric garnier";0;0;1;26
oksana;0;0;3;33;0;0;1;32
"as i opened fire";0;0;2;3.5
"leveque claude";0;0;1;8
"olivier ame";0;0;1;10
"argentic galerie";0;0;1;6
"bernard chauveau éditeur";0;0;1;6
"reso artiste";0;0;1;4
kikayou;0;0;2;5
"chris morin";0;0;1;3
"orlan œuvres d'art";0;0;2;6;0;0;1;7
"galerie oneiro";0;0;3;2
"poes graffiti";0;0;2;7
"helmut newton photos";0;0;1;47
"oeuvre d'art nu";0;0;1;9
"nathalie de frouville";0;0;1;20
"césar oeuvres";0;0;7;5
"femmes artistes contemporaines";0;0;1;37
"ye xing qian";0;0;1;2
"mimi le clown";0;0;6;7
"guillaume bourquin";0;0;1;4
"christophe ronel";0;0;1;10
dominot;0;0;1;20
"galerie honfleur";0;0;2;36.5
"peinture de bernard buffet";0;0;4;6
"lion skull";0;0;1;10
"schlosser gerard";0;0;1;4
hormoz;0;0;1;24
"liu bolin wikipedia";0;0;1;5;0;0;2;5
"oeuvre d'art photographie";0;0;2;1
"fernando costa";0;0;6;5;0;0;6;6.1666666666667;0;0;3;6
"galerie d art en ligne";0;0;2;1;0;0;1;1
"pierre-marie brisson artiste peintre";0;0;1;1
"jin bo";0;0;1;4
"bernard prinz";0;0;1;3
"cecile charron";0;0;1;5
"carl andré oeuvres";0;0;2;5
"jadikan light painting";0;0;1;7
"oeuvre d'art contemporaine pas cher";0;0;1;1
"wols peinture";0;0;1;47
"corps art";0;0;1;3
"jonone street art";0;0;2;3
"beatrice terra";0;0;2;1
"greenwood gallery";0;0;4;10;0;0;1;10
"oeuvre ernest pignon ernest";0;0;1;6;0;0;6;5.5
klasen;0;0;3;2.3333333333333;0;0;2;3
"oeuvre nils udo";0;0;1;7
furbiz;0;0;1;10
"galerie marie vitoux";0;0;1;6
"orlan biographie";0;0;2;6
"composition suprématiste";0;0;2;8
"olivier debré";0;0;2;39
borker;0;0;2;8
"carl andré";0;0;13;6.8461538461538;0;0;6;7
"jean dubuffet œuvres d'art";0;0;11;5;0;0;1;6
"jacques villeglé affiches";0;0;2;5
unbo;0;0;1;7
"jean christophe ballot";0;0;4;6.25;0;0;1;8
"arman violon";0;0;3;6.6666666666667
"jeff aérosol";0;0;1;4
"loup orlinski";0;0;2;7.5
"yz artiste";0;0;2;8
"peintre israelien contemporain";0;0;4;2.5
"galerie urbaine";0;0;4;3.75
"francois morrelet";0;0;2;7
"jeune artiste";0;0;5;8;0;0;1;7
"julien calot";0;0;1;1
"mimi the clown";0;0;1;7
"jean-pierre nadau";0;0;12;1
mchat;0;0;2;9
"isabelle cochereau";0;0;2;8
"francky boy";0;0;2;4.5;0;0;1;5
"la micro galerie";0;0;5;6.6
"planete srie";0;0;2;5
"bonnefoi christian";0;0;1;16
"miss tic pochoir";0;0;1;5
"galerie nuances et lumieres";0;0;1;2
"benoit lemercier";0;0;2;10
artper;0;0;1;1
anousparis;0;0;1;28
"thibault brunet";0;0;8;7.5;0;0;2;8;0;0;1;8
shup;0;0;2;6.5
"valérie marty";0;0;1;8
"francine van hove";0;0;14;10;0;0;2;10
"bill bryson contact";0;0;1;340
diamantaire;0;0;2;46
"césar baldaccini";0;0;17;6.4705882352941;0;0;2;8;0;0;4;6.25
"olivier borst";0;0;3;4.6666666666667
"oeuvre art banksy";0;0;1;10
"banksy billet";0;0;1;1
"stephane gautier";0;0;6;3.5;0;0;5;3.8;0;0;3;3.3333333333333
"andrew hwang";0;0;1;323
"tao zuo";0;0;1;1;0;0;1;2
"olivier legan";0;0;3;2
"jean michel basque";0;0;1;143
besher;0;0;3;2.6666666666667;0;0;2;3.5
"petit prix";0;0;1;132
"vente art contemporain";0;0;2;1
"sandy skoglun";0;0;1;8
"gerard titus carmel";0;0;6;7;0;0;2;6
"m. chat";0;0;4;7.5;0;0;1;8
"jacque villegle";0;0;2;3
pixart;0;0;4;17.75
"oeuvres haring";0;0;4;8
"galerie rx";0;0;4;6
"henni alftan";0;0;1;6
"maryl le berre";0;0;2;7.5
"alex guofeng cao";0;0;1;4
"sculpture monumentale biot";0;0;1;12
"jean-luc lacroix";0;0;1;9
"ladislas kijno";0;0;1;44
"erró oeuvres";0;0;3;6
"yutao ge";0;0;1;2
"beetles and huxley";0;0;1;7
"peintre combas";0;0;2;4
"michal batory";0;0;4;14.25
joewinter;0;0;1;4
"gautier deblonde";0;0;1;2
"vivian maier";0;0;3;18
"galerie brugier rigail";0;0;12;5.5833333333333;0;0;11;6.5454545454545;0;0;2;6
"gregoire guillemin biographie";0;0;1;3;0;0;1;1
"oksana x";0;0;2;18
"robert mapplethorpe";0;0;1;36
"peinture chat";0;0;1;20
"bernard prass";0;0;3;3
"unique gallery";0;0;4;4
"gregos street art";0;0;3;9.3333333333333
"hank china";0;0;2;3
"frederic prat";0;0;2;7
kijno;0;0;1;33
"nuance et lumiere";0;0;1;2
louiset;0;0;3;7
"gerry cooney boxer";0;0;1;327
"françois houtin";0;0;1;11
shigong;0;0;2;2.5
"baldaccini cesar";0;0;1;6;0;0;1;7
"ox artiste";0;0;1;7
"baldaccini césar";0;0;1;6
"dubuffet peinture";0;0;2;3
"galerie jonone";0;0;1;1
"hotel casa de romero";0;0;1;152
"alejandra eggleton";0;0;1;45
"sandra krasker";0;0;6;4.5
"millésime gallery";0;0;1;5
"jacques lacroix";0;0;7;8.2857142857143;0;0;5;8.8;0;0;1;8
"maja desnuda";0;0;2;48
levalet;0;0;10;5.8;0;0;1;8
"julien cresp";0;0;1;5;0;0;3;5
seaty;0;0;1;10
"césar oeuvre";0;0;1;5
senzatitolo;0;0;1;18
"valerie dupond";0;0;12;9
fassianos;0;0;1;9
"vente art en ligne";0;0;13;1
"alistair taylor young";0;0;3;6.3333333333333
"mister munch";0;0;1;8
chakra;0;0;2;357
"mb factory";0;0;1;7
"sylvie fleury oeuvres";0;0;2;3
"claude closky";0;0;2;5
mantra;0;0;2;389
"xavier giraud";0;0;1;315
"nils udo biographie";0;0;2;3
"murakami art";0;0;1;7;0;0;1;9
"artiste allemande";0;0;1;10
"alex katz peintre";0;0;1;7;0;0;1;7
"laurence weiner";0;0;1;7;0;0;1;8
"venet bernar";0;0;1;20
"les oeuvres de miro";0;0;1;11;0;0;1;1
"isabelle keit";0;0;1;6
"tingting wang";0;0;2;10
"jean claude deutsch";0;0;3;4
"sculpture de césar";0;0;1;8
"limited skateboard";0;0;1;78
"olivier ribardière";0;0;3;4
"melanie peduzzi";0;0;1;2
"nathalie d'henaut";0;0;1;5
"ysl loader";0;0;1;7
denning;0;0;1;10
"artiste contemporain marseille";0;0;1;44;0;0;1;25
"combas robert";0;0;3;3.3333333333333;0;0;2;5;0;0;2;5
warhol;0;0;1;336
"jonvelle les 100 plus belles photos";0;0;2;1
"lisa ballard";0;0;1;8
"ralph gibson";0;0;2;11;0;0;1;10
"georges bru";0;0;2;2
"alain godon";0;0;3;3;0;0;1;1;0;0;2;1
"hermann nitsch performance";0;0;2;6
e-valet;0;0;1;5
"cédrix crespel";0;0;1;4
"karl lagasse";0;0;1;4;0;0;2;4;0;0;2;4
"philippe gourier";0;0;1;7
"tilt toulouse";0;0;1;8
"gastineau massamba";0;0;31;2;0;0;1;2
"franck lundangi";0;0;1;2
"achat oeuvre d'art en ligne";0;0;2;1
mrlolo;0;0;1;3
"jean dubuffet sculpture";0;0;1;9
"dali oeuvres";0;0;1;32
lapinthur;0;0;1;3
"yo marchand";0;0;1;3;0;0;1;4
obey;0;0;2;66
vaubourg;0;0;2;11
"india leire";0;0;1;6
"stéphanie guglielmetti";0;0;1;7
"philippe favier";0;0;8;6
"bernard pras anamorphose";0;0;1;4
"christophe goutal";0;0;1;3
"kuroda aki";0;0;3;4.3333333333333
"durix peintre";0;0;1;4;0;0;1;4
"amelie dubois";0;0;1;42
"jean du buffet";0;0;5;9
"bernard pras oeuvre";0;0;1;2;0;0;3;2
"(""tatoueur""|""tatouage"") (""92"")";0;0;1;257
"gilles verneret";0;0;2;4.5
"maier vivian";0;0;1;15
"peinture art contemporain";0;0;6;3;0;0;2;3;0;0;2;3
"oeuvre braque";0;0;2;33.5
atsper;0;0;2;1
"david ratcliff";0;0;1;8;0;0;1;8
"levy samuel";0;0;1;6
"georges poncet";0;0;1;3
"vincent richeux";0;0;4;4.75;0;0;2;5;0;0;1;5
"cru bourgeois margaux";0;0;1;420
"guy de rougemont";0;0;5;6.2
"david gerstein elegance";0;0;1;52
"nathalie tacheau";0;0;1;6
"jean marie drouet cote";0;0;3;2
"bram paris";0;0;1;96
"crash street art";0;0;1;8
sitbon;0;0;1;58
"alexandre poplavsky";0;0;1;16
"portraits oeuvres d'art portraits";0;0;1;8
"françois poulat";0;0;1;8
"anaïs boudot";0;0;3;4.3333333333333
"christophe art";0;0;1;9
"agnès baillon";0;0;3;4
"vente d'art en ligne";0;0;2;1
"art shopping";0;0;1;41
"odile decq";0;0;1;27
ideelart;0;0;1;3;0;0;1;3
"jean michel basquiat peinture";0;0;1;2
"jm robert";0;0;9;1.5555555555556;0;0;2;1.5
"francoise danel";0;0;1;2;0;0;2;2
"nani champy schott";0;0;2;3
"ren hang";0;0;5;6
"dolores marat";0;0;1;14
"indiana robert";0;0;1;34
"sculpture d'art contemporain";0;0;1;2
"jacques ibert";0;0;3;23.333333333333
"nuances et lumiere";0;0;5;2;0;0;1;3
"michael brack";0;0;1;6
"patrick marin";0;0;2;7;0;0;1;8
"femme et le chien";0;0;1;18
"bram van velde";0;0;3;21
"richard melloul";0;0;1;10
"araki nobuyoshi";0;0;4;31.75
"severine bernard";0;0;1;9
l'anoure;0;0;2;11
dauptain;0;0;3;8.6666666666667;0;0;1;5
"oeuvre d'art monochrome";0;0;1;7
"kiddy citny";0;0;11;6.0909090909091;0;0;4;6;0;0;3;6
moz;0;0;1;28
"francois poulat";0;0;2;8
cammal;0;0;1;3
"""provide a password for the new account in both fields"" alveoles";0;0;1;359
"oeuvre unique";0;0;1;1
"eduardo chillida oeuvres";0;0;1;10
frament;0;0;1;10
"noelle koning";0;0;4;3
"animaux daum";0;0;2;53.5
"atelier morales";0;0;1;3
"gottfried salzmann";0;0;2;5;0;0;1;5
"kongo mac";0;0;1;10
"neon chanel";0;0;2;4
"artiste obey";0;0;2;4
"stéphane gautier";0;0;1;4
"erwann tirilly";0;0;4;4.5
fotofever;0;0;1;16
"envie d'art paris";0;0;1;4
"eric bourguignon";0;0;1;9
"french art";0;0;2;16
"autour de l'auto";0;0;1;9;0;0;1;9
"galerie bayart";0;0;2;6.5
"biographie de erro";0;0;2;7.5
"peinture murale gris dior";0;0;1;46
"mel ramos";0;0;7;3.2857142857143;0;0;4;2;0;0;1;1
"shepard fairey techniques";0;0;1;19
"galerie art contemporain bruxelles";0;0;2;9.5;0;0;1;10
"peinture politique";0;0;1;16
"galerie maison dauphine";0;0;1;5
"alain josseau";0;0;4;3
scuplture;0;0;1;13
"jamie hewlett";0;0;1;28
"la flore nice";0;0;1;176
"alfredo lopez";0;0;4;5;0;0;3;6.6666666666667
"cedrix crespel";0;0;3;4;0;0;1;4
"the french art studio";0;0;20;4.1
"max ernst oeuvres";0;0;1;17
"irina starkova";0;0;1;9
"galerie belgique";0;0;1;3
"combas peintre";0;0;7;3.7142857142857;0;0;3;5;0;0;6;5
"achat oeuvre d'art";0;0;1;1;0;0;2;1
"artistes iraniens";0;0;1;9
"akiza galerie";0;0;1;7
"lucie bennett";0;0;2;9.5
"delphine brochand";0;0;1;1
"van hove peintre";0;0;1;10
"charles fazino";0;0;1;4
"eva jospin biographie";0;0;1;4;0;0;1;4
moneykill;0;0;1;7
"photo d'art contemporain";0;0;2;2
"pauline dufour";0;0;1;5;0;0;6;5
"oeuvre de joan miro";0;0;7;8.4285714285714
"peintre jonone";0;0;1;2;0;0;1;2
"anti street art";0;0;1;3;0;0;1;3
"philippe brosse";0;0;1;4;0;0;1;4
"oeuvre de christian boltanski";0;0;1;7
"ours blanc victor hugo";0;0;1;163
"cellular contact";0;0;1;235
"carlo nason";0;0;1;4
"garage pfäffikon";0;0;1;69
"espace verney carron";0;0;1;9;0;0;1;10
combas;0;0;59;4.8813559322034;0;0;31;6.9032258064516;0;0;6;6.1666666666667
"zhang wei";0;0;3;6
"lucy cheng";0;0;1;340
totomobile;0;0;2;35.5
"stephane gizard";0;0;4;10;0;0;2;10
"cecile desserle";0;0;2;5;0;0;1;5;0;0;1;4
"nathalie deshairs";0;0;1;3
"affiche perrier";0;0;1;21
rabarama;0;0;3;12
"kilian honnart";0;0;1;36
"emmanuel pons";0;0;1;10;0;0;2;7.5
"oeuvre d'art sculpture";0;0;2;5;0;0;2;7
"talon rouge";0;0;2;43.5
"oeuvre culinaire";0;0;1;4
"daniel authouart";0;0;9;8.2222222222222;0;0;2;9;0;0;2;9
"clovis art";0;0;1;4
"photographe gursky";0;0;1;9
scholtès;0;0;1;29
"i belong to you oeuvre d'arts";0;0;1;15
"albane de saint remy";0;0;2;9.5
"anonymous femme";0;0;3;4;0;0;2;4
chichorro;0;0;1;4;0;0;1;4
"mélanie peduzzi";0;0;1;2
"marie flore";0;0;1;335
"carlos cruz diez";0;0;11;8.0909090909091;0;0;2;10
"greg leon guillemin";0;0;6;2;0;0;1;8
"sculpture platre";0;0;2;19.5
"fabienne dumont";0;0;2;271
"oeuvre d'art avec des pommes";0;0;1;2
"cécile durand";0;0;1;10
"eric deville";0;0;1;3
"acheter art contemporain";0;0;2;1
"art contemporain galerie";0;0;2;5
"oeuvre joan miro";0;0;3;11;0;0;1;1
"jérôme mesnager";0;0;3;3
"roberto greco";0;0;1;10
"cesar oeuvre";0;0;3;5.6666666666667
"art sculpture";0;0;4;8;0;0;1;7;0;0;1;8
"galerie dauphine";0;0;1;7
"daniel nadaud";0;0;1;5;0;0;3;5.6666666666667
"daphné navarre";0;0;2;4
"flower puppy jeff koons";0;0;1;5
"envie d'art";0;0;10;3.3;0;0;1;3
"daniella wang";0;0;1;217
"charlotte aleman";0;0;1;3
"peter blake artiste";0;0;6;4;0;0;3;4.3333333333333;0;0;2;5.5
"lorioz peintre prix";0;0;1;7
"cécile desserle";0;0;3;5
"nathan chantob artiste peintre";0;0;3;3
"jean dubuffet oeuvre";0;0;4;5.25
"eckart hahn";0;0;1;3
waylines;0;0;1;8
"david caroll";0;0;1;312
"david lachapelle";0;0;1;16;0;0;1;11
"sandy skoglund oeuvres";0;0;3;4.6666666666667
"obey artiste";0;0;4;3.5
"p38 lightning";0;0;1;98
"poirier art";0;0;3;4
"costume vert";0;0;2;38
jisbar;0;0;3;2.3333333333333
"robert indiana oeuvres";0;0;1;9
"vendre oeuvre d'art";0;0;1;1
"alice lebredonchel";0;0;1;9
allory;0;0;1;8;0;0;1;9
pasqua;0;0;2;37.5
"hirst damien";0;0;1;37
"sculpture sumo";0;0;1;9
"dark vador artwork";0;0;1;5
"raison d'art";0;0;1;5
"less is more art";0;0;1;5;0;0;2;6
"gérard schlosser";0;0;3;4
"composition in blue";0;0;1;10
"galerie argentic";0;0;2;8;0;0;2;8
"peintre wilfred";0;0;2;2;0;0;1;3
"delphine couturier";0;0;2;2;0;0;1;2
"biographie keith haring";0;0;9;10;0;0;3;10
"galerie art en ligne";0;0;10;1;0;0;4;1;0;0;5;1
"pierre alechinsky";0;0;2;60
"james mackeown peintre";0;0;1;3
"leroy winter";0;0;1;9
"du cul x";0;0;1;147
"laetitia giraud";0;0;1;4;0;0;1;4
j.r;0;0;1;11
"hervé télémaque";0;0;10;6;0;0;1;5
chanoir;0;0;6;3.6666666666667;0;0;2;5
"art nue";0;0;1;31
"oleg dou";0;0;8;4.375;0;0;1;9;0;0;1;3
"jambes en l'air";0;0;1;100
"justyna adamczyk";0;0;1;5
"vente art contemporain en ligne";0;0;1;1
truka;0;0;1;8
"philippe favier peintre";0;0;1;14
"amsterdam museum contact";0;0;1;217
"gerstein artiste";0;0;2;2
"christos kalfas";0;0;1;1
"mr sex";0;0;2;21.5
"galerie d'art en ligne";0;0;20;1.05;0;0;6;1;0;0;3;1
"mickey li";0;0;1;1
colomina;0;0;2;4
"nicolas dubreuille";0;0;3;2
cédrix;0;0;1;5
"eduardo chillida art";0;0;1;7
"tableau jeune artiste";0;0;1;9
"artiste orlan";0;0;1;10;0;0;1;10
pechane;0;0;1;5
"artiste jr";0;0;8;10.125;0;0;2;1
capazza;0;0;1;10
"art sur internet";0;0;1;1
"stephane dauthuille";0;0;1;10
"hervé perdriel";0;0;1;6
"martin schoeller";0;0;2;26
"corinne rubens";0;0;1;7
"easy sacha";0;0;10;8.8
"thomas labarthe";0;0;2;4
"spark benjamin";0;0;1;7;0;0;1;7
"jean michel voge photographe";0;0;2;2
"jules dedet";0;0;3;7
"galerie bear";0;0;1;8
"ando haruka";0;0;1;7
"assaf matarasso";0;0;1;5
glasner;0;0;1;412
ducatteau;0;0;1;9;0;0;1;14
frisée;0;0;1;34
"montreux art gallery";0;0;1;9
"espace seven";0;0;1;9
"rafiy okefolahan";0;0;3;1;0;0;1;1
"alex kizu";0;0;1;1
"samuel bacon";0;0;2;7
"antoine correia";0;0;1;4;0;0;1;4;0;0;1;4
"christoff debusschere";0;0;3;6.6666666666667
"galerie loft";0;0;7;6;0;0;1;5
"jonone graffiti";0;0;1;4;0;0;1;4
"bernard buffet peintre";0;0;1;7;0;0;1;8
"germain plouvier";0;0;2;3.5
"adela burdujanu";0;0;3;2
"oeuvre man ray";0;0;3;40
"peintre chat";0;0;2;15.5
"barthes christophe";0;0;1;10
"evelyne postic";0;0;1;5;0;0;1;5
"sandy skoglund";0;0;15;7.2666666666667;0;0;3;8;0;0;1;8
"oeuvre d'art automne";0;0;3;5.3333333333333
"jana js";0;0;1;8;0;0;1;5
"eliane larus";0;0;1;3
"roy sfeir";0;0;3;4
"julien raynaud";0;0;7;3.8571428571429;0;0;1;4
"bloomfield hills mi venus freeze";0;0;1;96
"artiste erro";0;0;5;6.6
pras;0;0;15;5.8
"jean michel basquiat";0;0;1;123
"peter mc lane";0;0;1;3;0;0;2;3
dratwa;0;0;1;9
"figuration libre robert combas";0;0;1;7
"oeuvres de banksy";0;0;15;7.6666666666667;0;0;1;6;0;0;1;8
foure;0;0;3;28.333333333333
"pasqua philippe";0;0;1;5
"sgarra peintre";0;0;1;3
"galerie double s";0;0;1;6;0;0;1;5
"liberty gallery";0;0;1;5
"alain josseau artiste";0;0;1;2
"planete seire";0;0;1;6
"edmée delsol";0;0;1;4;0;0;1;5
"biographie de jeff koons";0;0;3;8.6666666666667
"oeuvres en noir et blanc";0;0;1;9
"pierre gilles bouquet";0;0;1;3
"denis walter";0;0;1;10
"galerie gilbert dufois senlis";0;0;1;8
"laurent roux";0;0;3;20.333333333333
"elias arno";0;0;1;5
"image de miro";0;0;1;1
"arnaud paillard";0;0;2;5;0;0;3;6
marrian;0;0;2;7
derrier;0;0;3;38.333333333333
"george platt lynes";0;0;1;14
"hélion jean";0;0;2;5
"romero britto";0;0;24;10.333333333333;0;0;16;9.6875;0;0;3;10.333333333333
"marie-anne thieffry, sculpteur de carton";0;0;6;4
"armand artiste contemporain";0;0;2;6;0;0;1;5
"galerie d'art en ligne contemporain";0;0;2;1
epry;0;0;1;6
"cecile durand";0;0;1;9
"miguel chevalier oeuvres";0;0;2;5.5
"alain clement";0;0;6;4.8333333333333;0;0;3;5.3333333333333
"galerie mondapart";0;0;10;7.1;0;0;1;8
"philippe pasqua";0;0;23;4.9565217391304;0;0;11;6;0;0;5;5.6
"oeuvre de shepard fairey";0;0;1;2
"chantal porras";0;0;1;2
"bert prins";0;0;1;1
"paris roosendaal";0;0;1;66
"laurence nicola";0;0;1;5
"c'est mieux que rien";0;0;3;9.6666666666667
"raymond hains oeuvre";0;0;1;5
"mr brainwash wall";0;0;4;8.75
"gérard escougnou";0;0;1;2
"chapman jake and dinos";0;0;1;46
"erro artiste";0;0;3;5.3333333333333;0;0;2;5.5
"oeuvre d'art oeil";0;0;2;9
"art geometrique";0;0;1;17
"speedy graphito prix";0;0;2;2
"jean pierre attal";0;0;2;2;0;0;2;6
"galeries art";0;0;2;2.5
artiane;0;0;1;2;0;0;1;4
"galerie de mars";0;0;2;10
"jef aerosol chut";0;0;3;6
"max charvolen artiste";0;0;1;1
"galerie w";0;0;9;4.5555555555556
"renk s";0;0;1;1
"olivia clavel";0;0;1;5;0;0;1;5
eppele;0;0;3;6.6666666666667
graphem;0;0;1;6
"marvin aillaud";0;0;2;3
"musées d'art à asheville";0;0;3;38.666666666667
"oeuvre d'art miroir";0;0;1;8
"fanny dubois";0;0;6;8.5;0;0;2;9.5
"pius fox artist";0;0;1;6
"quentin carnaille";0;0;4;9.75;0;0;1;11
vittoretti;0;0;1;3
"charles guyot";0;0;3;1
"anne brunet";0;0;1;11;0;0;1;6
"femme assise peinture";0;0;1;10
ravagnani;0;0;1;9;0;0;1;9
"romeiro britto";0;0;1;10
"yoshi pop art";0;0;1;4
"li wei";0;0;2;5
"grégoire 'léon' guillemin";0;0;2;2
"street art galerie en ligne";0;0;1;7
"emmanuel flipo";0;0;2;5
"kiki picasso";0;0;4;6;0;0;4;6
"moninot bernard peintre";0;0;1;7
"ben artiste";0;0;4;4.25;0;0;1;4
smael;0;0;1;5;0;0;1;6
"artistes contemporains";0;0;3;10
artop;0;0;1;8;0;0;2;8.5
"moi idéal";0;0;1;36
"bernard venet";0;0;1;9
"jimmy lawlor";0;0;1;5
gouala;0;0;1;9
"planete serie";0;0;6;6.1666666666667;0;0;19;5.2105263157895
"truc anh";0;0;1;2
"christy lee rogers";0;0;2;3
"michael gagnon nude";0;0;1;7
"vinz street art";0;0;1;5
"achat art contemporain";0;0;1;1
"opalka biographie";0;0;1;8;0;0;1;9
"jeunes artistes peintres";0;0;1;10
"mireille porte";0;0;1;9
"combas artiste";0;0;1;4
"marie laure gerard";0;0;1;5
"catherine klein";0;0;1;9
"eric pottier";0;0;1;14
sereirrof;0;0;1;6
"claude leveque";0;0;10;9.9;0;0;1;10
"benjamin carbonne marseille";0;0;1;4
nojnoma;0;0;22;7.8181818181818
"shirley jaffe";0;0;1;5
"abie loy kemarre";0;0;1;8;0;0;1;11
"georgianna robertson";0;0;2;10.5
"takashi murakami oeuvres";0;0;1;3
"wilfred artiste peintre";0;0;1;1
"françois giraudeau";0;0;1;9
"brigitte penicaud";0;0;1;5
"kenza el glaoui";0;0;1;2
"banksy œuvres d-art";0;0;1;8;0;0;1;8
"tapis boccara";0;0;2;10
"lawrence weiner";0;0;2;8
"prix sculpture bruno catalano";0;0;1;7
"aurel artiste";0;0;1;10;0;0;1;10
"site art contemporain";0;0;1;3
"troussier joelle";0;0;1;5
"jerome menager";0;0;2;5
"samhart gallery";0;0;1;6;0;0;2;7.5
"philippe de saint lager";0;0;1;6
"fernando garcia";0;0;2;11
"milo peintre";0;0;1;4
"yann houri";0;0;1;4
"georgiana robertson";0;0;1;10
"stephane olivier";0;0;1;17
sgarra;0;0;1;4
"didier avril";0;0;1;7;0;0;1;1
"francoise pétrovitch";0;0;1;8
"benjamin spark prix";0;0;1;4
"annina roescheisen instagram";0;0;2;9
"armand artiste";0;0;1;5
"e galleries";0;0;5;8.8
"francois malingrey";0;0;1;7
"cecile plaisance";0;0;2;8
"e gallerues";0;0;1;10
"peintre dubuffet";0;0;1;5
"chat peintre";0;0;1;7
"france bruno catalano";0;0;1;8
"sitting kid jef aerosol";0;0;4;7
"oeuvres miro";0;0;1;1
auboiron;0;0;1;11
"agnes dubart";0;0;1;5;0;0;1;5
"luke newton";0;0;2;6;0;0;1;5
cessieux;0;0;1;10
"morellet françois";0;0;1;8
kouka;0;0;12;7.5833333333333
"hanna sidorowicz";0;0;1;9
"oeuvre de bansky";0;0;3;8.3333333333333
"michael aaron williams";0;0;1;8
"drapeau français vente";0;0;1;20
"sculpture bronze contemporain";0;0;1;46
"orlinski prix";0;0;3;6
"qi chien";0;0;1;8
leyto;0;0;1;4
dontzoff;0;0;1;1
"galerie nicolas hugo";0;0;3;5
"l'atlas artiste";0;0;2;7;0;0;2;7
"annette messager biographie";0;0;4;7.75;0;0;3;7.3333333333333
"ecloz rouen";0;0;1;6
"hakim mouhous";0;0;5;10
"mr chat";0;0;21;6.4761904761905;0;0;2;7
"oeuvres de ernest pignon ernest";0;0;2;6.5
"anne guillon";0;0;1;9
ayline;0;0;5;9.4
"louis nicolas darbon";0;0;1;7;0;0;4;7.25
"la peur tableau";0;0;4;9.75
polic;0;0;1;11
"greg leon";0;0;2;7.5
tirilly;0;0;1;12
akader;0;0;1;8
"artistes mexicains";0;0;1;9
"peintre français né à montpellier";0;0;1;77
iemza;0;0;2;4
"joel hubaut";0;0;2;10
"gwen marseille";0;0;1;4
"galerie numero 1";0;0;3;5
"artiste japonaise contemporaine";0;0;1;10
durix;0;0;1;8
tadini;0;0;1;11
"fauteuil peluche";0;0;1;1
"herve lewis";0;0;2;5.5
"virginie barrou planquart";0;0;1;5
"pierre marie brisson";0;0;1;1;0;0;2;1
"nils udo oeuvre";0;0;1;7;0;0;1;7
"oeuvre cube";0;0;1;10
"galerie schwab";0;0;2;5
"philippe heurtaux";0;0;1;3
"ernest pignon ernest oeuvres";0;0;3;7;0;0;3;7
grisor;0;0;2;5.5
"jacques villegle";0;0;4;5
rosa;0;0;1;5
"patrick poirier";0;0;3;5
"orlan artiste";0;0;9;10.444444444444;0;0;2;10.5
"kamel yahiaoui";0;0;3;7
"césar artiste";0;0;1;8
francton;0;0;3;9
"philippe pasqua tete de mort";0;0;2;7
"statue deesse";0;0;1;6
picka;0;0;2;4.5
"jean dubuffet peinture";0;0;1;6;0;0;1;5
"patrick dumas";0;0;1;11;0;0;1;10
"dubuffet peintures";0;0;2;6
"cesar artiste";0;0;5;8.2;0;0;1;8
"achat art";0;0;1;1
"sam szafran";0;0;3;11
"rakel wajnberg";0;0;2;1
"eduardo kac biographie";0;0;1;7
picorette;0;0;1;46
"galerie photo d'art en ligne";0;0;2;4
"etiye dimma poulsen";0;0;1;4;0;0;1;4
"carnegie museum of art";0;0;1;99;0;0;1;169
"split rocker vase";0;0;2;10
"buffet bernard";0;0;4;11;0;0;1;8
"compte grim";0;0;1;10;0;0;1;10
"b andy";0;0;1;6
"opalka oeuvres";0;0;2;10
"sculpture deesse";0;0;1;5
"beaufils peinture";0;0;1;6
"nature morte rose";0;0;1;7
"xin tao";0;0;1;7
"galerie virginie barrou planquart";0;0;1;5;0;0;1;6
tafeta;0;0;2;7
"romain lardanchet";0;0;1;7
"art en ligne";0;0;3;1;0;0;1;1
tacheau;0;0;1;10
"sculpteur cesar";0;0;2;11
"ernest pignon ernest biographie";0;0;1;9
"duane michals oeuvres";0;0;2;7
"elise oudin gilles";0;0;1;4
"mahjoub ben bella";0;0;3;2;0;0;1;1
"ben heine";0;0;2;9
oeuvres;0;0;1;11
"oeuvres d'art";0;0;3;8
"galerie boccara";0;0;2;5
"carole benichou";0;0;1;16
"banksy age";0;0;1;10
"hervé telemaque peintre";0;0;2;5
"home alone 6";0;0;1;12
"telemaque peintre";0;0;1;6
"acheter une oeuvre d'art";0;0;1;1
"jacques renoir";0;0;1;9
"blek le rat";0;0;1;20
"hermann nitsch";0;0;3;11
"alain vaissiere";0;0;2;6
sculptres;0;0;1;8
"charbonnel sculpteur";0;0;3;6;0;0;5;5
"cecile colombo";0;0;2;5
"oeuvre d'art a vendre";0;0;1;1
goddyn;0;0;1;11
jadikan;0;0;1;4;0;0;1;4
#1200;0;0;1;9
ardpg;0;0;3;9
"noe two lion";0;0;1;8
"bruce clarke";0;0;1;9
"jean michel basquiat oeuvres";0;0;1;10
"tilt graffiti";0;0;2;7;0;0;1;6
"joseph artiste";0;0;1;10
"on kawara oeuvres";0;0;2;6
"jef aerosol beaubourg";0;0;1;7
"cesar santos";0;0;4;4;0;0;1;5
"valérie le merrer";0;0;2;3
"investir dans l art";0;0;1;8;0;0;1;9
"peter hoffer";0;0;1;3
"peintre moya";0;0;1;6
stani;0;0;4;3.75
"galerie bacqueville lille";0;0;1;8
tanc;0;0;10;5.3
kolaj;0;0;1;9
trovic;0;0;1;5
"ارتي باجاج";0;0;1;11
"tableau martin luther king";0;0;2;10
dugied;0;0;1;6
"thomas canto";0;0;1;7;0;0;1;6
"jeff koons biographie";0;0;1;8;0;0;2;9
bouro;0;0;2;7
"chat peace";0;0;1;9
"anthropomorphisme art";0;0;1;9
"francois millo";0;0;2;3
josseau;0;0;1;3
"mr chat street art";0;0;1;7;0;0;1;5
"galerie urbaine uzes";0;0;1;5
"artiste ben";0;0;1;4;0;0;1;4
"l'atlas art";0;0;1;9
"jeremie lenoir";0;0;2;5
"eduardo kac";0;0;3;11
"alexandre joly";0;0;1;10
"biographie banksy";0;0;1;10
"jean paul moscovino";0;0;2;4
"billet de banque banksy";0;0;1;3
flowersbox;0;0;1;8
"maxime foulon";0;0;1;7
"emmanuelle bousquet";0;0;3;6
"lucile chombart de lauwe";0;0;2;8
"kool koor";0;0;2;3
"site oeuvre d'art";0;0;1;1
argentic;0;0;1;7
"james aldridge";0;0;3;8
"jack hironimus";0;0;2;3
"galerie lazarew";0;0;7;9
cieu;0;0;1;10;0;0;1;6
"petit coquillage";0;0;1;17
"carole benichou artiste";0;0;3;6
"anne cindric";0;0;1;5
"déesse artiste";0;0;1;3
joneone;0;0;2;4
mordac;0;0;1;9
capton;0;0;27;3.4814814814815;0;0;10;3.2
"ramzi adek";0;0;1;5
"pat andrea";0;0;1;9
hyber;0;0;1;7
"sophie sigorel";0;0;1;5;0;0;1;5
"photographe lachapelle";0;0;1;5
"gerard quenum";0;0;1;7
"david lynch œuvres d'art";0;0;1;8
"artiste carton";0;0;2;10
sculptures;0;0;2;8.5;0;0;7;9.7142857142857
"claire trotignon";0;0;1;4
"jeff koons balloon dog prix";0;0;1;8
"cesar baldaccini";0;0;1;10
"yazid oulab";0;0;1;4
"sculpture achat";0;0;1;1
"sculpture richard orlinski";0;0;1;7
"achat peinture contemporaine";0;0;1;1;0;0;2;1
"jerome legrand";0;0;1;13
"tableau de ben";0;0;1;10
demsky;0;0;1;10
dallanegra;0;0;1;4
"cote combas";0;0;1;5
cadeo;0;0;1;11;0;0;1;4
"arroyo peintre";0;0;1;5
"galerie nuances et lumière";0;0;1;3
"arnaud franc";0;0;1;7
dibbon;0;0;2;4
"colorfield gallery";0;0;2;7
"murakami artiste";0;0;1;3;0;0;1;4
"galerie audet colmar";0;0;1;11
"susanne stemmer";0;0;1;6
"kathleen petyarre";0;0;1;5
"di rosa hervé";0;0;1;6
"tableau britto";0;0;1;4
"mist artiste";0;0;1;8;0;0;1;8
"gille aillaud";0;0;1;5
"jean faucheur";0;0;2;3.5
"vente oeuvre d'art";0;0;1;1;0;0;1;1
"christoff debusschere peintre";0;0;3;5
"artiste lignes verticales";0;0;1;1
"open art galerie";0;0;1;6
"cedric bacqueville";0;0;1;5
"benjamin deroche";0;0;1;5;0;0;1;5
"galerie polysémie";0;0;2;11
"durix vichy";0;0;1;10
"françoise petrovitch";0;0;2;9
"yayoi kusama oeuvre";0;0;2;10
"artistes britanniques";0;0;1;9
"oeuvre d'art carton";0;0;1;8
"manu perez";0;0;1;18;0;0;1;18
"bernard buffet œuvres d'art";0;0;1;3
stoul;0;0;3;7
"louis blanc biographie";0;0;1;10
"jean francois gambino sculpteur";0;0;1;9
"laurence poitou";0;0;1;2
"galerie brugier";0;0;1;6
"tilt graffeur";0;0;1;6
artphotoby;0;0;1;2
"jone one";0;0;1;1
"sandro giordano";0;0;2;5.5
"galerie art contemporain en ligne";0;0;1;1
"manolo chretien";0;0;1;4
"bernard buffet 55";0;0;1;5
"zofia rydet";0;0;1;10
"jana et js";0;0;1;5
"li hong";0;0;1;6
"vache oeuvre d'art";0;0;1;7
decup;0;0;2;6
villeglé;0;0;1;6;0;0;1;6
"femme anonymous";0;0;1;10
bialas;0;0;1;12
"hommage a picasso";0;0;1;7
"brno del zou";0;0;2;4
"oeuvre d'art avec des mots";0;0;1;3
aïroh;0;0;1;6
"jerome revon";0;0;1;11
"max ernst œuvres d'art";0;0;4;10;0;0;3;11
"envie d art";0;0;1;3
"kosta kulundzic";0;0;1;85
chubac;0;0;3;4.3333333333333
"banksy oeuvres";0;0;23;10;0;0;13;9.4615384615385
"thierry bigaignon";0;0;1;3
"oeuvre d'art contemporain";0;0;1;1;0;0;2;1.5
"balloon dog prix";0;0;1;10;0;0;1;8
"peintre murakami";0;0;2;4
"catalano bruno prix des oeuvres";0;0;1;3
"aude carré";0;0;1;5
"michel four";0;0;2;6;0;0;1;6
"galerie ko21";0;0;1;6
"investir dans l'art";0;0;1;8
"terra peintre";0;0;1;1
"olivier moriette";0;0;1;2
"photo d'art en ligne";0;0;2;4
"patrick moya";0;0;2;5;0;0;1;4
"hiro ando";0;0;2;1
"schwab beaubourg";0;0;1;8
"patrick braoude";0;0;1;20
"julien colombier";0;0;1;20
"gerard rancinan photographe";0;0;1;8
"artiste india";0;0;1;10
"truc ahn";0;0;1;2
"shaka peintre";0;0;1;5
"uwe ommer";0;0;2;5
"galeries d art";0;0;1;10
benetou;0;0;2;2
"luc dratwa";0;0;1;8
"tintin pop art";0;0;1;10
"césar sculpteur";0;0;1;10
braoudé;0;0;1;11;0;0;1;11
rancillac;0;0;1;13
"philippe charpentier";0;0;2;1
"oana cosug";0;0;1;10
"arno elias";0;0;5;5.8
"patrick bastardoz";0;0;1;4
guilleme;0;0;3;4;0;0;1;5
"pierre fava";0;0;1;6
"ahn sun mi";0;0;1;5
"hiquily philippe";0;0;1;6
"oeuvre du 21eme siecle";0;0;1;10
moschini;0;0;1;7
"nathalie grenier facebook";0;0;1;5
"sculpture panthere noire";0;0;1;7;0;0;4;9
"oeuvre monumentale";0;0;1;6
"cesar sculpteur";0;0;4;10;0;0;1;10
"les renés dessin animé";0;0;1;9
"galerie leadouze";0;0;1;5
jr;0;0;9;1;0;0;2;1
"matisse cirque";0;0;2;4.5
baldaccini;0;0;1;5
aroa;0;0;4;6;0;0;3;6
"orlinda lavergne";0;0;2;3
"le turk";0;0;3;10
"raymond hains";0;0;5;7;0;0;3;7.6666666666667
"laurent bouro";0;0;2;4
"catherine lachapelle";0;0;1;333
"galerie cédric bacqueville";0;0;1;4
"césar baldaccini oeuvre";0;0;1;4
"guy oberson";0;0;2;7
"gilles candelier";0;0;2;9
"bambi artiste";0;0;1;2;0;0;1;3
"hamish fulton";0;0;2;9
"sunrise pop art";0;0;1;7
"guy ferrer";0;0;1;8
"anca 3";0;0;1;5
"art in troy";0;0;1;37
mokadem;0;0;1;19
"christophe debusschere";0;0;1;7
miss.tic;0;0;1;6;0;0;1;6
"ahmed moustafa";0;0;1;4
"lindt coco";0;0;1;10
"clotilde ancarani peintre";0;0;1;12
"jerry hall jeune";0;0;1;1
"gregory berben";0;0;1;9;0;0;1;10
"orlan paris";0;0;1;11
"mist artiste peintre";0;0;2;9
"tete en poire";0;0;1;7
"gallerie d'art";0;0;1;4
"alexandre joly facebook";0;0;1;9
redxxx;0;0;1;40
catte;0;0;3;2;0;0;1;7
fazzino;0;0;17;9.2941176470588;0;0;1;9
xinart;0;0;1;6
"thomas bossard";0;0;2;5.5
"duane michals biographie";0;0;1;10
"samuel levy";0;0;3;6
"loft galerie";0;0;1;6
mondapart;0;0;2;6
"site d'oeuvre d'art";0;0;2;1
"ben artiste francais";0;0;1;4
"perrine butz";0;0;1;9
adek;0;0;1;8;0;0;2;10
"philippe soussan";0;0;1;4
korosh;0;0;1;6
"guillaume herbaut";0;0;5;11
"solomon sol lewitt";0;0;1;10
"oeuvre miroir";0;0;1;10
"monsieur chat graffiti";0;0;1;8;0;0;1;9
"gregory vigier";0;0;1;4
"chris macauley";0;0;1;1
"guillaume moschini";0;0;1;5
"fanny dubois artiste";0;0;3;1
"gazelli art house";0;0;3;4
"klasen peintre";0;0;1;3
"oeuvre d'art sport";0;0;1;5
"nick walker";0;0;1;4;0;0;1;4
"pablito zago";0;0;1;7;0;0;2;7
"pierre lesage";0;0;1;10
"thierry alet";0;0;2;7
"chat street art";0;0;1;8
"jr photos";0;0;2;9
"muller christine";0;0;2;7.5
"geisha profil";0;0;2;5
"nojnoma paris";0;0;2;8
artpers;0;0;1;1
"banksy choose your weapon";0;0;1;10
"gottfried honegger";0;0;1;9
"li foto love";0;0;1;1
"tableau de dubuffet";0;0;1;10
"guy de france";0;0;1;13
"jean louis audibert";0;0;1;1
"arnaud liard";0;0;2;2
sculture;0;0;1;10
"the painters project";0;0;1;9
"nathalie grenier";0;0;2;5;0;0;1;6
"peinture de jean dubuffet";0;0;1;6
"marchal mithouard";0;0;2;8
"sebastien bayet";0;0;1;1
"laure d'hauteville";0;0;2;7.5
"wishlist homme";0;0;3;15;0;0;1;13
"louis stettner";0;0;1;6
"antoine veron";0;0;1;5
"georges autard";0;0;2;6;0;0;1;6
"max charvolen";0;0;2;4
adela;0;0;12;9.9166666666667;0;0;5;9.6
"alain huet";0;0;1;7;0;0;1;9
"oeuvres design";0;0;1;9
chamizo;0;0;1;7
jef;0;0;1;17
"li wei photographe";0;0;3;6
"art contemporain achat";0;0;1;1
"jean dubuffet biographie";0;0;1;12
"victor vasarely artwork";0;0;1;45;0;0;1;51
"françoise besson";0;0;1;11
carnaille;0;0;1;11
villegle;0;0;1;6
"bernard moninot";0;0;2;7
"alex durand";0;0;2;9
"davidz custom";0;0;1;7
"jean francois lefranc";0;0;1;4
"acheter sculpture";0;0;1;1;0;0;4;1
"robert combas a vendre";0;0;1;10
"gérard rancinan";0;0;1;6
braoude;0;0;1;9
scupture;0;0;1;10
"oeuvre de banksy";0;0;20;8.3;0;0;2;8
"mr. chat";0;0;1;7
"john caroll";0;0;1;5
"cirque matisse";0;0;1;4
"artistes espagnols";0;0;2;8
krm;0;0;6;4.3333333333333
"emmanuel bousquet";0;0;2;10
"galerie chenaux";0;0;2;3
"eduardo chillida";0;0;6;10
"peintre lamy";0;0;1;1
"jean philippe berger";0;0;2;2;0;0;1;2
"aillaud gilles";0;0;1;7
heurtaux;0;0;1;33
"achat oeuvre art";0;0;1;1
"guy dening";0;0;1;5
"troy henriksen art";0;0;1;4
"julien durix prix";0;0;1;1
"antonio segui peintre";0;0;1;10
"aurel rubbish";0;0;1;3
"christine muller";0;0;2;4.5
godon;0;0;2;3.5
"filip mirazovic";0;0;1;1
"greg gorman";0;0;1;8
"guillaume piechaud";0;0;2;2
"galerie delorme";0;0;1;7
scuptures;0;0;1;12
"claude closky oeuvre";0;0;7;4
"baptiste dumont";0;0;1;9
"anne marie thieffry";0;0;1;3
schmite;0;0;1;29
"alberto rosselli";0;0;1;5
"mathieu mercier";0;0;1;10
"orlinda lavergne gallery";0;0;1;4
"chaise art contemporain";0;0;1;19
"biographie de keith haring";0;0;2;9.5
"art et fun";0;0;1;10
"oeuvre sur l'adolescence";0;0;2;8
"brigitte kupfer";0;0;1;78
hgaleries;0;0;1;9
"jean pierre schneider";0;0;1;9
"zabou nue";0;0;2;39
"alex katz oeuvres";0;0;2;4
ribart;0;0;1;4
"rosa richard";0;0;1;3
"oeuvre de haring";0;0;1;7
"galerie art en ligne vente";0;0;1;1
rabus;0;0;2;11
"planète série";0;0;1;6
"oeuvre de arman";0;0;8;8
"guayasamin peintre";0;0;1;8
"andre nadal";0;0;1;4
"oeuvres annette messager";0;0;1;7
"gijsbert hanekroot";0;0;1;3
"partie a trois";0;0;1;8
"guillemette schlumberger";0;0;1;3
"galerie gabel biot";0;0;1;4
"nathalie dhenaut";0;0;1;6
"galerie artiane";0;0;1;3
"marilyn minter";0;0;1;9
"jean michel basquiat œuvres d'art";0;0;2;1
"gilles molinier";0;0;1;6
"tony frank";0;0;2;8.5
"alexandre rodtchenko oeuvres";0;0;1;22
nils-udo;0;0;2;8
"anne valérie dupond";0;0;1;8
"james mackeown";0;0;1;3
revaz;0;0;1;75
blechner;0;0;1;7
"corsia peintre";0;0;1;8
"peintre artiste contemporain";0;0;1;4
"pascal goet";0;0;1;6
"juliette plisson";0;0;1;8
"photo contemporain";0;0;1;2
"sculpture d'art";0;0;1;2
"gregoire eloy";0;0;1;6
"christine muller peintre";0;0;1;6
"ronald dupont";0;0;1;2
"bruno catalano prix sculptures";0;0;4;3
"christian renonciat";0;0;2;6
crid'art;0;0;2;10
"takashi murakami oeuvres principales";0;0;2;4
"annet messager";0;0;2;7
"female nu";0;0;1;10
"vincent breed";0;0;1;9
"françois morelet";0;0;1;9
terorotua;0;0;1;10
"lachapelle david";0;0;1;7
"tal coat artist";0;0;1;7
"galerie duret";0;0;1;6
"jean hélion peintre";0;0;3;6
benaroch;0;0;1;9
theskateroom;0;0;1;15
"peintres russes";0;0;1;14
stammegna;0;0;1;9
"octave pixel";0;0;2;1
"sculpture art moderne";0;0;1;2
"art life gallery";0;0;1;7
"jr artiste";0;0;3;1
"olivier long";0;0;2;10
"jean charles millepied";0;0;1;7
"brugier rigail";0;0;4;7
"art traffik";0;0;1;2
"noe two artiste";0;0;1;3
hazuka;0;0;1;6
brasiltudo;0;0;1;5
"le cabellec";0;0;1;4
"crane papillon";0;0;1;4
"villegle peintre";0;0;2;3
"galerie des petit carreaux";0;0;1;3
"sandra david";0;0;1;9
"escalier oeuvre d'art";0;0;1;1
"catherine seher";0;0;1;4
"oeuvre de dubuffet";0;0;1;6
"phillipe berry";0;0;1;1
"yongliang yang";0;0;1;3
"natalia rak street art";0;0;1;4
"art achat";0;0;1;1
"jorg doring";0;0;1;1
"monica bellucci bondage";0;0;1;8
"guillemin gregoire";0;0;1;4
"yang yongliang";0;0;1;6
"site de vente d'art en ligne";0;0;1;1
"peter lipmann";0;0;1;4
"françois morrelet";0;0;1;9
"laure andre";0;0;1;8
"art to be gallery lille";0;0;4;6.75
"wladimir anselm";0;0;2;10
"juliette clovis";0;0;1;1
"laurence bruguiere";0;0;1;8
"elisabeth von wrede";0;0;1;4
"sebastien levigne";0;0;1;10
eitner;0;0;1;6
sartorio;0;0;1;11
"christine barres peintre";0;0;1;3
"richard harper";0;0;3;3
"gilles desrozier";0;0;2;10
"luz severino";0;0;1;2
"silvana solivella";0;0;1;6
adgalerie;0;0;1;8
"thomas subtil";0;0;1;6
"florent chopin";0;0;2;5
enviedart;0;0;1;4
"louis blanc photographie";0;0;1;10
"peinture skieur";0;0;1;1
"galerie couteron";0;0;1;5
"anette messager";0;0;1;11
"nuance et lumière";0;0;1;3
"crocodile orlinski";0;0;1;7
"oeuvre de cesar baldaccini";0;0;1;4
"charlelie couture new york";0;0;1;4
"izabeau jousse";0;0;1;1
"eric pottier sculpteur";0;0;1;5
"villeglé jacques";0;0;2;4.5
"jacques mahé";0;0;1;7
"galerie guillaume";0;0;1;16
"boom art";0;0;3;5
"nathalie grall";0;0;1;7
rafiy;0;0;1;1
"len jessome";0;0;1;3
dysform;0;0;1;3
"françois bard peintre";0;0;1;2
ecloz;0;0;1;6
"jean fautrier artist";0;0;1;7
