nojnoma;14;0.29166666666667;48;1.0833333333333;6;0.54545454545455;11;1;8;0.21621621621622;37;1.1081081081081
artsper;12;0.1025641025641;117;1;7;0.098591549295775;71;1;4;0.15384615384615;26;1;1;0.05;20;1
jonone;8;0.035714285714286;224;5.0178571428571;5;0.043478260869565;115;4.4782608695652;3;0.036144578313253;83;5.6385542168675;0;0;26;5.4230769230769
"mira maodus";5;0.058823529411765;85;6.3058823529412;3;0.055555555555556;54;6.2592592592593;0;0;1;7;2;0.066666666666667;30;6.3666666666667
"robert combas";4;0.047058823529412;85;3.8;2;0.043478260869565;46;3.5652173913043;1;0.032258064516129;31;4.0967741935484;1;0.125;8;4
"speedy graphito";3;0.06;50;5.06;1;0.037037037037037;27;4.6296296296296;1;0.0625;16;5.625;1;0.14285714285714;7;5.4285714285714
combas;3;0.036144578313253;83;6.3975903614458;2;0.052631578947368;38;5.4210526315789;1;0.027777777777778;36;7.1944444444444;0;0;9;7.3333333333333
"françois bard";3;0.27272727272727;11;3;3;0.375;8;2.625;0;0;2;1.5;0;0;1;9
"pierre riba";3;0.25;12;3.0833333333333;2;0.4;5;3.2;1;0.2;5;3;0;0;2;3
"bernard pras oeuvre";3;0.6;5;2;2;0.5;4;2;1;1;1;2
"miss tic";3;0.027522935779817;109;5.9082568807339;3;0.053571428571429;56;5.25;0;0;44;6.5227272727273;0;0;9;7
"thomas verny peintre";2;0.33333333333333;6;1.6666666666667;2;0.66666666666667;3;1.3333333333333;0;0;3;2
"rafael gomez barros";2;1;2;4;1;1;1;4;1;1;1;4
"toxic street art";2;0.4;5;4;1;0.5;2;4;1;0.33333333333333;3;4
"ody saban";2;0.28571428571429;7;4.8571428571429;2;0.28571428571429;7;4.8571428571429
"bernard moninot";2;0.15384615384615;13;6;1;0.1;10;6.2;1;1;1;2;0;0;2;7
"jeanne lorioz";2;0.4;5;4.4;1;0.5;2;5.5;0;0;1;4;1;0.5;2;3.5
"cecile desserle";2;0.14285714285714;14;4.9285714285714;1;0.2;5;5;0;0;7;4.8571428571429;1;0.5;2;5
"francois bard";2;0.25;8;2;1;0.33333333333333;3;2;0;0;1;2;1;0.25;4;2
"jacques villeglé";2;0.066666666666667;30;4.7333333333333;2;0.08;25;4.8;0;0;4;4;0;0;1;6
takala;2;0.14285714285714;14;3.6428571428571;1;0.2;5;3.4;0;0;5;4;1;0.25;4;3.5
quik;2;0.013986013986014;143;1.6713286713287;2;0.03125;64;1.578125;0;0;19;1.7368421052632
"mel ramos";2;0.16666666666667;12;17.333333333333;2;0.25;8;22.5;0;0;3;7.3333333333333;0;0;1;6
"maxime frairot";2;0.18181818181818;11;4;1;0.25;4;4;0;0;1;4;1;0.16666666666667;6;4
"hervé di rosa";2;0.090909090909091;22;3.5;2;0.13333333333333;15;3.2666666666667;0;0;5;4;0;0;2;4
"hiro ando";2;0.4;5;1;2;0.4;5;1
"billet banksy";2;0.25;8;1.25;1;0.33333333333333;3;1;1;0.2;5;1.4
"combas peintre";2;0.16666666666667;12;4.1666666666667;1;0.2;5;3.8;1;0.14285714285714;7;4.4285714285714
durix;2;0.4;5;8.6;1;1;1;9;0;0;1;9;1;0.33333333333333;3;8.3333333333333
"murakami artiste";2;0.052631578947368;38;2.5;2;0.068965517241379;29;2.3103448275862;0;0;5;3.2;0;0;4;3
"takashi murakami biographie";2;0.33333333333333;6;6.3333333333333;2;0.33333333333333;6;6.3333333333333
"michèle destarac peintre";2;1;2;1;2;1;2;1
"christophe charbonnel";2;0.13333333333333;15;5.4666666666667;2;0.2;10;5.1;0;0;4;6;0;0;1;7
"guy de rougemont";2;0.33333333333333;6;6;0;0;4;6;2;1;2;6
"jm robert";2;0.16666666666667;12;1.9166666666667;1;0.5;2;2;1;0.11111111111111;9;1.8888888888889;0;0;1;2
"johanna heeg";2;1;2;1;2;1;2;1
"bernard pras";2;0.025;80;3.85;2;0.03921568627451;51;3.4509803921569;0;0;12;4.5833333333333;0;0;17;4.5294117647059
"aki kuroda";2;0.14285714285714;14;1.8571428571429;1;0.25;4;4;0;0;6;1;1;0.25;4;1
"eduardo arroyo";2;0.076923076923077;26;8.9615384615385;2;0.13333333333333;15;8.6666666666667;0;0;6;9;0;0;5;9.8
"artiste ben";2;0.125;16;3.5625;0;0;7;3;2;0.28571428571429;7;4;0;0;2;4
"laurent durrey";1;1;1;7;1;1;1;7
"robert combas biographie";1;0.33333333333333;3;5.3333333333333;1;0.5;2;6;0;0;1;4
"banksy œuvres d'art";1;0.047619047619048;21;7.3333333333333;1;0.0625;16;7.0625;0;0;4;8;0;0;1;9
"sophie laguette";1;1;1;3;1;1;1;3
"galerie d'art";1;0.029411764705882;34;7;1;0.045454545454545;22;7.0454545454545;0;0;8;7.5;0;0;4;5.75
"aki kuroda prix";1;0.5;2;2;0;0;1;2;1;1;1;2
"patricia camet";1;0.33333333333333;3;5;1;0.33333333333333;3;5
"christoff debusschere";1;0.083333333333333;12;7.5;1;0.16666666666667;6;7;0;0;3;8.3333333333333;0;0;3;7.6666666666667
"francois morellet";1;0.083333333333333;12;9.4166666666667;1;0.14285714285714;7;9;0;0;4;10.25;0;0;1;9
jakè;1;0.25;4;4.75;1;0.33333333333333;3;3.3333333333333;0;0;1;9
"flipo pezenas";1;1;1;2;1;1;1;2
"fabien verschaere";1;0.125;8;2.125;1;0.2;5;2.2;0;0;1;2;0;0;2;2
"abie loy kemarre";1;0.5;2;6.5;1;1;1;6;0;0;1;7
"eric peyret";1;0.25;4;2;1;0.5;2;2;0;0;2;2
"bernard pras exposition";1;0.2;5;5.2;1;0.25;4;5.25;0;0;1;5
"gallerie nue";1;1;1;4;1;1;1;4
"cedrix crespel";1;0.2;5;4;1;0.33333333333333;3;4;0;0;2;4
"anton f";1;1;1;10;1;1;1;10
ecloz;1;0.33333333333333;3;5.6666666666667;1;0.5;2;6
"laurent dauptain";1;0.16666666666667;6;3.5;1;0.33333333333333;3;3;0;0;3;4
"philippe berry";1;0.0088495575221239;113;4.0530973451327;1;0.017543859649123;57;6.7719298245614;0;0;37;1.4324324324324;0;0;19;1
"nicolas dhervillers";1;0.5;2;7.5;1;1;1;9
"tiphaine popesco";1;0.5;2;3;1;1;1;3;0;0;1;3
topolino;1;1;1;8;1;1;1;8
"jaké artiste";1;0.5;2;3;0;0;1;3;1;1;1;3
"richard orlinski prix";1;0.25;4;4.5;0;0;3;4;1;1;1;6
"tom wesselmann";1;0.027777777777778;36;6.3055555555556;1;0.03448275862069;29;6.4137931034483;0;0;3;6;0;0;4;5.75
"galerie art";1;0.25;4;11.25;1;0.25;4;11.25
"henri iglesis";1;0.33333333333333;3;3.3333333333333;1;0.5;2;3
"leila rose willis";1;1;1;3;1;1;1;3
"biographie banksy";1;0.25;4;7;1;0.25;4;7
"stéphane joannes";1;1;1;2;1;1;1;2
"troy henriksen prix";1;1;1;1;1;1;1;1
"alex katz oeuvres";1;0.125;8;6.25;1;1;1;5;0;0;7;6.4285714285714
"christophe catelain";1;0.33333333333333;3;1;1;0.5;2;1;0;0;1;1
"peter klasen";1;0.14285714285714;7;3.1428571428571;1;0.16666666666667;6;3;0;0;1;4
"christine barres prix";1;1;1;2;1;1;1;2
"gilles capton";1;0.5;2;3;1;0.5;2;3
"eva jospin";1;0.1;10;10;1;1;1;10
"jan saudek photographe";1;0.33333333333333;3;5.3333333333333;0;0;2;5.5;1;1;1;5
nowart;1;0.25;4;3;1;1;1;3;0;0;3;3
"artistes espagnols";1;0.16666666666667;6;9.6666666666667;1;0.25;4;10;0;0;2;9
"catherine seher";1;0.14285714285714;7;4;1;0.14285714285714;7;4
"yago partal";1;1;1;19;1;1;1;19
"david gerstein";1;0.047619047619048;21;4.047619047619;0;0;8;4;1;0.14285714285714;7;4
duytter;1;0.25;4;1;1;1;1;1
"luc chopplet";1;0.5;2;1;1;0.5;2;1
"anna bocek";1;0.5;2;4.5;1;1;1;4;0;0;1;5
"anais boudot";1;0.5;2;4;1;0.5;2;4
sereirrof;1;0.5;2;5;1;0.5;2;5
"achat banksy";1;0.33333333333333;3;2;1;1;1;2;0;0;2;2
kimsen;1;0.5;2;5;0;0;1;5;1;1;1;5
"marie rioux";1;1;1;3;1;1;1;3
"gwen marseille";1;0.5;2;5;1;0.5;2;5
"silver fame";1;1;1;7;1;1;1;7
"oeuvres de jr";1;1;1;4;1;1;1;4
"jonone street art";1;0.5;2;2.5;1;1;1;3;0;0;1;2
"peintre buffet";1;0.1;10;9.1;0;0;2;9.5;1;0.16666666666667;6;9
"marie piselli";1;0.5;2;5;1;0.5;2;5
levalet;1;0.05;20;5.75;1;0.0625;16;5.9375;0;0;4;5
"oeuvre de max ernst";1;0.5;2;8.5;1;1;1;9;0;0;1;8
"mark demsteader technique";1;1;1;4;1;1;1;4
"carlo nason";1;0.25;4;9.5;0;0;2;10;1;0.5;2;9
"robert mapplethorpe biographie";1;0.5;2;3.5;1;0.5;2;3.5
"envie d'art";1;0.1;10;3.9;0;0;7;3.8571428571429;1;0.5;2;4;0;0;1;4
"yann houri";1;0.1;10;1.4;1;0.33333333333333;3;1;0;0;7;1.5714285714286
"galleries d'art";1;0.5;2;6.5;1;0.5;2;6.5
nojoma;1;1;1;1;1;1;1;1
"philippe assalit";1;0.25;4;3;1;0.25;4;3
"street art jonone";1;0.33333333333333;3;2;1;0.33333333333333;3;2
"erro artiste";1;0.14285714285714;7;6.1428571428571;0;0;6;6;1;1;1;7
"jean charles millepied";1;1;1;6;1;1;1;6
"christine barres";1;0.125;8;3.125;1;0.25;4;3.25;0;0;2;3;0;0;2;3
"alexandre devals";1;0.25;4;8.5;1;0.5;2;9;0;0;2;8
"antoine cadeo";1;1;1;2;1;1;1;2
smael;1;0.16666666666667;6;7.8333333333333;1;0.33333333333333;3;8.6666666666667;0;0;3;7
"bhuri bai";1;1;1;3;1;1;1;3
"jonone artiste peintre";1;0.33333333333333;3;2.6666666666667;0;0;1;2;1;1;1;3
"affiche jean michel basquiat";1;1;1;3;1;1;1;3
"ivan messac";1;1;1;5;1;1;1;5
"photographe bondage";1;0.5;2;15;1;0.5;2;15
"tony soulie";1;0.5;2;3;1;0.5;2;3
"arnaud liard";1;0.2;5;3.6;1;1;1;4;0;0;1;4;0;0;3;3.3333333333333
"claude mollard";1;0.5;2;6.5;1;0.5;2;6.5
"isa marcelli";1;0.33333333333333;3;9;1;0.33333333333333;3;9
"jonone peintre";1;1;1;3;1;1;1;3
"yann houri prix";1;0.5;2;1;0;0;1;1;1;1;1;1
"gaël charbau";1;0.5;2;21.5;1;1;1;19
"thoma ryse";1;1;1;3;1;1;1;3
"takashi murakami prix";1;1;1;1;1;1;1;1
"bruno catalano prix";1;0.25;4;8;0;0;1;6;1;1;1;9
"kathleen petyarre";1;0.14285714285714;7;4;1;0.14285714285714;7;4
"philippe huart";1;0.14285714285714;7;3;0;0;2;3;1;0.25;4;3;0;0;1;3
"thierry alet";1;0.33333333333333;3;1.3333333333333;1;0.5;2;1.5;0;0;1;1
kyliss;1;0.5;2;1;1;0.5;2;1
"francky boy";1;0.25;4;4.75;1;0.25;4;4.75
"annette messager";1;0.018867924528302;53;9.4528301886792;1;0.026315789473684;38;9.3157894736842;0;0;13;9.6923076923077;0;0;2;10.5
"nurcan giz";1;0.2;5;3.6;1;1;1;5
"guillaume bourquin";1;0.125;8;7.25;0;0;5;6.4;1;0.33333333333333;3;8.6666666666667
"wang yan cheng";1;0.2;5;9.6;0;0;1;8;1;0.25;4;10
"sylvain coulaud";1;0.25;4;6.5;1;0.25;4;6.5
"dubuffet biographie";1;0.25;4;4.25;1;0.33333333333333;3;4.6666666666667;0;0;1;3
"bruno mallart";1;0.33333333333333;3;6.6666666666667;1;0.33333333333333;3;6.6666666666667
"laurent bouro";1;0.125;8;3;0;0;4;2.75;1;0.33333333333333;3;3.3333333333333
"jon one";1;0.055555555555556;18;5.9444444444444;1;0.14285714285714;7;5;0;0;8;6.75;0;0;3;6
"quentin garel sculpteur";1;0.25;4;3;1;0.25;4;3
"dubuffet oeuvre";1;1;1;5;1;1;1;5
"murakami oeuvres";1;0.5;2;6.5;1;0.5;2;6.5
"jacques damez";1;0.14285714285714;7;3;1;0.33333333333333;3;3
"alva bernadine wikipedia";1;0.33333333333333;3;8.3333333333333;1;1;1;5;0;0;2;10
"raymond hains";1;0.024390243902439;41;7.390243902439;1;0.03448275862069;29;7.1379310344828;0;0;9;8;0;0;3;8
"stephane joannes";1;0.2;5;3;1;0.2;5;3
"nicolette jelen";1;0.33333333333333;3;7;1;0.33333333333333;3;7
klasen;1;0.25;4;2.5;1;0.25;4;2.5
"bruno fontana";1;0.2;5;4.4;1;0.5;2;4.5;0;0;3;4.3333333333333
flipo;1;0.090909090909091;11;8.0909090909091;0;0;5;9.2;1;0.2;5;8;0;0;1;3
"vincent corpet";1;0.04;25;6.32;1;0.058823529411765;17;6.0588235294118;0;0;2;6.5;0;0;6;7
"annette messager oeuvres";1;0.1;10;7.1;1;0.125;8;6.75;0;0;1;7;0;0;1;10
"tom wesselmann oeuvre";1;1;1;5;1;1;1;5
"barres christine";1;0.5;2;3;1;0.5;2;3
"romain saintonge";1;0.5;2;4;1;0.5;2;4
arsper;1;0.5;2;1;1;0.5;2;1
"thomas verny";1;0.25;4;1.5;1;0.5;2;1;0;0;2;2
vittoretti;1;0.5;2;3;1;0.5;2;3
"jean pierre nadau";1;1;1;1;1;1;1;1
"oeuvres monumentales";1;0.5;2;6;1;0.5;2;6
"isabeau jousse";1;1;1;4;1;1;1;4
"did dontzoff";1;0.2;5;3.8;1;0.2;5;3.8
krm;1;0.1;10;4.4;1;0.25;4;4;0;0;4;4.25;0;0;2;5.5
"honegger peintre";1;0.14285714285714;7;5.8571428571429;1;0.16666666666667;6;5.8333333333333;0;0;1;6
"shepard fairey oeuvres";1;1;1;1;1;1;1;1
"jeff koons biographie";1;0.066666666666667;15;9.5333333333333;1;0.076923076923077;13;9.6923076923077;0;0;1;8;0;0;1;9
aranthell;1;0.25;4;4.5;1;0.33333333333333;3;3.3333333333333;0;0;1;8
goddog;1;0.25;4;4;0;0;2;4;0;0;1;4;1;1;1;4
shahabuddin;1;1;1;11;1;1;1;11
"benjamin spark prix";1;1;1;3;1;1;1;3
"bruno catalano prix sculptures";1;0.14285714285714;7;7;0;0;6;7;1;1;1;7
"emmanuel barcilon";1;0.125;8;5;1;0.125;8;5
"richard heeps";1;1;1;5;1;1;1;5
"michael aaron williams";1;0.33333333333333;3;5;1;0.33333333333333;3;5
"takashi murakami oeuvres";1;0.125;8;4.125;1;0.14285714285714;7;4.1428571428571;0;0;1;4
"christophe monnin artiste peintre";1;1;1;17;1;1;1;17
"gastineau massamba";1;1;1;2;1;1;1;2
"banksy achat";1;0.5;2;4;1;0.5;2;4
"sophie morisse";1;0.25;4;1.5;1;0.25;4;1.5
"vincent richeux";1;0.125;8;6;1;0.33333333333333;3;6;0;0;3;6;0;0;2;6
"patrick marin";1;0.2;5;6.2;0;0;2;6.5;1;0.5;2;5.5;0;0;1;7
"priska lorane";1;0.5;2;3;1;1;1;3;0;0;1;3
mchat;1;1;1;17;1;1;1;17
"raphael denis";1;0.125;8;4.625;1;0.14285714285714;7;4.7142857142857;0;0;1;4
"françois glineur peintre";1;1;1;2;1;1;1;2
"isabel espinoza";1;0.25;4;5;1;0.25;4;5
"karl andre";1;1;1;6;1;1;1;6
"christine barres peintre";1;0.16666666666667;6;3.6666666666667;1;0.2;5;3.8;0;0;1;3
"cogitore clement";1;0.33333333333333;3;9.3333333333333;0;0;1;8;1;0.5;2;10
"nathalie d'henaut";1;1;1;7;1;1;1;7
chanoir;1;0.125;8;3.5;1;0.14285714285714;7;3.7142857142857;0;0;1;2
"hervé télémaque";1;0.25;4;4.75;1;0.25;4;4.75
lemilo;1;1;1;1;1;1;1;1
"zhuo qi";1;0.5;2;1;1;0.5;2;1
"adela burdujanu";1;0.25;4;5;0;0;1;5;0;0;2;5;1;1;1;5
"lionel sourisseau";1;0.5;2;1.5;1;0.5;2;1.5
"jeff aerosol";1;0.1;10;6;1;0.2;5;7.2;0;0;5;4.8
"fetish foot";1;1;1;19;1;1;1;19
capton;1;0.090909090909091;11;4.2727272727273;1;0.25;4;4.5;0;0;6;4;0;0;1;5
"thomas jorion";1;0.14285714285714;7;2;0;0;5;2;1;0.5;2;2
"nathan chantob";1;0.14285714285714;7;3;1;0.33333333333333;3;2.6666666666667;0;0;2;3;0;0;2;3.5
"sam francis peintre";1;1;1;9;1;1;1;9
"gottfried honegger";1;0.2;5;8;1;0.25;4;7.5;0;0;1;10
"tableau buffet";1;0.25;4;9;1;0.25;4;9
"francois boisrond";1;0.2;5;4;1;0.2;5;4
"ernest pignon ernest oeuvres";1;0.16666666666667;6;7.5;1;0.25;4;7.75;0;0;2;7
"sébastien layral";1;0.33333333333333;3;4;1;0.33333333333333;3;4
"mendjisky peintre";1;1;1;4;1;1;1;4
"solène ballesta";1;1;1;5;1;1;1;5
"gabriel paris peintre";1;0.25;4;1;1;0.25;4;1
"galerie wagner le touquet";1;0.5;2;9;1;0.5;2;9
"galeries d'art contemporain bruxelles";1;1;1;11;1;1;1;11
"clara poupel";1;0.5;2;1;1;0.5;2;1
"sylvie fleury";1;0.083333333333333;12;5.0833333333333;1;0.11111111111111;9;4.8888888888889;0;0;1;5;0;0;2;6
"cesar sculpteur";1;0.047619047619048;21;10.333333333333;0;0;8;11;1;0.2;5;10.6
"billet banksy prix";1;1;1;1;1;1;1;1
"hom nguyen prix";1;0.5;2;5;1;0.5;2;5
"brigitte penicaud";1;0.33333333333333;3;5;1;0.33333333333333;3;5
"gerard alary";1;1;1;4;1;1;1;4
"under construction gallery";1;0.2;5;4.4;1;0.33333333333333;3;4;0;0;2;5
"antoine desailly";1;0.33333333333333;3;1;1;0.33333333333333;3;1
"ben artiste";1;0.066666666666667;15;3.8666666666667;1;0.14285714285714;7;3.2857142857143;0;0;6;4.5;0;0;2;4
"shepard fairey biographie";1;0.33333333333333;3;4;1;0.33333333333333;3;4
quadriptyque;1;0.33333333333333;3;20.333333333333;1;0.33333333333333;3;20.333333333333
"warhol sunday b morning";1;1;1;1;1;1;1;1
"nils udo";1;0.018518518518519;54;5.9074074074074;1;0.023809523809524;42;5.6190476190476;0;0;7;6.8571428571429;0;0;5;7
moscovino;1;0.33333333333333;3;2;1;0.33333333333333;3;2
"fred penelle";1;1;1;10;1;1;1;10
"banksy oeuvres";1;0.041666666666667;24;9.4583333333333;1;0.055555555555556;18;9.2777777777778;0;0;6;10
"derrick santini";1;0.2;5;5;1;0.25;4;5;0;0;1;5
footfetish;1;0.33333333333333;3;13.666666666667;1;0.5;2;9
"renaud delorme";1;1;1;2;1;1;1;2
artspert;1;0.33333333333333;3;1;1;0.5;2;1
"hugo laruelle";1;0.33333333333333;3;5.3333333333333;1;0.5;2;5;0;0;1;6
"annabelle tattu";1;0.25;4;2.5;1;0.33333333333333;3;2.3333333333333;0;0;1;3
joneone;1;0.090909090909091;11;5.1818181818182;1;0.25;4;5;0;0;7;5.2857142857143
"fabrice hybert";1;0.2;5;5;1;0.2;5;5
lortiwa;1;1;1;9;1;1;1;9
"sabine danze";1;0.5;2;1;1;1;1;1;0;0;1;1
"etienne gros";1;0.090909090909091;11;4.7272727272727;1;0.14285714285714;7;5;0;0;2;4;0;0;2;4.5
"di rosa";1;0.058823529411765;17;4.7058823529412;1;0.11111111111111;9;6.1111111111111;0;0;4;5.25;0;0;4;1
"arthur dorval";1;0.16666666666667;6;2;1;0.16666666666667;6;2
"speedy graphito prix";1;0.2;5;1.4;1;0.25;4;1.5;0;0;1;1
"ben bella mahjoub";1;0.33333333333333;3;2;0;0;1;2;0;0;1;2;1;1;1;2
"hedva ser";1;0.25;4;5;1;0.25;4;5
"benjamin carbonne";0;0;5;1.4;0;0;4;1.25;0;0;1;2
"robert sgarra";0;0;1;4;0;0;1;4
"epoux arnolfini";0;0;1;33;0;0;1;33
"marc stammegna";0;0;1;9;0;0;1;9
"photos d'art femmes";0;0;1;18;0;0;1;18
"galerie lhoste";0;0;1;9;0;0;1;9
"galerie art france";0;0;1;25;0;0;1;25
"k haring oeuvre";0;0;1;7;0;0;1;7
"oeuvre d'art en ligne";0;0;3;1;0;0;1;1;0;0;2;1
"frederic blaimont peintre";0;0;2;4;0;0;2;4
"frédéric garnier";0;0;1;16;0;0;1;16
"gilles desrozier";0;0;2;9;0;0;1;9;0;0;1;9
"françois poulat";0;0;1;2;0;0;1;2
"titre de serie";0;0;1;7;0;0;1;7
"bondage art";0;0;1;48;0;0;1;48
"gustav links";0;0;2;10;0;0;2;10
"david mesguich";0;0;7;9.5714285714286;0;0;3;10;0;0;3;9;0;0;1;10
"bernard chauveau éditeur";0;0;1;9;0;0;1;9
"toshinobu sugimoto";0;0;1;95;0;0;1;95
"anri sala";0;0;1;32;0;0;1;32
"jeff koons œuvres d'art";0;0;4;6.5;0;0;2;5.5;0;0;1;8;0;0;1;7
"marilyn moroe";0;0;1;2;0;0;1;2
"mist artiste";0;0;2;8;0;0;1;8;0;0;1;8
"joe winter";0;0;1;10;0;0;1;10
"vincent hawkins";0;0;3;4.3333333333333;0;0;3;4.3333333333333
"encadrement d'art vente en ligne";0;0;1;84;0;0;1;84
"charlelie couture peinture";0;0;8;2.75;0;0;3;2.3333333333333;0;0;5;3
"bambi artiste";0;0;1;3;0;0;1;3
"galerie d art en ligne";0;0;2;1;0;0;2;1
"les artistes turk";0;0;1;11;0;0;1;11
"morgan paslier";0;0;1;3;0;0;1;3
"marie laure gerard becuwe";0;0;1;5;0;0;1;5
"jean marc dallanegra";0;0;1;5;0;0;1;5
"crash john matos";0;0;1;4;0;0;1;4
"johanne 8";0;0;4;4.5;0;0;1;6;0;0;1;6;0;0;2;3
"aykaz arzumanyan";0;0;1;8;0;0;1;8
"aillaud gilles";0;0;1;1;0;0;1;1
"hervé di rosa sculpture";0;0;2;4;0;0;2;4
"vente d'art en ligne";0;0;2;1;0;0;2;1
"wide painting";0;0;4;5;0;0;4;5
"galerie raison d'art lille";0;0;1;7;0;0;1;7
"odile decq";0;0;1;43;0;0;1;43
"philippe favier";0;0;10;9.3;0;0;8;8.875;0;0;2;11
"mark jenkins";0;0;27;9.0740740740741;0;0;26;9.0384615384615;0;0;1;10
"nathalie tacheau";0;0;2;4;0;0;1;4;0;0;1;4
"artiste contemporain photographie";0;0;1;1;0;0;1;1
"guillemette schlumberger";0;0;1;3;0;0;1;3
"agnès baillon";0;0;1;4;0;0;1;4
"olivier leroy photographe";0;0;1;7;0;0;1;7
"maison du dauphine";0;0;1;25;0;0;1;25
"jean dubuffet œuvres d'art";0;0;4;6;0;0;2;6;0;0;2;6
"cesar sculpteur images";0;0;1;5;0;0;1;5
"fernando costa";0;0;3;5.3333333333333;0;0;2;5;0;0;1;6
"gerstein art";0;0;3;2;0;0;1;2;0;0;2;2
"peinture de bernard buffet";0;0;2;8;0;0;2;8
"galerie fluegel-roncak";0;0;1;3;0;0;1;3
"pierre schuster";0;0;1;4;0;0;1;4
"foire d art contemporain";0;0;1;37;0;0;1;37
brugier;0;0;1;9
"jock sturges";0;0;2;18.5;0;0;2;18.5
"stéphane gautier";0;0;1;4;0;0;1;4
"artiste sculpteur contemporain";0;0;2;4.5;0;0;2;4.5
dauptain;0;0;2;2;0;0;1;2;0;0;1;2
"carl andré oeuvres";0;0;2;4;0;0;2;4
"galerie photo 12";0;0;1;10;0;0;1;10
"nuances et lumiere";0;0;1;3;0;0;1;3
"be toto";0;0;1;4;0;0;1;4
"photographie de nue";0;0;1;165;0;0;1;165
cammal;0;0;1;5;0;0;1;5
"beatrice terra";0;0;1;1;0;0;1;1
"debusschere peinture";0;0;1;9;0;0;1;9
"herve telemaque";0;0;2;7;0;0;1;9;0;0;1;5
"greenwood gallery";0;0;1;11;0;0;1;11
"galerie dx";0;0;1;4;0;0;1;4
"lucile callegari";0;0;5;6.8;0;0;4;7;0;0;1;6
"sabrina van den heuvel";0;0;1;1;0;0;1;1
"galerie linz paris";0;0;1;6;0;0;1;6
"denis raphael";0;0;1;2;0;0;1;2
"francois poulat";0;0;2;4;0;0;1;4;0;0;1;4
"rêve - ville reims";0;0;1;10;0;0;1;10
"francois morrelet";0;0;1;11;0;0;1;11
"olivier borst";0;0;2;7;0;0;1;7;0;0;1;7
"bertrand meunier";0;0;5;5.6;0;0;3;8;0;0;2;2
"heiner meyer";0;0;1;6;0;0;1;6
"peintre brésilien contemporain";0;0;1;9;0;0;1;9
"""zelda bomba""";0;0;3;1.6666666666667;0;0;3;1.6666666666667
"raisons pour investir";0;0;4;19;0;0;4;19
"isabelle cochereau";0;0;3;6;0;0;3;6
"banksy oeuvre";0;0;9;7.7777777777778;0;0;5;7;0;0;3;9;0;0;1;8
"carl andré";0;0;17;6.5294117647059;0;0;2;7;0;0;3;8
"zao wou ki oeuvres";0;0;2;32;0;0;2;32
"jean christophe ballot";0;0;1;8;0;0;1;8
"blanche neige art";0;0;2;10;0;0;2;10
malysse;0;0;1;8;0;0;1;8
"claudine legrand";0;0;2;5.5;0;0;2;5.5
moschini;0;0;1;6;0;0;1;6
"sayed haider raza";0;0;1;10;0;0;1;10
"arnaud franc";0;0;1;5;0;0;1;5
"the who";0;0;1;231;0;0;1;231
"alfredo lopez";0;0;4;5;0;0;3;5;0;0;1;5
"césar baldaccini";0;0;16;8.75;0;0;8;8;0;0;7;9.5714285714286;0;0;1;9
"fabrice hyber";0;0;22;5.8636363636364;0;0;19;5.6842105263158;0;0;3;7
"stephane gautier";0;0;8;4.25;0;0;3;4;0;0;3;4.6666666666667;0;0;2;4
"dalila dalléas bouzar";0;0;2;10;0;0;1;10;0;0;1;10
"les artistes";0;0;1;2;0;0;1;2
"multiple store";0;0;1;10
"villa zheng";0;0;1;10;0;0;1;10
"mathilde le cabellec";0;0;2;6;0;0;1;6;0;0;1;6
besher;0;0;3;4.6666666666667;0;0;2;4.5;0;0;1;5
"pussy little";0;0;1;13;0;0;1;13
"oeuvre de joan miro";0;0;5;11;0;0;5;11
"zhou hongbin";0;0;1;8;0;0;1;8
bossard;0;0;1;86;0;0;1;86
"aillaud peintre";0;0;4;8;0;0;2;8;0;0;2;8
"oeuvres max ernst";0;0;1;10;0;0;1;10
"hains raymond";0;0;2;8;0;0;2;8
"tanc artiste";0;0;2;3.5;0;0;1;4;0;0;1;3
pixart;0;0;51;5.1176470588235;0;0;36;4.8888888888889;0;0;10;6.1;0;0;5;4.8
"bruno catalano tarif";0;0;1;9;0;0;1;9
"nan miller gallery";0;0;1;82;0;0;1;82
"on a vole la pomme d'adam tableau";0;0;1;6;0;0;1;6
"sam francis oeuvres";0;0;1;7;0;0;1;7
"robe verte";0;0;1;61;0;0;1;61
"anne haugmard";0;0;1;25
"delphine brochand";0;0;2;1;0;0;1;1;0;0;1;1
"signature andy warhol";0;0;1;9;0;0;1;9
"caroline poulet";0;0;1;4;0;0;1;4
"polin italie";0;0;1;10;0;0;1;10
"louis stettner photos";0;0;1;6;0;0;1;6
"emmanuel pons";0;0;1;9;0;0;1;9
"peinture julien";0;0;1;23;0;0;1;23
"michel le belhomme";0;0;6;6.8333333333333;0;0;5;7.2
"art mystique";0;0;2;57
"murakami oeuvre";0;0;1;4
"patrick naggar";0;0;3;7
"honegger gottfried";0;0;1;8;0;0;1;8
"dok graffiti";0;0;1;3
"jr oeuvre";0;0;1;6
"robert mapplethorpe";0;0;2;27
"artiste india";0;0;2;7;0;0;1;8
"laurent martinez facebook";0;0;1;10;0;0;1;10
"troussier joelle";0;0;2;5
"grégoire dalle";0;0;2;6
"keith haring oeuvres";0;0;35;8.0571428571429;0;0;6;9;0;0;4;9.25
"robert bradford";0;0;3;2;0;0;1;2
"françois houtin";0;0;2;11
"galeries d'art en ligne";0;0;1;1
"di rosa peintre";0;0;7;3.4285714285714;0;0;6;3.5
"baldaccini cesar";0;0;1;6
bona;0;0;1;332
"dubuffet peinture";0;0;1;5
"jr artiste de rue";0;0;1;11
"oeuvre miro";0;0;3;8;0;0;3;8
"erró oeuvres";0;0;1;8;0;0;1;8
"qui est ernest pignon ernest";0;0;1;11;0;0;1;11
"david gerstein wikipedia";0;0;1;4
"willy bracciano";0;0;1;166;0;0;1;166
"ilona kiss";0;0;1;9;0;0;1;9
guayasamin;0;0;1;11;0;0;1;11
"jean paul barray";0;0;1;6;0;0;1;6
"guyomard sylvie facebook";0;0;1;6;0;0;1;6
"en plastique contact river marne -";0;0;1;173;0;0;1;173
"willy ronis le petit parisien";0;0;1;1;0;0;1;1
litao;0;0;1;9;0;0;1;9
"amaury mulliez";0;0;2;6.5;0;0;1;7;0;0;1;6
"victor richardson";0;0;1;3;0;0;1;3
"tom wesselmann sculpture";0;0;1;4;0;0;1;4
"julien cresp";0;0;1;6;0;0;1;6
"acheter art moderne";0;0;2;1;0;0;2;1
"sylvie fleury biographie";0;0;1;2;0;0;1;2
"bernard prass";0;0;1;3;0;0;1;3
"daniel nadaud";0;0;1;6;0;0;1;6
"aurelie tomas";0;0;5;5;0;0;1;5;0;0;3;5;0;0;1;5
"gautier stephane";0;0;1;9;0;0;1;9
"andre nadal";0;0;1;5;0;0;1;5
"flower puppy jeff koons";0;0;1;7;0;0;1;7
batory;0;0;1;33;0;0;1;33
"sebastien layral";0;0;2;4.5;0;0;2;4.5
"galerie anagama";0;0;1;8;0;0;1;8
"peter blake artiste";0;0;1;5;0;0;1;5
"greg leon guillemin";0;0;5;7;0;0;2;7;0;0;3;7
"pascale barret";0;0;1;10;0;0;1;10
"reproduction jonone";0;0;1;2;0;0;1;2
"toxic graffiti";0;0;1;5;0;0;1;5
"hank china";0;0;1;7;0;0;1;7
"barthes de ruyter";0;0;2;2;0;0;2;2
"sylvie fleury oeuvres";0;0;2;3;0;0;2;3
"oeuvre d'art avec des pommes";0;0;1;6;0;0;1;6
"acheter de l art en ligne";0;0;2;1;0;0;2;1
"lampe verre de murano";0;0;1;21;0;0;1;21
"galerie jonone";0;0;2;4;0;0;2;4
markus&koala;0;0;1;15;0;0;1;15
fubiz;0;0;3;38;0;0;3;38
"denis rouvre biographie";0;0;2;3;0;0;2;3
gorodine;0;0;3;4.3333333333333;0;0;3;4.3333333333333
"sandy skoglund oeuvres";0;0;1;4;0;0;1;4
"franck lundangi";0;0;1;5;0;0;1;5
"galeriste d'art";0;0;1;5;0;0;1;5
"jacque villeglé";0;0;1;4;0;0;1;4
"kate moss";0;0;1;176;0;0;1;176
"mb factory";0;0;1;8;0;0;1;8
"tilt street art";0;0;6;5.3333333333333;0;0;5;5.4;0;0;1;5
"fetish pied";0;0;1;45;0;0;1;45
"art angleterre";0;0;1;7;0;0;1;7
"art sculpture contemporaine";0;0;3;2;0;0;3;2
"matthew tyson";0;0;1;1;0;0;1;1
"elisabeth lecourt";0;0;3;7.3333333333333;0;0;2;6;0;0;1;10
"less is more art";0;0;1;6;0;0;1;6
"perrier affiche";0;0;1;26;0;0;1;26
"zofia photo";0;0;1;201;0;0;1;201
"david bowie wolf";0;0;1;1;0;0;1;1
"christy lee";0;0;2;5;0;0;2;5
"vente tableau contemporain";0;0;3;2;0;0;2;2;0;0;1;2
"statue deesse";0;0;4;9.5;0;0;2;9.5;0;0;1;10;0;0;1;9
"biographie keith haring";0;0;2;9;0;0;1;9;0;0;1;9
"dubuffet oeuvres";0;0;5;4.2;0;0;4;4;0;0;1;5
"miracle loader";0;0;1;10;0;0;1;10
"oeuvre unique";0;0;1;6;0;0;1;6
"jean dubuffet oeuvre";0;0;1;5;0;0;1;5
"jerome mesnager";0;0;22;3.5909090909091;0;0;10;3.1;0;0;11;4;0;0;1;4
"jamie hewlett kid";0;0;1;2;0;0;1;2
"costa peintre";0;0;2;4.5;0;0;2;4.5
"helder batista";0;0;1;5;0;0;1;5
"leon guillemin";0;0;2;4;0;0;2;4
"laetitia giraud";0;0;3;5;0;0;3;5
"murielle vanhove";0;0;3;5;0;0;3;5
"raphael tachdjian";0;0;1;7;0;0;1;7
telemaque;0;0;1;49;0;0;1;49
"c'est pour avril";0;0;1;234;0;0;1;234
"lithographie art contemporain";0;0;1;30;0;0;1;30
"pauline dufour";0;0;1;5;0;0;1;5
"james wigger";0;0;1;4;0;0;1;4
"luc lacroix";0;0;1;8;0;0;1;8
"galerie argentic";0;0;20;5.7;0;0;8;5.25;0;0;11;6;0;0;1;6
"yo marchand";0;0;1;3;0;0;1;3
mpah;0;0;1;2;0;0;1;2
risote;0;0;3;6.6666666666667;0;0;1;8;0;0;2;6
"oleg dou";0;0;8;3.375;0;0;6;3;0;0;1;3;0;0;1;6
"monica bellucci x";0;0;1;15;0;0;1;15
"gerstein david";0;0;4;3.25;0;0;1;3;0;0;3;3.3333333333333
"orlinski crocodile";0;0;1;7;0;0;1;7
"sun7 artiste";0;0;1;3;0;0;1;3
saudek;0;0;1;10;0;0;1;10
"christophe goutal";0;0;5;2.6;0;0;3;2;0;0;2;3.5
"roberto greco";0;0;1;9;0;0;1;9
"martin reyna";0;0;6;3.8333333333333;0;0;4;4.25;0;0;2;3
graphito;0;0;2;10;0;0;1;9;0;0;1;11
"durix julien";0;0;3;1;0;0;1;1;0;0;2;1
"sculpture d'art contemporain";0;0;2;2;0;0;2;2
"nuance et lumière";0;0;4;3;0;0;4;3
"artiste japonaise contemporaine";0;0;2;7;0;0;2;7
"site galerie d'art";0;0;1;1;0;0;1;1
"bert stern marilyn";0;0;1;24;0;0;1;24
"art sculpture";0;0;1;20;0;0;1;20
"ten art";0;0;1;2;0;0;1;2
"joan miro oeuvre";0;0;1;11;0;0;1;11
"léopold rabus";0;0;1;7;0;0;1;7
"jerome menager";0;0;2;5.5;0;0;1;6;0;0;1;5
lokiss;0;0;3;9.3333333333333;0;0;1;10;0;0;2;9
"tony franck";0;0;2;8.5;0;0;1;8;0;0;1;9
"vente oeuvre d art";0;0;6;1;0;0;6;1
"philippe gourier";0;0;1;6;0;0;1;6
"cyril olanier";0;0;1;3;0;0;1;3
compoint;0;0;1;13;0;0;1;13
"france mitrofanoff";0;0;1;3;0;0;1;3
assalit;0;0;2;6.5;0;0;2;6.5
pigeaut;0;0;1;10;0;0;1;10
"pablito zago";0;0;5;5.6;0;0;3;6;0;0;2;5
"peinture art contemporain";0;0;7;2.1428571428571;0;0;4;2.25;0;0;2;2;0;0;1;2
pigeau;0;0;1;7;0;0;1;7
"lucian freud oeuvres";0;0;1;11;0;0;1;11
"aline robin";0;0;2;5;0;0;1;5;0;0;1;5
"jef aérosol street art";0;0;1;5;0;0;1;5
"eric la pierre";0;0;1;5;0;0;1;5
"picasso œuvres d'art";0;0;1;19;0;0;1;19
"oeuvre banksy";0;0;8;7.875;0;0;2;7;0;0;6;8.1666666666667
"orlan œuvres d'art";0;0;1;7;0;0;1;7
paxal;0;0;1;8;0;0;1;8
"galerie oneiro";0;0;2;3;0;0;2;3
nebay;0;0;1;2;0;0;1;2
"tof vanmarque";0;0;2;6;0;0;2;6
"22 gallery";0;0;1;9
"monsieur chat street art";0;0;2;8;0;0;2;8
"argentic galerie";0;0;3;3;0;0;3;3
"banksy œuvres d-art";0;0;1;8;0;0;1;8
"lampe traditionnelle oeuvre d'art";0;0;1;12;0;0;1;12
"anaïs boudot";0;0;1;4;0;0;1;4
"kim minjung";0;0;1;16;0;0;1;16
"el koor";0;0;3;5.6666666666667;0;0;2;6;0;0;1;5
"durix vichy";0;0;1;7;0;0;1;7
"ernst oeuvres";0;0;2;6;0;0;2;6
"jean du buffet";0;0;5;10.4;0;0;1;10;0;0;1;10;0;0;3;10.666666666667
"galerie 44";0;0;2;8;0;0;1;8;0;0;1;8
"marco barbon";0;0;2;7;0;0;2;7
"tete de poire";0;0;2;9;0;0;2;9
"mel ramos artist";0;0;1;10;0;0;1;10
"oeuvre d'art originale";0;0;4;2;0;0;3;2;0;0;1;2
"pauvre con";0;0;1;59;0;0;1;59
"joel andrianomearisoa";0;0;1;14;0;0;1;14
"bahareh navabi";0;0;1;6;0;0;1;6
"galerie d'art en ligne";0;0;25;1.16;0;0;18;1.2222222222222;0;0;5;1;0;0;2;1
"liechtensteinische stiftung";0;0;1;68;0;0;1;68
"charles fazzino";0;0;8;3.625;0;0;6;3.1666666666667;0;0;1;5;0;0;1;5
"clarisse rebotier";0;0;4;3.75;0;0;3;3.6666666666667;0;0;1;4
"füssli le cauchemar";0;0;1;29;0;0;1;29
"toile d artiste peintre";0;0;1;100;0;0;1;100
"jin bo";0;0;2;6.5;0;0;1;6;0;0;1;7
"nani champy schott";0;0;1;3;0;0;1;3
"liu xiaofang";0;0;1;6;0;0;1;6
"troy henriksen prix tableau";0;0;1;1;0;0;1;1
"ayline olukman";0;0;1;4;0;0;1;4
"sculpteur cesar";0;0;1;11;0;0;1;11
"lapierre eric";0;0;1;8;0;0;1;8
"clement denis";0;0;3;9.3333333333333;0;0;2;9.5;0;0;1;9
"cecile charron";0;0;3;4;0;0;3;4
"tete de guerrier";0;0;2;2;0;0;2;2
totomobile;0;0;1;34;0;0;1;34
banq;0;0;2;41;0;0;2;41
truka;0;0;2;8;0;0;2;8
"albert chubac";0;0;1;3;0;0;1;3
"charlotte champion";0;0;1;3;0;0;1;3
"philippe pasqua cote";0;0;1;1;0;0;1;1
"francois lefranc";0;0;2;12;0;0;2;12
"shepard fairey bio";0;0;1;5;0;0;1;5
"the little black gallery";0;0;1;3;0;0;1;3
"bernard chauveau";0;0;6;7.6666666666667;0;0;5;7.6;0;0;1;8
"canapé jaune";0;0;1;30;0;0;1;30
infinissable;0;0;3;7;0;0;3;7
"vente collioure le seris 2002";0;0;1;42
"art du bondage";0;0;1;39;0;0;1;39
"robert barry";0;0;5;5.4;0;0;5;5.4
levistre;0;0;1;10;0;0;1;10
"bagage homme blanc";0;0;1;41;0;0;1;41
"galerie belgique";0;0;2;3;0;0;2;3
"clement denis peintre";0;0;2;5;0;0;2;5
"peinture du 21ème siècle";0;0;1;10;0;0;1;10
"sculpture resine";0;0;1;33;0;0;1;33
contemporains;0;0;1;10;0;0;1;10
"jone one";0;0;1;6;0;0;1;6
"littles pussies";0;0;1;10;0;0;1;10
"claude champy";0;0;6;7;0;0;6;7
"boo 4";0;0;2;7;0;0;2;7
"dganit blechner";0;0;1;3;0;0;1;3
"charlélie couture peinture";0;0;3;3;0;0;3;3
"virginie barrou planquart";0;0;3;8.3333333333333;0;0;1;9;0;0;2;8
lecourt;0;0;1;24;0;0;1;24
"la micro galerie";0;0;1;8;0;0;1;8
"galerie bayart";0;0;5;4.8;0;0;4;4.5;0;0;1;6
"roger holtom";0;0;1;6;0;0;1;6
"palladium dalva femme";0;0;2;80;0;0;2;80
"sculpteur japonais contemporain";0;0;4;10;0;0;4;10
"zed artiste";0;0;2;3;0;0;2;3
"jean-pierre nadau";0;0;1;1;0;0;1;1
"galerie duret";0;0;3;5.3333333333333;0;0;3;5.3333333333333
"ten arts";0;0;1;2
"galerie numero 1";0;0;5;3.8;0;0;1;3;0;0;2;4;0;0;2;4
"achat oeuvre d'art";0;0;4;1;0;0;3;1;0;0;1;1
"street art chat";0;0;2;8
"galerie maison dauphine";0;0;2;4;0;0;2;4
"jean paul moscovino";0;0;1;3;0;0;1;3
"art nue";0;0;1;13;0;0;1;13
"oeuvre d'art moderne";0;0;14;2;0;0;7;2;0;0;3;2;0;0;4;2
"ernest pignon ernest biographie";0;0;6;10;0;0;4;10;0;0;2;10
"kiddy citny";0;0;3;6.3333333333333;0;0;1;8;0;0;2;5.5
"photographie d'art en ligne";0;0;4;2;0;0;3;2;0;0;1;2
"vente art contemporain";0;0;4;1;0;0;3;1;0;0;1;1
"oeuvre jr";0;0;2;5;0;0;2;5
"max ernst oeuvres";0;0;1;7;0;0;1;7
"julien calot";0;0;5;2.2;0;0;5;2.2
"vasseur philippe";0;0;1;24;0;0;1;24
"philippe brosse";0;0;4;3.5;0;0;1;3;0;0;3;3.6666666666667
"mélanie peduzzi";0;0;4;2.5;0;0;3;2;0;0;1;4
"gregoire dalle";0;0;3;5;0;0;3;5
"la fratrie artiste";0;0;1;3;0;0;1;3
"recits lubriques";0;0;1;201
"murielle belin";0;0;6;6.8333333333333;0;0;5;7;0;0;1;6
"akiza galerie";0;0;1;11;0;0;1;11
"galerie joel knafo";0;0;1;4;0;0;1;4
dratwa;0;0;1;6;0;0;1;6
"fubiz facebook";0;0;1;33
mrsex;0;0;8;13.375;0;0;2;15.5;0;0;4;16;0;0;2;6
"femme en bas de soie";0;0;1;52
"isabelle bonzom";0;0;3;3;0;0;1;3
"peintre combas";0;0;3;4;0;0;1;4;0;0;1;5
"jacques renoir";0;0;5;9;0;0;1;10
"dubuffet jean oeuvres";0;0;2;5
"torse dhomme";0;0;4;9;0;0;4;9
"oeuvre d'art sculpture";0;0;1;7
"tom wesslmann";0;0;2;6;0;0;2;6
"catherine bertaud";0;0;1;1;0;0;1;1
"galerie brugier rigail";0;0;9;6;0;0;3;6;0;0;2;6.5
"jacque villegle";0;0;1;3;0;0;1;3
"peinture murale gris dior";0;0;1;59;0;0;1;59
"vente art contemporain en ligne";0;0;1;1;0;0;1;1
"oeuvre masculin";0;0;1;19;0;0;1;19
"gateau oeuvre d'art";0;0;1;10;0;0;1;10
"portrait oeuvre d'art";0;0;1;10;0;0;1;10
mitrofanoff;0;0;1;9;0;0;1;9
"jean michel turpin";0;0;2;5.5;0;0;2;5.5
"oeuvres banksy";0;0;1;8
"jonone paris";0;0;1;4;0;0;1;4
"nuance et lumiere";0;0;2;3;0;0;2;3
"oeuvre d'art unique";0;0;2;2
"galerie garnier delaporte";0;0;1;4;0;0;1;4
shigong;0;0;1;3
"henni alftan";0;0;2;6;0;0;1;5
"acheter art contemporain";0;0;4;1
"damien hirst oeuvre";0;0;2;6;0;0;1;6
"patrick loste artiste peintre";0;0;1;8
"hicham gardaf";0;0;1;16;0;0;1;16
"art contemporain galerie";0;0;1;6
"michal batory";0;0;1;10;0;0;1;10
"stephane dauthuille";0;0;1;10;0;0;1;10
"antoine correia";0;0;4;4;0;0;4;4
"françoise danel peintre";0;0;1;3;0;0;1;3
"galeries d arts";0;0;1;11;0;0;1;11
"aude carre";0;0;1;5;0;0;1;5
"gautier deblonde";0;0;2;2.5;0;0;1;3;0;0;1;2
"vente sculpture contemporaine";0;0;2;1;0;0;1;1;0;0;1;1
"jake art";0;0;1;5;0;0;1;5
"germain plouvier";0;0;3;4.3333333333333;0;0;3;4.3333333333333
"achat contemporain paris";0;0;1;5;0;0;1;5
"annette messager oeuvre";0;0;5;7;0;0;5;7
"oeuvres de keith haring";0;0;11;8.0909090909091;0;0;8;7.75;0;0;3;9
"jean louis pons";0;0;1;120;0;0;1;120
"déesse sculpture";0;0;2;9;0;0;2;9
"manessier expo paris";0;0;1;29;0;0;1;29
"max ernst oeuvre";0;0;4;10;0;0;4;10
zalez;0;0;1;5;0;0;1;5
"andrew mcattee";0;0;1;7;0;0;1;7
lachize;0;0;1;9;0;0;1;9
"nicolas nicolini";0;0;1;6;0;0;1;6
"vente art en ligne";0;0;5;1;0;0;4;1;0;0;1;1
"isabelle chapuis";0;0;1;14;0;0;1;14
"alistair taylor young";0;0;2;7;0;0;2;7
"frisee nue";0;0;1;25;0;0;1;25
"murakami art";0;0;1;10;0;0;1;10
"michael bastow";0;0;1;8;0;0;1;8
"cécile desserle";0;0;2;5;0;0;2;5
"gallerie dart";0;0;1;6;0;0;1;6
"vente bronze";0;0;1;38;0;0;1;38
"scanavino emilio";0;0;1;4;0;0;1;4
"oeuvres de benjamin vautier";0;0;1;10;0;0;1;10
"stephanie de rouge";0;0;2;9.5;0;0;1;9;0;0;1;10
"david walker artiste";0;0;1;8;0;0;1;8
"elsa guillaume";0;0;5;6;0;0;4;6;0;0;1;6
"damien charlier";0;0;1;374;0;0;1;374
dirosa;0;0;2;5.5;0;0;2;5.5
"drm galerie";0;0;2;4.5;0;0;1;5;0;0;1;4
"sandra krasker";0;0;4;5;0;0;4;5
"obey artiste";0;0;1;4;0;0;1;4
"jacques lacroix";0;0;9;7.8888888888889;0;0;5;8;0;0;4;7.75
"contemporary art club";0;0;1;3;0;0;1;3
"james mackeown";0;0;4;5.75;0;0;2;5;0;0;1;8;0;0;1;5
"roy lichtenstein as i opened fire";0;0;1;4;0;0;1;4
"oeuvre de bernard buffet";0;0;1;6;0;0;1;6
"vanité art";0;0;2;18;0;0;2;18
speedygraphito;0;0;15;5;0;0;15;5
"art cubique";0;0;3;6.6666666666667;0;0;1;6;0;0;2;7
"sculpture sumo";0;0;1;9;0;0;1;9
"peintre pezenas";0;0;1;7;0;0;1;7
"peintre drouet";0;0;5;6;0;0;4;6;0;0;1;6
"achat peinture";0;0;1;62;0;0;1;62
"thomas labarthe";0;0;1;4;0;0;1;4
"cat soubbotnik";0;0;2;6;0;0;1;6;0;0;1;6
"sculpture panda";0;0;2;10;0;0;1;10;0;0;1;10
"art et scalp";0;0;1;13;0;0;1;13
"artiste peintre japonais contemporain";0;0;1;9;0;0;1;9
"nathan chantob artiste peintre";0;0;1;3;0;0;1;3
"nils udo biographie";0;0;1;3;0;0;1;3
"composition in blue";0;0;1;10;0;0;1;10
"jean claude deutsch";0;0;1;5;0;0;1;5
"jung min choi";0;0;1;6;0;0;1;6
"anthony clarke basquiat";0;0;1;4;0;0;1;4
"claire fahys";0;0;1;2;0;0;1;2
"mahjoub ben bella prix";0;0;1;3;0;0;1;3
"maya hayuk";0;0;1;10;0;0;1;10
"dan flavin fluored";0;0;5;10;0;0;5;10
"prince and princess art gallery";0;0;1;4;0;0;1;4
"andy warhol b";0;0;1;4;0;0;1;4
"cote jonone";0;0;1;4;0;0;1;4
"portrait miroir";0;0;1;10;0;0;1;10
"""2 plus thirty nine"" ""exposition""";0;0;1;86;0;0;1;86
"stephane pencreach";0;0;1;6;0;0;1;6
"photo d'art pas cher";0;0;1;3;0;0;1;3
"coq multicolore";0;0;3;5.3333333333333;0;0;3;5.3333333333333
"wang tingting";0;0;1;5;0;0;1;5
kamasutra;0;0;1;105;0;0;1;105
"totem art contemporain";0;0;1;9;0;0;1;9
"sandy skoglund";0;0;5;7.2;0;0;4;7;0;0;1;8
belie;0;0;3;11;0;0;1;11;0;0;2;11
keza;0;0;1;10;0;0;1;10
raboniak;0;0;1;6;0;0;1;6
"roy sfeir";0;0;1;5;0;0;1;5
"djamel artiste";0;0;2;19;0;0;2;19
"damien hirst œuvres d'art";0;0;1;11;0;0;1;11
"comhghall casey";0;0;1;5;0;0;1;5
"site d'art en ligne";0;0;4;1;0;0;4;1
"monsieur le chat";0;0;8;7.875;0;0;5;6.8;0;0;3;9.6666666666667
"prix sculpture";0;0;1;6;0;0;1;6
"acheter banksy";0;0;1;5;0;0;1;5
"michel gueranger";0;0;1;2;0;0;1;2
"art abscon";0;0;1;212;0;0;1;212
"tableau art contemporain pas cher";0;0;1;6;0;0;1;6
"mimmo rotella oeuvres";0;0;4;9.75;0;0;4;9.75
"duong le thai";0;0;4;4.5;0;0;4;4.5
"jacques villeglé affiches lacérées";0;0;1;7;0;0;1;7
"peinture monochrome noir";0;0;3;7;0;0;3;7
"mr sex";0;0;512;6.998046875;0;0;151;7.0728476821192;0;0;329;6.9544072948328;0;0;32;7.09375
"toile cirée contemporaine";0;0;1;99;0;0;1;99
"achat sculpture";0;0;2;1;0;0;2;1
"on s'eclate avec toto";0;0;3;6.3333333333333;0;0;3;6.3333333333333
"gérard schlosser";0;0;6;5.1666666666667;0;0;5;5.2;0;0;1;5
"julie de waroquier";0;0;1;36;0;0;1;36
"clément cogitore";0;0;2;21.5;0;0;2;21.5
"huart philippe";0;0;1;4;0;0;1;4
"le cha noir";0;0;1;6;0;0;1;6
"bibliothèque louis xvi";0;0;1;39;0;0;1;39
"galeries d'art";0;0;1;5;0;0;1;5
"michel mesnager";0;0;1;26;0;0;1;26
"peinture dark vador";0;0;2;4;0;0;2;4
"hervé perdriel";0;0;5;3.2;0;0;3;4;0;0;1;1;0;0;1;3
"galerie art en ligne";0;0;8;1;0;0;4;1;0;0;3;1;0;0;1;1
"gottfried salzmann";0;0;4;7.5;0;0;3;7.3333333333333;0;0;1;8
"tribu carnivore";0;0;18;7;0;0;4;7;0;0;9;7;0;0;5;7
"etienne viard sculpteur";0;0;4;2;0;0;4;2
"ventes peinture";0;0;1;5;0;0;1;5
"vincent peters facebook";0;0;1;9;0;0;1;9
"jana js";0;0;1;6;0;0;1;6
"françois morrelet";0;0;1;8;0;0;1;8
"jacques villeglé oeuvres";0;0;2;3;0;0;2;3
"jean georges inca";0;0;1;2;0;0;1;2
butfuck;0;0;1;9;0;0;1;9
"biographie de jeff koons";0;0;2;10;0;0;2;10
"antoine geiger";0;0;1;6;0;0;1;6
"easy sacha";0;0;12;8.8333333333333;0;0;7;8.7142857142857;0;0;4;9;0;0;1;9
"laurent roux";0;0;1;22;0;0;1;22
"chamizo prix";0;0;3;5.3333333333333;0;0;3;5.3333333333333
noart;0;0;10;10.5;0;0;4;10;0;0;5;10.8;0;0;1;11
"arnaud paillard";0;0;2;6;0;0;1;7;0;0;1;5
"icone du rock";0;0;1;9;0;0;1;9
"nicolas dubreuille";0;0;10;3;0;0;6;3.6666666666667;0;0;1;2;0;0;3;2
"continuum tabouret vente";0;0;1;22;0;0;1;22
"photographie artistique noir et blanc";0;0;1;45;0;0;1;45
"livraison peinture";0;0;1;97;0;0;1;97
"animaux x";0;0;1;160;0;0;1;160
"françois harray";0;0;1;7;0;0;1;7
"botticelli oeuvres";0;0;1;23;0;0;1;23
"artiste en vogue";0;0;1;2;0;0;1;2
"massimo vitali photographe";0;0;2;3;0;0;2;3
"dinard office du tourisme";0;0;1;26;0;0;1;26
morisse;0;0;1;8;0;0;1;8
"etiyé dimma poulsen";0;0;3;4;0;0;3;4
"bernard pras biographie";0;0;2;2;0;0;2;2
poes;0;0;9;3;0;0;3;3;0;0;2;3;0;0;4;3
"pierre alex photo";0;0;2;1;0;0;1;1;0;0;1;1
"oeuvres de nils udo";0;0;1;6;0;0;1;6
"art jingle";0;0;3;4;0;0;3;4
"helion peintre";0;0;2;9;0;0;2;9
"bernard buffet peintre";0;0;4;8;0;0;2;7.5;0;0;2;8.5
"murakami peintre";0;0;4;6.5;0;0;2;7;0;0;2;6
"artiste peintre performer";0;0;1;46;0;0;1;46
"herve di rosa";0;0;11;3.6363636363636;0;0;4;3;0;0;7;4
"barthes christophe";0;0;1;14;0;0;1;14
"galerie double s";0;0;1;7;0;0;1;7
"jonone graffiti";0;0;3;7.3333333333333;0;0;3;7.3333333333333
"sylvain rocher";0;0;1;30;0;0;1;30
"julien raynaud";0;0;10;4.2;0;0;5;4;0;0;2;5;0;0;3;4
"artiste erro";0;0;2;8.5;0;0;2;8.5
"edmée delsol";0;0;1;5;0;0;1;5
"galeries d art contemporain";0;0;1;1;0;0;1;1
"galerie d.x";0;0;1;4;0;0;1;4
"rafael gomezbarros";0;0;2;8;0;0;2;8
"gwenael billaud";0;0;1;2;0;0;1;2
"narcose serie";0;0;1;7;0;0;1;7
"alain clement";0;0;3;5;0;0;2;4.5;0;0;1;6
"jean michel basquiat";0;0;1;11;0;0;1;11
athur;0;0;10;10;0;0;4;10;0;0;6;10
"armand artiste contemporain";0;0;2;5;0;0;2;5
jingdong;0;0;1;38;0;0;1;38
"jonone lacoste";0;0;1;10;0;0;1;10
"chantal porras";0;0;2;2;0;0;2;2
"sylvie koechlin";0;0;3;11.666666666667;0;0;2;12.5;0;0;1;10
"patrick guidot";0;0;1;4;0;0;1;4
"laurence nicola";0;0;1;3;0;0;1;3
"mike angelo";0;0;3;26;0;0;2;27;0;0;1;24
"chat mr";0;0;1;7;0;0;1;7
"les artistes contemporains";0;0;1;8;0;0;1;8
"jana & js";0;0;3;7.6666666666667;0;0;1;10;0;0;1;6;0;0;1;7
"tabouret devlin";0;0;1;37;0;0;1;37
"alain clément";0;0;5;4.8;0;0;5;4.8
"galerie unik";0;0;3;3.6666666666667;0;0;1;4;0;0;2;3.5
"vente d'oeuvre d'art en ligne";0;0;2;1;0;0;2;1
"vincent peters";0;0;1;9;0;0;1;9
"françoise pétrovitch";0;0;3;6;0;0;3;6
"philippe pasqua";0;0;8;5.875;0;0;8;5.875
chantob;0;0;1;2;0;0;1;2
"m-city street art";0;0;1;6;0;0;1;6
"sculture art";0;0;1;8;0;0;1;8
"nicolas touron";0;0;1;8;0;0;1;8
"philippe buil";0;0;4;5.25;0;0;3;5;0;0;1;6
"teddy troops";0;0;3;8;0;0;3;8
"elias artiste";0;0;1;10;0;0;1;10
"uffe weiland";0;0;1;1;0;0;1;1
"galerie w";0;0;10;5.4;0;0;5;5;0;0;2;6;0;0;3;5.6666666666667
"olivia clavel";0;0;3;5;0;0;3;5
"souris sur le gateau";0;0;1;7;0;0;1;7
"marvin aillaud";0;0;1;3;0;0;1;3
"françois morellet";0;0;38;8.1842105263158;0;0;25;7.84;0;0;8;9.125;0;0;5;8.4
"joseph beuys oeuvres";0;0;1;10;0;0;1;10
"nguyen the";0;0;1;13;0;0;1;13
"ivan alifan";0;0;1;2;0;0;1;2
"fanny dubois";0;0;6;7.8333333333333;0;0;5;8;0;0;1;7
"menjinski artiste";0;0;1;2;0;0;1;2
"site vente art";0;0;1;1;0;0;1;1
"fantasmes x";0;0;1;236;0;0;1;236
"lolita nue";0;0;2;20.5;0;0;1;18;0;0;1;23
"nathalie dhenaut";0;0;1;5;0;0;1;5
"acheter une oeuvre d art contemporain";0;0;2;1;0;0;2;1
"julien raynaud facebook";0;0;1;8;0;0;1;8
"arnaud elias";0;0;4;9.25;0;0;1;9;0;0;3;9.3333333333333
"qi chien";0;0;1;5;0;0;1;5
"andy warhol francais";0;0;1;10;0;0;1;10
mastercha;0;0;1;7;0;0;1;7
"galerie d'art en ligne contemporain";0;0;1;1;0;0;1;1
deblonde;0;0;2;5;0;0;1;5;0;0;1;5
"christophe fisher";0;0;1;8;0;0;1;8
"vente d'art contemporain";0;0;2;1;0;0;2;1
"galerie de mars";0;0;3;10;0;0;2;10;0;0;1;10
"acheter sculpture";0;0;1;1;0;0;1;1
"greg gorman";0;0;1;10;0;0;1;10
"exposition manessier paris";0;0;1;21;0;0;1;21
"biographie de jean dubuffet";0;0;1;5;0;0;1;5
"jérôme lagarrigue";0;0;1;6;0;0;1;6
"photographe d'art";0;0;1;59;0;0;1;59
"garde a l'oeil";0;0;2;10;0;0;2;10
"chacun son chemin";0;0;1;38;0;0;1;38
"galerie mondapart";0;0;4;6.75;0;0;3;6;0;0;1;9
"mes coloriages";0;0;1;23;0;0;1;23
"françoise petrovitch";0;0;2;6;0;0;2;6
"galerie contemporaine";0;0;1;5;0;0;1;5
"tete de guepard";0;0;3;4.6666666666667;0;0;1;4;0;0;2;5
"olivier courty";0;0;3;8.3333333333333;0;0;3;8.3333333333333
"jean pierre attal";0;0;8;3.125;0;0;2;2;0;0;3;5;0;0;3;2
"jean pierre tissier";0;0;2;6;0;0;2;6
"galerie bettina von arnim";0;0;1;4;0;0;1;4
"ipso france";0;0;2;29;0;0;2;29
"lame kyoto";0;0;1;22;0;0;1;22
"catherine lopes";0;0;1;8;0;0;1;8
"site oeuvre d'art";0;0;2;1;0;0;2;1
"léa chauvel-lévy";0;0;1;2;0;0;1;2
"galerie vivendi";0;0;1;3;0;0;1;3
"miro oeuvres";0;0;1;11;0;0;1;11
"hopkins peintre";0;0;1;1;0;0;1;1
"lisa sartorio";0;0;2;3;0;0;2;3
"turpin michel";0;0;1;9;0;0;1;9
"quentin carnaille";0;0;5;10.6;0;0;1;10;0;0;4;10.75
"acheter de l art";0;0;2;3;0;0;2;3
"galerie jean denis walter";0;0;1;8;0;0;1;8
grisor;0;0;2;4.5;0;0;1;8;0;0;1;1
"eva navarro";0;0;4;7.5;0;0;4;7.5
"hermann nitsch biografie";0;0;1;29;0;0;1;29
"françois machado";0;0;1;10;0;0;1;10
"oeuvre de cesar";0;0;5;7.8;0;0;1;7;0;0;3;8.6666666666667;0;0;1;6
"louis blanc photographie";0;0;1;9;0;0;1;9
"nues feminin";0;0;2;16.5;0;0;1;16;0;0;1;17
"oeuvre de banksy";0;0;19;7.4210526315789;0;0;14;7.1428571428571;0;0;4;8.25;0;0;1;8
"rakel wajnberg";0;0;1;1;0;0;1;1
"e galleries";0;0;6;9.8333333333333;0;0;6;9.8333333333333
"joan prats";0;0;1;12;0;0;1;12
"vente cornette de saint cyr";0;0;1;10;0;0;1;10
"benjamin deroche";0;0;6;7;0;0;3;7;0;0;2;7;0;0;1;7
"crane avec papillon";0;0;1;5;0;0;1;5
"composition suprématiste";0;0;1;11;0;0;1;11
"keith haring wikipedia";0;0;2;6;0;0;2;6
"carl andre";0;0;16;7.25;0;0;5;6.2;0;0;8;8;0;0;3;7
"maison dauphine";0;0;3;20.666666666667;0;0;3;20.666666666667
"sculpture marbre technique";0;0;1;27;0;0;1;27
"izabeau jousse";0;0;2;4;0;0;1;4;0;0;1;4
"mr patate";0;0;2;70;0;0;2;70
"marie maertens";0;0;2;6;0;0;1;7;0;0;1;5
"art vente en ligne";0;0;2;1;0;0;2;1
"bernard langenstein";0;0;1;5;0;0;1;5
"david harber";0;0;1;7;0;0;1;7
"haring keith oeuvres";0;0;1;9;0;0;1;9
"amsterdam paysage";0;0;1;70;0;0;1;70
"atlas blue";0;0;2;29;0;0;2;29
flower22;0;0;1;9;0;0;1;9
soubrette;0;0;1;117;0;0;1;117
"galerie sylvie lepage";0;0;1;2;0;0;1;2
".wang/ sanguine";0;0;1;332;0;0;1;332
"tombeau vide";0;0;1;50;0;0;1;50
"andy warhol oeuvres";0;0;1;28;0;0;1;28
"art traffik";0;0;2;2;0;0;1;2;0;0;1;2
"luc dratwa";0;0;2;10;0;0;2;10
"sculpture violon";0;0;1;5;0;0;1;5
"peintre costa";0;0;2;8;0;0;2;8
"art contemporain photographie";0;0;1;2;0;0;1;2
"vente d'art";0;0;7;1;0;0;1;1;0;0;2;1;0;0;4;1
"pierre francois grimaldi";0;0;1;2;0;0;1;2
tattu;0;0;2;9;0;0;2;9
"keith haring œuvres d'art";0;0;9;9.5555555555556;0;0;5;9.6;0;0;2;9;0;0;2;10
"isabelle levistre";0;0;1;2;0;0;1;2
"charbonnel sculpteur";0;0;7;4.2857142857143;0;0;5;4;0;0;1;4;0;0;1;6
"marvin watson";0;0;2;5;0;0;2;5
"art3f nice";0;0;1;18;0;0;1;18
"pierre dubrunquez";0;0;1;1;0;0;1;1
"l homme arbre";0;0;1;41;0;0;1;41
"jonone biographie";0;0;4;2.25;0;0;1;3;0;0;3;2
"obey shepard fairey biographie";0;0;1;4;0;0;1;4
"roland topor oeuvres";0;0;1;13;0;0;1;13
"acheter lithographie alain bonnefoit";0;0;1;23;0;0;1;23
"laurence dreyfus";0;0;1;1;0;0;1;1
fkdl;0;0;6;4.8333333333333;0;0;4;4;0;0;1;8;0;0;1;5
"bonhomme art";0;0;3;7;0;0;3;7
"villeglé jacques";0;0;2;3.5;0;0;2;3.5
"thierry diers";0;0;2;7;0;0;2;7
"slick art fair 2015";0;0;1;40;0;0;1;40
"galerie grand rue";0;0;3;4.6666666666667;0;0;3;4.6666666666667
"christophe charbonnel sculpteur";0;0;2;6;0;0;1;6;0;0;1;6
"sophie crystal";0;0;1;9;0;0;1;9
"valérie lefebvre";0;0;5;8.8;0;0;3;8.3333333333333;0;0;1;10;0;0;1;9
"thierry carrier";0;0;2;6.5;0;0;1;8;0;0;1;5
"galerie d'art contemporain en ligne";0;0;4;1;0;0;4;1
"oeuvre d'art a vendre";0;0;2;1;0;0;1;1;0;0;1;1
"project painters";0;0;1;7;0;0;1;7
"eduardo arroyo oeuvres";0;0;1;4;0;0;1;4
"sébastien bayet artiste peintre";0;0;6;1;0;0;4;1;0;0;2;1
"annina roescheisen";0;0;1;5;0;0;1;5
"ron english";0;0;6;4.5;0;0;2;4;0;0;2;5;0;0;2;4.5
"roman opalka biographie";0;0;4;7.75;0;0;3;8;0;0;1;7
"télémaque artiste";0;0;3;6.3333333333333;0;0;1;5;0;0;2;7
"bambi artwork";0;0;2;8;0;0;1;8;0;0;1;8
"guy denning";0;0;3;4.3333333333333;0;0;3;4.3333333333333
"dominique mulhem";0;0;2;3;0;0;2;3
"serie x femmes";0;0;1;31;0;0;1;31
"antonio segui peintre";0;0;1;9;0;0;1;9
"art life gallery";0;0;3;4;0;0;1;2;0;0;1;5;0;0;1;5
"envie dart";0;0;1;3;0;0;1;3
"chat oreille ronde";0;0;2;8;0;0;2;8
"awena cozannet";0;0;4;6;0;0;4;6
"vente de lithographie";0;0;1;50;0;0;1;50
"max ernst œuvres d'art";0;0;11;6.2727272727273;0;0;6;5.6666666666667;0;0;4;7;0;0;1;7
"flower puppy koons";0;0;1;7;0;0;1;7
kouka;0;0;2;5;0;0;1;5;0;0;1;5
iglesis;0;0;2;4;0;0;2;4
"dussac peintre";0;0;1;3;0;0;1;3
"oeuvres de joan miro";0;0;1;8;0;0;1;8
"chat peintre";0;0;3;6.3333333333333;0;0;3;6.3333333333333
"vente tzarina aucun";0;0;2;10
"shepard fairey skateboarding";0;0;1;10
"bossard peintre";0;0;2;5;0;0;2;5
pixrt;0;0;1;5
"denim sculpture";0;0;1;8
"jerome mesnager cote";0;0;2;2
"francois bard painter";0;0;1;2
"soutenir un regard";0;0;1;8
"ricardo leon";0;0;1;8
"art vitam";0;0;1;2
"henrietta dubrey";0;0;2;5
"thierry dussac peintre";0;0;1;3
"oeuvres jean dubuffet";0;0;1;6
keymi;0;0;2;8;0;0;3;9
"street art en france";0;0;1;76
"obey obama";0;0;1;10
"gérard clisson";0;0;1;5
"galerie d'art contemporain";0;0;7;4
"""benjamin vautier""";0;0;1;2
"ted nomad";0;0;1;4;0;0;2;8
"didier triglia artist";0;0;1;3
"claude levêque";0;0;1;9
"peinture charlie chaplin";0;0;1;10
"les chiens rouges";0;0;2;6
"stephanie slama";0;0;3;7
"lou ros";0;0;1;5;0;0;1;5
"déesse artiste";0;0;1;4;0;0;1;7
"oeuvre de keith haring";0;0;7;8.7142857142857;0;0;5;9;0;0;1;10
"1 an idees cadeaux";0;0;1;301
"peintre clisson";0;0;1;62
"couture peintre";0;0;1;5
"dubuffet peintre";0;0;2;3
"nicolas cessieux";0;0;1;1
"movie maker";0;0;1;70
"galerie bettina";0;0;1;7;0;0;4;8;0;0;1;8
erwann;0;0;1;92
"marilyn art";0;0;1;9
"pascale cayla";0;0;1;10
"paradisebird nude";0;0;1;4
"nicolas ducatteau";0;0;1;29
"thomas müller";0;0;1;43
"galerie roy sfeir";0;0;1;4;0;0;4;5
"eduard kac";0;0;1;10
"benjamin artiste";0;0;2;7;0;0;1;5
"bubble shooter";0;0;1;143
"stiftung liechtenstein";0;0;2;69.5
"david maheo";0;0;1;5
"sabine danzé";0;0;1;4
artop;0;0;3;9;0;0;1;9;0;0;2;9.5
zenoy;0;0;1;2
"orlan oeuvre";0;0;1;5;0;0;2;6
"sabine ren";0;0;1;2
"france art diffusion";0;0;1;2
"claude leveque";0;0;28;11.428571428571;0;0;15;10.466666666667;0;0;3;8
"maurice renoma";0;0;3;2.6666666666667;0;0;2;2;0;0;1;2
"oeuvre d art asiatique";0;0;2;11
"fabio de santis";0;0;1;6
"artiste belge contemporain";0;0;2;4
catte;0;0;3;2.3333333333333;0;0;8;3.5;0;0;3;2
cadeo;0;0;1;9;0;0;3;8
dan23;0;0;5;6.8;0;0;1;6
"galerie street art";0;0;1;73
"jean-francois rauzier";0;0;1;67
".wang/ loader";0;0;3;388
maheo;0;0;1;62
"aris messinis";0;0;1;9
"prix des sculptures de bruno catalano";0;0;1;7
"freddie mercury pop art";0;0;1;9
"pascal jacquot";0;0;4;4
ando;0;0;3;8.6666666666667;0;0;6;11.666666666667;0;0;1;10
"xavier prieur";0;0;1;10
"philippe bonan";0;0;1;5
amnezia;0;0;1;43
"rent a car";0;0;1;241
goet;0;0;2;10
detheo;0;0;1;39
"vente oeuvre d'art en ligne";0;0;2;2
"skoglund sandy";0;0;1;8
"murano lampe";0;0;1;26
"shepard fairey vote";0;0;2;7
"sunday b morning";0;0;1;3
"shaka marchal mithouard";0;0;1;7
"oeuvres de banksy";0;0;3;9;0;0;2;9
"commande bitumes";0;0;1;54
"jingdong france";0;0;2;7
johnone;0;0;1;4;0;0;2;6
wildlike;0;0;1;1
"pierre de fenoyl";0;0;8;9.375;0;0;4;11;0;0;1;10
"galerie du buisson";0;0;1;10
"photographie d'art contemporain";0;0;1;2
"les bas noirs";0;0;1;39
"niels udo";0;0;1;5
"galerie photo d'art en ligne";0;0;1;2
"bernard pras anamorphose";0;0;1;6
"birdy kids";0;0;1;45
"vente citadine";0;0;4;57.75
gregos;0;0;4;7.5;0;0;4;6
tafeta;0;0;1;9;0;0;4;8
"mr chat street art";0;0;1;8
"peinture dubuffet";0;0;1;7
"family foundation liechtenstein";0;0;1;44
"xavier blondeau";0;0;7;4.8571428571429
artpost;0;0;1;8
jadikan;0;0;5;5;0;0;1;5;0;0;2;5
"ben vautier oeuvres";0;0;2;7
"césar artiste";0;0;1;8
"polly ngale";0;0;3;7
vanmarque;0;0;1;5
"henri lamy";0;0;7;4;0;0;2;5
"jérémy chabaud";0;0;1;5
"investir dans l'art";0;0;4;9.75;0;0;2;10
"bob verschueren";0;0;1;6
"genevieve claisse peintre";0;0;1;6
"(""conteur""|""narration"") (""saint-just-de-claix""|""38680""|""isère""|""38""|""rhône-alpes""|""motte-fanjas""|""26190""|""drôme""|""26""|""saint-nazaire-en-royans""|""saint-thomas-en-royans""|""auberives-en-royans""|""sône""|""38840""|""pont-en-royans"")";0;0;1;263
"plastique contact corsica -";0;0;1;200
"idées cadeaux fantaisie";0;0;1;41
"sun hyuk kim";0;0;2;6
"galerie ad";0;0;1;3
"pierre fava";0;0;1;3;0;0;6;3.1666666666667
"laurence poitou";0;0;1;2;0;0;2;2
"john matos crash";0;0;6;2;0;0;2;1.5;0;0;2;2
"sculpture deesse";0;0;1;9;0;0;2;9
laveri;0;0;1;7
"anthropomorphisme art";0;0;2;7
"toile jonone";0;0;1;1
"timothée talard";0;0;3;3;0;0;2;3
"thierry dussac";0;0;2;5;0;0;2;5
"philippe berger";0;0;1;20
"jacques roch";0;0;1;4;0;0;2;3
"anne brunet";0;0;4;4.5;0;0;2;5
"romero britto berlin";0;0;1;21
"yves krief";0;0;1;8;0;0;1;7
"richard di rosa";0;0;3;7;0;0;4;4.25;0;0;2;4
"a nous paris";0;0;1;19
"erro biographie";0;0;1;8
"chat peinture contemporaine";0;0;1;5
"oeuvres de max ernst";0;0;3;6.6666666666667;0;0;2;7
nadau;0;0;2;20
"gerard schlosser";0;0;1;5
"pierre tal coat";0;0;3;10
"debusschere christoff";0;0;2;10
"ralph gibson";0;0;4;9
"qian xing";0;0;1;3
"denis robert art";0;0;2;3
"jean luc beaufils artiste peintre";0;0;1;3
"alain godon";0;0;7;3.2857142857143;0;0;1;1
"oeuvres de jean dubuffet";0;0;2;4.5
jorion;0;0;1;13
"technique de vente pret a porter";0;0;5;8
"y warhol";0;0;1;37
jonnbone;0;0;1;4
"françois bard peintre";0;0;1;1
"balade musique new york";0;0;2;47.5
"georges bru";0;0;2;2
"richard dubure";0;0;1;2;0;0;1;4
"alain clement artist";0;0;2;2.5
"bambi art";0;0;1;7
"patrick villas";0;0;1;2;0;0;1;2
"mesnager peintre";0;0;1;2
"madame promene son cu";0;0;1;35
"art to be";0;0;1;6
"galerie charron";0;0;1;4
"karl lagasse";0;0;2;4;0;0;6;3.8333333333333
"frédéric blaimont";0;0;1;3;0;0;4;3
"richard harper peintre";0;0;2;8
"torrick ablack";0;0;1;3;0;0;1;3
"levalet street artist";0;0;1;6
"jean jacques surian";0;0;1;5;0;0;1;6
"quentin garel";0;0;6;5.6666666666667;0;0;1;8
"francisco sepulveda";0;0;1;10
"achat oeuvre d'art en ligne";0;0;1;1
"jerry hall jeune";0;0;1;1;0;0;3;1
"juliette schwartz";0;0;1;1
"shepard fairey";0;0;2;20
"karine chaudé";0;0;1;1
"jerome lagarrigue";0;0;1;6;0;0;4;6
"lockheed constellation";0;0;1;34
zokatos;0;0;1;3
"galerie nuances et lumière lyon";0;0;2;2;0;0;1;3
"hamish fulton";0;0;7;7.7142857142857;0;0;1;9;0;0;1;9
robotcat;0;0;1;8;0;0;1;10
"patrick cornillet";0;0;1;3
rivieras;0;0;1;99
"guy boyer";0;0;1;10;0;0;1;5
cieu;0;0;1;7
"eduardo kac";0;0;7;10;0;0;3;10.333333333333;0;0;1;11
"françois morellet oeuvres";0;0;3;6
"cyprien clement delmas";0;0;1;8
"india leire";0;0;1;7;0;0;1;7
"claude viallat";0;0;1;91
"bouquet d amour";0;0;1;23
"panter and hall";0;0;1;149
"fotofever bruxelles";0;0;1;9
"galerie tableau contemporain";0;0;2;9
"angel l ortiz";0;0;1;7
"luzia simons";0;0;1;5
"titus carmel artiste";0;0;1;8;0;0;1;8
"ernest pignon ernest";0;0;1;20
"loulou picasso";0;0;2;4
"sorane rotellini";0;0;1;6
"christian renonciat";0;0;1;5;0;0;1;7
"indiana jane";0;0;1;16
"peintre japonais contemporain";0;0;3;10;0;0;1;9
"claire trotignon";0;0;2;6;0;0;1;4
"gerard schlosser artist";0;0;1;4
"antonio seguí";0;0;2;8
lardanchet;0;0;1;17
"nicolas laugero lasserre";0;0;1;14
"keith vie urbaine";0;0;2;84.5
chamizo;0;0;1;10;0;0;1;10
"miguel chevalier";0;0;1;10;0;0;2;11
"catarina bravo";0;0;1;2
"jean dubuffet peinture";0;0;1;7
"galerie virginie barrou planquart";0;0;1;7;0;0;1;6
"la chapelle photographe";0;0;1;8
"artop lille";0;0;1;6;0;0;1;7;0;0;2;7
"jon one artist";0;0;1;4
alison;0;0;1;259
"maserati tipo";0;0;1;23
"le bel homme";0;0;1;3;0;0;1;5
"galerie capazza";0;0;2;9
"claude leveque oeuvres";0;0;1;5
"freddie mercury";0;0;1;167
"secret walls lyon";0;0;1;26
"roch vandromme";0;0;3;4.6666666666667;0;0;1;5
"césar baldaccini biographie";0;0;1;9
misstic;0;0;11;9;0;0;19;9;0;0;4;9
"le chat street art";0;0;1;7
tanc;0;0;5;6.6;0;0;1;7;0;0;2;7
"colette levine";0;0;3;5
"christophe dugied";0;0;2;2
"nathalie grall";0;0;1;7;0;0;1;7;0;0;1;7
"street art levalet";0;0;1;6
"jean hélion";0;0;7;7.4285714285714;0;0;1;10
"raul diaz";0;0;1;7
"friend 7";0;0;1;5
"photo surrealiste";0;0;1;10
"klaus guingand";0;0;6;2.1666666666667
"cesar artiste";0;0;5;5.4;0;0;5;6;0;0;1;6
"j'irai décrocher la lune";0;0;1;7
"keith haring crack down";0;0;1;1
"willy ronis enfant";0;0;1;6
"en plastique contact river loire -";0;0;1;119
"jasmine black";0;0;1;20;0;0;2;18.5
"david gerstein disco large";0;0;1;49
"adeline spengler";0;0;1;3
watts;0;0;1;234
"marilyn par andy warhol";0;0;1;66
"bertrand gillig";0;0;2;5;0;0;2;6
"sky blue green";0;0;1;5
"isabelle de mars";0;0;1;3;0;0;1;3
"shirley jaffe";0;0;3;4;0;0;1;6
"catherine lopes curval";0;0;1;9;0;0;3;8.6666666666667
"godon peintre";0;0;1;2;0;0;1;1
"kenna kong nude";0;0;1;19
"oeuvres pop art";0;0;1;14
"monsieur chat";0;0;11;6.0909090909091;0;0;11;8.1818181818182;0;0;7;8.7142857142857
"pret à porter artwork";0;0;1;22
nakedportrait;0;0;1;5
"marina cavazza";0;0;1;7;0;0;1;7
"artiste japonais contemporain";0;0;1;8;0;0;1;8
"boom art";0;0;1;4;0;0;3;4
"hakim mouhous";0;0;1;10
one4you;0;0;1;9;0;0;3;8;0;0;2;8
neige;0;0;12;680
moyoshi;0;0;1;4
"jim dine inspiration";0;0;1;16
"sumo sculpture";0;0;1;9;0;0;1;8
layral;0;0;3;5
"artiste déesse";0;0;1;6;0;0;1;6
"césar sculpteur";0;0;4;9.75;0;0;1;11
davidgerstein;0;0;1;2
"hanna sidorowicz";0;0;1;3
"mr. chat";0;0;1;5
"site art contemporain";0;0;2;2;0;0;1;2
"richard orlinski";0;0;18;10.111111111111;0;0;15;9.7333333333333;0;0;4;10.25
"sunday b";0;0;1;3
"galerie art jingle";0;0;1;5;0;0;1;6
"flower power art";0;0;1;4
"marie houset";0;0;2;3.5
gangal;0;0;4;10
"pierre marie brisson";0;0;3;4
"galerie schwab";0;0;2;7.5;0;0;1;8
"kiki picasso";0;0;5;5.8;0;0;3;6
"valerie lefebvre";0;0;1;9
"anne brégeaut";0;0;1;6
"françois boisrond";0;0;1;6;0;0;1;5
"julien airault";0;0;2;7
"atlas artiste";0;0;1;7
"galerie sylvie le page";0;0;1;6
"photo surréaliste";0;0;1;10
"guy de lussigny";0;0;1;4
"gerard rancinan";0;0;1;6
"street art jef aerosol";0;0;1;5
"acheter billet banksy";0;0;2;1
"galerie art contemporain";0;0;2;9;0;0;4;7.5
"philippe charpentier";0;0;1;2
"ben bella artiste";0;0;1;1
"""vincent peters""";0;0;1;11
"jean michel basquiat œuvres d'art";0;0;4;1;0;0;2;1.5
"galerie taglialatella";0;0;5;11
"art en ligne";0;0;1;1
"veronique rischard";0;0;1;2
"etienne cail";0;0;5;9.6;0;0;2;10
"christophe charbonnel artiste";0;0;2;4;0;0;4;4.75
"jean dubuffet peintre";0;0;1;4
"françois mendras";0;0;1;5
"serge mendjisky";0;0;2;6;0;0;1;6
"art moderne sculpture";0;0;1;2
"patrick loste";0;0;2;7;0;0;1;9
"olivier castaing";0;0;1;10
"raigon stanley";0;0;3;1
"agnes dubart";0;0;2;9.5
bremermann;0;0;1;11
"mathieu mercier";0;0;1;15
"capton peintre";0;0;4;6.5
"li wei";0;0;2;6.5
sparshatt;0;0;1;5
"nicolas hugo";0;0;4;5.25;0;0;4;5
"philip pasqua";0;0;1;5
"peintre di rosa";0;0;1;3
"fazzino art";0;0;1;5
"marie brisson";0;0;1;6
"gerard escougnou";0;0;4;5;0;0;1;5
dtone;0;0;1;5
"finbarr dac";0;0;1;5
"tete de leopard";0;0;1;8
"sculpture a vendre";0;0;1;3
chubac;0;0;1;10
"galerie catherine houard";0;0;4;5.75
"robert mapplethorpe oeuvres";0;0;2;4.5
"guillaumette duplaix";0;0;2;1
"jonone prix";0;0;1;1
"achat art contemporain";0;0;1;1
"toma jankowski";0;0;1;2
"francoise petrovitch";0;0;3;6.3333333333333;0;0;1;7
"gerstein design";0;0;1;10
"le turk";0;0;1;10
"oeuvres keith haring";0;0;1;9
"guy oberson";0;0;2;10
"udo nils";0;0;1;7
"anette messager";0;0;1;11
"agnes baillon";0;0;1;4;0;0;1;4
fazzino;0;0;2;10.5
ten-art;0;0;2;10.5;0;0;1;11
"bernard chauchet";0;0;1;5
"luke newton";0;0;1;5
"patrick s. naggar artiste peintre";0;0;1;4
conbas;0;0;1;7
"galerie ad montpellier";0;0;1;7
"arbre de la paix";0;0;2;23
"arman venus";0;0;1;10
"ben l'artiste";0;0;2;4
"marcus egli";0;0;1;7
"jean michel basquiat oeuvres";0;0;3;9;0;0;2;9
ottoschade;0;0;1;7
"otto schade";0;0;3;10
"art to be gallery";0;0;1;3;0;0;3;3
"untitled boys";0;0;1;6
"noe two";0;0;1;3
"soly cisse";0;0;1;8
"evrard thierry";0;0;1;11
"louis stettner";0;0;4;6;0;0;1;6
"olivier lelong";0;0;1;1
"combas peintre prix";0;0;1;3;0;0;1;3
"bernard buffet oeuvres";0;0;1;5
"galerie ange basso";0;0;3;4
"thomas subtil";0;0;1;7
"viallat artiste";0;0;1;11
"morellet artiste";0;0;1;6
"kool koor";0;0;2;3;0;0;1;5
horkan;0;0;1;8
"galerie vidal st phalle";0;0;1;5
ernest;0;0;2;5;0;0;1;4
"art moderne photographie";0;0;1;3
"messager annette";0;0;1;8
"abstract monuments";0;0;1;5
villegle;0;0;1;4
"juliette vivier";0;0;2;6.5
streichenberger;0;0;2;8.5
iemza;0;0;2;6
"roberto battistini";0;0;1;9
"cote combas";0;0;1;5
"antonio segui";0;0;3;10.333333333333;0;0;1;10
"yang yongliang";0;0;2;6.5
"rafael navarro";0;0;1;2
"perlimpinpin magazine";0;0;2;9
"di rosa sete";0;0;2;4
"jonathan monk";0;0;2;10
"mr lolo";0;0;1;6
"mr le chat";0;0;2;8.5
"roberto matta œuvres d'art";0;0;1;11
"starter gallery";0;0;1;7
"pierre et gilles oeuvres";0;0;2;8
"in italian basquiat";0;0;1;8
"galerie keza";0;0;1;4
"sandro giordano";0;0;3;6.6666666666667;0;0;1;6
"galerie gabel";0;0;1;3
"jana et js";0;0;1;8
"open art galerie";0;0;1;7
"wild feeling";0;0;1;8
"brugier rigail";0;0;1;7
"tapis boccara";0;0;1;6
mygalo;0;0;1;4;0;0;1;4
"jimmy lawlor";0;0;1;5
"prix sculpture bruno catalano";0;0;1;9
stoul;0;0;2;7;0;0;1;10
triglia;0;0;1;5
"philippe favier artiste";0;0;2;7
"oeuvre de jean michel basquiat";0;0;2;10
"yu bolin";0;0;1;9
"john matos";0;0;1;6
"banksy prix";0;0;1;5
"yuriko takagi";0;0;1;10
paslier;0;0;1;5
"silvia calmejane";0;0;1;1
"agnes crepin";0;0;1;7
"uwe ommer";0;0;1;11
"tableau artiste street art";0;0;1;10
"oana cosug";0;0;1;4
"peintre jean dubuffet";0;0;2;4
"arno elias";0;0;4;6.75;0;0;1;4
"tableau obey";0;0;2;2
guilleme;0;0;1;5
aroa;0;0;7;7;0;0;1;7
"patrick villa";0;0;1;19
"rancinan gérard";0;0;2;5.5
villeglé;0;0;2;4
"charlotte perrot";0;0;1;8
"ad galerie";0;0;3;4;0;0;1;4
"sylvie guyomard";0;0;1;6
"remi delaplace";0;0;1;3
"alain clément peintre";0;0;1;4
"tom wesselman";0;0;1;6;0;0;1;4
"geneviève claisse";0;0;1;8
ronenglish;0;0;1;7
rancinan;0;0;4;6.25;0;0;1;7
"chantal dugave";0;0;4;8
"galerie d art";0;0;1;12
basquiat;0;0;1;30;0;0;1;32
"ben artiste nice";0;0;2;4
"christophe barthes";0;0;1;8
brodlim;0;0;1;2
orlinski;0;0;7;9.5714285714286;0;0;6;9
"easy sasha";0;0;2;9
"bertrand desprez";0;0;1;9
"cecile plaisance";0;0;1;9
"thomas bossard";0;0;2;6.5
"levalet street art";0;0;2;6
"raynaud artiste";0;0;2;10
mesnager;0;0;4;3;0;0;4;3
calmets;0;0;2;5
"pierre pignon";0;0;1;3;0;0;1;2
"laurent carbonnel";0;0;1;20
"jean luc lacroix";0;0;2;2
"nick walker";0;0;3;7.6666666666667
"tilt graffiti";0;0;2;8
"jonone artiste";0;0;1;2
"bernard rancillac";0;0;2;8.5;0;0;3;10.666666666667
freisa;0;0;3;9;0;0;2;4
"kenza sadoun nue";0;0;1;1
"banksy vente";0;0;2;7
"tic ses";0;0;1;8
"acheter art";0;0;2;1;0;0;1;1
"hideki yoshida";0;0;1;7
"photo david lachapelle";0;0;1;11
"mr chat";0;0;17;6.8823529411765;0;0;4;7.5
"miss tik";0;0;2;6.5
"troy henriksen";0;0;1;3;0;0;1;3
"takashi murakami sculpture";0;0;1;5
"robert combas oeuvres";0;0;1;2
"juliette clovis";0;0;2;1
"mel ramos virnaburger";0;0;1;3
"michel turpin";0;0;4;10
"ced vernay";0;0;1;4
sarla;0;0;3;10.666666666667;0;0;1;10
"amandine levy";0;0;1;8
"tableau on a vole la pomme d'adam";0;0;2;8
"rita hayworth gilda";0;0;3;10.666666666667
argentic;0;0;1;6;0;0;1;6
"alfons alt";0;0;1;12
pentaptyque;0;0;1;10
"sculpture jean dubuffet";0;0;1;8
"oeuvre d'art sur l'amour";0;0;1;6
"henry lamy";0;0;2;5
"bard peintre";0;0;1;2
"galerie street art en ligne";0;0;2;9
"pochoir miss tic";0;0;1;7
"sculpture japonaise contemporaine";0;0;4;6
"frédéric deprun";0;0;2;4
"dani olivier";0;0;2;8
"galerie laure roynette";0;0;4;8.75
"butz et fouque";0;0;1;3
"artiste dubuffet";0;0;2;4
"jean faucheur";0;0;3;5.3333333333333;0;0;2;7
"levalet art";0;0;3;4
"didier marien";0;0;1;3
"beaufils peintre";0;0;1;6
"photo contemporaine art";0;0;1;2
"oeuvre art contemporain";0;0;1;1
spengler;0;0;1;57
"arroyo peintre";0;0;1;5
"fkdl street art";0;0;1;6
"georges cabot";0;0;1;3
nesler;0;0;1;10
"miro sculpture";0;0;1;10
pencreach;0;0;1;10
lisman;0;0;2;4;0;0;1;4
"m le chat";0;0;1;8
"sculpture monumentale";0;0;3;3
"dawit abebe";0;0;1;7
"l'atlas artiste";0;0;1;8
"gottfried salzmann peintre";0;0;2;8;0;0;2;9
galeries;0;0;6;7.6666666666667;0;0;6;7.1666666666667
"peinture jimi hendrix";0;0;1;10
"andoche praudel";0;0;1;4
aboudia;0;0;2;4
skunkdog;0;0;1;9
"tableau pomme d'adam";0;0;1;7
"norma bessieres";0;0;1;6;0;0;2;6
"galerie ricci";0;0;2;6;0;0;2;7
"angele guerre";0;0;1;2
"keith haring oeuvre";0;0;2;10
"herve lewis";0;0;1;5
"jr artiste";0;0;1;1;0;0;7;1
"georgianna robertson";0;0;1;12
"acheter art contemporain en ligne";0;0;1;1;0;0;1;1
"luz severino";0;0;1;3
"christophe lachize";0;0;1;2
"karine paoli";0;0;2;9.5
cedrix;0;0;1;8;0;0;3;9.3333333333333
"olivier ribardiere";0;0;1;7
"vuk vidor";0;0;2;1
"olivier masmonteil";0;0;5;6.6;0;0;1;7
abcgallery;0;0;1;6;0;0;3;3
"david lachapelle photographe";0;0;1;7
"galerie nue";0;0;3;4.6666666666667
"tete guepard";0;0;1;7
osite;0;0;1;5;0;0;1;6
"peintre john one";0;0;2;2
"gaspard mitz";0;0;2;4;0;0;2;2
"french art studio";0;0;1;10;0;0;2;8
"batman leon";0;0;2;7
göet;0;0;1;10
"collectionneur averti";0;0;3;5
"yves gellie";0;0;1;9;0;0;2;8.5
"photographe italien plage";0;0;1;6
"khawater 2014";0;0;1;17
"combas prix";0;0;1;4
"seize happywallmaker";0;0;1;5
"philippe berger facebook";0;0;1;9
"joelle troussier";0;0;2;4;0;0;2;4
"l'atlas street art";0;0;3;6;0;0;1;7
"joel knafo art gallery";0;0;1;4
"jean milo";0;0;1;6
"galerie envie d art";0;0;1;3
godon;0;0;1;4;0;0;1;1
"lachapelle david";0;0;1;11
"fazzino prix";0;0;2;9.5
"galerie artiane";0;0;1;3
mendjisky;0;0;7;10.142857142857
"vente art";0;0;1;2
"charlelie couture peintre";0;0;1;3
"banksy biographie";0;0;2;9.5;0;0;5;10
chamizot;0;0;1;10
"lucien ghomri";0;0;1;3
"andré cervera";0;0;2;5
"véronique masurel";0;0;1;9
"peintre beaufils";0;0;1;5
"massimo vitali";0;0;5;6.6
"la souris sur le gateau";0;0;1;8
"noe two artiste";0;0;2;3
artyou;0;0;1;3
"arroyo eduardo";0;0;2;8;0;0;1;6
vostell;0;0;2;3
"philippe pasqua crane";0;0;2;3
"caroline maurel";0;0;1;6;0;0;1;5
"jonone prix tableau";0;0;3;1
"eric denudt";0;0;2;9;0;0;1;9
"philippe jarrigeon";0;0;6;10
"tony frank";0;0;2;9
"lithographie andy warhol";0;0;1;10
benetou;0;0;1;2
braoudé;0;0;2;8
"gordon hopkins peintre";0;0;2;4
"miroir de l'art";0;0;1;8
"thomas canto";0;0;2;8
"laure andre";0;0;4;8
"acheter art en ligne";0;0;2;1
"geneviève claisse oeuvres";0;0;1;2
"galerie 127";0;0;1;6
"aka angleterre";0;0;1;10
"aurait pu se prenommer tablo";0;0;1;19
"xin tao";0;0;1;5
"galerie lacroix";0;0;8;9
"jef aerosol";0;0;10;4.8;0;0;6;5
"cedric lollia";0;0;1;5
"keep calm and believe in your dreams";0;0;1;5
"motif repetition";0;0;1;6
"oeuvre max ernst";0;0;1;7;0;0;1;7
"gerti schiele";0;0;1;8;0;0;1;11
"robert combas cote";0;0;3;4
"galerie leadouze";0;0;2;3;0;0;1;3
"gz store";0;0;2;3
jr;0;0;2;1
"kosta kulundzic";0;0;2;67.5
"robert longo oeuvres";0;0;1;9
"galerie loft paris";0;0;1;5
"fabio santis";0;0;1;8
"marie drouet";0;0;2;10
"cesare callegari";0;0;1;5;0;0;1;1
"gérard rancinan";0;0;8;6.875
"césar baldaccini oeuvre";0;0;1;4
"oeuvre keith haring";0;0;1;10
"jean michel basquiat in italian";0;0;2;8.5;0;0;5;8
verschueren;0;0;1;11
floch;0;0;1;73
"chat artiste peintre";0;0;1;7
"küçük ayşe";0;0;1;10
"tableau artiste contemporain";0;0;1;4
"oeuvre d'art contemporaine";0;0;1;1;0;0;2;1
"patrick transparent";0;0;2;8
"galerie envie d'art";0;0;1;2
"vendre une oeuvre d'art en ligne";0;0;1;1
"juliette montier";0;0;1;5
"oeuvre de erro";0;0;1;8
napaljarri;0;0;1;4
"mahjoub ben bella";0;0;3;2;0;0;1;2
"leopold rabus";0;0;1;6
"achat vente";0;0;1;1
"gustave singier";0;0;1;6;0;0;2;6
polic;0;0;2;9
"galerie gillig";0;0;1;6
"sculpture animaux";0;0;1;176
"hervé telemaque peintre";0;0;2;6
"yayoi kusama œuvres d'art";0;0;1;10
"photo art contemporain";0;0;1;2
durrey;0;0;1;9
"acheter une oeuvre d'art";0;0;1;1
"catherine houard";0;0;3;6.6666666666667;0;0;1;7
"loft galerie";0;0;2;8
"didier hamey";0;0;2;7
"cesar baldaccini sculptures";0;0;1;8
"sculpture crocodile rouge";0;0;1;2
"david eason";0;0;1;6
"henri de quatrebarbes";0;0;3;5
"gemini pinocchio";0;0;1;8
mammel;0;0;1;10
"lucien murat";0;0;2;5.5;0;0;3;3
"alain beaubatier";0;0;1;5
"eric michel";0;0;1;26
"armand artiste";0;0;1;7
"galerie sbk lyon";0;0;3;7
ardpg;0;0;1;10;0;0;1;10
"jm robert peintre";0;0;2;2
"panthère rouge";0;0;1;10
"jeff koons balloon dog prix";0;0;2;10
"durix artiste";0;0;1;5
"galerie d'art dx bordeaux";0;0;1;8
"tableau de dubuffet";0;0;1;8
"fred calmets";0;0;1;4
"raison d'art lille";0;0;4;7;0;0;1;7
"galerie argentic paris";0;0;3;7
"galerie gilbert dufois";0;0;2;3;0;0;3;3
"cesar baldaccini";0;0;1;11
"julien durix";0;0;4;6;0;0;6;1
"hervé lewis";0;0;1;5
"dan 23";0;0;2;7
"galerie nicolas hugo";0;0;1;5
"philippe charpentier facebook";0;0;1;4
"nathalie grenier";0;0;1;7;0;0;1;6
"lucien murat artiste";0;0;1;1
stani;0;0;2;3;0;0;1;9
"peintre bernard buffet";0;0;1;9
"herve lewis photo";0;0;2;5
"sultan gang";0;0;2;8.5;0;0;1;9
"galerie under construction";0;0;3;4
"alain godon reproduction";0;0;1;5
"chombart de nuit";0;0;1;10
"yazid oulab";0;0;1;4
"messager artiste";0;0;1;6
"max charvolen";0;0;1;6
"sandra david";0;0;2;4.5
porras;0;0;1;8
"dita von tesse";0;0;1;9
"mustapha azeroual";0;0;1;6
"galerie audet";0;0;1;11
"artistes allemands contemporains";0;0;3;8.3333333333333
"leila willis";0;0;2;4
"emmanuelle bousquet";0;0;1;7
"miss au masculin";0;0;1;9
grateau;0;0;1;10
"speedy grafito";0;0;1;5
gerenton;0;0;2;1
tonomura;0;0;1;5
"banksy acheter";0;0;1;4
"leo galamez";0;0;2;2
"murakami sculpture";0;0;1;4
"bazik galerie";0;0;1;5
"herve perdriel";0;0;1;2
"cortade art";0;0;1;9
"damien hirst oeuvres";0;0;2;7.5;0;0;3;8
"gregoire eloy";0;0;1;6
"maxime foulon";0;0;1;10
"becker paris";0;0;1;102
"buffet peintre";0;0;2;10
"ramzi adek";0;0;3;6.6666666666667;0;0;1;10
"benjamin spark";0;0;2;7;0;0;1;6
"dude company";0;0;1;3
"vincent corpet sade";0;0;1;2
"lorioz peintre";0;0;1;9
"ln edition";0;0;1;2
"alzbeta jaresova";0;0;1;4
"colorfield gallery";0;0;2;7
"artiste martinique";0;0;1;60
"flipo peintre";0;0;1;1
"stephane ducatteau";0;0;1;7
mulhem;0;0;1;3
"philippe bruneteau";0;0;2;10
"tete de panthere";0;0;1;9
"art internet";0;0;1;3
lannes;0;0;1;169
"cesar oeuvres";0;0;1;4
"marc laffolay";0;0;1;5
"jef aerosol prix";0;0;1;1
boisrond;0;0;1;6
"galerie martine ehmer";0;0;1;6
"jim kazanjian";0;0;1;6
"anna borowy";0;0;1;6
cessieux;0;0;1;12
"alain bertrand peinture";0;0;1;10
"pippa young";0;0;1;5
"julien airault peintre";0;0;1;6
"borys makary";0;0;1;5
"wesselmann oeuvres";0;0;1;6
"hervé di rosa oeuvres";0;0;1;1
"acheter oeuvre d'art";0;0;2;1
"costa artiste";0;0;2;4
"galerie d'art en ligne vente";0;0;1;1
"alain buyse";0;0;2;10
"artsper avis";0;0;2;2
"sculpture déesse";0;0;1;9
"jerome festy";0;0;1;4
galerie13;0;0;2;10
"combas robert";0;0;1;5
"sweet love art";0;0;1;9
"gilles aillaud peintre";0;0;1;7
"artiste contemporain japonais";0;0;1;6
"new lang";0;0;2;2.5
"galerie urbaine uzes";0;0;2;5
"pierre alex";0;0;1;7
"nieves mingueza";0;0;1;4
poxart;0;0;1;5
"michel peyre";0;0;1;19
"joel knafo";0;0;1;4
"christian croset";0;0;2;8
"robert combas a vendre";0;0;1;5
"portraits de femmes";0;0;4;1
"peintre dubuffet";0;0;1;4
"gregoire leon guillemin";0;0;2;4
"galerie onega";0;0;1;5
"marie pierre fontaine";0;0;1;6
"bernard buffet œuvres d'art";0;0;2;2
"m r sex";0;0;1;7
"claude l'eveque";0;0;1;8
"cote robert combas";0;0;2;4
"conrad marca-relli";0;0;1;11
"vincent chenut";0;0;3;2
"dire 132";0;0;1;4
"envie d art";0;0;2;4
"sculpture vente";0;0;1;1
"michelle auboiron";0;0;1;6
"mr brainwash prix";0;0;1;2
"galerie en ligne";0;0;2;2.5
"oeuvre de annette messager";0;0;2;7
"galerie nuances et lumière";0;0;1;3
"galerie en ligne art contemporain";0;0;2;1
"clement alain";0;0;1;7
"sandra ghosn";0;0;1;8
"galerie olivier waltman";0;0;1;6
davidharber;0;0;1;9
combras;0;0;1;7
"mesnager jerome";0;0;1;4
"elodie lachaud";0;0;1;4
"bernard buffet paysage";0;0;2;7
"philippe azema";0;0;1;2
"manolo chretien";0;0;1;5
"helene de saint lager";0;0;1;12
"nyaba leon ouedraogo";0;0;1;8
"emma vidal";0;0;1;9
"cecile colombo";0;0;3;5
"gallery d'art";0;0;1;10
"oeuvre d'art indienne";0;0;1;10
"peinture go on";0;0;1;10
"galerie bouillon d'art bordeaux";0;0;1;8
"yoann merienne";0;0;1;1
"romain lardanchet";0;0;1;6
"philippe pradalie";0;0;1;7
"xavier veilhan oeuvres";0;0;1;7
inne;0;0;3;79
"alain hatat";0;0;1;7
rabus;0;0;3;10.333333333333
"benjamin vautier ses oeuvres";0;0;2;9
"jeannie dumesnil";0;0;1;2
"jacques villegle";0;0;2;5
"francoise petrovitch peintre";0;0;1;5
"bastien cuenot";0;0;1;3
"peintre japonais abstrait";0;0;1;10
"thierry valencin";0;0;1;7
"sen2 figueroa";0;0;5;5
"charbonnel christophe";0;0;1;5
artlife;0;0;1;10
"sandrine paumelle";0;0;1;5
"benjamin vautier oeuvres";0;0;1;8
"jean marie drouet";0;0;1;7
"rosa peintre";0;0;1;8
miss.tic;0;0;3;6
"moya patrick";0;0;1;5
"oeuvres de miro";0;0;1;1
"artiste peintre julien";0;0;1;7
"jean baptiste dumont";0;0;1;9
vidor;0;0;1;11
"galerie vidal saint phalle";0;0;1;8
"nu feminin";0;0;3;17.333333333333
"roman opalka oeuvre";0;0;1;10
"monika nowak";0;0;1;2
"gregory berben";0;0;1;10
"robert combas prix";0;0;1;4
"galeries nues";0;0;1;34
"peinture bernard buffet";0;0;1;9
"eduardo aroyo";0;0;1;10
"correia antoine";0;0;1;3
"inge horup";0;0;1;4
"philippe soussan";0;0;1;4
"ariel novak";0;0;1;5
"speedy graphito vente";0;0;1;1
"photos de portraits de femmes";0;0;1;1
"philippe de saint lager";0;0;1;9
"oeuvre de ben";0;0;1;3
"mambo artiste";0;0;1;9
"vente de tableaux contemporains";0;0;1;2
"galerie elizabeth couturier";0;0;1;7
"romy schneider";0;0;1;37
"jean pierre schneider";0;0;1;9
