artsper;22;0.061971830985915;355;1.0028169014085;15;0.055147058823529;272;1.0036764705882;6;0.12765957446809;47;1;1;0.027777777777778;36;1
"robert combas";6;0.056603773584906;106;3.8679245283019;4;0.051948051948052;77;3.5974025974026;1;0.055555555555556;18;4.6111111111111;1;0.090909090909091;11;4.5454545454545
jonone;5;0.024752475247525;202;3.2326732673267;4;0.028368794326241;141;3.0780141843972;1;0.022222222222222;45;3.6888888888889;0;0;16;3.3125
"galerie d'art";4;0.097560975609756;41;6.7073170731707;3;0.1;30;7.3333333333333;1;0.1;10;5;0;0;1;5
"topolino artiste";3;0.42857142857143;7;1;3;0.6;5;1;0;0;1;1;0;0;1;1
"delphine vaute";3;1;3;11.666666666667;3;1;3;11.666666666667
"li wei";3;0.15789473684211;19;4.9473684210526;2;0.14285714285714;14;4.2857142857143;1;0.2;5;6.8
"mahjoub ben bella";3;0.27272727272727;11;2.8181818181818;2;0.28571428571429;7;3;0;0;2;3;1;0.5;2;2
"billet banksy";3;0.42857142857143;7;1;3;0.6;5;1;0;0;2;1
"banksy oeuvres";3;0.076923076923077;39;9.5897435897436;3;0.10714285714286;28;9.5357142857143;0;0;5;9.6
banksy;3;0.6;5;41;3;0.6;5;41
"massimo vitali";2;0.14285714285714;14;6.0714285714286;2;0.66666666666667;3;7.3333333333333;0;0;3;6.6666666666667
"antoine correia";2;1;2;4;2;1;2;4
"hermann nitsch";2;0.16666666666667;12;9.1666666666667;1;0.1;10;9.1;1;1;1;9;0;0;1;10
"eva jospin";2;0.0625;32;2.8125;2;0.090909090909091;22;1.4545454545455;0;0;9;6.3333333333333;0;0;1;1
"nils udo";2;0.024390243902439;82;8.3414634146341;1;0.021276595744681;47;8.0212765957447;1;0.083333333333333;12;8.1666666666667;0;0;23;9.0869565217391
"bernard pras";2;0.027777777777778;72;3.6666666666667;2;0.038461538461538;52;3.1923076923077;0;0;10;5.2;0;0;10;4.6
"jm robert";2;0.66666666666667;3;2;1;1;1;2;1;0.5;2;2
"tony soulié";2;0.22222222222222;9;3.3333333333333;1;0.33333333333333;3;3.3333333333333;1;0.2;5;3;0;0;1;5
"torrick ablack wikipedia";2;1;2;1.5;2;1;2;1.5
"monsieur chat";2;0.01025641025641;195;6.5230769230769;2;0.022727272727273;88;6.1136363636364;0;0;31;6.8064516129032
chanoir;2;0.28571428571429;7;2;1;0.25;4;2;1;1;1;2;0;0;2;2
"nathalie d'henaut";2;0.33333333333333;6;5;2;0.33333333333333;6;5
"guillaumette duplaix";2;0.28571428571429;7;1;2;0.4;5;1;0;0;1;1
"xavier blondeau";2;0.28571428571429;7;4.8571428571429;2;0.4;5;4.4
"nathan chantob";2;0.18181818181818;11;1.9090909090909;2;0.33333333333333;6;1.8333333333333;0;0;2;2;0;0;3;2
"jérôme mesnager";2;0.66666666666667;3;4;1;0.5;2;4;1;1;1;4
"annette messager";2;0.037037037037037;54;10.407407407407;2;0.051282051282051;39;10.153846153846;0;0;12;11.083333333333;0;0;3;11
"hervé di rosa";2;0.068965517241379;29;4.3448275862069;2;0.095238095238095;21;4.1428571428571;0;0;5;4.8;0;0;3;5
"fazzino charles";2;0.2;10;4.2;2;0.25;8;4;0;0;2;5
"kiki picasso";2;0.074074074074074;27;5.5185185185185;2;0.11111111111111;18;5.2222222222222;0;0;7;6.1428571428571;0;0;2;6
"mr brainwash mural";2;0.11764705882353;17;6.2352941176471;2;0.13333333333333;15;6.0666666666667;0;0;2;7.5
"philippe pasqua";2;0.055555555555556;36;5.5833333333333;2;0.125;16;5;0;0;13;6.0769230769231;0;0;7;6
sgarra;2;0.28571428571429;7;4;2;0.4;5;4
"blek le rat oeuvres";2;0.5;4;7;2;0.5;4;7
"nicolas dubreuille";2;0.2;10;2;0;0;6;2;2;1;2;2;0;0;2;2
"sergio moscona";2;0.15384615384615;13;4.0769230769231;2;0.15384615384615;13;4.0769230769231
"zed artiste";2;0.5;4;2;1;1;1;2;1;0.33333333333333;3;2
"jean marie drouet";2;0.18181818181818;11;6.2727272727273;1;0.14285714285714;7;6.1428571428571;1;0.5;2;6;0;0;2;7
"ben bella peintre";2;0.4;5;1.2;2;0.5;4;1
"guillaume bourquin";2;0.4;5;3.4;0;0;3;3;2;1;2;4
"di rosa";2;0.10526315789474;19;3.8947368421053;1;0.066666666666667;15;3.6;1;1;1;1
stoul;1;0.052631578947368;19;6.9473684210526;1;0.090909090909091;11;7.0909090909091;0;0;1;7
"robert combas cote";1;0.5;2;4;1;1;1;4;0;0;1;4
"bastien cuenot";1;0.5;2;1;1;1;1;1
brodlim;1;0.2;5;2.6;1;0.33333333333333;3;3
"herve di rosa";1;0.125;8;4.5;1;0.25;4;4.25;0;0;1;5
"bernard buffet";1;0.0092592592592593;108;9.6296296296296;1;0.014492753623188;69;9.1014492753623;0;0;26;10.769230769231;0;0;13;10.153846153846
"oxana taran";1;1;1;1;1;1;1;1
"emanuele ravagnani";1;0.5;2;1;1;0.5;2;1
"cesar santos";1;0.125;8;5.75;1;0.125;8;5.75
"murakami oeuvres";1;0.5;2;5.5;1;1;1;5
"yann houri";1;0.5;2;4;1;0.5;2;4
"nils udo oeuvres";1;0.16666666666667;6;6;1;0.2;5;6;0;0;1;6
tyrsa;1;1;1;35;1;1;1;35
"eva jospin galerie";1;0.25;4;3.5;0;0;1;3;1;1;1;4
"troy henriksen cote";1;0.25;4;2;1;1;1;2;0;0;3;2
"butz et fouque";1;0.16666666666667;6;1.6666666666667;1;0.25;4;1;0;0;2;3
"pierre dubrunquez";1;0.33333333333333;3;2;1;0.5;2;2;0;0;1;2
"benjamin deroche";1;0.125;8;5;1;0.16666666666667;6;5;0;0;2;5
"shepard fairey oeuvres";1;0.16666666666667;6;2;1;0.16666666666667;6;2
"oeuvre bernard pras";1;0.33333333333333;3;2;1;0.5;2;2;0;0;1;2
"moya artiste";1;0.5;2;3.5;1;1;1;4
"jacques villeglé";1;0.032258064516129;31;5.0645161290323;1;0.04;25;5.16;0;0;3;4;0;0;3;5.3333333333333
"vincent richeux";1;0.14285714285714;7;4.1428571428571;0;0;5;4.2;1;0.5;2;4
"catalano artiste";1;0.25;4;4;1;0.5;2;4;0;0;2;4
"kool koor";1;0.125;8;3;1;0.33333333333333;3;2.6666666666667
"jeanne lorioz";1;0.33333333333333;3;4;1;0.5;2;4
"anthony murphy";1;0.33333333333333;3;5;1;0.33333333333333;3;5
"pierre marie brisson";1;0.05;20;1.95;1;0.0625;16;1.8125;0;0;2;2;0;0;2;3
"gerard escougnou";1;0.5;2;4;1;1;1;4;0;0;1;4
"philippe berry";1;0.016666666666667;60;4.1666666666667;1;0.033333333333333;30;7.0666666666667;0;0;20;1.4;0;0;10;1
"catherine lambermont";1;1;1;2;1;1;1;2
"robert combas prix";1;0.5;2;5;1;0.5;2;5
"henri lamy";1;0.083333333333333;12;3.1666666666667;1;0.5;2;3;0;0;2;4
villegle;1;0.5;2;3.5;1;0.5;2;3.5
"speedy graphito cote prix";1;1;1;3;1;1;1;3
"angel ortiz";1;0.5;2;1.5;0;0;1;2;1;1;1;1
"emmanuel flipo";1;0.5;2;3;1;0.5;2;3
"artiste peintre jonone";1;1;1;1;1;1;1;1
"cedrix crespel";1;0.14285714285714;7;3.8571428571429;1;0.16666666666667;6;3.8333333333333;0;0;1;4
dubure;1;1;1;5;1;1;1;5
joneone;1;0.11111111111111;9;3.1111111111111;1;0.125;8;3
"tom wesselman";1;0.25;4;3.5;1;0.25;4;3.5
"terra peintre";1;1;1;1;1;1;1;1
"charlotte perrot";1;0.5;2;3.5;1;1;1;1
"francis latreille";1;0.33333333333333;3;4.6666666666667;1;0.33333333333333;3;4.6666666666667
"pablito zago";1;0.16666666666667;6;6;0;0;2;7;0;0;1;7;1;0.33333333333333;3;5
"jean françois rauzier";1;0.125;8;7.125;1;0.125;8;7.125
"patrick moya";1;0.11111111111111;9;3.6666666666667;1;0.33333333333333;3;4
"ben oeuvres";1;0.25;4;2;0;0;1;2;1;0.5;2;2
"valerie hadida";1;0.25;4;2;1;0.5;2;2
"clément denis";1;0.5;2;5;1;1;1;5;0;0;1;5
"jonone peintre";1;0.5;2;2;1;0.5;2;2
"elodie gregoire";1;0.1;10;7.6;1;0.2;5;7.2;0;0;1;8
"adriana naveh";1;1;1;5;1;1;1;5
"yan morvan";1;1;1;14;1;1;1;14
"capton peinture";1;1;1;2;1;1;1;2
"miroir de l'art";1;0.14285714285714;7;8.4285714285714;1;0.16666666666667;6;8.3333333333333;0;0;1;9
"didier avril";1;0.5;2;1;1;0.5;2;1
"troy henriksen prix";1;1;1;1;1;1;1;1
"artiste soudeur";1;0.5;2;3;1;0.5;2;3
"christophe barthes de ruyter";1;0.5;2;5;1;0.5;2;5
"julien airault peintre";1;1;1;2;1;1;1;2
"diane arbus oeuvres";1;1;1;5;1;1;1;5
"barres christine";1;0.14285714285714;7;3;1;0.5;2;3;0;0;5;3
"villéglé oeuvres";1;0.5;2;1;1;1;1;1
"richard di rosa art contemporain";1;1;1;1;1;1;1;1
"kathleen petyarre";1;0.25;4;19.25;1;0.25;4;19.25
"eduardo kac oeuvres";1;1;1;11;1;1;1;11
"alistair taylor-young";1;0.33333333333333;3;6.3333333333333;1;0.33333333333333;3;6.3333333333333
"artiste orlan";1;1;1;10;1;1;1;10
"labégorre peintre";1;1;1;7;1;1;1;7
"karl lagasse prix";1;1;1;1;1;1;1;1
"morellet artiste";1;1;1;7;1;1;1;7
chamizo;1;0.125;8;5.5;1;0.16666666666667;6;5.5;0;0;1;7;0;0;1;4
"di rosa prix";1;0.5;2;6;1;1;1;6;0;0;1;6
"ecloz rouen";1;0.16666666666667;6;4.1666666666667;1;0.2;5;4;0;0;1;5
fassianos;1;0.33333333333333;3;10;1;0.33333333333333;3;10
"jean charles millepied";1;0.5;2;4.5;1;0.5;2;4.5
"ted nomad";1;0.125;8;4.875;1;0.5;2;5;0;0;2;5
"sculpture britto";1;1;1;7;1;1;1;7
"toxic torrick ablack";1;0.33333333333333;3;5;1;1;1;5;0;0;2;5
"orlan biographie";1;0.14285714285714;7;6.4285714285714;0;0;4;5.25;1;0.33333333333333;3;8
kouka;1;0.11111111111111;9;7.7777777777778;1;0.16666666666667;6;7.3333333333333
"jean pierre attal";1;0.14285714285714;7;3.2857142857143;1;0.16666666666667;6;2.8333333333333
"jean philippe berger";1;1;1;4;1;1;1;4
"jeremie lenoir";1;0.5;2;5.5;1;0.5;2;5.5
"césar baldaccini";1;0.071428571428571;14;5.9285714285714;1;0.125;8;5.75;0;0;3;6;0;0;3;6.3333333333333
nojnoma;1;0.076923076923077;13;3.6153846153846;1;0.16666666666667;6;4.3333333333333;0;0;7;3
"olivier masmonteil";1;0.076923076923077;13;5.3076923076923;1;0.2;5;5
"miss tic biographie";1;1;1;5;1;1;1;5
"tableau obey";1;0.33333333333333;3;1;1;0.33333333333333;3;1
"olivier sultan";1;0.5;2;2;1;1;1;2;0;0;1;2
"jef aerosol";1;0.020408163265306;49;4.6122448979592;0;0;7;5.1428571428571;1;0.33333333333333;3;5
"fabrice hyber";1;0.022727272727273;44;5.75;1;0.033333333333333;30;5.3666666666667;0;0;3;5.3333333333333
"jacques deret";1;0.33333333333333;3;1.3333333333333;1;1;1;1
"peintre bernard buffet";1;1;1;6;1;1;1;6
"benjamin spark";1;0.16666666666667;6;8.1666666666667;1;0.25;4;8;0;0;2;8.5
"thierry guetta";1;0.5;2;14;1;1;1;16
"robert bradford";1;0.16666666666667;6;2;1;0.2;5;2;0;0;1;2
"philippe assalit";1;0.25;4;3.25;1;0.33333333333333;3;3;0;0;1;4
"gerard boudon";1;1;1;6;1;1;1;6
"jerome mesnager";1;0.035714285714286;28;3.2142857142857;1;0.041666666666667;24;3
"reynald drouhin";1;0.2;5;4;1;0.33333333333333;3;4;0;0;2;4
"jacques villegle";1;0.11111111111111;9;3.7777777777778;1;0.16666666666667;6;3.6666666666667;0;0;1;4;0;0;2;4
"clement denis";1;0.2;5;4.2;0;0;1;4;1;1;1;5;0;0;3;4
"anne merienne";1;1;1;18;1;1;1;18
"capton peintre";1;1;1;5;1;1;1;5
"rené botti";1;0.11111111111111;9;4;1;0.11111111111111;9;4
"robert sgarra";1;0.33333333333333;3;3.3333333333333;1;0.5;2;3;0;0;1;4
"oleg dou";1;0.090909090909091;11;3.1818181818182;1;0.1;10;3.2;0;0;1;3
rafiy;1;0.5;2;1;1;0.5;2;1
"nicolas fremion";1;0.25;4;8.25;1;0.33333333333333;3;8
"buffet peintre";1;0.0099009900990099;101;6.7821782178218;1;0.015873015873016;63;6.4285714285714;0;0;33;7.3636363636364;0;0;5;7.4
"bruno catalano biographie";1;1;1;2;1;1;1;2
"frédéric blaimont";1;0.33333333333333;3;3;1;0.33333333333333;3;3
"yutao ge";1;0.5;2;1;1;0.5;2;1
"speedy graphito";1;0.02;50;5.36;1;0.090909090909091;11;6;0;0;4;6.25
"marc combas";1;0.33333333333333;3;1;1;0.33333333333333;3;1
"oeuvre de takashi murakami";1;1;1;3;1;1;1;3
"françois morellet";1;0.022727272727273;44;7.4090909090909;1;0.026315789473684;38;7.2894736842105;0;0;4;8.25
"ernest pignon ernest oeuvres";1;0.33333333333333;3;7;1;0.33333333333333;3;7
"artiste peintre en vogue 2015";1;1;1;5;1;1;1;5
"arthur dorval";1;0.2;5;2.8;1;1;1;2
"robert combas oeuvre";1;1;1;4;1;1;1;4
"mathieu mercier";1;0.076923076923077;13;9;1;0.1;10;9.2;0;0;2;9;0;0;1;7
"laure andré";1;0.14285714285714;7;5.2857142857143;1;0.33333333333333;3;4.3333333333333;0;0;4;6
"gordon hopkins peintre";1;0.5;2;1;1;1;1;1;0;0;1;1
"lucien murat";1;0.125;8;2.25;1;0.16666666666667;6;2;0;0;2;3
zenoy;1;0.125;8;1.75;0;0;2;1;1;0.5;2;2
"olivier long peintre";1;1;1;5;1;1;1;5
fazzino;1;0.038461538461538;26;8.0384615384615;1;0.083333333333333;12;6.9166666666667;0;0;11;8.9090909090909;0;0;3;9.3333333333333
takala;1;0.071428571428571;14;5.5714285714286;1;0.14285714285714;7;4.4285714285714;0;0;6;7.1666666666667;0;0;1;4
"alain huet";1;0.16666666666667;6;7.1666666666667;1;0.2;5;6.8
"shepard fairey biographie";1;0.33333333333333;3;3.3333333333333;1;0.5;2;3;0;0;1;4
"pub oeuvre d'art";1;1;1;12;1;1;1;12
"peintre di rosa";1;0.5;2;2.5;1;0.5;2;2.5
"liu bolin biographie";1;1;1;2;1;1;1;2
speedygraphito;1;0.066666666666667;15;4.2666666666667;0;0;14;4.2142857142857;1;1;1;5
"jana & js";1;0.5;2;6;1;0.5;2;6
"bernard chauveau";1;0.125;8;6.375;0;0;7;6.2857142857143;1;1;1;7
"jean luc beaufils artiste peintre";1;0.25;4;3.75;1;0.25;4;3.75
decup;1;1;1;7;1;1;1;7
"combas robert";1;0.11111111111111;9;3.2222222222222;1;0.14285714285714;7;3;0;0;1;4;0;0;1;4
moninot;1;0.33333333333333;3;5;1;1;1;5
"gautier deblonde";1;0.33333333333333;3;2;1;0.33333333333333;3;2
"thomas bossard";1;0.33333333333333;3;4;1;0.33333333333333;3;4
"laure d'hauteville";1;0.5;2;7;1;0.5;2;7
"philippe azema";1;1;1;1;1;1;1;1
"maxime frairot";1;1;1;4;1;1;1;4
"de spirt";1;0.5;2;5;1;1;1;5;0;0;1;5
"chantob nathan";1;0.33333333333333;3;2;1;1;1;2;0;0;2;2
"eduardo arroyo";1;0.11111111111111;9;6.5555555555556;1;0.14285714285714;7;6.4285714285714;0;0;1;7
"antoine de laboulaye";1;0.5;2;4;1;1;1;4;0;0;1;4
"jef aerosol prix";1;0.25;4;1;1;0.5;2;1
"alain beaubatier";1;1;1;2;1;1;1;2
"bombe anatomique";1;1;1;37;1;1;1;37
"eduardo kac biographie";1;0.33333333333333;3;7;1;0.33333333333333;3;7
"claire fahys";1;1;1;2;1;1;1;2
"concorde v2";1;1;1;6;1;1;1;6
"nathan chantob artiste peintre";1;0.125;8;2.375;1;0.14285714285714;7;2.2857142857143;0;0;1;3
"galerie nicolas hugo";1;0.33333333333333;3;5.3333333333333;1;0.33333333333333;3;5.3333333333333
"olivier catte";1;1;1;1;1;1;1;1
"benjamin carbonne";1;0.125;8;1;1;0.2;5;1;0;0;3;1
"philippe binder";1;0.25;4;7.75;1;0.25;4;7.75
"ben artiste";1;0.0625;16;4.875;1;0.16666666666667;6;4.5;0;0;10;5.1
"manuel geerinck";1;0.125;8;4.875;1;0.2;5;5.4
"artistes contemporains";1;0.03030303030303;33;9.8181818181818;1;0.041666666666667;24;10.083333333333;0;0;9;9.1111111111111
"willy ronis";1;0.5;2;35;1;1;1;37
"beaufils peintre";1;0.25;4;5.25;1;0.5;2;5
"couture peintre";1;0.33333333333333;3;6;1;1;1;4
"john matos crash";1;0.25;4;2;1;0.33333333333333;3;2
"hideki yoshida";1;0.25;4;8;1;0.25;4;8
"maryl le berre";1;1;1;8;1;1;1;8
"susanne stemmer";1;0.5;2;6;0;0;1;6;1;1;1;6
"montreux art gallery";1;0.2;5;7.8;1;0.2;5;7.8
"poes artiste";1;0.25;4;1.25;1;0.33333333333333;3;1
"gérard clisson";1;1;1;2;1;1;1;2
"karel de gendre";1;0.25;4;6.25;1;1;1;4;0;0;3;7
"ben bella mahjoub";1;1;1;2;1;1;1;2
"alexandre moliera";1;0.125;8;8.625;0;0;3;8;1;0.2;5;9
"uwe ommer";1;0.33333333333333;3;4.3333333333333;1;0.5;2;4
"duong le thai";1;0.125;8;3.375;0;0;7;3.5714285714286;1;1;1;2
"sculpture panthere noire";1;0.5;2;9;1;1;1;9
"leon guillemin";1;0.5;2;4;1;0.5;2;4
"manu perez peintre";1;0.2;5;4.2;1;0.33333333333333;3;4;0;0;2;4.5
"sculpture deesse";1;0.25;4;4.75;1;1;1;3
"benjamin spark prix";1;0.33333333333333;3;3;1;0.33333333333333;3;3
"frederic blaimont";1;0.25;4;4;1;0.5;2;4;0;0;1;4;0;0;1;4
"nadine vergues";1;0.16666666666667;6;8;1;0.16666666666667;6;8
"christine muller";1;0.090909090909091;11;5.5454545454545;1;0.1;10;5.4
"triglia peintre";1;0.33333333333333;3;5;1;0.33333333333333;3;5
"remy pagart";1;1;1;3;1;1;1;3
"amaury mulliez";1;0.125;8;4.75;1;0.2;5;4.4;0;0;3;5.3333333333333
mordac;1;0.5;2;8.5;1;0.5;2;8.5
"david gerstein";1;0.125;8;4;1;0.25;4;3.5;0;0;2;6
"noelle koning";1;1;1;3;1;1;1;3
"artiste en vogue";1;1;1;2;1;1;1;2
"charles fazzino";1;0.04;25;4.88;1;0.066666666666667;15;4.4666666666667;0;0;8;5.375;0;0;2;6
"obey artiste";1;0.25;4;3;0;0;1;3;1;0.33333333333333;3;3
"le thai duong";1;1;1;10;1;1;1;10
"philippe buil sculpteur";1;0.33333333333333;3;2;1;0.33333333333333;3;2
"hank china";1;0.16666666666667;6;1.8333333333333;0;0;3;1;1;0.5;2;3.5;0;0;1;1
"bernard moninot";1;0.1;10;4.8;1;0.1;10;4.8
"dominique mulhem";1;0.33333333333333;3;3;1;0.33333333333333;3;3
"oeuvre de eduardo kac";1;1;1;10;1;1;1;10
"armand artiste";1;0.2;5;6.2;1;1;1;5;0;0;1;5;0;0;3;7
"vanessa notley";1;0.5;2;5;1;0.5;2;5
"le floch et le floch";1;1;1;1;1;1;1;1
"frederic prat";1;0.2;5;8.2;1;0.2;5;8.2
destarac;1;0.5;2;2.5;1;0.5;2;2.5
"alain clement";1;0.14285714285714;7;4.5714285714286;1;0.2;5;4.4;0;0;1;5
"peter mclane";1;1;1;3;1;1;1;3
"galeries d'art contemporain bruxelles";1;0.33333333333333;3;8;1;0.33333333333333;3;8
"arnaud liard";1;0.33333333333333;3;2;1;0.5;2;2;0;0;1;2
"marie rauzy";1;0.25;4;10;1;0.25;4;10
"sylvie guyomard";1;0.2;5;3.8;1;0.25;4;4;0;0;1;3
"oeuvres keith haring";1;0.33333333333333;3;9.3333333333333;1;0.33333333333333;3;9.3333333333333
"beatrice terra";1;0.25;4;1;1;0.5;2;1;0;0;1;1
"christian zeimert";1;1;1;4;1;1;1;4
"raynaud artiste";1;0.33333333333333;3;7;1;0.33333333333333;3;7
"hervé lewis";1;0.083333333333333;12;1.3333333333333;1;0.083333333333333;12;1.3333333333333
"claire trotignon";1;0.11111111111111;9;4.2222222222222;1;0.125;8;4.25;0;0;1;4
"mikael lafontan";1;1;1;3;1;1;1;3
"julien durix prix";1;1;1;1;1;1;1;1
"caroline maurel";1;0.33333333333333;3;4;1;0.33333333333333;3;4
hyber;1;0.090909090909091;11;7.5454545454545;1;0.5;2;9
kyliss;1;0.5;2;2;1;0.5;2;2
"steven siegel";1;1;1;11;1;1;1;11
"romero britto";1;0.018518518518519;54;12.518518518519;1;0.027777777777778;36;13.805555555556;0;0;12;9.8333333333333;0;0;6;10.166666666667
"gérard schlosser";1;0.25;4;4.25;1;0.25;4;4.25
"jean françois rauzier biographie";1;0.5;2;4;1;0.5;2;4
"elise oudin gilles";1;0.25;4;3.75;1;0.5;2;3.5;0;0;1;5
"aurore de sousa";1;0.5;2;6.5;0;0;1;7;1;1;1;6
"drm galerie";1;0.25;4;1;1;0.25;4;1
"michel four";1;0.5;2;6;1;0.5;2;6
"oeuvre de jonone";1;1;1;1;1;1;1;1
"john one peintre";1;0.5;2;2;1;1;1;3
"torrick ablack";1;0.33333333333333;3;5;1;0.5;2;5;0;0;1;5
"pascal frament";1;0.5;2;3;1;1;1;2;0;0;1;4
"nick walker";1;0.055555555555556;18;4;0;0;1;4;1;0.5;2;4
"art peur";1;1;1;2;1;1;1;2
"keith haring oeuvre";1;0.076923076923077;13;7;1;0.083333333333333;12;6.9166666666667;0;0;1;8
"florence d'elle";1;0.11111111111111;9;3.3333333333333;1;0.25;4;2;0;0;3;2
"robert combas oeuvres";1;0.11111111111111;9;3.4444444444444;1;0.125;8;3.25;0;0;1;5
"galerie nuances et lumière lyon";1;0.25;4;2;1;0.25;4;2
capton;1;0.011363636363636;88;4.4545454545455;1;0.033333333333333;30;3.1666666666667;0;0;55;5.2181818181818;0;0;3;3.3333333333333
"anne cindric";1;0.16666666666667;6;4;1;0.16666666666667;6;4
"yves zurstrassen";1;0.33333333333333;3;6.6666666666667;1;0.33333333333333;3;6.6666666666667
"ken spooner";1;1;1;4;1;1;1;4
"troy henriksen";1;0.16666666666667;6;3;1;0.25;4;3
"le cirque matisse";1;0.25;4;5;1;0.33333333333333;3;5;0;0;1;5
"banksy billet";1;0.5;2;1;1;1;1;1;0;0;1;1
"jacques villéglé";1;0.33333333333333;3;4.3333333333333;1;0.33333333333333;3;4.3333333333333
"roch vandromme";1;0.33333333333333;3;4;1;1;1;4;0;0;1;4
"xavier veilhan";1;0.035714285714286;28;10.142857142857;1;0.04;25;10;0;0;1;12;0;0;2;11
"emma vidal";1;0.33333333333333;3;2;1;0.33333333333333;3;2
"artistes en vogue";1;0.5;2;1.5;1;0.5;2;1.5
gregos;1;0.11111111111111;9;5.6666666666667;1;0.16666666666667;6;5;0;0;3;7
combas;1;0.014285714285714;70;5.3;1;0.021739130434783;46;4.9130434782609;0;0;20;6.25;0;0;4;5
"duane michals oeuvres";1;0.5;2;6;1;0.5;2;6
"planete serie";1;0.0024213075060533;413;4.7021791767554;1;0.0024813895781638;403;4.6848635235732;0;0;10;5.4
"le chat street art";1;0.090909090909091;11;5.5454545454545;1;0.2;5;5;0;0;1;5
"juliette clovis";1;0.16666666666667;6;1;1;0.25;4;1
"le bel homme";0;0;2;9
"julien raynaud artiste";0;0;1;2;0;0;1;2
"ced vernay";0;0;2;2
"catherine klein";0;0;2;8
"thibault brunet";0;0;1;7;0;0;1;7
"aillaud peintre";0;0;1;8;0;0;1;8
"vente crocodile";0;0;1;32;0;0;1;32
"investir dans l'art";0;0;5;7.6;0;0;2;7
poplavsky;0;0;1;9;0;0;1;9
"rancinan gérard";0;0;1;3
"vera molnar";0;0;1;35
"ses chelou";0;0;1;17;0;0;1;17
"poirier patrick";0;0;1;25;0;0;1;25
"julien airault";0;0;4;4.25;0;0;1;2
"lawrence weiner";0;0;26;7.6153846153846;0;0;5;8;0;0;2;8.5
nouna;0;0;1;49;0;0;1;49
"eric carlin";0;0;1;320
giraud;0;0;1;203;0;0;1;203
"focus 1";0;0;2;35
"jeanne lorioz peintre";0;0;1;5;0;0;1;5
"galerie brugier rigail";0;0;10;5.3;0;0;8;5.125;0;0;1;6;0;0;1;6
"galerie bruno massa";0;0;1;12;0;0;1;12
nã¦vnte;0;0;1;356
"nowart peintre";0;0;1;1
"matthew tyson";0;0;1;3;0;0;1;3
"catarina bravo";0;0;1;2;0;0;1;2
"nathalie grall";0;0;6;7.6666666666667;0;0;1;7;0;0;2;8
"speedy graphito prix";0;0;2;2;0;0;2;2
"art polonais";0;0;1;53
"planète serie";0;0;1;13
"photographe de surf";0;0;1;343;0;0;1;343
"vente tambour";0;0;1;42;0;0;1;42
"photographe art contemporain";0;0;1;1
"galerie sbk lyon";0;0;1;7
"planète série";0;0;36;5.5555555555556
"biographie de jean dubuffet";0;0;1;4;0;0;1;4
"oeuvre d'art unique";0;0;3;1;0;0;2;1;0;0;1;1
"claude levêque";0;0;2;8;0;0;2;8
guilleme;0;0;6;3.6666666666667;0;0;1;3
houri;0;0;1;2
"galerie charron";0;0;2;3
keza;0;0;3;8.3333333333333;0;0;3;8.3333333333333
"klimt nude";0;0;1;29
"francky boy";0;0;1;3;0;0;1;3
"peintre jonone";0;0;2;2;0;0;1;2;0;0;1;2
"this life loader";0;0;5;4.2
"homme endormi";0;0;1;25;0;0;1;25
"mimi le clown";0;0;1;7
"art peinture contemporaine";0;0;7;3;0;0;4;3
"escarpins art";0;0;1;50;0;0;1;50
"sculpture oeuvre d'art";0;0;1;4;0;0;1;4
"emmanuel barcilon";0;0;1;6;0;0;1;6
"sex au ski";0;0;1;9;0;0;1;9
"oeuvre de bansky";0;0;1;7
"la souris sur le gateau";0;0;6;9.1666666666667
"jaké artwork";0;0;6;4;0;0;5;4
obey;0;0;3;71;0;0;3;71
"roy lichtenstein as i opened fire";0;0;1;7;0;0;1;7
escougnou;0;0;3;5.6666666666667;0;0;1;6
"andy warhol oeuvres";0;0;1;27;0;0;1;27
"jean louis audibert";0;0;1;2
"jean hélion oeuvres";0;0;2;4
"jasmine black";0;0;2;29
"vente tzarina aucun";0;0;3;12.333333333333
"sylvie koechlin";0;0;1;18;0;0;1;18
"la valse brel";0;0;1;52;0;0;1;52
"oeuvre en fer";0;0;1;5;0;0;1;5
mappelthorpe;0;0;2;10
"dariush peintre";0;0;1;2;0;0;1;2
"sculpture art";0;0;1;4;0;0;1;4
"laforet orange";0;0;2;9
"sculpture vase";0;0;1;46;0;0;1;46
"photo contemporaine art";0;0;1;2;0;0;1;2
"blue mandala";0;0;1;9
"galerie catherine houard";0;0;5;5.4
"pasqua philippe";0;0;3;5.3333333333333;0;0;2;5;0;0;1;6
"étienne rey";0;0;1;8;0;0;1;8
"pivot san marco biennale";0;0;1;153
"paris match";0;0;1;40;0;0;1;40
"en attendant l'amour";0;0;1;18;0;0;1;18
"michèle destarac";0;0;3;1
"audoin desforges photographe";0;0;1;6
"xavier veilhan prix";0;0;1;23
"raimond hains";0;0;14;6
"9e concept";0;0;4;7
"maelle de coux";0;0;3;3.6666666666667;0;0;1;3
"bertrand meunier";0;0;3;8.6666666666667;0;0;2;11;0;0;1;4
"rex liu";0;0;1;301
doolon;0;0;1;1;0;0;1;1
deblonde;0;0;2;4;0;0;1;4;0;0;1;4
"charles bataille";0;0;1;17
"antoine geiger";0;0;10;5.2;0;0;9;5.2222222222222;0;0;1;5
"galerie nu feminin";0;0;1;50
"paris match galerie";0;0;2;6;0;0;1;7;0;0;1;5
"orlan oeuvre";0;0;3;4.6666666666667
"michael petre";0;0;1;344;0;0;1;344
"composition 1 jesus rafael soto";0;0;1;7
"vincent descotils";0;0;5;8.6
"jeunes artistes";0;0;1;9
aboudia;0;0;6;6.3333333333333;0;0;3;8
"muriel vanhove";0;0;1;2;0;0;1;2
"jacques de la villeglé";0;0;3;7.3333333333333
"robert mapplethorpe oeuvres";0;0;2;5;0;0;1;5
"francois machado";0;0;1;8
"gwenael billaud";0;0;1;2;0;0;1;2
"galerie contemporain";0;0;1;4;0;0;1;4
"hank china prix";0;0;1;1;0;0;1;1
"galerie art jingle";0;0;1;4
"photographie d\'art";0;0;6;28.666666666667
"les 3 garces";0;0;1;8
"robert combas peintre";0;0;1;5
"victoria mann";0;0;6;8.3333333333333;0;0;1;10
"vente peinture";0;0;3;39.333333333333
"david maheo";0;0;2;3;0;0;2;3
"sculpture éléphant";0;0;1;18;0;0;1;18
"olivier waltman";0;0;2;7
"grands artistes";0;0;1;30
poe's;0;0;2;5
"marcel dumont peintre";0;0;1;6;0;0;1;6
"romero brito";0;0;2;9.5;0;0;1;10
"robert edelmann";0;0;1;420;0;0;1;420
"gilles aillaud oeuvres";0;0;1;4;0;0;1;4
"christophe charbonnel artiste";0;0;3;4;0;0;3;4
"pierre cornudet";0;0;2;2
"michel dubois photographe";0;0;1;3
"joan miro oeuvres";0;0;7;9.8571428571429;0;0;1;23
"claude leveque oeuvres";0;0;1;5
jadanse;0;0;1;4;0;0;1;4
"myriam baudin";0;0;1;4
"antonio seguí";0;0;1;10
"aurélie deplus société générale";0;0;1;5
"galerie en ligne";0;0;8;1.5;0;0;1;3
"grands noms";0;0;1;31
"artistes colombiens";0;0;2;7.5;0;0;1;6;0;0;1;9
"galerie dorval";0;0;1;14;0;0;1;14
"robert zandvliet artist";0;0;1;5;0;0;1;5
mulliez;0;0;1;44;0;0;1;44
"mushroom room";0;0;1;1;0;0;1;1
"westport arts festival";0;0;1;329
moyoshi;0;0;8;1.875;0;0;5;1.8
"acheter peinture biot";0;0;1;48
"galerie jousse";0;0;1;38;0;0;1;38
"olivier vincent";0;0;3;11.333333333333;0;0;2;10.5;0;0;1;13
"""manu perez""";0;0;2;12.5
"victoria klotz";0;0;4;1.75;0;0;3;1.6666666666667
"corps masculin";0;0;1;47;0;0;1;47
"serge labegorre";0;0;1;6;0;0;1;6
"dubuffet oeuvres";0;0;32;4.5625;0;0;24;4.375;0;0;1;5
"alexandre devals";0;0;2;4
"wifredo lam biographie";0;0;1;17
"thierry michelet";0;0;1;13;0;0;1;13
"ivan messac";0;0;6;4.3333333333333
"richard di rosa";0;0;2;2;0;0;1;1
"photographe david lachapelle";0;0;1;7
wesselman;0;0;5;10;0;0;5;10
"yves gellie";0;0;2;8
"eric zambeaux";0;0;1;5
"artiste keith haring";0;0;3;10
"kurt cobain";0;0;1;221
"stephanie slama";0;0;1;5
"banksy tags";0;0;1;9
"la jolie fille";0;0;1;50
"love magazine contact";0;0;1;241;0;0;1;241
"pop art tom";0;0;1;7
"murielle vanhove";0;0;7;2.5714285714286;0;0;6;2.5;0;0;1;3
"musées d'art à chattanooga";0;0;5;56;0;0;5;56
"peinture absurde";0;0;1;21
"sandrine paumelle";0;0;1;6
"homère est morte";0;0;1;10;0;0;1;10
"johanne 8";0;0;3;4;0;0;3;4
"parisot e-max";0;0;1;57;0;0;1;57
"artistes cubains";0;0;1;20;0;0;1;20
"représentation artistique";0;0;1;49;0;0;1;49
coumbas;0;0;1;7;0;0;1;7
"galerie art brut";0;0;1;47
"solène ballesta";0;0;1;4;0;0;1;4
"sculpture acier";0;0;1;55;0;0;1;55
"sculpture terre cuite";0;0;1;21
"achat art en ligne";0;0;2;1
"galerie riviere faiveley";0;0;2;6.5
"trudy good";0;0;1;23;0;0;1;23
"keith haring crack down";0;0;4;4.5
"christophe catelain";0;0;1;1;0;0;1;1
"hotel riad des eaux";0;0;1;164
"portrait miroir";0;0;1;6;0;0;1;6
"françois malingrëy";0;0;5;6
"art jingle";0;0;4;4.25;0;0;2;3.5;0;0;2;5
"galerie des petits carreaux";0;0;1;3
"vincent fillon";0;0;5;7.8;0;0;4;7.75;0;0;1;8
"peintre new yorkais contemporain";0;0;1;9
"galerie bertrand gillig";0;0;3;4.3333333333333;0;0;1;4
"monalisa contact";0;0;1;221;0;0;1;221
"alain crocq";0;0;1;9;0;0;1;9
"lucien murat artiste";0;0;5;1;0;0;4;1
mrsex;0;0;4;14.75;0;0;3;14.333333333333;0;0;1;16
abcgallery;0;0;1;4
"peintre drouet";0;0;1;5;0;0;1;5
"fantastique art";0;0;1;18;0;0;1;18
"biographie de eduardo kac";0;0;1;7;0;0;1;7
"rero artiste";0;0;4;9.5;0;0;4;9.5
"jean paul moscovino";0;0;2;3.5;0;0;1;3
"galleries d'art";0;0;1;6;0;0;1;6
"jimmy ruf";0;0;1;2
"mont de vénus";0;0;1;47;0;0;1;47
"jean pierre giovanelli";0;0;2;10;0;0;2;10
"oeuvres de keith haring";0;0;2;6.5;0;0;1;6;0;0;1;7
"sandra ghosn";0;0;3;5.6666666666667;0;0;1;5
"christine drummond";0;0;1;5
"ayline olukman";0;0;2;4.5;0;0;1;5;0;0;1;4
shahabuddin;0;0;1;10
"galeries art contemporain";0;0;2;7
zooportrait;0;0;3;5;0;0;3;5
"mark jenkins";0;0;13;8.3846153846154;0;0;10;7.9;0;0;2;10.5;0;0;1;9
"griffon bruxelois";0;0;1;34
"oeuvre d'art en papier";0;0;1;3
"david sculpteur";0;0;1;43;0;0;1;43
"marilyn sunday b morning";0;0;1;10
"opalka oeuvres";0;0;1;10
"bossard peintre";0;0;1;6
"les oeuvres";0;0;1;56
"soubrette x";0;0;1;49
"tableau new york";0;0;1;69
"jr photographie";0;0;2;11;0;0;2;11
"daphné navarre";0;0;1;3;0;0;1;3
"statue deesse";0;0;1;4
"la galerie d'art";0;0;1;5;0;0;1;5
"fox spirt";0;0;1;393
rabus;0;0;2;10.5;0;0;1;11
"artistes togolais";0;0;1;24;0;0;1;24
"andré carl";0;0;1;4
"oeuvre braque";0;0;3;31.333333333333;0;0;3;31.333333333333
"skull jean michel basquiat";0;0;1;10;0;0;1;10
"thomas canto";0;0;12;6.3333333333333;0;0;3;6
"florence d’elle";0;0;2;2
"lamy peinture";0;0;1;10
"anne valérie dupond";0;0;1;10
rancillac;0;0;2;12.5
esculture;0;0;2;9
"verney carron";0;0;2;60;0;0;1;64;0;0;1;56
"monsieur chat street art";0;0;2;5;0;0;2;5
"willy art";0;0;1;6
"tu di";0;0;1;30;0;0;1;30
"manolo chretien";0;0;4;4;0;0;1;4
speculture;0;0;1;10
"3 cerises sur une étagère";0;0;2;3.5;0;0;2;3.5
"jacques pellegrin artiste peintre";0;0;2;10
"samuel levy";0;0;6;6;0;0;2;6;0;0;1;7
"tom wesselmann oeuvres";0;0;3;4.6666666666667
josseau;0;0;1;3
"galerie wagner";0;0;2;7
"jean francois rauzier";0;0;2;8
"peintres russes";0;0;1;17;0;0;1;17
"oeuvre d'art en chocolat";0;0;1;5
"galerie olivier waltman";0;0;4;4.25;0;0;1;5
"aurel artiste";0;0;3;10;0;0;1;10
"george ward tjungurrayi";0;0;1;10
"mario chichorro";0;0;1;4
"francoise petrovitch";0;0;7;7.7142857142857;0;0;1;8
eitner;0;0;2;7
"artiste arman";0;0;2;10
"guy denning crow";0;0;1;6
"photo art contemporain";0;0;10;2;0;0;2;2
"photo d'art moderne";0;0;1;3;0;0;1;3
télémaque;0;0;1;43
brugier;0;0;1;8;0;0;1;8
"vente sculpture";0;0;4;1;0;0;1;1;0;0;1;1
"oeuvre de jean michel basquiat";0;0;2;9.5
"musée de l'homme georges rousse";0;0;1;17
"vente magnolia";0;0;1;43;0;0;1;43
"galerie art";0;0;10;9.5;0;0;9;9.4444444444444;0;0;1;10
"oeuvres art";0;0;1;3;0;0;1;3
lecourt;0;0;1;19;0;0;1;19
zalez;0;0;3;6;0;0;3;6
"honegger gottfried";0;0;1;8;0;0;1;8
"female contact";0;0;1;240
"philippe berry sculpteur";0;0;3;6.3333333333333;0;0;2;9;0;0;1;1
"morgan paslier";0;0;1;4;0;0;1;4
"michelle auboiron";0;0;3;6.6666666666667;0;0;1;6
"sous la robe";0;0;1;98
"jean michel berts";0;0;2;10;0;0;2;10
"prat frederic";0;0;2;9;0;0;2;9
"joaillier philippe planas";0;0;1;39;0;0;1;39
"art de la rue";0;0;1;49;0;0;1;49
hains;0;0;3;9
"vente citadine";0;0;1;86
"rancillac peintre";0;0;2;7.5
brantt;0;0;1;5
"tatouage chinoise";0;0;1;49;0;0;1;49
"jeff koons";0;0;1;48;0;0;1;48
"toile cirée contemporaine";0;0;2;77.5;0;0;2;77.5
manuperez;0;0;1;9
"reeve schumacher";0;0;1;1
"lawrence wiener";0;0;2;7.5;0;0;1;8
"bouillon d'art";0;0;5;4.2;0;0;1;8
"art elysees";0;0;1;20
"elsa jean follando";0;0;1;3;0;0;1;3
"peter lippmann wikipedia";0;0;1;9
"oeuvre en papier";0;0;1;7
"mesnager artiste";0;0;1;1
softat;0;0;1;11
"toile de jean";0;0;1;60;0;0;1;60
"clément cogitore";0;0;1;13;0;0;1;13
"galerie du marais";0;0;1;17;0;0;1;17
"oeuvre d'art pas cher";0;0;1;2;0;0;1;2
"sam francis oeuvres";0;0;2;7;0;0;2;7
lachize;0;0;1;3;0;0;1;3
"clémence veilhan";0;0;5;5.8
"le guinio";0;0;3;4
"thomas ruff oeuvres";0;0;1;9
psyckose;0;0;1;6
"""fabrice hyber""";0;0;1;7;0;0;1;7
"pez artiste";0;0;6;5.3333333333333;0;0;4;5.25;0;0;2;5.5
"kouka artiste";0;0;1;4;0;0;1;4
"galeries nue";0;0;1;34
"guy boyer";0;0;2;7
"mi hyun kim";0;0;1;7
"joseph chiaramonte";0;0;4;3.75;0;0;3;3.6666666666667;0;0;1;4
"chien jeff koons achat";0;0;2;9;0;0;2;9
"cheval de przewalski";0;0;1;98
"alechinsky oeuvre";0;0;1;29;0;0;1;29
balloondog;0;0;2;8;0;0;2;8
"jean luc beaufils";0;0;1;4;0;0;1;4
"jacques damez";0;0;1;3
"continuum tabouret vente";0;0;1;20;0;0;1;20
"sumi e";0;0;3;34
"ben vautier oeuvres";0;0;1;4;0;0;1;4
"anne brégeaut";0;0;2;7
"tableau vache";0;0;1;54;0;0;1;54
"etienne buraud";0;0;1;3;0;0;1;3
"inception gallery";0;0;3;7.3333333333333;0;0;2;7;0;0;1;8
"artiste jonone";0;0;2;1.5;0;0;1;1;0;0;1;2
"sculpteur art";0;0;1;9;0;0;1;9
"jean hélion";0;0;7;6.4285714285714;0;0;1;9
"mensing artistes";0;0;14;6.4285714285714
"lucien ghomri";0;0;3;2.6666666666667;0;0;1;3
rozowy;0;0;1;5
anguelova;0;0;1;13;0;0;1;13
"karl andre";0;0;1;6;0;0;1;6
trichom;0;0;1;10
"annette messager oeuvres";0;0;6;7.1666666666667;0;0;2;7
"claude viallat oeuvre";0;0;1;10;0;0;1;10
"femme fatale";0;0;1;300
"lolo ferrari";0;0;1;306
"isabelle chapuis";0;0;2;14;0;0;2;14
nyaba;0;0;1;60;0;0;1;60
"raymond hains oeuvres";0;0;3;5;0;0;2;5
"office du tourisme dinard";0;0;1;15;0;0;1;15
"kristeen chan and marine michaels";0;0;1;6;0;0;1;6
"samuel anderson";0;0;1;33;0;0;1;33
"peinture julien";0;0;1;27;0;0;1;27
"jerome mesnager cote";0;0;3;3.3333333333333
pierre&gilles;0;0;1;9;0;0;1;9
"david la chappelle";0;0;1;11
hatat;0;0;1;11
"galerie art moderne";0;0;3;3;0;0;2;3
"stéphane joannes";0;0;1;2
"patrick naggar";0;0;2;9;0;0;2;9
"oeuvre d'art sur la peur";0;0;1;2
moustafa;0;0;1;25;0;0;1;25
"virginia benedicto";0;0;2;7.5;0;0;1;7;0;0;1;8
"honegger peintre";0;0;1;6
"balloon dog";0;0;9;7.4444444444444;0;0;8;7.375;0;0;1;8
"+""madame bovary"" -""trailer"" -""bande annonce"" -""extrait"" -""mp3"" -""musique"" -""ps3"" -""ps4"" -""xbox*"" -""wii*"" -""psp*"" -""sample"" -""chabrol"" -""flaubert"" -""100.romans.d.auteurs.french.pdf"" -""1949"" -""1969"" -""1933"" -""1991"" -""2000"" -""1934""";0;0;1;114
"françois bard";0;0;3;1.3333333333333
araki;0;0;1;45;0;0;1;45
"richard orlinski tarif";0;0;1;4;0;0;1;4
"totem art contemporain";0;0;1;10;0;0;1;10
"tableau artiste contemporain";0;0;7;4;0;0;1;4
"hannah adamaszek";0;0;1;4
"laure krug";0;0;3;5;0;0;1;5;0;0;1;5
"tableau peinture art contemporain";0;0;1;6
"docks art fair";0;0;1;19;0;0;1;19
"bambi puerto de la cruz";0;0;1;186;0;0;1;186
"art unique";0;0;1;2;0;0;1;2
"veronique bourgeois";0;0;2;6
traffik;0;0;1;22
"jonone galerie";0;0;2;4.5
ponita;0;0;4;9
"damien hirst oeuvres";0;0;3;5.3333333333333;0;0;1;6
"de buffet artist";0;0;1;8;0;0;1;8
"gel anti douleur";0;0;1;30;0;0;1;30
"guy boyer peintre";0;0;1;1;0;0;1;1
"galerie audet";0;0;6;10.5;0;0;3;11
roch3;0;0;1;6
"oeuvre d'art moderne";0;0;1;1;0;0;1;1
"lampe en verre de murano";0;0;1;39
"oeuvre de dali";0;0;1;39;0;0;1;39
"isabelle bonzom";0;0;4;3;0;0;4;3
"djinane alsuwayeh";0;0;3;8.6666666666667;0;0;2;8.5
"isabelle de mars";0;0;1;7;0;0;1;7
"rent a car";0;0;1;331
"adeline spengler";0;0;2;2;0;0;2;2
"peinture animaux";0;0;2;35;0;0;1;34
fazino;0;0;2;8
"patrick delaunay";0;0;8;3.125
"michele mikesell";0;0;1;7;0;0;1;7
"adrien leguay";0;0;1;5
"fille chien";0;0;1;103
"didier triglia";0;0;6;5;0;0;2;5
"sculptures contemporaine";0;0;1;3
"joan longas";0;0;1;3
"galerie sbk";0;0;3;4;0;0;3;4
"jeanne lorioz gallery";0;0;1;6
"tristan alexandre";0;0;3;2;0;0;1;2
"banksy biographie";0;0;1;10
"gilles capton";0;0;2;2.5
"pochoir miss tic";0;0;1;6;0;0;1;6
sculpture;0;0;118;10.042372881356;0;0;14;9.7142857142857
villéglé;0;0;5;5
"puzzle d art";0;0;1;1
"gregory watin";0;0;4;2;0;0;2;2;0;0;1;2
treit;0;0;1;8
"robert barry";0;0;10;3.4;0;0;10;3.4
"kalwa 2015";0;0;1;6;0;0;1;6
"toile jean";0;0;1;58;0;0;1;58
"photo d art";0;0;2;38.5;0;0;1;39
"riad des eaux et hotel marrakech";0;0;1;57
"eric brugier";0;0;9;6
"roman klonek";0;0;1;6
"mesnager jerome";0;0;1;3
"arts photographie";0;0;1;55
"oeuvre de bernard buffet";0;0;2;4;0;0;2;4
"sandra zeenni";0;0;1;2
"the art of nick walker";0;0;1;5
mallart;0;0;1;6
"florent chopin peintre";0;0;4;4
farzane;0;0;1;4
"jacques verdier";0;0;1;18
"bernar venet oeuvres";0;0;1;5
"gerti schiele";0;0;1;11;0;0;1;11
"banksy oeuvre";0;0;8;7.5;0;0;5;7.2;0;0;2;8;0;0;1;8
"the little black gallery";0;0;1;6;0;0;1;6
"marin kasimir";0;0;1;4
"murakami peintre";0;0;1;3;0;0;1;3
keymi;0;0;7;7.5714285714286
arman;0;0;1;66
"eric lapierre";0;0;2;7
carybe;0;0;3;9.3333333333333;0;0;2;9
"oeuvre keith haring";0;0;7;6.4285714285714
"phillipe pasqua";0;0;1;5
go-don;0;0;1;10
"marchand art";0;0;1;53;0;0;1;53
"daniela adami";0;0;1;341
"juliette choné";0;0;5;4.2;0;0;1;4
"toros sculpteur";0;0;1;48;0;0;1;48
scultures;0;0;2;10;0;0;1;11
"lithographie art";0;0;1;34;0;0;1;34
"roux laurent";0;0;1;20;0;0;1;20
"miro oeuvres";0;0;6;7.6666666666667;0;0;4;11
"jian guo shou ji";0;0;1;5
"marc cerrone";0;0;2;18
banq;0;0;1;60;0;0;1;60
"roberto battistini";0;0;1;5
"e pignon ernest";0;0;1;9
correia;0;0;1;50;0;0;1;50
"jm robert peintre";0;0;2;2;0;0;2;2
"cortade art montauban";0;0;2;11
maohuang;0;0;1;3
"gerard alary";0;0;1;5;0;0;1;5
"www.paris match.fr";0;0;1;31;0;0;1;31
lussigny;0;0;1;4
"gilles aillaud";0;0;25;8.72;0;0;4;8;0;0;2;9.5
"art vente";0;0;2;1;0;0;2;1
"orlinski crocodile prix";0;0;1;4;0;0;1;4
saudek;0;0;5;9;0;0;4;9
"ipso france";0;0;2;27.5;0;0;2;27.5
galeries;0;0;18;10.277777777778;0;0;5;9.6
eppelé;0;0;2;4.5
"francis apesteguy";0;0;1;4;0;0;1;4
wesselmann;0;0;5;22
"nu féminin";0;0;1;51;0;0;1;51
"di rose";0;0;1;5
"se mon";0;0;1;46;0;0;1;46
"frédéric deprun";0;0;1;4
"francois bard";0;0;4;1.5;0;0;1;1;0;0;2;1.5;0;0;1;2
"murielle belin";0;0;2;9;0;0;2;9
"diane arbus œuvres d'art";0;0;2;7.5;0;0;1;8
"peur art";0;0;1;1
"monsieur le chat";0;0;17;5.7058823529412;0;0;11;5.4545454545455;0;0;1;7
"von wrede";0;0;1;20
"francois morellet";0;0;27;7.3703703703704;0;0;2;8
"john william waterhouse œuvres d'art";0;0;2;9;0;0;1;10;0;0;1;8
"claire bianchi";0;0;1;4
"pierre-marie brisson";0;0;1;1;0;0;1;1
"jeanne susplugas";0;0;9;4.5555555555556;0;0;4;5;0;0;1;5
"peintre capton";0;0;1;3
mr.chat;0;0;2;7
rivieras;0;0;1;183
"peintre clisson";0;0;1;66
"sitbon origine";0;0;1;16;0;0;1;16
"jeff aerosol";0;0;4;4;0;0;4;4
"chat ronde";0;0;1;39;0;0;1;39
"vente bouddha";0;0;3;40;0;0;1;36
"andré cottavoz";0;0;1;12
"prix sculpture";0;0;2;3;0;0;1;5;0;0;1;1
"thierry carrier";0;0;1;3
ahhhhh;0;0;1;42;0;0;1;42
slickart;0;0;1;9;0;0;1;9
"x sculpture";0;0;1;8;0;0;1;8
"aslan pin up";0;0;1;28;0;0;1;28
"galerie d'art contemporain en ligne";0;0;2;1
"james coignard";0;0;1;54
inneart;0;0;1;2
"fred ebami";0;0;1;10;0;0;1;10
"banksy toile";0;0;1;10;0;0;1;10
"gianni colosimo";0;0;1;1;0;0;1;1
"bertrand desprez";0;0;3;7.6666666666667
camen;0;0;6;7;0;0;6;7
"john levee";0;0;3;6.6666666666667;0;0;1;6
"herve telemaque";0;0;2;6;0;0;1;6;0;0;1;6
"galerie jean denis walter";0;0;3;5.3333333333333;0;0;1;5
"bernard 55 buffet";0;0;1;8;0;0;1;8
"séquence 7";0;0;1;44;0;0;1;44
"galerie claire corcia";0;0;3;5.6666666666667
"dubuffet peintre";0;0;1;3;0;0;1;3
"tableau 21eme siecle";0;0;1;8;0;0;1;8
mpah;0;0;2;1;0;0;1;1
"césar expansion";0;0;1;7
"signature andy warhol";0;0;1;7;0;0;1;7
opalka;0;0;1;16
"compression cesar";0;0;2;19
"elodie grégoire";0;0;1;8
"crocodile rouge";0;0;1;34
"alexandre durand";0;0;5;10
"oeuvres de andy warhol";0;0;1;58;0;0;1;58
"carlos cruz-diez";0;0;1;7;0;0;1;7
"moz artiste";0;0;1;2;0;0;1;2
"foetus art";0;0;1;25
"art publicité";0;0;1;39
"cornette de saint cyr";0;0;2;19;0;0;2;19
"oeuvre miro";0;0;3;11;0;0;3;11
"flexo zed";0;0;2;5.5;0;0;1;2
carbonné;0;0;1;10
"marie houset";0;0;1;3;0;0;1;3
"christine barres";0;0;8;4;0;0;1;4
"plus je connais les hommes";0;0;1;44;0;0;1;44
"butz & fouque";0;0;1;1
"wilma tabacco";0;0;2;1
"sculpture art contemporain";0;0;5;1.8;0;0;1;2
"anne messager";0;0;1;8;0;0;1;8
"oeuvre damien hirst";0;0;2;4
"artiste benjamin";0;0;1;8
"loup garou art";0;0;1;4
"murakami sculpture";0;0;1;5;0;0;1;5
"galerie art france";0;0;1;28;0;0;1;28
"peter blake pop art";0;0;2;5.5
"jeunes artistes contemporains";0;0;3;9
"gottfried salzmann peintre";0;0;2;8
"my an";0;0;1;5
grais;0;0;1;57
"vente paon";0;0;1;35
gerstein;0;0;9;10.444444444444
"tete de poire";0;0;5;10;0;0;5;10
lasttube;0;0;1;10;0;0;1;10
"oeuvre dali";0;0;1;34;0;0;1;34
"galerie marie ricco";0;0;1;58
"peintre jean michel basquiat";0;0;1;11;0;0;1;11
"galerie roy sfeir";0;0;2;4
"jef aérosol";0;0;8;4.5;0;0;1;5
"wesselmann oeuvres";0;0;2;5
"thierry couet";0;0;1;2;0;0;1;2
"costa artiste peintre";0;0;1;2;0;0;1;2
"marco barbon";0;0;3;4.3333333333333;0;0;3;4.3333333333333
"zao wo ki";0;0;1;46;0;0;1;46
malysse;0;0;3;9;0;0;2;9;0;0;1;9
debarre;0;0;1;60;0;0;1;60
"david harber";0;0;2;8
"artiste contemporains";0;0;1;17;0;0;1;17
"vente buste";0;0;1;34;0;0;1;34
"gilles aillaud peinture";0;0;1;5
"raphael denis";0;0;10;4.4;0;0;9;4.3333333333333;0;0;1;5
"la chapelle photographe";0;0;1;10
"stanley greene";0;0;2;20
"chopin oeuvres";0;0;1;39;0;0;1;39
"motif art";0;0;1;31;0;0;1;31
"petit rouge";0;0;1;44;0;0;1;44
"delphine lebourgeois";0;0;2;3
"bagage homme blanc";0;0;1;20;0;0;1;20
bansky;0;0;1;41
"sculpture bruno catalano prix";0;0;1;3
"art contemporain vente";0;0;2;1;0;0;2;1
"mr chat paris";0;0;1;10
"david guiraud";0;0;2;9
"elizabeth gourlay";0;0;1;19;0;0;1;19
"keith haring nom des oeuvres";0;0;2;10
"francois cellier";0;0;1;15;0;0;1;15
merienne;0;0;1;8
carbonel;0;0;2;43
"achat sculpture";0;0;8;1;0;0;7;1
galeriehus;0;0;2;10.5;0;0;1;10;0;0;1;11
"banksy achat";0;0;1;2;0;0;1;2
"jeans dubuffet";0;0;1;27;0;0;1;27
brusadelli;0;0;1;10
"toma l";0;0;1;4
"jean helion";0;0;2;6;0;0;2;6
"mr le chat";0;0;2;5.5;0;0;1;6
"fausto marci";0;0;1;8;0;0;1;8
"galerie art contemporain paris";0;0;1;73
"nobuyoshi araki";0;0;2;27.5
"natalia rak";0;0;4;5;0;0;4;5
"bernad pras";0;0;2;3
"philippe croq";0;0;3;3.3333333333333;0;0;1;6
"jean cocteau art";0;0;1;10
"bon marché rive gauche";0;0;1;58;0;0;1;58
"silvia calmejane";0;0;1;2
"de gottal";0;0;1;4;0;0;1;4
"jerome lagarrigue";0;0;6;4.8333333333333;0;0;3;5
"the solo project";0;0;1;7
"bernard chauveau editeur";0;0;1;7
"wilfred peintre new york";0;0;1;1
"laurent durrey";0;0;3;8.3333333333333
"oeuvre d'art géométrique";0;0;1;10;0;0;1;10
"aa bronson";0;0;1;11
"vente d'art sur internet";0;0;2;1;0;0;2;1
thijs;0;0;1;55;0;0;1;55
"laurent allory";0;0;3;3
"pascale lander";0;0;1;1;0;0;1;1
"the linda blackstone gallery";0;0;1;5;0;0;1;5
"renaissance wuhan";0;0;1;184;0;0;1;184
"clark university contact";0;0;1;125;0;0;1;125
"image potiron";0;0;1;44;0;0;1;44
henriksen;0;0;1;9;0;0;1;9
"art culinaire";0;0;1;53;0;0;1;53
"art aborigène australien";0;0;1;35;0;0;1;35
"oeuvre de miro";0;0;8;7.875;0;0;1;15;0;0;3;1.3333333333333
"gerstein design";0;0;1;2
"toile artiste";0;0;1;36;0;0;1;36
"basquiat oeuvre";0;0;3;10.333333333333;0;0;1;10
"oeuvre d'art colère";0;0;1;7
"levalet art";0;0;1;8;0;0;1;8
"bertrand noël";0;0;3;2
combass;0;0;4;8.25
erarta;0;0;1;11
"miro sculpture";0;0;3;9.3333333333333;0;0;2;10
"peinture carré";0;0;1;48
"erro biographie";0;0;1;9
cedrix;0;0;2;6.5;0;0;1;7
"robe longue fille";0;0;1;48
laveri;0;0;3;4;0;0;1;3;0;0;1;4
"jean luc lacroix";0;0;2;5
"elle comptait";0;0;1;14
"pignon ernest oeuvre";0;0;2;7;0;0;1;7
"marc gerenton";0;0;1;4
"marine hier";0;0;1;22
"miss tic paris";0;0;2;9.5
annina;0;0;1;13;0;0;1;13
"mani france";0;0;2;12;0;0;2;12
"leopold rabus";0;0;2;5;0;0;2;5
"art belgique";0;0;2;8
"andy warhol superman";0;0;1;8;0;0;1;8
"olivia garnier";0;0;1;404
moscona;0;0;1;3
"colette hyvrard";0;0;1;9;0;0;1;9
"oeuvre d'art originale";0;0;4;2;0;0;3;2;0;0;1;2
"cricket fine art";0;0;1;2
"solene ballesta";0;0;2;4;0;0;1;4;0;0;1;4
"art galerie en ligne";0;0;2;1;0;0;2;1
jakè;0;0;3;3;0;0;2;3
"desserle cecile";0;0;1;5;0;0;1;5
"antoine mercusot";0;0;1;1
"jean georges inca";0;0;1;2;0;0;1;2
"miss tik";0;0;4;6.75;0;0;1;7;0;0;1;6
millo;0;0;1;50;0;0;1;50
"pascaline marre";0;0;1;9
"arnaud berry";0;0;1;327;0;0;1;327
art,tableaux,provence;0;0;1;238;0;0;1;238
"cali rezo";0;0;2;6.5
"vente cumulus";0;0;1;57;0;0;1;57
"jean michel gnidzaz";0;0;2;3
"elsa guillaume";0;0;6;2;0;0;5;2;0;0;1;2
"guy weladji";0;0;2;4;0;0;2;4
"chase school of fine and applied arts";0;0;3;7;0;0;3;7
"laurence dreyfus";0;0;9;8.4444444444444
"peinture japonaise contemporaine";0;0;1;49
"oswaldo guayasamin oeuvres";0;0;1;3
"sundown contact";0;0;1;219;0;0;1;219
"oeuvre art";0;0;8;2
"boccara tapis";0;0;1;9
"joaquim falcó";0;0;1;10;0;0;1;10
"art contemporain street art";0;0;1;8
combasse;0;0;2;6;0;0;1;6
"oeuvre d'art sur l'amour";0;0;1;3
"jean-pierre attal";0;0;1;6;0;0;1;6
"pierre fontaine";0;0;1;45;0;0;1;45
"jm robert prix";0;0;1;1;0;0;1;1
"tom catalano";0;0;1;420;0;0;1;420
samsofy;0;0;2;17
streetartgalerie;0;0;4;7
"belles femmes afrique du sud";0;0;1;308;0;0;1;308
"david sitbon";0;0;3;6
"roxane stroobant";0;0;1;4
"le motif";0;0;1;53;0;0;1;53
"john timberlake";0;0;1;6;0;0;1;6
"patrice larue";0;0;1;11;0;0;1;11
arbus;0;0;1;55
"renaud delorme";0;0;1;2
"georges bru";0;0;1;2
"la collégiale";0;0;1;6
"karl lagasse";0;0;3;4;0;0;2;4.5;0;0;2;4
"bert stern";0;0;2;24.5;0;0;1;25
"galerie d art sur internet";0;0;1;1
assalit;0;0;7;7.1428571428571;0;0;2;8;0;0;1;8
"artiste milo";0;0;1;6
"oeuvre de keith haring";0;0;15;6.4;0;0;1;7
"gerard schlosser";0;0;2;4
"david lachapelle art";0;0;1;6
"la photographie surréaliste";0;0;1;10
"hedva ser";0;0;1;3
foure;0;0;2;30.5
"oswaldo guayasamin";0;0;6;5.8333333333333
vaubourg;0;0;3;11.666666666667
"nathalie dhenaut";0;0;3;5
"david mesguich";0;0;3;7;0;0;4;7
"tom wesselmann";0;0;13;3.3846153846154;0;0;1;5
"india leire";0;0;2;5.5
"audoin desforges";0;0;5;6;0;0;1;6
"peinture combas";0;0;2;3.5
"tableau chat";0;0;1;13
"jeff koons œuvres d'art";0;0;1;6
"gilles verneret";0;0;1;3
"peinture art contemporain";0;0;9;3.1111111111111;0;0;1;3;0;0;2;3
"as i opened fire";0;0;3;4.6666666666667
nebay;0;0;3;3;0;0;1;3
"ivan tzonev";0;0;8;1.875
"kongo artiste";0;0;1;8;0;0;1;7;0;0;1;9
"eric vernhes";0;0;1;10
"mist artiste";0;0;1;8
"sarah hardacre";0;0;2;8
"orlan œuvres d'art";0;0;1;6;0;0;2;7
"anri sala";0;0;1;53
"aillaud gilles";0;0;3;5;0;0;1;7
"vincent hawkins";0;0;1;4
"galerie orlinda lavergne";0;0;1;3
"hotel moschini";0;0;1;178
"marie laure gerard becuwe";0;0;1;2
"nathalie de frouville";0;0;1;19
"chris morin";0;0;2;1
"vente d'art en ligne";0;0;1;1
"galerie raison d'art lille";0;0;1;6
"foire d art contemporain";0;0;1;31;0;0;1;39
paxal;0;0;3;9.3333333333333
stammegna;0;0;2;6
dorval;0;0;1;8;0;0;1;9
"marie rioux";0;0;1;8
"jacques ibert";0;0;3;25.666666666667
"street art";0;0;1;493
"sculpteur césar";0;0;2;8.5
"gerstein art";0;0;1;2
"agnès baillon";0;0;1;4
dauptain;0;0;3;8.3333333333333
zanello;0;0;1;17
"gwen marseille";0;0;1;5
"albert chubac";0;0;1;4
"marine cattaneo";0;0;1;8;0;0;2;6.5;0;0;2;6
"corps art";0;0;2;3
"jean dubuffet œuvres d'art";0;0;3;5
"lola cola";0;0;1;1
"shepard fairey bio";0;0;1;6
"sandro giordano in extremis";0;0;1;7
"animaux daum";0;0;1;54
warhol;0;0;1;348
"martine ehmer";0;0;1;6
"bram van velde";0;0;2;23.5
"jola sidi";0;0;1;5
"huang yan";0;0;1;8
"artiste obey";0;0;3;3
"florence d'elle photographie";0;0;1;1
"arman violon";0;0;1;9;0;0;1;7
"yz artiste";0;0;1;8
"peinture du 21ème siècle";0;0;5;8
"galerie gabel biot";0;0;1;4
"kiss a wookie";0;0;1;10
"bambi artiste";0;0;1;2;0;0;3;2.6666666666667
"oeuvre d'art lignes verticales";0;0;2;1
"des tof";0;0;1;10
"mel ramos";0;0;7;2.7142857142857
"virginie barrou planquart";0;0;2;5
rds;0;0;5;98
"philippe favier";0;0;4;11.75;0;0;1;7
"tom wesselmann pop art";0;0;1;6
"la micro galerie";0;0;3;6.3333333333333
"bruno fontana";0;0;4;5.25
"galerie barrou planquart";0;0;1;6
takalah;0;0;1;4
"valium art";0;0;1;5
"vente collioure le seris 2002";0;0;2;38
"street art shop";0;0;3;38.666666666667
"marie-pierre fontaine";0;0;1;6
"galerie gz";0;0;1;7;0;0;1;8
"bomba contact";0;0;1;20
"galerie duret";0;0;5;5.4
"alfredo lopez";0;0;2;5
murielle;0;0;1;87
"loup orlinski";0;0;1;7
"francine van hove";0;0;58;9.0172413793103;0;0;3;10.666666666667
"eric bourguignon";0;0;1;9;0;0;1;8
diamantaire;0;0;1;30;0;0;1;45
deguenon;0;0;1;9
"arnaud franc";0;0;1;2;0;0;1;4
"galerie bayart";0;0;1;5
"achat oeuvre d'art";0;0;5;1
"stephane gautier";0;0;3;3;0;0;1;5;0;0;2;3.5
"ernest pignon ernest biographie";0;0;2;9;0;0;3;9
"photographie d'art en ligne";0;0;3;4
"nathalie deshairs";0;0;1;3
"b andy";0;0;1;6
"oeuvre de joan miro";0;0;2;11
"claire fanjul";0;0;1;3;0;0;1;3
"charles thiefaine";0;0;3;2
"philippe brosse";0;0;1;4;0;0;1;4
"combas peintre";0;0;12;4.6666666666667;0;0;9;5.2222222222222;0;0;1;4
sculture;0;0;4;10;0;0;9;9.7777777777778;0;0;10;9.3
"jean-luc lacroix";0;0;1;1
"eric ceccarini";0;0;2;8;0;0;1;9
"tanc artiste";0;0;2;3
"robert schaberl";0;0;1;46
"natalia contact";0;0;1;137
"oeuvre d'art sculpture";0;0;1;4
"peintre buffet";0;0;28;5.8214285714286;0;0;25;6.56
"m chat paris";0;0;2;9
flipo;0;0;9;9
"gregoire guillemin biographie";0;0;1;1
"jacques renoir";0;0;4;6.5
"unique gallery";0;0;2;4
"gregos street art";0;0;1;10
"richard orlinski prix";0;0;2;6;0;0;1;6
"jacque villegle";0;0;1;4
"keith haring oeuvres";0;0;38;6.2894736842105;0;0;5;7.2
shigong;0;0;1;2
"pin up aslan";0;0;1;38
"dubuffet peinture";0;0;1;5;0;0;1;7
"jr artiste de rue";0;0;1;10
"carl andré";0;0;25;6.24;0;0;2;7
skoglund;0;0;2;8
"guyomard sylvie facebook";0;0;1;7
"michal batory";0;0;2;13.5
"rodgers contact";0;0;1;213
"vente sculpture contemporaine";0;0;1;1
"sylvie fleury biographie";0;0;1;9
guayasamin;0;0;2;10.5
levalet;0;0;8;5.75;0;0;1;5
"daniel nadaud";0;0;8;5
"bernard prass";0;0;1;4;0;0;1;4
"vente art en ligne";0;0;4;1;0;0;2;1;0;0;1;1
"peter blake artiste";0;0;4;3.75
"sculpture gorille rouge";0;0;2;7
"murakami art";0;0;2;7
"alex katz peintre";0;0;1;7;0;0;1;7
"denis rouvre biographie";0;0;1;3
"rudi pillen";0;0;1;1
"laurence weiner";0;0;4;7.5
fubiz;0;0;5;20.2;0;0;1;19
"galerie jonone";0;0;1;1
"lis man";0;0;1;5
"julian schnabel";0;0;1;46
"perlin pinpin magazine";0;0;1;30
"tilt street art";0;0;1;5
"jacques lacroix";0;0;4;8.5;0;0;3;7.3333333333333
"sandy skoglund oeuvres";0;0;2;4
"maja desnuda";0;0;2;49.5
"melanie peduzzi";0;0;1;2
frairot;0;0;2;7.5
"i love it";0;0;1;205
"franck lundangi";0;0;2;2
"fetish pied";0;0;1;50
"peinture rosée du matin";0;0;3;6
"banksy billet de banque";0;0;1;3
"art angleterre";0;0;1;9
"envie d'art";0;0;5;3;0;0;3;4
"bernard pras oeuvre";0;0;2;2
"jeff koons flower puppy";0;0;1;6
"guy de rougemont";0;0;2;5.5;0;0;1;6
"charlotte aleman";0;0;2;3;0;0;1;4
"david gerstein elegance";0;0;2;52.5
"peintre wilfred";0;0;1;1
"vente tableau contemporain";0;0;5;2
l'anoure;0;0;1;8
"tableau de claude viallat";0;0;1;37
"sandy skoglund biographie";0;0;1;7
"florian marco";0;0;2;8
"erró oeuvres";0;0;1;7
"andré pharel";0;0;1;5
waylines;0;0;2;9
"oeuvre unique";0;0;2;1
"ange kumbi";0;0;1;4
"kenza nue";0;0;1;30
"peter klasen";0;0;9;3.1111111111111;0;0;1;4
scuplture;0;0;2;13.5
"achat collioure le seris 2002";0;0;2;34.5
"xavier veillant";0;0;1;10;0;0;1;12;0;0;2;11
j.r;0;0;4;11
"ralph gibson";0;0;3;9;0;0;1;11
"jean dubuffet portrait";0;0;1;17
"coq multicolore";0;0;1;6;0;0;1;5
"alain godon";0;0;7;3.8571428571429;0;0;2;1
"barry cawston";0;0;1;3
"tal coat";0;0;2;14
"priska lorane";0;0;1;3
"francoise pétrovitch";0;0;1;7
"oeuvres de banksy";0;0;4;8;0;0;1;8
"orlinski ours";0;0;1;8
"maurice renoma";0;0;5;4
"la foret orange";0;0;1;7
"oeuvre d'art en ligne";0;0;1;1
"shaka art";0;0;1;4
mrlolo;0;0;1;4
"oeuvre d'art sport";0;0;1;5
"marc stammegna";0;0;1;10
"gilles de beauchene";0;0;3;6.6666666666667
"aki kuroda peintre";0;0;1;3
allory;0;0;1;8
"france mitrofanoff";0;0;2;2
"haring oeuvre";0;0;1;6
"frédéric garnier";0;0;1;27
"bernard pras anamorphose";0;0;2;4
oksana;0;0;1;35;0;0;2;30
"oeuvre banksy";0;0;4;6.5;0;0;2;7;0;0;1;7
"bernard chauveau éditeur";0;0;2;6.5
"marie-anne thieffry, sculpteur de carton";0;0;2;4
"aline robin";0;0;2;6
"david ratcliff";0;0;1;9;0;0;2;9
"miroir dans l'art";0;0;1;18
"galerie d'arts contemporains";0;0;2;7.5
"arnaud puig";0;0;1;4
"oeuvres du 21ème siècle";0;0;5;7;0;0;1;7
"galerie oneiro";0;0;1;2
"araki nobuyoshi";0;0;2;30.5
"christophe goutal";0;0;2;3;0;0;1;3
"tapis en soie";0;0;1;27
"simone truong";0;0;1;23
"speedy graffito";0;0;1;5;0;0;2;6
"kim mi hyun";0;0;1;10
"hanae sabir";0;0;1;6
"maison dauphine";0;0;2;18
"césar oeuvres";0;0;1;4
"james coignard peintre";0;0;4;10
pra¨s;0;0;1;6
gernstein;0;0;1;10
graphito;0;0;28;8
"francoise danel";0;0;2;2
"nathalie tacheau";0;0;2;6
"galerie honfleur";0;0;1;40
"galerie d art en ligne";0;0;3;1;0;0;1;1
"roman opalka biographie";0;0;1;8
"cecile desserle";0;0;4;4.75;0;0;3;5
"fernando costa";0;0;3;5;0;0;2;6.5;0;0;2;6.5
"jieun park";0;0;1;8
"antoine de la boulaye";0;0;1;4
ideelart;0;0;1;3
"li wei photographe";0;0;1;5
"l'homme en mouvement histoire des arts";0;0;1;4
moz;0;0;2;27
"keymi artist";0;0;1;6
"sculpteur cesar";0;0;2;9;0;0;1;10
guydenning;0;0;1;5
"jean du buffet";0;0;1;9
"francois lefranc";0;0;1;13
"patrick marin";0;0;2;6.5
"stéphane gautier";0;0;6;3.3333333333333
"david gerstein prix";0;0;2;1
"pierre-marie brisson artiste peintre";0;0;2;1
"toxic graffiti";0;0;1;5
"eric deville";0;0;1;4
"galerie marie vitoux";0;0;2;7
"art'n pepper";0;0;1;4
"drouet jean marie";0;0;3;4.3333333333333;0;0;1;4
"jeff aérosol";0;0;4;4.25;0;0;1;5
unbo;0;0;2;6
"hinkley buffet";0;0;1;216
"erro artist";0;0;1;8
"galerie de nue";0;0;1;46
"daniel authouart";0;0;10;9.4;0;0;2;11
"french art";0;0;2;16
verdian;0;0;1;14
"jeune artiste";0;0;4;8
"marie anne thieffry";0;0;15;2;0;0;1;2;0;0;5;2.6
mchat;0;0;2;9.5
"jonone street art";0;0;1;3
"isabelle cochereau";0;0;4;7.5;0;0;1;7
"mimi the clown";0;0;2;6
klasen;0;0;1;2
"artiste peintre amiens";0;0;1;73
"lawrence winer";0;0;1;7
moschini;0;0;2;7;0;0;1;7
"galerie nuances et lumieres";0;0;1;2
"riad des eaux marrakech";0;0;1;74
"tanc street art";0;0;1;5
"jean christophe ballot";0;0;1;7;0;0;1;8
"tal coat artist";0;0;1;7
"the french art studio";0;0;15;3.9333333333333
"carme albaiges";0;0;2;1
"henri lamy peintre";0;0;1;4
"olivier legan";0;0;2;2
devine;0;0;2;373.5
"cavin-morris gallery";0;0;2;7
"martin reyna";0;0;4;3.75
"jean-pierre nadau";0;0;6;1
"mimmo rotella oeuvres";0;0;1;8
"galerie rx";0;0;1;6
"ala stockings";0;0;1;77
"yvan messac";0;0;1;5
"crespel cedrix";0;0;1;3
besher;0;0;4;2
"jock sturges";0;0;1;25
"oeuvres d'art";0;0;2;7;0;0;3;7.3333333333333
"eric peyret";0;0;2;2
"vente art contemporain";0;0;3;1;0;0;1;1
"oeuvre jr";0;0;1;6
"gerard titus carmel";0;0;4;6.75
"dart contact";0;0;1;201
"m. chat";0;0;7;7.7142857142857
"anne lacouture";0;0;2;4
"max ernst oeuvres";0;0;3;9.3333333333333;0;0;1;14
"paybox contact";0;0;1;401
"gérard rancinan photos";0;0;2;5
"gilles aillaud biographie";0;0;1;4
"adel abdessemed";0;0;1;64
"artiste jr";0;0;8;10.75;0;0;1;1
"peintre combas";0;0;5;3.2
"akiza galerie";0;0;1;7;0;0;1;8
"dubuffet jean oeuvres";0;0;1;5
"sculpture platre";0;0;2;28
"vivian maier";0;0;2;19.5
"polin italie";0;0;1;3
"kiddy citny";0;0;5;5.2
"jr oeuvre";0;0;4;5.75
"eva jospin biographie";0;0;1;4
"vive la revolution";0;0;2;36
"jonone paris";0;0;2;6
"chat love";0;0;1;27
"carlos cruz diez";0;0;7;7.1428571428571
"oeuvres banksy";0;0;2;8
"acheter art contemporain";0;0;3;1
"cesar oeuvre";0;0;2;5;0;0;1;5
"damien hirst oeuvre";0;0;1;4
"pop art tom wesselmann";0;0;1;6
"alejandra eggleton";0;0;1;46
"sandra krasker";0;0;13;5.0769230769231
"david lachapelle";0;0;2;15.5;0;0;17;11.058823529412;0;0;1;6
"hervé télémaque";0;0;10;4.4
"arman artiste";0;0;3;9.3333333333333;0;0;3;10
"patrick loste artiste peintre";0;0;2;7
seaty;0;0;1;10
"talon rouge";0;0;2;43.5
"yaacov agam oeuvres";0;0;1;10
"julien cresp";0;0;1;4
"murielle vanhove peintre";0;0;2;3
"michael bastow";0;0;1;6
"valerie dupond";0;0;11;9
"vente potiron";0;0;1;53
"etienne gros peintre";0;0;1;4
"leslie caillard artiste peintre";0;0;2;8.5
"cécile desserle";0;0;3;4.3333333333333
"greg leon guillemin";0;0;2;2;0;0;1;2
"davide boriani";0;0;3;9
"julien calot";0;0;1;3;0;0;1;2
"rudolf hausner";0;0;1;3
"christine barres peintre";0;0;2;3
"sculpture de césar";0;0;4;8.75
"james mackeown";0;0;1;3;0;0;2;4
"francois melloul";0;0;2;2
dirosa;0;0;1;5;0;0;1;2;0;0;1;5
"acheter des oeuvres d'art";0;0;1;1;0;0;3;1
"hervé perdriel";0;0;1;4
"dganit blechner";0;0;1;7
"olivier ribardière";0;0;1;3
"victoria benmussa";0;0;1;2
"oeuvres art contemporain";0;0;3;2;0;0;2;2
"valérie hadida";0;0;2;2
"jacque villeglé";0;0;1;5;0;0;1;6
"ferrero contact";0;0;1;145
lapinthur;0;0;1;4
"alice lebredonchel";0;0;1;1
"vitali photographe";0;0;2;4
"art sculpture contemporaine";0;0;1;2
"valérie vaubourg";0;0;2;2
"jacques villeglé oeuvres";0;0;1;2;0;0;1;3
"filtrer eau du robinet";0;0;1;421
"viet ha";0;0;1;8
"atelier a quatre";0;0;4;7
"kevin vast";0;0;2;7
"biographie cesar";0;0;1;46
"michael brack";0;0;1;10;0;0;1;10
"biographie keith haring";0;0;2;10
"jean dubuffet oeuvre";0;0;5;6
"francois benoit lison";0;0;1;3
"maya hayuk";0;0;5;8;0;0;2;8
nuitale;0;0;1;8
"god dog";0;0;2;7
"signe astral";0;0;1;64
"anne valerie dupond";0;0;1;9
"laetitia giraud";0;0;2;3;0;0;1;3
"nils udo nids";0;0;1;8
"hiro ando";0;0;2;2
"amelie dubois";0;0;1;8
guinio;0;0;1;9
"mb factory";0;0;2;7.5
"michèle destarac peintre";0;0;1;1
"vanity fair on art";0;0;1;8
"peinture buffet";0;0;4;7
"yo marchand";0;0;6;3.1666666666667
"stephanie nava";0;0;2;5
"tableau oeuvre d'art moderne";0;0;1;1
"sex ski";0;0;1;16
"galerie argentic";0;0;2;7.5;0;0;1;8
"tableaux contemporains paris";0;0;1;6
"ironman contact";0;0;1;345
mrchat;0;0;1;6;0;0;1;10
"joan jett art";0;0;1;9
totomobile;0;0;2;36
ferreira;0;0;1;41
"christine flynn";0;0;1;9
"jessica snow";0;0;1;53
"peintre troy";0;0;1;2;0;0;3;2
"pélias et nélée";0;0;1;10
"severine bernard";0;0;2;8
"mr sex";0;0;1;24
"no art";0;0;1;5
"galerie d'art en ligne";0;0;19;1.4736842105263;0;0;3;1;0;0;3;1
"jean michel turpin";0;0;1;6
"galeries d'art";0;0;3;5.3333333333333
"nicola davey";0;0;1;345
"gottfried salzmann";0;0;5;5;0;0;2;5
"caroline yates";0;0;4;5.25
"norma bessières";0;0;1;4
"art nue";0;0;2;16.5
"claude champy";0;0;3;7;0;0;1;7
"jerome revon photographe";0;0;2;9.5
"gerard clisson";0;0;3;3
arsper;0;0;1;1;0;0;1;1;0;0;1;1
"sophie morisse peintre";0;0;1;2
moriette;0;0;1;8
"gregoire dalle";0;0;1;4
"bernhard klotz";0;0;1;334
"louis nicolas darbon";0;0;2;8.5;0;0;1;8
"stephane dauthuille";0;0;3;9
"christoff debusschere";0;0;7;5.8571428571429;0;0;3;6;0;0;1;6
"hervé di rosa peinture";0;0;1;4
"reçu 5 sur 5";0;0;1;10
"je suis charlier";0;0;1;6
"germain plouvier";0;0;3;3.6666666666667
"kristian von hornsleth";0;0;2;6
"nicolas nicolini";0;0;1;1
"massimo vitali photographe";0;0;2;2
"etiyé dimma poulsen";0;0;1;4
"pumpkin yayoi kusama";0;0;1;5
"art cubique";0;0;1;10;0;0;1;10
"francois mendras";0;0;2;3
"brasil tudo bem";0;0;1;8
"christine bares";0;0;1;3
"adela burdujanu";0;0;6;4;0;0;1;5
poes;0;0;5;4;0;0;3;4;0;0;1;4
"peintre chat";0;0;2;13
"sculpture panda";0;0;1;9
"evelyne postic";0;0;1;7
"sandy skoglund";0;0;10;7;0;0;1;8
"curves sainte clotilde";0;0;1;99
"eliane larus";0;0;2;3
"helion peintre";0;0;2;7
"tingting wang";0;0;2;1
"jonone graffiti";0;0;1;4
"hommage mandela";0;0;1;95
"bloomfield hills mi venus freeze";0;0;1;63
derero;0;0;1;15
pras;0;0;13;6.1538461538462;0;0;1;7
"k1 2011";0;0;1;8
"on kawara oeuvres";0;0;2;7;0;0;1;7
"de seen";0;0;1;3
"peter mc lane";0;0;1;4
"alain josseau artiste";0;0;1;3
"carl andre";0;0;15;6;0;0;4;7;0;0;1;7
"linda blackstone";0;0;1;6
"georges buffet peintre";0;0;1;7
"peindre du lino";0;0;2;62
"françois morrelet";0;0;1;7
"julien raynaud";0;0;1;4;0;0;1;4
noart;0;0;1;10;0;0;4;11
"arnaud paillard";0;0;2;5.5;0;0;2;5
"oeuvre man ray";0;0;2;40
"dinard office du tourisme";0;0;1;20
derrier;0;0;2;31;0;0;1;30
"nature morte vivante";0;0;1;16;0;0;1;16
"jean michel basquiat";0;0;1;122
"remember contact";0;0;1;547
"narcose serie";0;0;2;10
"cecile durand";0;0;2;9
"gérard nicollet";0;0;1;5
sebright;0;0;1;47
"chez vous paris";0;0;1;43
"milo peintre";0;0;1;5
"michael calais";0;0;1;68
"pierre gilles bouquet";0;0;1;3
"miguel chevalier oeuvres";0;0;1;4
"galeries d art contemporain";0;0;1;1;0;0;1;1
"oeuvre joan miro";0;0;1;11
pechane;0;0;1;4
"boite art contemporain";0;0;1;33
"élodie grégoire";0;0;2;8
"beetles + huxley";0;0;1;7
jingdong;0;0;1;19
"gauthier deblonde";0;0;2;2.5
"armelle boussidan";0;0;1;6
"schlosser peintre";0;0;2;4
"godon alain";0;0;1;2
"lionel sourisseau";0;0;1;1
"alain clément";0;0;1;4;0;0;3;5
"monica bellucci bondage";0;0;1;10
"oeuvre d'art de rue";0;0;1;7
"artiste erro";0;0;1;9;0;0;1;6
xinart;0;0;1;4
"laurence nicola";0;0;2;5;0;0;1;5
artspere;0;0;4;5
"umbrela girl";0;0;1;18
"vincent peters";0;0;2;8
misskiss;0;0;1;5
"raymond hains oeuvre";0;0;1;5
"erro artiste";0;0;2;5;0;0;1;6
artiane;0;0;1;3;0;0;1;4
"balloon dogs";0;0;1;9
dratwa;0;0;1;8
"art geometrique";0;0;3;19.666666666667
"vendre oeuvre d'art";0;0;1;1
"max charvolen artiste";0;0;1;1;0;0;2;1
"philippe buil";0;0;1;4;0;0;2;2
"galerie w";0;0;8;4.875
"street art jonone";0;0;3;2
"hans hartung ses oeuvres";0;0;1;27
"olivia clavel";0;0;1;6
"site oeuvre d'art";0;0;1;1
"marvin aillaud";0;0;2;4
"serie narcose";0;0;1;10
"shaka artiste";0;0;4;4
"françoise pétrovitch";0;0;2;7
"matt devine";0;0;1;58
"musées d'art à asheville";0;0;6;52.333333333333
"oeuvres ernest pignon ernest";0;0;2;6
"quentin carnaille";0;0;2;9.5;0;0;2;10
"fanny dubois";0;0;8;8
"qi chien";0;0;2;8.5
"elias artiste";0;0;2;14;0;0;2;9
"photo d'art noir et blanc";0;0;1;50
"charlotte waligora";0;0;1;14
"hermann nitsch biografie";0;0;1;24
"charles guyot";0;0;2;1
"james wigger";0;0;1;6
"clément alain";0;0;1;5
"monica midi";0;0;1;10
"acheter sculpture";0;0;2;1;0;0;3;1
"greg gorman";0;0;3;8
"photographe d'art";0;0;1;61
"isabelle bartoli";0;0;7;2
"plush contact";0;0;1;25
"artiste japonais";0;0;1;68
"chacun son chemin";0;0;1;38;0;0;1;32
"hors le mur";0;0;1;6
"artyou galerie";0;0;1;6
"jean pierre nadau";0;0;1;1
"laurent roux";0;0;3;21.333333333333
"art vente en ligne";0;0;2;1
"le voyageur au dessus de la mer de nuages";0;0;2;14.5
"françoise petrovitch";0;0;28;7.6428571428571;0;0;7;7.4285714285714
"galerie mondapart";0;0;3;7.6666666666667
"alexandre de poplavsky";0;0;1;7
"mel ramos art";0;0;1;14
"romain cadilhon";0;0;1;2
"bernard pras van gogh";0;0;1;3
"lison charlier";0;0;1;30
"liberté oeuvre d'art";0;0;2;26
"yazid sanaa";0;0;1;38
"stephanie cabrera";0;0;1;6
"nick walker street artist";0;0;1;10
"pierre francois grimaldi";0;0;2;2;0;0;3;3
"orlanski sculpteur";0;0;1;9
"gambino sculpteur";0;0;1;7
"uwe omer";0;0;1;5
"speedy graphito oeuvre";0;0;1;4
"léa chauvel-lévy";0;0;3;2
"vente d'œuvre d'art en ligne";0;0;1;1
"jeff koons red balloon dog";0;0;1;6
"eric en ville";0;0;1;3;0;0;1;3
"art contemporain collage";0;0;1;58
"gustav klimt oeuvre";0;0;1;55
"jean michel basquiat in italian";0;0;1;10;0;0;2;8.5
"jean michel basquiat œuvres d'art";0;0;1;1;0;0;1;1
tattu;0;0;1;8
"rowan newton";0;0;1;8
"alain louiset";0;0;1;2;0;0;1;3
"kenza blog";0;0;1;51
"peintre costa";0;0;2;8
"easy sasha";0;0;1;9
"gros peintre";0;0;1;52
"charpentier philippe";0;0;1;12
lokiss;0;0;2;2
orlinski;0;0;5;7;0;0;1;6
"nathalie borst";0;0;1;10
"bruno mallart";0;0;1;7
"vente strass";0;0;1;50
thématiques;0;0;1;33
"bernard chauchet";0;0;1;5
"tableau le printemps";0;0;1;37
"authouart peintre";0;0;1;17
miss.tic;0;0;1;6
mercusot;0;0;2;11
"callegari lucile";0;0;1;6
ardpg;0;0;3;9.3333333333333
"crane humain a vendre";0;0;1;58
"annette messager biographie";0;0;1;8
"art espagne";0;0;1;60
"galerie gilbert dufois";0;0;2;6
"diane arbus biographie";0;0;1;10
"julien peintre";0;0;1;44
"louis stettner";0;0;4;6
"messager annette";0;0;1;9
"la colonnade";0;0;1;43
"squelette qui prie";0;0;1;5
"artiste le chat";0;0;1;6
"fond jaune";0;0;1;59
bennaroch;0;0;1;9
"paysage intérieur";0;0;1;42
"christoff debusschere peintre";0;0;3;8
"dumont peintre";0;0;1;43
"ma un";0;0;1;51
"oiseaux bleus";0;0;1;32
revon;0;0;1;10;0;0;2;11
"thierry evrard";0;0;1;15
"peter downsbrough artist";0;0;1;10
francton;0;0;1;10
"miss tic street art";0;0;1;6
"mahjoub ben bella biographie";0;0;1;1
"peinture geisha";0;0;1;41
azema;0;0;1;60
"une bagatelle";0;0;1;43
hiro;0;0;4;10
"etienne cail";0;0;1;1
chabadabada;0;0;1;44
"guy ferrer";0;0;1;10
"pierre pignon";0;0;1;3
"sitting kid jef aerosol";0;0;1;7
"costa peintre";0;0;1;4
"l'art culinaire";0;0;1;42
"murano lampe";0;0;1;44
"louis nicolas";0;0;1;34
"passe partout torrent";0;0;1;16
"art traffik";0;0;4;2
"dame hermine";0;0;1;39
lebredonchel;0;0;1;15
"galerie memmi";0;0;1;51
"soly cisse";0;0;1;6
"acheter art";0;0;1;1
"qi singe";0;0;1;5
"artiste dessinateur contemporain";0;0;1;49
tanc;0;0;6;5.3333333333333
"achat art africain";0;0;1;36
denning;0;0;2;10
bouro;0;0;2;7.5
"aki kuroda";0;0;5;1;0;0;1;1
"bertrand gillig";0;0;1;6
hiquily;0;0;1;11
"guy denning brest";0;0;1;10
"jean dubuffet";0;0;1;45
"pat andrea";0;0;1;10
"photographe lachapelle";0;0;2;5
"lampe murano";0;0;1;55
"grand pingouin";0;0;1;22
"peintre van hove";0;0;1;10
"georges braque biographie";0;0;1;41
"gauguin oeuvre";0;0;1;47
dooze;0;0;1;20
"galerie en ré";0;0;1;59
speedy;0;0;1;51
"stephane compoint";0;0;2;4.5
"gérard rancinan";0;0;3;5.6666666666667
"marc petit";0;0;1;51
polic;0;0;2;10.5
"laurent bouro";0;0;1;4
"george braque biographie";0;0;1;28
"oeuvre de renoir";0;0;1;49
"gallerie w";0;0;1;6
"greenwood gallery";0;0;1;10
bastardoz;0;0;1;4
iemza;0;0;6;4
"marcel dumont";0;0;2;8
"street art chat";0;0;2;9
"gustave singier";0;0;1;6
"m chat";0;0;6;9.6666666666667;0;0;1;11
"la colegiale";0;0;2;5
"le grand rocher";0;0;1;47
"audouin desforges";0;0;2;6
"anne brunet";0;0;3;6
akader;0;0;1;6
"les violonistes";0;0;1;49
"di rosa hervé";0;0;2;3.5
"acheter banksy";0;0;1;2
"autour de l'auto";0;0;1;8;0;0;1;10
"vente vase";0;0;1;43
"leonardo cremonini oeuvres";0;0;1;8
"fauteuil peluche";0;0;1;53
"picasso oeuvres";0;0;1;47
"profil d une oeuvre";0;0;1;40
"crocodile rouge orlinski";0;0;2;3.5
"pierre cornette";0;0;1;15
"meng shu";0;0;1;6
"denis rouvre technique";0;0;1;10
"helder batista";0;0;3;7;0;0;2;7
"oeuvre de andy warhol";0;0;1;51
"clotilde ancarani";0;0;1;10
jazzu;0;0;2;5.5;0;0;1;6
zimmerling;0;0;1;6
"philippe charpentier";0;0;1;9;0;0;2;8
"les guêtres";0;0;1;47
"easy sacha";0;0;3;9.3333333333333;0;0;1;9
"télémaque peintre";0;0;4;6
"boticelli printemps";0;0;1;28
"hervé di rosa oeuvres";0;0;2;3
"philippe huart";0;0;1;4
"braque biographie";0;0;1;52
nadau;0;0;1;19
"joanna hopkins";0;0;2;4
"ludovic chemarin";0;0;1;6
"picasso oeuvre";0;0;1;53
"stephane olivier";0;0;1;18
misstic;0;0;28;8.2142857142857;0;0;8;8.125
"francois malingrey";0;0;1;7
"foto di rosa";0;0;1;1
"lithographie matisse";0;0;1;50
"ben artiste francais";0;0;1;5
"gallerie dart";0;0;1;5
"wang yan cheng";0;0;7;7.7142857142857;0;0;5;6.4
"levalet street art";0;0;1;6
"raison d art";0;0;1;7
"hanna sidorowicz";0;0;1;9
mesnager;0;0;8;4.5;0;0;1;5
masmonteil;0;0;1;7
"bruce clarke";0;0;1;9
"la fumeuse";0;0;1;22
"foot fetish";0;0;1;51
"linear quest";0;0;2;2
koor;0;0;38;9.3947368421053;0;0;2;9.5
"vieux blanc";0;0;1;43
"eric bourse";0;0;1;1
"vanité art";0;0;1;26
"crash john matos";0;0;2;1
"bernard rancillac";0;0;5;10.2
"petite fille x";0;0;1;54
"jean-michel basquiat prix tableau";0;0;2;7
"guy denning techniques";0;0;1;2
"charles bataille artiste peintre";0;0;3;10
"karine chaudé";0;0;1;2
"galerie estampe";0;0;1;44
"petit poulet";0;0;1;35
"thomas subtil";0;0;1;5
"michel gueranger";0;0;2;3
"charbonnel sculpteur";0;0;1;6
"philippe decroix";0;0;1;6
"philippe berger";0;0;1;18
"thomas jorion";0;0;3;3.3333333333333
"galeries art";0;0;1;2
"christine muller peintre";0;0;1;6
"vente discus";0;0;1;34
"portrait imaginaire";0;0;1;27
"biographie banksy";0;0;2;9
"amandine levy";0;0;1;1
"buffet artiste peintre";0;0;1;4
"vente drapeau france";0;0;1;36
"galerie loft";0;0;2;6.5
"david lachapelle photography";0;0;1;7
"tony soulie";0;0;1;4
"valérie le merrer";0;0;2;3
"vente trompette";0;0;1;56
"une étagère";0;0;1;35
"jean marie alain";0;0;1;40
"arroyo peintre";0;0;2;5
"la chevelure maupassant";0;0;1;52
"oeuvre de corneille";0;0;1;30
"artiste dubuffet";0;0;1;4
"cesar sculpture";0;0;1;7
"tableau d artiste";0;0;1;43
"vente bronze";0;0;1;45
"lil wei";0;0;1;5
"exposition miss tic";0;0;1;8
"philippe garnier";0;0;1;52
"atlas artist";0;0;1;10
"oeuvres dali";0;0;1;29
"photographie surréaliste";0;0;1;13
"baloon dogs";0;0;1;10
"galeries d art";0;0;1;2;0;0;1;1
"oeuvre kitsch";0;0;1;20
"annette messager artiste";0;0;1;8
"claude leveque";0;0;12;9.75;0;0;4;10
"galerie ricci";0;0;1;3;0;0;1;3
"pauline dufour facebook";0;0;2;10
"tapis soie";0;0;1;53
"georges inca";0;0;1;3
"bonhomme blanc";0;0;1;9
"enfant hermaphrodite";0;0;1;50
"david lynch œuvres d'art";0;0;2;8
"la bienveillante";0;0;1;34
"jean dubuffet oeuvres";0;0;3;6;0;0;3;6
fkdl;0;0;5;5.6
"vente de bronze";0;0;1;54
nanan;0;0;9;10
"cesar baldaccini";0;0;4;8
"etienne rey";0;0;2;8
"georgianna robertson";0;0;2;11;0;0;1;11
"joel hubaut";0;0;3;8.6666666666667
"vente de strass";0;0;1;52
"vuk vidor";0;0;1;10
"28 millimètres";0;0;1;21
"nicolas moreau";0;0;1;35
"gohar dashti";0;0;1;2
"nathalie d";0;0;1;26
"peintre art contemporain";0;0;1;5
"mr brainwash wall";0;0;2;7
"huppe 1002";0;0;1;18
durix;0;0;2;5
"progress gallery";0;0;1;7
"composition abstraite";0;0;1;23
"a nous paris";0;0;1;41
louros;0;0;1;6
"patrick dumas";0;0;1;11
"ron english";0;0;4;5.75;0;0;3;5.6666666666667
"art contemporain suisse";0;0;1;33
"nils udo oeuvre";0;0;2;7;0;0;4;6
"vanités peinture";0;0;1;59
"grégoire 'léon' guillemin";0;0;1;2
"herve lewis";0;0;7;5;0;0;4;3.5
"cynthia h semon";0;0;1;10
"shepard fairey obey";0;0;2;9.5
"griffon bruxellois";0;0;1;34
"zabou x";0;0;1;18
guillemin;0;0;1;48
"galerie nue";0;0;1;14
"fabien vieilletoile";0;0;1;3
"alva bernadine wikipedia";0;0;2;8.5
yogananthan;0;0;1;8
gottfried;0;0;1;47
"oeuvres de basquiat";0;0;2;4.5
"qui est ernest pignon ernest";0;0;2;10
"puzzle blanc";0;0;1;29
"gordon hopkins";0;0;1;4
"art sclupture";0;0;1;11
"she used to";0;0;1;54
"biographie de batista";0;0;1;18
"news babe";0;0;1;9
"christophe dugied";0;0;1;3
ensayo;0;0;1;54
"chaos art";0;0;1;10
"acheter oeuvre d'art";0;0;1;1
"la bete aveugle";0;0;1;37
"césar artiste";0;0;1;8
"the yes man";0;0;1;25
"judith x";0;0;1;10
"oeuvres de miro";0;0;2;14.5;0;0;2;1
"art surréalisme";0;0;1;52
"laurence poitou";0;0;2;3
"lithographie nu";0;0;1;55
"retomber en enfance";0;0;1;27
"tableau de keith haring";0;0;1;10
"seize happywallmaker";0;0;1;5
dtone;0;0;7;6.2857142857143
"pierre et gilles oeuvres";0;0;1;7;0;0;1;7
"vente bunker";0;0;1;45
"sculpture richard orlinski";0;0;1;7
"axel gouala";0;0;2;3
"lithographie ferrari";0;0;1;45
"oeuvres d andy warhol";0;0;1;50
"le violon bleu";0;0;1;22
matsushita;0;0;1;51
"artiste autrichien";0;0;1;14
"philippe de saint lager";0;0;1;6
"david ferreira";0;0;1;3
"peinture blackstone";0;0;1;10
"thomas agrinier";0;0;2;6
"esthétique capucine";0;0;1;49
"césar compressions";0;0;1;17
"tintin pop art";0;0;1;1
"stéphane jacob";0;0;1;13
"thomas tramp";0;0;1;5
"escarpin fetish";0;0;1;59
"patrick bastardoz";0;0;1;4
"couple endormi";0;0;1;17
"andré nadal";0;0;1;4
"musée wurth";0;0;1;56
shup;0;0;1;6
"troy henriksen prix tableau";0;0;1;1
"gaspard mitz";0;0;2;1
"achat art contemporain en ligne";0;0;1;1
"roméro britto";0;0;1;5
"sitbon david";0;0;1;9
"vire et volte";0;0;1;25
"césar baldaccini oeuvre";0;0;1;4
"oeuvre monumentale";0;0;1;6
"shaka street art";0;0;1;5
"scholtes fr";0;0;1;46
"bar bon";0;0;1;27
"julien artiste peintre";0;0;1;13
"lie with me";0;0;1;42
"affiche obey";0;0;2;10
"juliette montier";0;0;1;4
"oeuvre d andy warhol";0;0;1;45
"etienne gros";0;0;1;5
"aborigene nude";0;0;1;8
"galerie urbaine";0;0;1;4
"vente cerf volant";0;0;1;55
"pauline dufour";0;0;1;5
"mode art";0;0;1;23
"collection leslie hiver 2015";0;0;1;36
floch;0;0;1;53
"laure fissore";0;0;1;3
"sculptures monumentales";0;0;1;8;0;0;1;9
"vente miroir";0;0;1;57
"art ange";0;0;1;46
moshcini;0;0;1;7
"charleli couture";0;0;1;22
"christophe charbonnel";0;0;1;6
"olivier long";0;0;1;9
"gallerie nue";0;0;1;13
"camion baché";0;0;1;50
"gautier stephane";0;0;1;9
"peintre julien";0;0;1;30
"dana gordon";0;0;1;10
"patrick loste";0;0;1;6;0;0;1;8
"romain tichit";0;0;1;4
"atelier imagine";0;0;1;60
"orlan paris";0;0;2;8
"art contemporain chinois";0;0;1;56
"peintre dubuffet";0;0;1;5
"peintre irlandais";0;0;1;7
petrovitch;0;0;2;10
"pierre david";0;0;1;27
"vache art";0;0;1;44
"philippe de la brosse";0;0;1;10
"petits nounours";0;0;1;41
"wang yan";0;0;1;11
"alain josseau";0;0;2;3
yemza;0;0;1;4
"main tendue vers le ciel";0;0;1;7
"drapeaux francais achat";0;0;1;59
"sculpteur de jambes";0;0;1;42
kostadinova;0;0;1;9
"sophie morisse";0;0;4;2.75
"vente ruines";0;0;1;55
"willy ronis biographie";0;0;1;9
"vive la révolution";0;0;1;41
"pingouin love";0;0;1;10
"galerie imagine";0;0;1;8
"archi rouen";0;0;1;16
"tilt graffiti";0;0;4;7
"francisco sepulveda";0;0;1;10
"sculpture bronze contemporain";0;0;1;59
"galerie galea";0;0;1;10
"oeuvre ernest pignon ernest";0;0;1;5
"gros baiser";0;0;1;23
tairou;0;0;1;9
"artistes indiens";0;0;1;9
"poursuite acharnée";0;0;1;54
"galerie gabel";0;0;1;4
janikan;0;0;1;3
"christian barbier";0;0;1;21
"fond orange";0;0;1;25
fautrier;0;0;1;25
piechaud;0;0;1;10
"photographie urbaine";0;0;1;35
"unique vente";0;0;1;56
"klimt oeuvres";0;0;1;58
"peinture kurt cobain";0;0;1;8
"césar biographie";0;0;1;56
"futurisme italien";0;0;1;47
"nathalie grenier";0;0;2;5
"ambiance noel";0;0;1;25
"tapis de soie";0;0;1;34
"photographie d'art";0;0;1;28
"pierre alechinsky";0;0;1;42
"mission polaire";0;0;1;28
"yoann merienne";0;0;1;2;0;0;1;2
"michel dubois";0;0;1;12
moneykill;0;0;1;10
"lithographie klimt";0;0;1;12
"lacroix jacques";0;0;1;8
"bon marché adresse";0;0;1;60
"le tombeau vide";0;0;1;51
"galerie d art contemporain";0;0;1;1
chassepot;0;0;1;24
"vente de statue";0;0;1;18
"morning 69";0;0;1;7
"chat samourai";0;0;1;24
"nicolas dhervillers";0;0;1;5
"miro oeuvre";0;0;2;11.5
"100 voyeur";0;0;1;37
"ipso facto";0;0;1;36
"fourmi à miel";0;0;1;48
"angel duarte";0;0;1;1
"atlas bleue";0;0;1;41
"mengzhi zheng";0;0;1;7
"vente bananier";0;0;1;34
"faire tapisserie";0;0;1;22
"diane arbus photographe";0;0;1;23
"robert mapplethorpe biographie";0;0;1;2
ecloz;0;0;2;5
"benjamin laurent";0;0;1;12
krm;0;0;10;4;0;0;2;7
"julie mechali";0;0;1;5
"costume vert";0;0;1;37
"angelica x";0;0;3;26.333333333333
"l'atlas artiste";0;0;3;3
"jacques di bona";0;0;27;7.5555555555556;0;0;10;16.3
raynaud;0;0;1;48
"perez manu";0;0;1;8;0;0;1;7
"vente carlin";0;0;1;46
"joseph beuys oeuvres";0;0;1;11
"finbarr dac";0;0;1;5
"vente requin";0;0;1;56
"galerie art en ligne";0;0;1;1;0;0;1;1
"prix sculpture bruno catalano";0;0;5;7
"kamasutra 3";0;0;1;20
"art chat";0;0;1;21
"did dontzoff";0;0;2;4
"barbier christian";0;0;1;29
"oeuvres d art";0;0;1;8
"wallpapers d";0;0;1;47
"oeuvre art contemporain";0;0;1;1
"peinture vache";0;0;1;51
"edmée delsol";0;0;1;4
"la ii";0;0;1;6
"pignon ernest pignon";0;0;1;8
"georges cabot";0;0;1;5
"raymond hains";0;0;7;7;0;0;2;7
"sculpture monumentale";0;0;2;3
"m le chat";0;0;1;6
orlan;0;0;1;25
"la chevelure de maupassant";0;0;1;37
"vente picasso";0;0;1;37
"dussac peintre";0;0;1;4
"vincent breed";0;0;1;8
"monika nowak";0;0;1;4
"vincent richeux.fr";0;0;1;5
"hugo laruelle";0;0;3;5;0;0;1;5
"galerie d art virtuelle";0;0;1;3
"torse d homme";0;0;1;37
"unique gallery dubai";0;0;1;4
"antonio segui";0;0;1;8;0;0;1;8
"mist artiste peintre";0;0;2;8
"chat jaune";0;0;1;23
"thierry guetta artiste";0;0;1;3
labegorre;0;0;2;8
"leo galamez";0;0;2;2
"hugo oeuvres";0;0;1;42
"appareil orthopédique";0;0;1;34
"isa marcelli";0;0;1;6
"buddy di rosa";0;0;1;7
"richard orlinski";0;0;13;6.7692307692308;0;0;3;6.6666666666667
"sculpture en resine";0;0;1;46
"stephane gizard";0;0;3;10
dan23;0;0;7;6.7142857142857
"eduardo kac";0;0;1;11
"laure andre";0;0;1;7
"annina roescheisen";0;0;4;5.25
"catherine lopes curval";0;0;1;7
flamboiement;0;0;1;32
"vente cornette de saint cyr";0;0;1;10
"l homme des bois";0;0;1;56
sculptures;0;0;2;9.5;0;0;3;10.333333333333
"fille en robe";0;0;1;42
"armand oeuvre";0;0;2;7
sutkus;0;0;1;8
"roger edgar gillet";0;0;1;12
"alain delorme";0;0;1;50
"benjamin carbonne marseille";0;0;1;4
"sculpture santini";0;0;1;44
"fausse carte de presse";0;0;1;56
"scholtes france";0;0;1;38
"déesse sculpture";0;0;1;5;0;0;1;6
"bertrand alain";0;0;1;35
tirilly;0;0;1;12
monumentales;0;0;1;3
tieri;0;0;1;6;0;0;1;6
"pieds jolie";0;0;1;49
"oeuvre racine";0;0;1;56
"acheter crane";0;0;1;40
"nue galerie";0;0;1;14
"amandine crozat";0;0;1;5
"achat oeuvre d art";0;0;1;1
"street art le chat";0;0;2;5
"papillon crane";0;0;1;6
"vente lithographie";0;0;1;34
"oeuvre de vasarely";0;0;1;34
"benjamin vautier biographie";0;0;1;10
"françois morellet oeuvres";0;0;1;5
dysform;0;0;1;3
"oeuvre d'art murale";0;0;1;12
"jorg doring";0;0;2;1
"chevelure maupassant";0;0;1;47
"couvre lit orientale";0;0;1;58
"vente de bouddha";0;0;1;42
"cabot chien";0;0;1;30
"sculpture cesar";0;0;1;9
"frank fischer artist";0;0;1;2
"portrait rimbaud";0;0;1;38
"brush encadrement";0;0;1;52
"thierry dussac";0;0;1;4
"vincent pasquier";0;0;1;15
"van velde";0;0;1;46
"arroyo eduardo";0;0;1;10
"nicolas hugo";0;0;1;4
"galeries d arts";0;0;1;2;0;0;1;9
"couvre lit rose";0;0;1;43
edmée;0;0;1;50
"oeuvre culinaire";0;0;1;5
chamizot;0;0;1;7
psyckoze;0;0;1;19
"philip pasqua";0;0;2;6.5
"vente squelette";0;0;1;39
"galerie schwab";0;0;1;5
"french art studio";0;0;1;3
"vanessa cooper";0;0;3;2
"orlan artiste";0;0;4;10.75
"vendre art";0;0;1;1
"tilt graffeur";0;0;1;6
"michel le belhomme";0;0;1;4
"cesar artiste";0;0;3;8
christo;0;0;1;40
"leo mordac";0;0;1;5
"jean françois jonvelle";0;0;1;11
"miguel chevalier";0;0;5;9.8;0;0;1;8
"braque art";0;0;1;30
"mr lolo";0;0;1;2
"vente dessin";0;0;1;48
"patrick poirier";0;0;1;10
"richard orlinsky";0;0;1;6
"jone one";0;0;1;4
"galerie d arts";0;0;1;4
"delphine couturier";0;0;5;9.8
smael;0;0;3;7;0;0;1;6
"louis lamy";0;0;1;2
"liu bolin prix";0;0;2;4
"philippe bonan";0;0;1;2
"peinture dark vador";0;0;3;4;0;0;1;4
benaroch;0;0;1;9
ibert;0;0;1;30
"petit bonhomme blanc";0;0;2;10
"philippe pasqua tete de mort";0;0;1;7
benattar;0;0;1;19
mapplethorpe;0;0;2;11
"daniel convenant";0;0;1;4
"vente marbre";0;0;1;55
"zhang wei";0;0;1;7
"brugier rigail";0;0;1;7
"artiste accumulation";0;0;1;32
"cynthia nu";0;0;1;5
godon;0;0;2;20.5;0;0;1;4
"oeuvre abstrait";0;0;1;19
"drakkar art";0;0;1;8
"ferrer peintre";0;0;1;21;0;0;1;9
"éric michel";0;0;1;18
"achat drapeau francais";0;0;1;59
jonvelle;0;0;1;22
artop;0;0;4;9
"street art miss tic";0;0;1;6
"banksy œuvres d-art";0;0;2;8
"coccinelle artiste";0;0;1;44
"jacques de la villegle";0;0;1;3
"beaufils jean luc";0;0;1;3
"marianne garnier";0;0;1;4
"galerie sylvie le page";0;0;1;6
"moi idéal";0;0;1;36
peyret;0;0;1;36
"georges braque oiseaux";0;0;1;24
"art diffusion";0;0;1;17
"sculpture abstraite";0;0;1;50
villeglé;0;0;3;4
"alain rivière";0;0;1;12
"miro lithographie";0;0;1;60
"poisson séché";0;0;1;59
"art contemporain sculpture";0;0;1;2
"grande étoile";0;0;1;47
"art et buffet";0;0;1;55
"shaka peintre";0;0;1;4
"site art contemporain";0;0;1;3
"pierre fava";0;0;1;3
"pras bernard";0;0;1;4
"gregory vigier";0;0;1;4
"philippe vasseur peintre";0;0;1;1
"sylvie de quatrebarbes";0;0;1;86
"galerie isabelle de mars";0;0;1;3
"galerie gillig";0;0;1;6
"vente art";0;0;1;1
"sebastien levigne";0;0;1;10
"oeuvre d'art a vendre";0;0;1;1
"ahmed moustafa";0;0;1;3
vanmarque;0;0;2;5
"moninot bernard peintre";0;0;2;7
"galerie vivendi";0;0;1;5
jonol;0;0;1;4
nils-udo;0;0;6;8.8333333333333
"guillaume moschini";0;0;1;3
"bruno catalano prix";0;0;1;4
"biographie jean dubuffet";0;0;1;5
"cecile colombo";0;0;4;5
"art monochrome";0;0;1;8
"george platt lynes";0;0;1;11
"pierre tissier";0;0;1;11
quik;0;0;18;1
"oeuvre de nils udo";0;0;3;6
"galerie urbaine uzes";0;0;2;5
"gordon hopkins prix";0;0;3;1
"christophe lachize";0;0;1;4
matryochka;0;0;1;3
"carole benichou artiste";0;0;1;14
"peter klasen peintre";0;0;1;2
"galerie numero 1";0;0;1;5
"les oeuvres de miro";0;0;1;1
"vente d art";0;0;1;1
"ernest pignon oeuvres";0;0;2;7
planete-serie;0;0;3;6
"pascal greco";0;0;1;319
"achat art contemporain";0;0;1;1
"oeuvres d'art contemporaines";0;0;1;2
ayline;0;0;1;10
"tony frank";0;0;2;8
"jacques ibert œuvres";0;0;1;7
"mr chat";0;0;4;6.75
"boom art";0;0;1;4
"noury timmermans";0;0;1;8
"marie piselli";0;0;1;5
"artiste britto";0;0;1;5
"ren hang";0;0;1;10
"buffet bernard";0;0;1;10
"fernado costa";0;0;1;6
"peinture audrey hepburn";0;0;1;9
miistic;0;0;2;11
"alain buyse";0;0;2;10
"roland cat peintre";0;0;1;2
"sylvie fleury";0;0;1;8
"laurence wiener";0;0;1;9
"clovis art";0;0;1;5
"isabeau jousse";0;0;1;4
"ronald dupont artiste peintre";0;0;2;2
"charlelie couture peintre";0;0;2;2
"kumi sugai";0;0;1;9
"oeuvre de banksy";0;0;5;8
jr;0;0;1;1
"manu perez";0;0;3;16.333333333333
"photos portraits femmes";0;0;2;1
catte;0;0;3;2.6666666666667
"pierre alex";0;0;1;10
artjingle;0;0;1;4
"cedric arnold";0;0;2;9
"juliette plisson";0;0;1;9
"correia antoine";0;0;1;4
"hans withoos";0;0;1;5
"nina urlichs";0;0;1;2
"loulou picasso";0;0;2;5
"marylin minter";0;0;2;10
"galerie guillaume";0;0;1;17
"mel fuger";0;0;1;4
"galerie brugier-rigail";0;0;1;6
pigeaut;0;0;1;12
"ben biographie";0;0;1;8
"peinture de dubuffet";0;0;1;6
"shirley jaffe";0;0;1;5
"tableau jean dubuffet";0;0;1;10
"françois houtin";0;0;1;1
"alexandre joly facebook";0;0;1;10
"oeuvre dubuffet";0;0;2;6
"zenoy graffiti";0;0;2;3
"jo di bona";0;0;1;4
"artiste peintre rodez";0;0;1;37
"pierre lesage";0;0;1;20
cieu;0;0;7;6.4285714285714
"serge beninca";0;0;1;3
"norma bessiere";0;0;1;4
"nuance et lumière";0;0;1;3
auboiron;0;0;2;10
"cyprien clément-delmas";0;0;1;8
pigeau;0;0;1;12
"moulin rouge 1930";0;0;1;10
"jeff koons chien rose";0;0;1;14
"lisa sartorio";0;0;1;4
"peter lippmann";0;0;3;3
ndf;0;0;1;44
"juliette vivier";0;0;1;7
"corinne dalle";0;0;1;6
"pierre boncompain";0;0;1;5
leadouze;0;0;1;3
"di bona";0;0;1;30
"haring keith oeuvres";0;0;1;9
"miss tic";0;0;18;6.5
"mr chat street art";0;0;1;6
"charlelie couture peinture";0;0;1;3
"sculpteur charbonnel";0;0;1;5
"chat street art";0;0;1;5
"art internet";0;0;1;3
"jean-marie drouet";0;0;1;6
triglia;0;0;1;6
"di rosa peintre";0;0;3;2
"galerie boccara";0;0;3;6
lelong;0;0;1;10
"alain vaissiere";0;0;1;6
"manu perez artiste";0;0;1;2
mahjoub;0;0;1;16
"jana et js";0;0;1;5
"boudon sculpteur";0;0;1;1
"benjamin carbone";0;0;1;5
"jean faucheur";0;0;1;1
"dan 23";0;0;1;7
"francois giraudeau";0;0;1;9
"vente art contemporain en ligne";0;0;1;1
"artiste pez";0;0;1;5
"nu feminin";0;0;1;43
"isabelle vayron";0;0;3;4
"portraits de femmes";0;0;2;1
"nathalie macquet";0;0;2;7
skunkdog;0;0;1;3
"oeuvre de bernard pras";0;0;2;2
"gilles candelier";0;0;1;9
"galerie art 83";0;0;1;5
enviedart;0;0;1;4
"art en ligne";0;0;1;1
"marie brisson";0;0;1;4
aabronson;0;0;1;10
"marianne jonone";0;0;1;10
"le turk";0;0;1;9
"galerie 127";0;0;1;6
"investir dans l art";0;0;1;9
"oeuvre d'art blanche";0;0;1;1
"jef aerosol chut";0;0;1;6
"galerie bouillon d'art bordeaux";0;0;1;4
"philippe pasquat";0;0;1;6
"fernando garcia";0;0;1;11
"peintre contemporain japonais";0;0;2;10
"olivier ribardiere";0;0;1;4
"cesar sculpteur";0;0;1;9
"max ernst œuvres d'art";0;0;1;11
"gerard quenum";0;0;2;7
"jean milo";0;0;1;8
"galerie david guiraud";0;0;1;5
"monochrome art";0;0;1;7
"nicolas tourte";0;0;1;10
"galerie claire gastaud";0;0;1;5
"ronald dupont";0;0;2;2
"street art galerie en ligne";0;0;2;6
"galerie d'arts";0;0;1;5
"banksy oeuvre d'art";0;0;2;9
"marie-anne thieffry";0;0;1;2
"jean pierre schneider";0;0;1;9
"david de lachapelle";0;0;1;9
"mesnager peintre";0;0;1;2
