artsper;27;0.1304347826087;207;1;15;0.097402597402597;154;1;9;0.29032258064516;31;1;3;0.13636363636364;22;1
nojnoma;15;0.375;40;1.275;9;0.36;25;1.32;6;0.42857142857143;14;1;0;0;1;4
jonone;14;0.055335968379447;253;3.7628458498024;12;0.073170731707317;164;3.4207317073171;0;0;53;4.4150943396226;2;0.055555555555556;36;4.3611111111111
"robert combas";7;0.08433734939759;83;3.6265060240964;5;0.072463768115942;69;3.536231884058;1;0.11111111111111;9;4;1;0.2;5;4.2
"philippe berry";7;0.014522821576763;482;4.6141078838174;6;0.040268456375839;149;7.006711409396;0;0;241;4.4564315352697;1;0.010869565217391;92;1.1521739130435
"speedy graphito";5;0.024509803921569;204;5.3627450980392;5;0.033333333333333;150;5.08;0;0;41;6.1463414634146;0;0;13;6.1538461538462
"galerie d'art";4;0.074074074074074;54;9.037037037037;4;0.095238095238095;42;8.9047619047619;0;0;7;9.1428571428571;0;0;5;10
"charles guyot";3;0.75;4;1;3;0.75;4;1
"pierre francois grimaldi";3;0.375;8;2.875;3;0.6;5;2;0;0;1;2;0;0;2;5.5
iemza;3;0.1875;16;6;3;0.6;5;6;0;0;2;6
"massimo vitali";3;0.25;12;7.5;2;0.25;8;7.625;1;0.25;4;7.25
villeglé;3;0.10344827586207;29;3.6206896551724;3;0.1304347826087;23;3.5217391304348;0;0;5;4;0;0;1;4
chanoir;3;0.23076923076923;13;3.0769230769231;2;0.33333333333333;6;3.1666666666667;0;0;4;3;1;0.33333333333333;3;3
"guy denning";3;0.1875;16;4.25;3;0.21428571428571;14;4.1428571428571;0;0;2;5
"patrick moya";3;0.15789473684211;19;3.6842105263158;2;0.18181818181818;11;3;1;0.16666666666667;6;4;0;0;2;6.5
"francois bard";3;0.23076923076923;13;2.1538461538462;1;0.2;5;2.4;0;0;2;2;2;0.33333333333333;6;2
"claire trotignon";2;0.2;10;5.1;2;0.22222222222222;9;5;0;0;1;6
"reynald drouhin";2;0.22222222222222;9;5.2222222222222;2;0.22222222222222;9;5.2222222222222
"tableau de dubuffet";2;0.095238095238095;21;6.952380952381;2;0.095238095238095;21;6.952380952381
"billets banksy";2;1;2;2;2;1;2;2
"maxime ansiau";2;1;2;5.5;2;1;2;5.5
"henri de quatrebarbes";2;0.28571428571429;7;5.4285714285714;1;0.25;4;5.75;1;0.33333333333333;3;5
"genevieve claisse";2;0.28571428571429;7;6.7142857142857;2;0.28571428571429;7;6.7142857142857
"billet banksy";2;0.33333333333333;6;1.1666666666667;1;0.2;5;1;1;1;1;2
"miss tic";2;0.014598540145985;137;5.7883211678832;2;0.022988505747126;87;5.1494252873563;0;0;37;6.8648648648649;0;0;13;7
"francois boisrond";2;0.28571428571429;7;4.7142857142857;2;0.33333333333333;6;4.6666666666667;0;0;1;5
"troy henriksen cote";2;0.5;4;3;2;0.66666666666667;3;3;0;0;1;3
"di rosa";2;0.048780487804878;41;3.4146341463415;2;0.090909090909091;22;3.0454545454545;0;0;16;3.8125;0;0;3;4
"speedy graphito oeuvre";2;1;2;4;2;1;2;4
"hervé telemaque";2;0.33333333333333;6;4.3333333333333;2;0.4;5;4.2;0;0;1;5
"hervé di rosa peinture";2;0.66666666666667;3;3;1;1;1;3;1;0.5;2;3
"murielle vanhove";2;0.076923076923077;26;3.9230769230769;2;0.10526315789474;19;3.6315789473684;0;0;1;5;0;0;6;4.6666666666667
"keith haring oeuvres";2;0.042553191489362;47;8.5744680851064;2;0.051282051282051;39;8.4871794871795;0;0;6;9;0;0;2;9
"izabeau jousse";2;0.14285714285714;14;4.2857142857143;2;0.4;5;4.4;0;0;6;4;0;0;3;4.6666666666667
ecloz;2;0.5;4;4.25;1;0.33333333333333;3;4;1;1;1;5
"françois boisrond";2;0.13333333333333;15;5.2666666666667;2;0.66666666666667;3;5.3333333333333
krm;2;0.18181818181818;11;3.8181818181818;2;0.4;5;4.4;0;0;5;3.4;0;0;1;3
"joelle troussier";2;0.4;5;5.4;2;0.4;5;5.4
"tableau de keith haring";2;1;2;10;2;1;2;10
"max charvolen";2;0.28571428571429;7;4.5714285714286;2;0.33333333333333;6;4.6666666666667;0;0;1;4
"sandro giordano";2;0.10526315789474;19;7.7894736842105;2;0.11764705882353;17;7.7647058823529;0;0;1;8;0;0;1;8
"françois bard";2;0.18181818181818;11;1.0909090909091;2;0.2;10;1;0;0;1;2
"shepard fairey biographie";2;0.5;4;4.5;2;0.5;4;4.5
"pierre riba";2;0.25;8;3.125;2;0.33333333333333;6;3.1666666666667;0;0;2;3
"yang yongliang";2;0.2;10;6.1;2;0.22222222222222;9;6.2222222222222;0;0;1;5
mygalo;2;0.4;5;3;2;0.5;4;3.25;0;0;1;2
capton;2;0.125;16;3.375;2;0.2;10;3;0;0;3;4;0;0;3;4
combas;2;0.018018018018018;111;5.954954954955;0;0;79;5.7215189873418;1;0.037037037037037;27;6.3333333333333;1;0.2;5;7.6
"peter klasen";2;0.1;20;3.15;2;0.1;20;3.15
"david gerstein";2;0.11111111111111;18;3.9444444444444;1;0.33333333333333;3;3.6666666666667;1;0.2;5;3.8
"romero britto biographie";2;1;2;2.5;2;1;2;2.5
"clara ramirez katz";2;0.18181818181818;11;2;2;0.22222222222222;9;2;0;0;2;2
"axel gouala";2;0.5;4;6;2;0.5;4;6
"monika nowak";2;0.22222222222222;9;2.5555555555556;1;0.14285714285714;7;2.5714285714286;1;0.5;2;2.5
"jonas sunset";1;1;1;2;1;1;1;2
"jm robert";1;0.14285714285714;7;2.2857142857143;1;0.2;5;2.4;0;0;1;2;0;0;1;2
"herve di rosa artiste peintre";1;1;1;2;1;1;1;2
"kenza el glaoui";1;1;1;30;1;1;1;30
"philippe buil sculpteur";1;1;1;2;1;1;1;2
"serge labégorre";1;0.2;5;5.4;1;0.2;5;5.4
"reeve schumacher";1;1;1;2;1;1;1;2
"herve di rosa";1;0.11111111111111;9;3.3333333333333;1;0.125;8;3.25;0;0;1;4
"sculpture art";1;0.5;2;7.5;1;1;1;8;0;0;1;7
"gerard schlosser";1;0.125;8;4.375;1;0.33333333333333;3;5
"caroline poulet";1;0.2;5;5.4;1;0.25;4;6;0;0;1;3
flipo;1;0.076923076923077;13;7.6153846153846;1;0.1;10;7.5;0;0;3;8
"benjamin carbonne";1;0.2;5;1.6;1;0.33333333333333;3;1.3333333333333;0;0;2;2
mesnager;1;0.04;25;2.68;1;0.047619047619048;21;2.6190476190476;0;0;4;3
"olivier sultan";1;0.25;4;2;1;1;1;2
"luc chopplet";1;1;1;1;1;1;1;1
"mieux que rien c'est pas assez";1;1;1;1;1;1;1;1
"catherine lopes curval";1;0.16666666666667;6;9.1666666666667;1;0.2;5;9.2
"renaud delorme";1;0.2;5;2;1;0.33333333333333;3;2;0;0;2;2
"peinture monochrome";1;1;1;30;1;1;1;30
misstic;1;0.021739130434783;46;7.0217391304348;1;0.05;20;7;0;0;20;7.05;0;0;6;7
"shaka marchal mithouard";1;1;1;6;1;1;1;6
"frederic deprun";1;0.5;2;5.5;1;0.5;2;5.5
"agnès baillon";1;0.5;2;6.5;0;0;1;7;1;1;1;6
"banksy billet";1;1;1;2;1;1;1;2
"gilles aillaud oeuvres";1;0.16666666666667;6;2.5;1;0.25;4;2;0;0;1;5;0;0;1;2
levalet;1;0.04;25;5.84;1;0.045454545454545;22;6;0;0;2;4.5;0;0;1;5
"alfredo lopez";1;0.2;5;4.2;1;0.2;5;4.2
"antoine geiger";1;0.2;5;5;1;0.2;5;5
"amaury mulliez";1;0.5;2;5.5;0;0;1;6;1;1;1;5
"oleg dou";1;0.125;8;4;1;0.125;8;4
"olivia clavel";1;1;1;5;1;1;1;5
"sandy skoglund";1;0.090909090909091;11;7.4545454545455;1;0.090909090909091;11;7.4545454545455
"john matos crash";1;0.1;10;2.3;1;0.11111111111111;9;2.3333333333333;0;0;1;2
"noma bar";1;1;1;22;1;1;1;22
"monsieur chat";1;0.029411764705882;34;7.2941176470588;1;0.041666666666667;24;6.7916666666667;0;0;7;8.2857142857143;0;0;3;9
"sculpture monumentale contemporaine";1;0.33333333333333;3;2;1;0.33333333333333;3;2
"bertrand noël";1;0.2;5;3;1;0.2;5;3
"peinture dubuffet";1;0.5;2;7;1;1;1;7;0;0;1;7
"francois morellet";1;0.026315789473684;38;9.1578947368421;1;0.041666666666667;24;8.7083333333333;0;0;13;10;0;0;1;9
"bernard buffet oeuvres";1;0.5;2;3.5;1;1;1;4
"bruno timmermans";1;0.5;2;1.5;0;0;1;2;1;1;1;1
"françoise pétrovitch";1;1;1;6;1;1;1;6
"thomas bossard";1;0.16666666666667;6;6.1666666666667;1;0.5;2;6;0;0;2;6
"jeanne susplugas";1;0.25;4;4.5;1;0.25;4;4.5
"brisson peintre";1;1;1;1;1;1;1;1
"philippe pasqua crane";1;1;1;3;1;1;1;3
quik;1;0.0049019607843137;204;1.0882352941176;1;0.0093457943925234;107;1;0;0;86;1.2093023255814;0;0;11;1
"vuk vidor";1;0.14285714285714;7;3.5714285714286;1;0.25;4;5.5;0;0;3;1
"durix artiste";1;0.33333333333333;3;5;1;0.33333333333333;3;5
"anne decup";1;1;1;2;1;1;1;2
"orlan oeuvre";1;0.071428571428571;14;6.1428571428571;1;0.090909090909091;11;6;0;0;3;6.6666666666667
"thierry dussac";1;0.25;4;4.25;1;0.33333333333333;3;4;0;0;1;5
"georges bru";1;0.33333333333333;3;2;1;0.33333333333333;3;2
"françois bard peintre";1;0.25;4;3.25;1;0.25;4;3.25
"david mesguich";1;0.11111111111111;9;10;1;0.5;2;10;0;0;1;10
ideelart;1;0.33333333333333;3;2;1;0.33333333333333;3;2
"ayline olukman";1;0.33333333333333;3;4.3333333333333;1;0.33333333333333;3;4.3333333333333
"david gerstein prix";1;0.33333333333333;3;1.3333333333333;1;0.33333333333333;3;1.3333333333333
"artiste obey";1;0.5;2;2;1;1;1;2;0;0;1;2
"ernest pignon ernest biographie";1;0.0625;16;9.875;1;0.071428571428571;14;10;0;0;2;9
"unique gallery";1;0.25;4;3.75;1;0.25;4;3.75
"dubuffet peinture";1;0.25;4;3.75;1;0.33333333333333;3;3.6666666666667;0;0;1;4
"james mackeown";1;0.25;4;4.25;0;0;2;4.5;0;0;1;4;1;1;1;4
"nurcan giz";1;0.25;4;4;1;1;1;4;0;0;3;4
"bernard pras oeuvre";1;0.14285714285714;7;1.8571428571429;0;0;5;2;1;0.5;2;1.5
"bram bogart";1;0.33333333333333;3;2.6666666666667;1;0.33333333333333;3;2.6666666666667
jisbar;1;0.5;2;9;1;0.5;2;9
"cecile desserle";1;0.2;5;4.6;0;0;3;5;1;0.5;2;4
saudek;1;0.16666666666667;6;9.3333333333333;1;0.16666666666667;6;9.3333333333333
"ange basso";1;0.5;2;6;1;0.5;2;6
"claude leveque peintre";1;1;1;5;1;1;1;5
"hervé perdriel";1;0.33333333333333;3;1.6666666666667;1;0.33333333333333;3;1.6666666666667
"tilt graffeur toulouse";1;1;1;9;1;1;1;9
"ramzi adek";1;0.14285714285714;7;5.2857142857143;1;0.33333333333333;3;5
"frédéric deprun";1;0.33333333333333;3;4;1;0.33333333333333;3;4
"sophie sigorel";1;0.25;4;4;1;0.25;4;4
"galerie d'art contemporain";1;0.076923076923077;13;3.5384615384615;1;0.1;10;3.9;0;0;3;2.3333333333333
"oeuvre de ben";1;0.16666666666667;6;2.1666666666667;1;0.2;5;2;0;0;1;3
"di rosa sete";1;0.25;4;2.5;1;0.33333333333333;3;2;0;0;1;4
"mahjoub ben bella";1;0.083333333333333;12;2.25;1;0.125;8;2.375;0;0;2;2;0;0;2;2
"bruno catalano prix";1;0.125;8;6;0;0;2;6;1;0.25;4;6
"keith haring oeuvre";1;0.25;4;10;1;0.25;4;10
"hervé télémaque";1;0.083333333333333;12;5.75;1;0.1;10;5.9;0;0;2;5
"jerome mesnager cote";1;0.5;2;3;1;0.5;2;3
"nuances et lumiere";1;0.2;5;2.6;0;0;2;2;1;0.33333333333333;3;3
"di rosa richard";1;1;1;4;1;1;1;4
"galerie artiane";1;0.2;5;2.6;0;0;1;3;1;0.5;2;3
"shepard fairey oeuvres";1;0.5;2;2;1;0.5;2;2
arietti;1;0.25;4;5;1;0.25;4;5
"marin kasimir";1;0.16666666666667;6;3.8333333333333;1;0.2;5;3.8;0;0;1;4
"nu feminin";1;0.33333333333333;3;30.333333333333;1;0.33333333333333;3;30.333333333333
"guy ferrer";1;0.16666666666667;6;9.1666666666667;1;0.25;4;9.25;0;0;1;9;0;0;1;9
"césar baldaccini oeuvres";1;0.33333333333333;3;4;1;0.33333333333333;3;4
"brigitte pénicaud";1;0.33333333333333;3;5.6666666666667;1;0.5;2;5.5;0;0;1;6
"achat art";1;0.11111111111111;9;1;1;1;1;1;0;0;1;1
"oeuvre de bernard pras";1;0.33333333333333;3;1;1;0.33333333333333;3;1
"aki kuroda";1;0.11111111111111;9;2.6666666666667;1;0.2;5;4;0;0;4;1
"billet banksy prix";1;1;1;1;1;1;1;1
"seen artiste";1;0.25;4;1.5;1;0.25;4;1.5
"saudek photographe";1;1;1;4;1;1;1;4
zenoy;1;0.2;5;1.4;1;0.33333333333333;3;1;0;0;1;3;0;0;1;1
"arnaud franc";1;0.2;5;5.2;1;0.25;4;5.5;0;0;1;4
moschini;1;0.2;5;3.8;1;0.25;4;4;0;0;1;3
"thomas subtil";1;0.11111111111111;9;5.8888888888889;1;0.2;5;5.8;0;0;2;6;0;0;2;6
"oeuvre de erro";1;0.25;4;7.5;1;0.33333333333333;3;7.3333333333333;0;0;1;8
"philippe assalit";1;0.33333333333333;3;3;1;0.33333333333333;3;3
"nudes red";1;1;1;3;1;1;1;3
"oeuvre de nils udo";1;0.5;2;7;1;0.5;2;7
"julien durix";1;0.05;20;1.6;1;0.33333333333333;3;5;0;0;3;1
"patrick berry sculpteur";1;0.5;2;3;1;0.5;2;3
"muriel vanhove";1;0.14285714285714;7;3.4285714285714;1;0.14285714285714;7;3.4285714285714
"jonone prix toile";1;0.33333333333333;3;1;1;1;1;1
"geneviève claisse";1;0.125;8;7.375;1;0.2;5;7;0;0;2;8;0;0;1;8
"norma bessieres";1;0.2;5;5.8;1;0.5;2;5.5;0;0;1;6;0;0;2;6
tanc;1;0.071428571428571;14;5.5;1;0.11111111111111;9;5.2222222222222;0;0;5;6
"galerie hamon";1;0.071428571428571;14;6.5;0;0;3;7.3333333333333;1;0.33333333333333;3;7
"béatrice terra";1;1;1;1;1;1;1;1
"jacques de la villeglé";1;0.14285714285714;7;4.5714285714286;1;0.16666666666667;6;4.6666666666667;0;0;1;4
"sandrine paumelle";1;0.125;8;5.5;1;0.125;8;5.5
"benjamin laurent aman";1;1;1;4;1;1;1;4
"alain beaubatier";1;0.125;8;3.5;1;0.14285714285714;7;3.5714285714286;0;0;1;3
"jef aérosol";1;0.11111111111111;9;4.2222222222222;1;0.11111111111111;9;4.2222222222222
"etiye dimma poulsen";1;0.11111111111111;9;3.7777777777778;1;0.25;4;4;0;0;5;3.6
"silvana solivella";1;0.5;2;8;1;0.5;2;8
"arthur dorval";1;0.5;2;2;1;1;1;1;0;0;1;3
chamizo;1;0.33333333333333;3;10;1;0.33333333333333;3;10
"nils udo";1;0.0072463768115942;138;8.7463768115942;1;0.0085470085470085;117;8.6068376068376;0;0;13;9.4615384615385;0;0;8;9.625
"biographie nils udo";1;0.125;8;4.25;0;0;5;5;1;1;1;3
"karl lagasse prix";1;1;1;1;1;1;1;1
"nowart peintre";1;1;1;1;1;1;1;1
"florence d'elle";1;0.25;4;2;0;0;2;2;1;1;1;2;0;0;1;2
"angel ortiz";1;1;1;6;1;1;1;6
"combas robert";1;0.1;10;3.4;1;0.16666666666667;6;3;0;0;3;4;0;0;1;4
"galerie oneiro";1;0.5;2;3.5;1;0.5;2;3.5
dorval;1;1;1;9;1;1;1;9
"lucile callegari";1;0.076923076923077;13;4.5384615384615;0;0;10;4.7;1;0.33333333333333;3;4
"hans christian schink";1;1;1;10;1;1;1;10
"fernando costa prix";1;0.5;2;4.5;1;1;1;2;0;0;1;7
"fabrice hyber";1;0.035714285714286;28;6.3214285714286;0;0;23;6.3478260869565;1;0.2;5;6.2
"speedy graphito cote prix";1;0.25;4;2.25;1;0.5;2;2;0;0;1;3;0;0;1;2
"philippe brosse";1;0.33333333333333;3;3.3333333333333;0;0;2;3.5;1;1;1;3
"sebastien layral";1;0.2;5;4.6;1;0.5;2;5;0;0;3;4.3333333333333
"oeuvres art contemporain";1;0.5;2;1;0;0;1;1;1;1;1;1
"olivier catte";1;0.5;2;1;1;0.5;2;1
"damien hirst biographie";1;0.33333333333333;3;7;1;0.5;2;6;0;0;1;9
"nils udo biographie";1;0.125;8;2.375;1;0.16666666666667;6;2.1666666666667;0;0;1;4;0;0;1;2
"juliette clovis";1;1;1;1;1;1;1;1
"levalet artiste";1;1;1;2;1;1;1;2
"vincent descotils";1;0.5;2;8.5;1;1;1;8;0;0;1;9
"jerome lagarrigue";1;0.25;4;5;1;0.5;2;4.5
"luzia simons";1;0.5;2;5;1;1;1;5;0;0;1;5
"anti artiste";1;0.5;2;2;1;0.5;2;2
"gottfried honegger";1;0.043478260869565;23;7.5652173913043;1;0.045454545454545;22;7.4545454545455;0;0;1;10
"chanoir street art";1;0.25;4;3;1;1;1;3;0;0;3;3
"galeries d'art";1;0.11111111111111;9;6.5555555555556;0;0;6;7;1;0.33333333333333;3;5.6666666666667
"sculpteur japonais contemporain";1;1;1;9;1;1;1;9
"etienne buraud";1;0.33333333333333;3;3.6666666666667;1;1;1;3
"gordon hopkins";1;0.090909090909091;11;3;1;0.16666666666667;6;3;0;0;1;3;0;0;4;3
"gottfried salzmann";1;1;1;9;1;1;1;9
"brno del zou";1;0.5;2;3;1;0.5;2;3
"audouin desforges";1;0.33333333333333;3;5.3333333333333;1;0.33333333333333;3;5.3333333333333
"etienne gros";1;0.16666666666667;6;5;1;0.5;2;4.5
poes;1;0.125;8;3.75;0;0;5;3;1;0.33333333333333;3;5
mitrofanoff;1;0.058823529411765;17;8.2941176470588;1;0.066666666666667;15;8.1333333333333;0;0;2;9.5
"capton peintre";1;0.25;4;5;1;0.25;4;5
"artiste peintre en vogue";1;0.2;5;3.6;1;0.2;5;3.6
arsper;1;0.33333333333333;3;1;1;0.33333333333333;3;1
"hideka tonomura";1;0.5;2;1;1;0.5;2;1
"otto schade";1;1;1;2;1;1;1;2
"li wei";1;0.083333333333333;12;5.0833333333333;0;0;3;5.3333333333333;1;0.5;2;5.5
"rafiy okefolahan";1;0.5;2;1;1;0.5;2;1
"corine pagny";1;0.25;4;4;1;0.25;4;4
"charlotte lepelletier";1;0.33333333333333;3;2;0;0;2;2;1;1;1;2
"berry philippe";1;0.33333333333333;3;9.6666666666667;1;0.33333333333333;3;9.6666666666667
"bernard buffet peintre";1;0.5;2;7;1;0.5;2;7
"rafael navarro";1;0.25;4;2;1;0.25;4;2
bastardoz;1;0.33333333333333;3;6;1;0.5;2;4;0;0;1;10
"eduardo arroyo";1;0.066666666666667;15;8.0666666666667;1;0.066666666666667;15;8.0666666666667
"toma l";1;0.16666666666667;6;4.3333333333333;1;0.25;4;4.5;0;0;1;4;0;0;1;4
"fred penelle";1;1;1;10;1;1;1;10
"godon alain";1;0.2;5;1.8;1;0.2;5;1.8
"elizabeth couturier";1;0.5;2;9;1;1;1;9
"mel fuger";1;1;1;4;1;1;1;4
"oeuvres lignes verticales";1;0.33333333333333;3;1;1;0.33333333333333;3;1
"jonas sun7";1;0.5;2;2;1;0.5;2;2
"christophe dugied";1;0.5;2;3;1;1;1;2;0;0;1;4
"peintre japonais contemporain";1;0.5;2;9.5;1;0.5;2;9.5
"henri lamy";1;0.11111111111111;9;4.2222222222222;0;0;1;4;1;0.25;4;4.5
"claude mollard";1;0.14285714285714;7;3.4285714285714;1;0.16666666666667;6;3.3333333333333;0;0;1;4
"john andrew perello";1;0.16666666666667;6;4.3333333333333;1;0.16666666666667;6;4.3333333333333
"max charvolen artiste";1;0.5;2;1.5;1;0.5;2;1.5
"art 21ème siècle";1;0.5;2;9;1;0.5;2;9
"bill blast";1;1;1;1;1;1;1;1
"vinz street art";1;0.5;2;4;1;0.5;2;4
"marie maertens";1;0.25;4;6.25;0;0;2;7.5;1;0.5;2;5
"oeuvre d'art papier";1;0.25;4;3;1;0.25;4;3
"blandine bardeau";1;0.16666666666667;6;7;1;0.16666666666667;6;7
"jon one";1;0.04;25;3.72;0;0;18;3.5555555555556;0;0;5;4.2;1;0.5;2;4
"yann houri";1;0.25;4;2.5;1;0.25;4;2.5
"quentin carnaille";0;0;1;10;0;0;1;10
"sabine jeannot";0;0;1;3;0;0;1;3
"maison couteron";0;0;1;49;0;0;1;49
"benjamin deroche";0;0;5;7;0;0;4;7;0;0;1;7
"patrick dumas";0;0;2;10.5;0;0;2;10.5
"télémaque artiste";0;0;1;5;0;0;1;5
"street art gallery";0;0;1;66;0;0;1;66
"claude viallat biographie";0;0;1;10;0;0;1;10
"9e concept";0;0;3;6.6666666666667;0;0;3;6.6666666666667
"artiste peintre israelien";0;0;1;1;0;0;1;1
quatrebarbes;0;0;1;46;0;0;1;46
"oeuvres de banksy";0;0;23;8.8260869565217
"sculpture colorée";0;0;2;10;0;0;1;10;0;0;1;10
"thoma ryse";0;0;1;2;0;0;1;2
"sun hyuk kim";0;0;2;7;0;0;2;7
"bonhomme art";0;0;1;7;0;0;1;7
"speedy grafito";0;0;4;5.25;0;0;3;5;0;0;1;6
"oeuvre d'art a vendre";0;0;4;1;0;0;4;1
"fernando costa peintre";0;0;2;3;0;0;2;3
"photo d'art nu";0;0;1;32;0;0;1;32
"timothée talard";0;0;2;3;0;0;2;3
"art elysees";0;0;1;12;0;0;1;12
"awena cozannet";0;0;2;6;0;0;2;6
"peter klasen oeuvres";0;0;2;3;0;0;2;3
"brigitte penicaud ceramiste";0;0;1;9;0;0;1;9
kyliss;0;0;1;4;0;0;1;4
"speedy graphito prix";0;0;6;1.3333333333333;0;0;5;1.4;0;0;1;1
"commande bitumes";0;0;1;56
"karl lagasse";0;0;4;4;0;0;4;4
"thomas verny";0;0;1;2;0;0;1;2
"murakami oeuvres";0;0;4;5.25;0;0;3;5;0;0;1;6
"galerie ad";0;0;3;4;0;0;3;4
"oeuvres de max ernst";0;0;2;9;0;0;2;9
"triglia peintre";0;0;3;5;0;0;3;5
m.chat;0;0;1;9;0;0;1;9
"achat oeuvre d'art en ligne";0;0;3;1;0;0;3;1
artvizor;0;0;1;2;0;0;1;2
"cecile colombo";0;0;9;5;0;0;4;4.5;0;0;5;5.4
"ludovic chemarin";0;0;2;4;0;0;2;4
"oeuvre de keith haring";0;0;6;9.1666666666667;0;0;6;9.1666666666667
"retomber en enfance";0;0;1;35;0;0;1;35
"don davide galbiati";0;0;1;33;0;0;1;33
"ren hang photography";0;0;1;10
robotcat;0;0;1;10;0;0;1;10
"galerie bettina";0;0;10;6.1;0;0;9;6;0;0;1;7
"big boss art";0;0;1;10;0;0;1;10
"3 cerises sur une étagère";0;0;4;4;0;0;3;4;0;0;1;4
"collection brigitte bardot";0;0;1;17;0;0;1;17
"guillaume duprey";0;0;1;4;0;0;1;4
"marvin artiste";0;0;3;9;0;0;3;9
"hedva ser";0;0;3;6.3333333333333;0;0;1;7;0;0;2;6
"claude levêque";0;0;1;8
"galerie art";0;0;4;24.5
"india leire";0;0;3;9.6666666666667
"jerome menager";0;0;3;5;0;0;1;4
"1 an idees cadeaux";0;0;1;301
"schneider jean pierre";0;0;1;8;0;0;1;8
"christian zeimert";0;0;4;4.25
"galerie street art lyon";0;0;1;78;0;0;1;78
"jingdong france";0;0;2;6
"étienne rey";0;0;1;8
"ralph gibson";0;0;2;10
"dubuffet peintre";0;0;5;3.6
"philippe gourier";0;0;1;6
"tal coat";0;0;4;11.75;0;0;2;11
"cara delevingne art";0;0;1;8
"titus carmel artiste";0;0;1;9
assalit;0;0;9;6.5555555555556;0;0;2;6;0;0;1;8
"sandra mulliez";0;0;1;30
"galerie bruno massa";0;0;1;32
pigeau;0;0;3;7.3333333333333;0;0;1;12
obam;0;0;1;74
"patrick villas";0;0;4;2;0;0;2;2;0;0;1;2
demsteader;0;0;3;6.3333333333333;0;0;3;6.3333333333333
"bernard pras anamorphose";0;0;1;6
mrlolo;0;0;2;6.5
"art to be";0;0;2;5.5;0;0;1;5
"guy dening";0;0;1;5
"gilles de beauchene";0;0;2;9
"costa sculpteur";0;0;2;3;0;0;1;3
"stephan gautier";0;0;1;8;0;0;1;8
"léopold rabus";0;0;2;7
"jeff koons œuvres d'art";0;0;4;5.75;0;0;1;6
"ten art";0;0;6;2;0;0;2;2
"alain rivière";0;0;2;12.5;0;0;2;12.5
"jean marc dallanegra";0;0;1;4
"tom wesselmann";0;0;37;6.4054054054054;0;0;24;6.1666666666667;0;0;10;6.9;0;0;3;6.6666666666667
racinan;0;0;1;6;0;0;1;6
"art life gallery saint raphael";0;0;1;7;0;0;1;7
"tony franck";0;0;6;8.1666666666667;0;0;6;8.1666666666667
kikayou;0;0;1;5
"aillaud gilles";0;0;1;10;0;0;1;10
"galerie art france";0;0;1;25;0;0;1;25
"k haring oeuvre";0;0;4;9.25;0;0;4;9.25
"vincent richeux";0;0;5;6;0;0;3;6;0;0;2;6
oksana;0;0;2;32.5;0;0;1;35;0;0;1;30
"peinture art contemporain";0;0;25;2.92;0;0;24;2.9166666666667;0;0;1;3
"damien hirst exposition";0;0;2;6;0;0;1;7;0;0;1;5
"chris morin";0;0;2;5;0;0;2;5
"bernard chauveau éditeur";0;0;2;8;0;0;2;8
"aline robin";0;0;1;5;0;0;1;5
"le tombeau vide";0;0;1;47;0;0;1;47
"toshinobu sugimoto";0;0;1;75;0;0;1;75
"annette messager";0;0;117;9.5982905982906;0;0;82;9.1341463414634;0;0;28;10.75;0;0;7;10.428571428571
"sophie morisse";0;0;3;1;0;0;2;1;0;0;1;1
"ye xing qian";0;0;1;2;0;0;1;2
"nathalie grenier peintre";0;0;2;3;0;0;1;3;0;0;1;3
"vincent hawkins";0;0;1;3;0;0;1;3
"tof vanmarque";0;0;1;4;0;0;1;4
"surréalisme art";0;0;1;56;0;0;1;56
"marie laure gerard becuwe";0;0;2;2.5;0;0;2;2.5
"peintre peter";0;0;7;9.1428571428571;0;0;2;10;0;0;3;8.3333333333333;0;0;2;9.5
paxal;0;0;1;9;0;0;1;9
"déesse statue";0;0;1;10;0;0;1;10
"anaïs boudot";0;0;1;4;0;0;1;4
"marie therese vacossin";0;0;1;1;0;0;1;1
"cecile decorniquet";0;0;2;6;0;0;2;6
"guillaume bourquin";0;0;3;8.6666666666667;0;0;3;8.6666666666667
"tete de poire";0;0;2;8.5;0;0;1;9;0;0;1;8
"art a vendre";0;0;1;1;0;0;1;1
"foire d art contemporain";0;0;1;30;0;0;1;30
brugier;0;0;1;10;0;0;1;10
"graham dolphin artist";0;0;1;5;0;0;1;5
"jacques de la villegle";0;0;1;3;0;0;1;3
"apesanteur art";0;0;1;6;0;0;1;6
"oeuvre d'art originale";0;0;3;2;0;0;3;2
stammegna;0;0;4;9.25;0;0;3;9;0;0;1;10
"peinture de bernard buffet";0;0;1;8;0;0;1;8
"guillemette schlumberger";0;0;1;2;0;0;1;2
"charles fazzino";0;0;4;5.5;0;0;3;5.3333333333333;0;0;1;6
"marco barbon";0;0;6;7.5;0;0;5;7.6;0;0;1;7
"artiste sculpteur contemporain";0;0;2;4.5;0;0;2;4.5
"art vente";0;0;1;1;0;0;1;1
"fernando costa";0;0;6;5.8333333333333;0;0;3;5.3333333333333;0;0;3;6.3333333333333
"verney carron";0;0;1;56;0;0;1;56
"sculpture contemporain";0;0;3;2.6666666666667;0;0;3;2.6666666666667
"cecile charron";0;0;2;5;0;0;2;5
"jock sturges";0;0;1;20;0;0;1;20
"levrette art";0;0;1;4;0;0;1;4
"charlotte champion";0;0;4;2;0;0;3;2;0;0;1;2
"carl andré oeuvres";0;0;3;2.3333333333333;0;0;2;2;0;0;1;3
"christian bonnefoi";0;0;1;14;0;0;1;14
"art'n pepper";0;0;2;5.5;0;0;2;5.5
"albert chubac";0;0;2;5;0;0;2;5
"beatrice terra";0;0;4;1;0;0;4;1
"jean dubuffet œuvres d'art";0;0;19;5.5789473684211;0;0;16;5.5;0;0;2;6;0;0;1;6
"pez artiste";0;0;3;7.3333333333333;0;0;1;8;0;0;2;7
"greenwood gallery";0;0;2;10;0;0;2;10
"galerie dx";0;0;2;4;0;0;2;4
"francois morrellet";0;0;1;10;0;0;1;10
"murakami artiste";0;0;3;3;0;0;3;3
"robert barry";0;0;6;5.3333333333333;0;0;4;5;0;0;2;6
"banksy oeuvre";0;0;16;9.3125;0;0;13;9;0;0;2;11;0;0;1;10
"schlosser gerard";0;0;3;4;0;0;3;4
"tete leopard";0;0;1;10;0;0;1;10
"francois poulat";0;0;3;4;0;0;1;4;0;0;2;4
"bagage homme blanc";0;0;1;38;0;0;1;38
tithonos;0;0;1;9;0;0;1;9
"jonone street art";0;0;1;3;0;0;1;3
"gen paul cote";0;0;1;37;0;0;1;37
"francois morrelet";0;0;5;9.2;0;0;4;9;0;0;1;10
"jeff aérosol";0;0;1;4;0;0;1;4
klasen;0;0;4;2.25;0;0;3;2;0;0;1;3
piwowarczyk;0;0;1;5;0;0;1;5
"raisons pour investir";0;0;1;20;0;0;1;20
"bruno fontana";0;0;2;4;0;0;1;4;0;0;1;4
"mel ramos";0;0;8;7.25;0;0;4;7.75;0;0;1;9;0;0;3;6
"recu 5 sur 5";0;0;1;17;0;0;1;17
"laetitia x";0;0;1;15;0;0;1;15
"mimi the clown";0;0;2;10;0;0;2;10
"tal coat artist";0;0;4;8.5;0;0;1;8;0;0;2;8.5;0;0;1;9
"la micro galerie";0;0;2;5;0;0;2;5
"l'amour reciproque";0;0;1;39;0;0;1;39
"bonhomme blanc validation";0;0;1;5;0;0;1;5
"miss tic pochoir";0;0;1;6;0;0;1;6
"art diffusion";0;0;1;12;0;0;1;12
"viva di rosa";0;0;3;2;0;0;2;2;0;0;1;2
"galerie urbaine";0;0;2;3;0;0;1;3;0;0;1;3
"galerie nuances et lumieres";0;0;3;2.3333333333333;0;0;2;2;0;0;1;3
"bernard pras artiste";0;0;1;2;0;0;1;2
"claudine legrand";0;0;3;6.3333333333333;0;0;2;6;0;0;1;7
"galerie duret";0;0;4;5.25;0;0;4;5.25
"de gottal";0;0;1;3;0;0;1;3
"anne lacouture";0;0;2;3.5;0;0;2;3.5
"sam francis oeuvres";0;0;2;8.5;0;0;1;7;0;0;1;10
"katherine hoffmann";0;0;1;4;0;0;1;4
"carl andré minimalisme";0;0;1;7;0;0;1;7
"galerie numero 1";0;0;7;3.5714285714286;0;0;5;3.4;0;0;2;4
"césar baldaccini";0;0;28;7;0;0;11;7.3636363636364;0;0;13;7;0;0;4;6
"achat oeuvre d'art";0;0;7;1;0;0;6;1;0;0;1;1
"stephane gautier";0;0;12;4.5833333333333;0;0;5;4.2;0;0;7;4.8571428571429
"jeanne lorioz";0;0;2;10;0;0;2;10
"didier avril";0;0;3;2;0;0;2;1;0;0;1;4
shup;0;0;2;6.5;0;0;2;6.5
"photographie d'art en ligne";0;0;5;2;0;0;5;2
"nathalie d";0;0;1;31;0;0;1;31
"oeuvres d'art";0;0;1;9;0;0;1;9
"eric peyret";0;0;2;2.5;0;0;1;2;0;0;1;3
"oeuvre de joan miro";0;0;5;9;0;0;4;11;0;0;1;1
"stéphane pencréac’h";0;0;1;7;0;0;1;7
"artistes sculpteurs contemporains";0;0;4;5;0;0;4;5
"photo d'art moderne";0;0;2;3;0;0;2;3
"max ernst oeuvres";0;0;10;9.9;0;0;9;10;0;0;1;9
"oeuvres max ernst";0;0;1;8;0;0;1;8
"la fratrie artiste";0;0;1;3;0;0;1;3
"combas peintre";0;0;2;4;0;0;1;4;0;0;1;4
"murielle belin";0;0;2;7;0;0;2;7
"vente drapeau france";0;0;1;36;0;0;1;36
"galerie joel knafo";0;0;1;4;0;0;1;4
"rene peña";0;0;1;12;0;0;1;12
"karel de gendre";0;0;2;6;0;0;2;6
"jr 28 millimetres";0;0;3;10;0;0;3;10
grugos;0;0;1;7;0;0;1;7
"louis stettner photos";0;0;1;3;0;0;1;3
"emmanuel pons";0;0;7;7.5714285714286;0;0;2;7;0;0;5;7.8
"galerie mfc michèle didier";0;0;1;6;0;0;1;6
braoude;0;0;1;9;0;0;1;9
"art life 2";0;0;1;4;0;0;1;4
"maison dauphine aix";0;0;1;17;0;0;1;17
"peintre buffet";0;0;4;10;0;0;1;9;0;0;3;10.333333333333
"oksana x";0;0;1;14;0;0;1;14
"eva jospin biographie";0;0;1;4;0;0;1;4
"henri cartier bresson oeuvre";0;0;2;12;0;0;2;12
"peinture chat";0;0;1;30;0;0;1;30
"route deserte";0;0;1;7;0;0;1;7
morningmeeting;0;0;1;25;0;0;1;25
"robert mapplethorpe biographie";0;0;1;2;0;0;1;2
"jonone paris";0;0;1;6;0;0;1;6
"michel le belhomme";0;0;4;4.5;0;0;1;6;0;0;3;4
matryochka;0;0;2;5;0;0;2;5
louiset;0;0;1;7;0;0;1;7
"erró oeuvres";0;0;2;8;0;0;2;8
"anne haugmard";0;0;1;24;0;0;1;24
raynaud;0;0;1;63;0;0;1;63
"di rosa peintre";0;0;3;4;0;0;3;4
"acheter art contemporain";0;0;13;1;0;0;13;1
"go don";0;0;1;5;0;0;1;5
"damien hirst oeuvre";0;0;1;7;0;0;1;7
"jean paul barray";0;0;1;6;0;0;1;6
"peinture julien";0;0;1;22;0;0;1;22
"henni alftan";0;0;12;5.5;0;0;10;5.4;0;0;2;6
"galeries d arts";0;0;1;3;0;0;1;3
decup;0;0;1;5;0;0;1;5
"franck mercky";0;0;1;3;0;0;1;3
litao;0;0;1;9;0;0;1;9
"peinture inca";0;0;1;6;0;0;1;6
"orlan biographie";0;0;4;8;0;0;4;8
"clement denis";0;0;1;9;0;0;1;9
"cedrix crespel";0;0;3;4;0;0;3;4
"oeuvre miro";0;0;1;11;0;0;1;11
"jasmine x";0;0;1;129;0;0;1;129
"catherine bertaud";0;0;1;1;0;0;1;1
"talon rouge";0;0;1;42;0;0;1;42
"claire corcia";0;0;2;8;0;0;2;8
"hopkins peintre";0;0;1;1;0;0;1;1
fkdl;0;0;5;4;0;0;5;4
"christophe charbonnel sculpteur";0;0;3;6;0;0;3;6
"arrestation de jésus";0;0;1;28;0;0;1;28
"eduardo arroyo oeuvres";0;0;4;5;0;0;1;5;0;0;3;5
"art vente en ligne";0;0;1;1;0;0;1;1
"roman opalka biographie";0;0;2;8;0;0;2;8
pigeai;0;0;1;10;0;0;1;10
kouka;0;0;9;8.1111111111111;0;0;6;8.1666666666667;0;0;3;8
"alexandre de poplavsky";0;0;2;6;0;0;2;6
"chaise oeuvre d'art";0;0;2;10;0;0;2;10
soubrette;0;0;1;124;0;0;1;124
"kamel yahiaoui";0;0;8;9.75;0;0;7;10;0;0;1;8
"acheter lithographie alain bonnefoit";0;0;1;29;0;0;1;29
"antoine veron";0;0;3;4.6666666666667;0;0;3;4.6666666666667
"partenaire multiple";0;0;1;24;0;0;1;24
"florent chopin";0;0;2;5;0;0;2;5
"soutenir un regard";0;0;1;9;0;0;1;9
"andré nadal";0;0;2;6.5;0;0;2;6.5
"dock du sud";0;0;1;54
"ambiance noel";0;0;1;18;0;0;1;18
keymi;0;0;2;9;0;0;2;9
"chat peintre";0;0;4;8.5;0;0;1;9;0;0;2;8;0;0;1;9
dugied;0;0;2;4;0;0;2;4
"bob verschueren";0;0;2;5.5;0;0;1;6;0;0;1;5
"richard di rosa";0;0;6;3.6666666666667;0;0;2;3;0;0;4;4
"art contemporain";0;0;3;126;0;0;3;126
jorion;0;0;1;13
"peinture de jean dubuffet";0;0;1;6;0;0;1;6
"yuriko takagi";0;0;1;10;0;0;1;10
"touche d'espoir";0;0;1;42;0;0;1;42
"maurice renoma";0;0;2;3;0;0;2;3
"pierre fava";0;0;1;3;0;0;1;3
nickwalker;0;0;1;4;0;0;1;4
"prix oeuvre d art";0;0;1;25
"xavier veillant";0;0;1;21;0;0;1;21
"galerie d art sur internet";0;0;3;1;0;0;3;1
"cedric bacqueville";0;0;2;4;0;0;2;4
"alexis gorodine";0;0;1;2;0;0;1;2
"pablito zago";0;0;2;5;0;0;2;5
"daniel nadaud";0;0;1;6;0;0;1;6
"oeuvre d'art sport";0;0;1;8;0;0;1;8
"willy ronis le petit parisien";0;0;3;1;0;0;3;1
"thierry couet";0;0;2;3;0;0;2;3
"pierre riba sculpteur";0;0;1;2;0;0;1;2
"peter wüthrich";0;0;3;18.333333333333;0;0;3;18.333333333333
"klasen peter";0;0;1;3;0;0;1;3
"victor richardson";0;0;2;11;0;0;2;11
zalez;0;0;3;5.6666666666667;0;0;3;5.6666666666667
"tiphaine gilson";0;0;1;3
lemoduledezeer;0;0;3;1.6666666666667
yannhouri;0;0;1;2
"joan miro oeuvre";0;0;1;11
"jean michel basquiat untitled";0;0;1;4
"dumas patrick";0;0;1;10
"skateboard sexy";0;0;2;9;0;0;1;10;0;0;1;8
"vente art en ligne";0;0;6;1;0;0;4;1;0;0;1;1;0;0;1;1
"cesar sculpteur oeuvres";0;0;2;5;0;0;1;4
"galerie lhoste";0;0;1;8
"alain godon";0;0;10;3.5;0;0;1;1
"art gitan";0;0;1;9
"keep calm dream";0;0;1;8;0;0;1;8
"alistair taylor young";0;0;8;7.5;0;0;7;7.7142857142857;0;0;1;6
"oeuvre d'art en ligne";0;0;1;1
"solene ballesta";0;0;13;5.6923076923077;0;0;7;6;0;0;1;6
warhol;0;0;1;318;0;0;1;318
"oeuvre de jr";0;0;1;6
"berry ha";0;0;1;2;0;0;1;2
"benjamin artiste";0;0;3;7.6666666666667
"annette mesager";0;0;1;9
"gastineau massamba";0;0;6;2.6666666666667;0;0;2;2
"david maheo";0;0;2;3
"charlelie couture peinture";0;0;1;4;0;0;1;4
"diane arbus photographe";0;0;1;24
"galerie anagama";0;0;1;5;0;0;1;5
"jean dubuffet portrait";0;0;1;9;0;0;1;9
"cesar oeuvre";0;0;2;7;0;0;1;7;0;0;1;7
"gille aillaud";0;0;6;5.8333333333333;0;0;3;10.666666666667;0;0;3;1
"christophe catelain";0;0;3;1.3333333333333;0;0;2;1.5;0;0;1;1
"philippe favier oeuvre";0;0;1;5
"audoin desforges";0;0;5;5.2
"joan miro œuvres d'art";0;0;1;20
"tilt toulouse";0;0;1;8;0;0;1;8
"oeuvre banksy";0;0;8;8.75
"melon jsc";0;0;1;7;0;0;1;7
"georges poncet";0;0;2;5
"galerie brugier";0;0;1;6;0;0;1;6
"arnaud puig";0;0;1;9;0;0;1;9
lokiss;0;0;3;6.6666666666667;0;0;2;5.5;0;0;1;9
"22 gallery";0;0;1;10;0;0;1;10
"vente oeuvre d art";0;0;5;1;0;0;5;1
"pilar ortega";0;0;1;9;0;0;1;9
"gilles verneret";0;0;1;6;0;0;1;6
"cecile desserle peintures";0;0;1;4;0;0;1;4
"bondage art";0;0;1;39;0;0;1;39
"wide painting";0;0;8;5;0;0;8;5
atsper;0;0;1;1;0;0;1;1
"sculpture d'art";0;0;1;2;0;0;1;2
"thomas duval facebook";0;0;3;4;0;0;3;4
"office de tourisme dinard";0;0;2;14.5;0;0;2;14.5
"en 14139";0;0;1;54;0;0;1;54
"mist artiste";0;0;5;9;0;0;5;9
"dino valls";0;0;3;5.3333333333333;0;0;3;5.3333333333333
tirilly;0;0;2;10.5;0;0;1;10;0;0;1;11
"murakami art";0;0;2;9;0;0;1;9;0;0;1;9
"jean marie drouet cote";0;0;2;2;0;0;2;2
"nathalie tacheau";0;0;1;4;0;0;1;4
"morgan paslier";0;0;2;3;0;0;2;3
"speedy graffito";0;0;3;5.6666666666667;0;0;1;5;0;0;1;6;0;0;1;6
"crash john matos";0;0;1;11;0;0;1;11
"bernard prass";0;0;1;3;0;0;1;3
"cécile desserle";0;0;5;5;0;0;2;5;0;0;3;5
"césar oeuvres";0;0;2;5;0;0;2;5
"philippe favier";0;0;2;10.5;0;0;2;10.5
henriksen;0;0;3;6.6666666666667;0;0;1;8;0;0;2;6
"folie du jour";0;0;1;32;0;0;1;32
"vente d'art en ligne";0;0;1;1;0;0;1;1
"galerie d art en ligne";0;0;11;1.4545454545455;0;0;11;1.4545454545455
"galerie raison d'art lille";0;0;1;8;0;0;1;8
"vente vase";0;0;1;48;0;0;1;48
"acheter de l art en ligne";0;0;3;1;0;0;3;1
"artiste contemporain photographie";0;0;1;1;0;0;1;1
"uniq gallery";0;0;1;10;0;0;1;10
"gustav klimt oeuvre";0;0;1;43;0;0;1;43
"lampe traditionnelle oeuvre d'art";0;0;1;11;0;0;1;11
"olivier leroy photographe";0;0;2;9;0;0;2;9
"sculpteur cesar";0;0;2;15.5;0;0;2;15.5
"bernard buffet nues";0;0;1;10;0;0;1;10
"toile d artiste peintre";0;0;1;86;0;0;1;86
"tete de guerrier";0;0;1;2;0;0;1;2
"michael bastow";0;0;2;7;0;0;2;7
"isabelle chapuis";0;0;1;18;0;0;1;18
"crane humain a vendre";0;0;1;50;0;0;1;50
"mark jenkins";0;0;18;9.7222222222222;0;0;13;9.0769230769231;0;0;5;11.4
"antoine de la boulaye";0;0;1;4;0;0;1;4
publiaddict;0;0;1;39;0;0;1;39
"julie hauer";0;0;1;4;0;0;1;4
"marie anne thieffry";0;0;2;2.5;0;0;1;2;0;0;1;3
"gwen marseille";0;0;1;6;0;0;1;6
"patrick marin";0;0;5;7.2;0;0;2;7;0;0;3;7.3333333333333
"troy henriksen prix";0;0;2;1;0;0;1;1;0;0;1;1
"gérard alary";0;0;2;5;0;0;2;5
"aka angel";0;0;1;13;0;0;1;13
"herve telemaque";0;0;2;6;0;0;1;7;0;0;1;5
"the little black gallery";0;0;2;4.5;0;0;2;4.5
"francois melloul";0;0;2;15.5;0;0;2;15.5
"romain riviere";0;0;1;14;0;0;1;14
"sandy skoglund oeuvres";0;0;1;7;0;0;1;7
"galerie linz paris";0;0;3;8.3333333333333;0;0;2;8;0;0;1;9
"troy henriksen prix tableau";0;0;1;1;0;0;1;1
levistre;0;0;2;6.5;0;0;2;6.5
"playing art";0;0;1;8;0;0;1;8
"obey artiste";0;0;4;3;0;0;2;3;0;0;2;3
"rêve - ville reims";0;0;2;10;0;0;2;10
"peinture du 21ème siècle";0;0;3;10;0;0;3;10
"stéphane gautier";0;0;2;3.5;0;0;2;3.5
"déesse sculpture";0;0;3;9;0;0;3;9
"amanda defabio";0;0;1;60;0;0;1;60
"elsa guillaume";0;0;8;8.625;0;0;8;8.625
"sculpture gorille rouge";0;0;1;8;0;0;1;8
sbk;0;0;1;47;0;0;1;47
"galerie gabel biot";0;0;1;5;0;0;1;5
"natalia rak";0;0;4;6;0;0;3;6;0;0;1;6
"bertrand meunier";0;0;7;8.7142857142857;0;0;5;11;0;0;2;3
acdeo;0;0;1;6;0;0;1;6
"peintre brésilien contemporain";0;0;2;9;0;0;2;9
"hotel de flore meurthe et moselle";0;0;1;192;0;0;1;192
"susanne stemmer";0;0;1;7;0;0;1;7
"galerie photo 12";0;0;2;7;0;0;2;7
"isabelle cochereau";0;0;2;7;0;0;2;7
"jean christophe ballot";0;0;2;7;0;0;2;7
"le grand rocher";0;0;1;48;0;0;1;48
"kiddy citny";0;0;18;8;0;0;15;8;0;0;3;8
"ben bella peintre";0;0;2;1;0;0;2;1
"sculpture contemporaine";0;0;34;3;0;0;26;3;0;0;4;3;0;0;4;3
malysse;0;0;3;8.3333333333333;0;0;3;8.3333333333333
"sculpture murakami";0;0;1;3;0;0;1;3
"eric bourguignon";0;0;2;10;0;0;2;10
"raphael denis";0;0;9;4.8888888888889;0;0;7;4.8571428571429;0;0;2;5
"carl andré";0;0;27;6.3333333333333;0;0;17;5.8235294117647;0;0;6;7;0;0;4;7.5
"oeuvre d'art andy warhol";0;0;1;1;0;0;1;1
"galerie bayart";0;0;5;3.6;0;0;4;3.25;0;0;1;5
"sayed haider raza";0;0;2;9;0;0;2;9
"silver fame";0;0;3;6.3333333333333;0;0;2;6;0;0;1;7
"jean-pierre nadau";0;0;5;1;0;0;5;1
"david lachapelle oeuvre";0;0;7;10;0;0;7;10
"francky boy";0;0;6;4.3333333333333;0;0;4;4;0;0;1;5;0;0;1;5
"jacque villeglé";0;0;2;5;0;0;1;5;0;0;1;5
"rudi pillen";0;0;2;1;0;0;2;1
l'effrontée;0;0;1;105;0;0;1;105
"galerie maison dauphine";0;0;1;3;0;0;1;3
"julien calot";0;0;10;1.1;0;0;9;1.1111111111111;0;0;1;1
"pierre koppe";0;0;1;2;0;0;1;2
besher;0;0;5;6;0;0;3;5.6666666666667;0;0;2;6.5
"costa fernando";0;0;2;3;0;0;2;3
"vente art contemporain";0;0;7;1;0;0;3;1;0;0;2;1;0;0;2;1
"la chapelle photo";0;0;1;43;0;0;1;43
"peintre jonone";0;0;2;1;0;0;2;1
"mahé boissel";0;0;1;2;0;0;1;2
"etienne gros peintre";0;0;1;5;0;0;1;5
"tilt street art";0;0;1;5;0;0;1;5
"artistes contemporain";0;0;1;15;0;0;1;15
"vanité art";0;0;1;20;0;0;1;20
"hains raymond";0;0;2;9;0;0;2;9
taki;0;0;1;48;0;0;1;48
pixart;0;0;2;22.5;0;0;2;22.5
"""zelda bomba""";0;0;2;2;0;0;2;2
"bruno catalano tarif";0;0;3;8;0;0;2;8;0;0;1;8
"tanc artiste";0;0;2;5.5;0;0;2;5.5
"marie piselli";0;0;1;5;0;0;1;5
"dali photographie";0;0;1;18;0;0;1;18
"gilles aillaud biographie";0;0;3;3;0;0;3;3
"street art chat";0;0;4;8;0;0;3;8;0;0;1;8
"peintre combas";0;0;3;4;0;0;1;4;0;0;2;4
"galerie d'art belgique";0;0;1;3;0;0;1;3
"art mystique";0;0;1;56;0;0;1;56
"claire fahys";0;0;2;5;0;0;1;6;0;0;1;4
"galerie brugier rigail";0;0;4;6.25;0;0;2;5.5;0;0;2;7
mrsex;0;0;3;39.333333333333;0;0;2;40.5;0;0;1;37
lussigny;0;0;1;7;0;0;1;7
"vente drapeau français";0;0;1;30;0;0;1;30
"jr oeuvre";0;0;1;6;0;0;1;6
molly;0;0;1;304;0;0;1;304
dirosa;0;0;2;5;0;0;2;5
"sculpture sumo";0;0;1;5;0;0;1;5
"galerie garnier delaporte";0;0;1;2;0;0;1;2
"jacques renoir";0;0;5;11;0;0;2;10;0;0;3;11.666666666667
"robert bradford";0;0;2;2;0;0;2;2
"nathalie deshairs";0;0;2;3;0;0;2;3
"fourmi à miel";0;0;1;48;0;0;1;48
"patrick naggar";0;0;2;6;0;0;1;6;0;0;1;6
"françois houtin";0;0;4;4.25;0;0;1;11;0;0;3;2
"peinture murale gris dior";0;0;1;69;0;0;1;69
shigong;0;0;2;6;0;0;1;3;0;0;1;9
"oeuvres banksy";0;0;8;9.5;0;0;7;9.2857142857143;0;0;1;11
"elisabeth lecourt";0;0;4;11.5;0;0;4;11.5
"isabelle bonzom";0;0;1;3;0;0;1;3
"daphné navarre";0;0;1;4;0;0;1;4
"rouge a levre original";0;0;2;13;0;0;2;13
"jérôme mesnager";0;0;3;3;0;0;3;3
"jeff koons flower puppy";0;0;1;6;0;0;1;6
"oeuvre d'art unique";0;0;3;1;0;0;2;1;0;0;1;1
"willy ronis";0;0;6;22;0;0;2;11;0;0;4;27.5
"bloch lainé";0;0;1;23;0;0;1;23
"guyomard sylvie facebook";0;0;3;7;0;0;3;7
"espace verney carron";0;0;4;7.25;0;0;1;7;0;0;2;7;0;0;1;8
"vente mule";0;0;1;42;0;0;1;42
"eric ceccarini";0;0;1;18;0;0;1;18
"michal batory";0;0;3;14;0;0;3;14
"peinture charlelie couture";0;0;4;2.75;0;0;4;2.75
"julien cresp";0;0;4;7.25;0;0;4;7.25
guayasamin;0;0;1;17;0;0;1;17
"charleli couture";0;0;1;28;0;0;1;28
"robert mapplethorpe";0;0;5;18;0;0;5;18
"taglialatella galleries";0;0;1;11;0;0;1;11
"jake art";0;0;1;8;0;0;1;8
lelong;0;0;1;9;0;0;1;9
"andre nadal";0;0;1;6;0;0;1;6
"max et charlotte";0;0;1;2;0;0;1;2
"jerome btesh";0;0;1;3;0;0;1;3
"richard orlinski prix";0;0;1;16;0;0;1;16
"oeuvres de ben";0;0;1;2;0;0;1;2
"oeuvres de keith haring";0;0;6;8.3333333333333;0;0;6;8.3333333333333
"le pantalon rouge";0;0;1;40;0;0;1;40
"tableau oeuvre d'art moderne";0;0;1;1;0;0;1;1
"peter blake artiste";0;0;8;5.25;0;0;8;5.25
"jean-michel basquiat oeuvres";0;0;3;10;0;0;2;10;0;0;1;10
"art publicité";0;0;1;53;0;0;1;53
"peinture sur lin";0;0;1;100;0;0;1;100
"vente bronze";0;0;2;41.5;0;0;2;41.5
"gautier stephane";0;0;1;7;0;0;1;7
"lampe verre de murano";0;0;1;17;0;0;1;17
"acheter art moderne";0;0;3;1;0;0;3;1
fubiz;0;0;5;21;0;0;5;21
"christy lee";0;0;3;5.3333333333333;0;0;2;5;0;0;1;6
"drm galerie";0;0;1;5;0;0;1;5
"full size render";0;0;8;5.25;0;0;1;7;0;0;7;5
"jeunes artistes peintres";0;0;1;10;0;0;1;10
"aiguilles de chamonix";0;0;1;41;0;0;1;41
"vincent corpet";0;0;13;6.5384615384615;0;0;9;6.2222222222222;0;0;3;7;0;0;1;8
"peintre ukrainien";0;0;1;78;0;0;1;78
"franck lundangi";0;0;5;5;0;0;5;5
"greg leon guillemin";0;0;9;6.8888888888889;0;0;5;7.4;0;0;4;6.25
lapinthur;0;0;3;4;0;0;3;4
"oeuvre unique";0;0;1;2;0;0;1;2
obey;0;0;1;94;0;0;1;94
"ox artiste";0;0;1;7;0;0;1;7
"banksy billet de banque";0;0;2;3;0;0;2;3
"sandra krasker";0;0;1;4;0;0;1;4
yutao;0;0;1;6;0;0;1;6
"christine barres peintre";0;0;1;3;0;0;1;3
"james barnor";0;0;2;8.5;0;0;2;8.5
"maes laurent";0;0;1;18;0;0;1;18
"jacques lacroix";0;0;3;8;0;0;3;8
"galerie sbk";0;0;2;6;0;0;2;6
"césar oeuvre";0;0;2;6;0;0;2;6
"jerome mesnager";0;0;25;3.36;0;0;19;3.1578947368421;0;0;6;4
"less is more art";0;0;1;6;0;0;1;6
guinio;0;0;2;8;0;0;2;8
"guy de rougemont";0;0;6;5.8333333333333;0;0;6;5.8333333333333
"oeuvre de bernard buffet";0;0;1;3;0;0;1;3
"peintre wilfred";0;0;2;3;0;0;2;3
"jean claude deutsch";0;0;1;5;0;0;1;5
"biographie keith haring";0;0;3;10;0;0;1;10;0;0;2;10
art,tableaux,provence;0;0;2;355;0;0;2;355
"mb factory";0;0;3;7;0;0;3;7
"mahjoub ben bella prix";0;0;1;3;0;0;1;3
"peinture pézenas";0;0;2;11;0;0;2;11
"helder batista";0;0;1;6;0;0;1;6
"oeuvre pop art";0;0;1;18;0;0;1;18
"kenza nue";0;0;1;38;0;0;1;38
"peinture buffet";0;0;3;9.6666666666667;0;0;2;9.5;0;0;1;10
"photos d'art de femmes";0;0;1;18;0;0;1;18
"photo d'art pas cher";0;0;1;3;0;0;1;3
"stephanie nava";0;0;4;5;0;0;4;5
"thibault de gialluly";0;0;1;81;0;0;1;81
"layral peintre";0;0;2;4.5;0;0;1;5;0;0;1;4
"oeuvre joan miro";0;0;2;2;0;0;2;2
"nathan chantob artiste peintre";0;0;2;5;0;0;1;4;0;0;1;6
"laure andré";0;0;2;5.5;0;0;2;5.5
"truc anh";0;0;1;2;0;0;1;2
"artiste jonone";0;0;3;1;0;0;3;1
"carles valverde";0;0;2;1.5;0;0;2;1.5
"envie d'art";0;0;13;2.6923076923077;0;0;10;2.8;0;0;2;2.5;0;0;1;2
"lithographie art contemporain";0;0;1;44;0;0;1;44
"rug tapis";0;0;1;33;0;0;1;33
"pauline dufour";0;0;2;5.5;0;0;2;5.5
"carlo nason";0;0;5;10;0;0;3;10;0;0;2;10
"hector odyssey";0;0;1;9;0;0;1;9
"peinture lin";0;0;2;71;0;0;2;71
"michael batory";0;0;2;12;0;0;2;12
belie;0;0;1;17;0;0;1;17
medad;0;0;1;47;0;0;1;47
"isabelle vayron";0;0;1;4;0;0;1;4
"eric deville";0;0;1;4;0;0;1;4
"jean helion";0;0;3;10;0;0;3;10
"galerie argentic";0;0;22;4.3636363636364;0;0;18;4.2222222222222;0;0;4;5
"marie pascale engelmann";0;0;2;5;0;0;1;5;0;0;1;5
"monsieur le chat";0;0;5;7;0;0;2;7;0;0;3;7
"vente tableau contemporain";0;0;5;2;0;0;5;2
"acheter banksy";0;0;4;4.25;0;0;3;4.3333333333333;0;0;1;4
"robe longue fille";0;0;1;27;0;0;1;27
"oeuvre de max ernst";0;0;1;6;0;0;1;6
"portrait miroir";0;0;1;5;0;0;1;5
"billet bansky";0;0;3;1.3333333333333;0;0;2;1;0;0;1;2
"jean dubuffet oeuvre";0;0;2;5.5;0;0;1;5;0;0;1;6
"gregoire guillemin";0;0;1;10;0;0;1;10
"art sculpture";0;0;1;33;0;0;1;33
"maya hayuk";0;0;1;16;0;0;1;16
"mr sex";0;0;6;31.666666666667;0;0;6;31.666666666667
"peter hoffer peintre";0;0;1;4;0;0;1;4
"gerstein david";0;0;3;3;0;0;2;3;0;0;1;3
"philipe berry";0;0;1;8;0;0;1;8
"achat sculpture";0;0;6;1;0;0;6;1
"galerie d'art en ligne";0;0;27;1.0740740740741;0;0;22;1.0454545454545;0;0;2;1;0;0;3;1.3333333333333
"lisbeth delisle";0;0;4;5;0;0;4;5
"tourisme dinard";0;0;1;29;0;0;1;29
"gérard rancinan photos";0;0;1;5;0;0;1;5
"luc lacroix";0;0;3;10;0;0;3;10
"michel gueranger";0;0;1;2;0;0;1;2
"costa peintre";0;0;1;6;0;0;1;6
"nicolas lasserre";0;0;1;19;0;0;1;19
tabish;0;0;1;10;0;0;1;10
"panthère des neige";0;0;1;50;0;0;1;50
"gallerie nue";0;0;4;6;0;0;1;6;0;0;3;6
"site galerie d'art";0;0;2;1;0;0;2;1
"jef aerosol biographie";0;0;1;6;0;0;1;6
"julie de waroquier";0;0;1;19;0;0;1;19
"david lachapelle biographie";0;0;2;6.5;0;0;1;4;0;0;1;9
"nathalie d'henaut";0;0;2;8;0;0;2;8
"huart philippe";0;0;1;6;0;0;1;6
stetson;0;0;1;150;0;0;1;150
"art 22 gallery";0;0;1;6;0;0;1;6
"dubuffet oeuvres";0;0;8;4.5;0;0;7;4.4285714285714;0;0;1;5
fessée;0;0;1;230;0;0;1;230
totomobile;0;0;1;31;0;0;1;31
kamasutra;0;0;4;126.75;0;0;3;127.33333333333;0;0;1;125
"madame et son chien x";0;0;1;14;0;0;1;14
"espace chouleur";0;0;1;92;0;0;1;92
risote;0;0;1;8;0;0;1;8
"artiste jr";0;0;1;11;0;0;1;11
"oeuvres de celine";0;0;1;8;0;0;1;8
"christophe goutal";0;0;1;2;0;0;1;2
"canapé jaune";0;0;1;30;0;0;1;30
"art sur internet";0;0;1;3;0;0;1;3
dessirier;0;0;1;20;0;0;1;20
guingand;0;0;2;10;0;0;2;10
"arman artiste";0;0;1;13;0;0;1;13
"joachim monvoisin";0;0;2;5.5;0;0;2;5.5
"dark vador artwork";0;0;2;5;0;0;1;7;0;0;1;3
"ali loader";0;0;1;1;0;0;1;1
"art du bondage";0;0;1;31;0;0;1;31
www.artsper.com;0;0;1;1;0;0;1;1
"voyeur art";0;0;2;8.5;0;0;2;8.5
"jean du buffet";0;0;4;8.75;0;0;3;8.3333333333333;0;0;1;10
"claude champy";0;0;8;6.75;0;0;8;6.75
"gérard schlosser";0;0;2;4;0;0;2;4
"tribu carnivore";0;0;35;7;0;0;21;7;0;0;12;7;0;0;2;7
"oeuvre d'art moderne";0;0;4;2;0;0;3;1.3333333333333;0;0;1;4
"james wigger";0;0;1;5;0;0;1;5
"raison d'art";0;0;1;6;0;0;1;6
"david lachapelle";0;0;7;26.714285714286;0;0;2;29.5;0;0;5;25.6
banq;0;0;1;57;0;0;1;57
"hervé di rosa";0;0;41;3.3658536585366;0;0;30;3.1;0;0;10;4.1;0;0;1;4
"oeuvres de dubuffet";0;0;5;5.8;0;0;5;5.8
"delphine couturier";0;0;2;2;0;0;2;2
"jacques villeglé oeuvres";0;0;1;3;0;0;1;3
"gregoire dalle";0;0;2;5.5;0;0;1;5;0;0;1;6
cédrix;0;0;1;4;0;0;1;4
"michel ajerstejn";0;0;1;7;0;0;1;7
"clothilde lasserre";0;0;5;5.4;0;0;2;4.5;0;0;1;6;0;0;2;6
"galerie d'art luxembourg";0;0;1;40;0;0;1;40
"severine bernard";0;0;6;6.1666666666667;0;0;3;6;0;0;3;6.3333333333333
"galerie elizabeth couturier lyon";0;0;1;8;0;0;1;8
"crystal space";0;0;2;28;0;0;2;28
"artiste japonaise contemporaine";0;0;2;9;0;0;1;8;0;0;1;10
"jone one";0;0;1;3;0;0;1;3
"bernard chauveau";0;0;8;7.75;0;0;8;7.75
"espace seven";0;0;1;8;0;0;1;8
"icone du rock";0;0;1;9;0;0;1;9
"jean michel turpin";0;0;2;6.5;0;0;2;6.5
"jacques deret";0;0;1;3;0;0;1;3
"max parisot";0;0;1;3;0;0;1;3
"alain josseau";0;0;5;6.4;0;0;5;6.4
"peinture vente";0;0;1;24;0;0;1;24
boomart;0;0;1;7;0;0;1;7
"danseuse thai";0;0;2;6;0;0;2;6
"herve all";0;0;1;5;0;0;1;5
oxana;0;0;1;15;0;0;1;15
"durix julien";0;0;3;1;0;0;3;1
"lolita nue";0;0;3;22;0;0;1;22;0;0;2;22
"djamel boucly photographe";0;0;2;3;0;0;2;3
"jacques verdier artiste";0;0;1;10;0;0;1;10
"marc figueras";0;0;1;3;0;0;1;3
"romain saintonge";0;0;3;4;0;0;2;4;0;0;1;4
"antoine correia";0;0;2;4.5;0;0;2;4.5
"sexy show";0;0;1;47;0;0;1;47
"photo d'art contemporain";0;0;1;2;0;0;1;2
"peintre milo";0;0;2;5;0;0;1;4;0;0;1;6
"theo haggai";0;0;5;1.2;0;0;4;1;0;0;1;2
"christoff debusschere";0;0;7;7.4285714285714;0;0;5;6.4;0;0;2;10
"germain plouvier";0;0;1;4;0;0;1;4
"nicolas nicolini";0;0;2;6;0;0;2;6
"jean georges inca";0;0;1;2;0;0;1;2
"roland topor art";0;0;1;4;0;0;1;4
sugai;0;0;1;6;0;0;1;6
"fisher wilson";0;0;1;7;0;0;1;7
"michèle destarac peintre";0;0;4;1;0;0;4;1
"sculpture comtemporaine";0;0;2;3;0;0;2;3
"art cubique";0;0;4;7.75;0;0;4;7.75
"adela burdujanu";0;0;2;5;0;0;2;5
"vente art contemporain en ligne";0;0;9;1;0;0;5;1;0;0;2;1;0;0;2;1
"achat peinture";0;0;3;79.333333333333;0;0;3;79.333333333333
"claisse geneviève";0;0;1;8;0;0;1;8
"eugene begarat art";0;0;1;3;0;0;1;3
"charlotte lelong";0;0;3;6.6666666666667;0;0;2;6;0;0;1;8
"stephane pencreach";0;0;1;8;0;0;1;8
"guy boyer peintre";0;0;2;1;0;0;2;1
"nuance et lumière";0;0;2;2.5;0;0;1;2;0;0;1;3
"thomas labarthe";0;0;2;3.5;0;0;1;4;0;0;1;3
"it works";0;0;1;395;0;0;1;395
"god dog";0;0;1;4;0;0;1;4
"vents de folie";0;0;1;50;0;0;1;50
"nicolas dubreuille";0;0;2;2.5;0;0;1;2;0;0;1;3
"eliane larus";0;0;1;5;0;0;1;5
"helion peintre";0;0;1;10;0;0;1;10
"portrait oeuvre d'art";0;0;1;9;0;0;1;9
"petit bonhomme blanc";0;0;14;9.5714285714286;0;0;14;9.5714285714286
"roy sfeir";0;0;1;4;0;0;1;4
"photo contemporaine";0;0;1;5;0;0;1;5
"cabochard définition";0;0;1;31;0;0;1;31
"art contemporain vente";0;0;1;1;0;0;1;1
"inception gallery";0;0;1;7;0;0;1;7
"zofia rydet";0;0;1;10;0;0;1;10
"aurélie poinat";0;0;2;5;0;0;2;5
"pinceau d'art";0;0;1;77;0;0;1;77
"stephane dauthuille";0;0;1;11;0;0;1;11
"peintre irlandais contemporain";0;0;1;10;0;0;1;10
"andrew mcattee";0;0;1;6;0;0;1;6
"galerie double s";0;0;1;12;0;0;1;12
"françois morrelet";0;0;2;8;0;0;2;8
"expo lyon street art";0;0;1;99;0;0;1;99
"reçu 5 sur 5";0;0;2;4;0;0;2;4
"arnaud paillard";0;0;3;5;0;0;2;4.5;0;0;1;6
"ha tran";0;0;1;17;0;0;1;17
"carl andre";0;0;23;7.2608695652174;0;0;17;7.0588235294118;0;0;2;7.5;0;0;4;8
"galerie art en ligne";0;0;17;1;0;0;14;1;0;0;2;1;0;0;1;1
"shaka artiste";0;0;3;4;0;0;3;4
"art jingle";0;0;3;3.6666666666667;0;0;3;3.6666666666667
"zhuo qi";0;0;2;1;0;0;2;1
"nature morte vivante";0;0;1;20;0;0;1;20
"george platt lynes";0;0;3;9;0;0;3;9
"narcose serie";0;0;1;9;0;0;2;8
"couvre lit oriental";0;0;1;59
"assaf matarasso";0;0;1;2
arstper;0;0;3;1
"c215 acheter";0;0;1;3
"philippe berry sculpteur";0;0;1;11;0;0;2;1;0;0;1;1
"romero britto";0;0;1;43
"kamasutra nu";0;0;5;48.6
guykayser;0;0;1;6
"on kawara oeuvres";0;0;3;8.3333333333333
"artiste peintre performer";0;0;2;45.5
"objets design";0;0;2;59.5
"baiser en espagne";0;0;1;82
jodibona;0;0;1;6
"chantal porras";0;0;1;2
"oeuvre d'art automne";0;0;2;7
"biographie de jean dubuffet";0;0;2;5
"laurence nicola";0;0;1;3
"vache art";0;0;1;57
"basquiat skull";0;0;1;3
"erro artiste";0;0;7;8;0;0;2;10.5
calin;0;0;1;329
"joseph chiaramonte";0;0;1;4
"milo peintre";0;0;1;5;0;0;1;5
"philippe buil";0;0;2;4.5
"marvin aillaud";0;0;1;3
"vente en ligne d'art";0;0;1;1
"art on surfboards";0;0;1;224
"site vente art";0;0;6;1
"zhang wei";0;0;1;8;0;0;2;9
"antoine mercusot";0;0;3;2
"galerie bettina von arnim";0;0;1;3
"mr brainwash";0;0;1;20;0;0;4;23.5
vittoretti;0;0;2;3.5
"sam francis peintre";0;0;1;8
"alain clément";0;0;8;4.375;0;0;2;5;0;0;1;5
"acheter sculpture";0;0;3;1
"greg gorman";0;0;2;10
"eva navarro";0;0;1;6
"apple or";0;0;7;7
"mes coloriages";0;0;3;22
"françoise petrovitch";0;0;9;6.1111111111111;0;0;4;7
"c'est mieux que rien";0;0;3;8.3333333333333
"tete de guepard";0;0;1;4
"david sandra";0;0;1;7
"acheter une oeuvre d art contemporain";0;0;3;1
pioupiou;0;0;1;233
"john levee artist";0;0;1;5
"catherine lopes";0;0;1;9;0;0;2;9
"vente d'œuvre d'art en ligne";0;0;1;1
"arnaud elias";0;0;1;10
"galerie vivendi";0;0;3;3
"gianni colosimo";0;0;1;1
"vente d'art";0;0;2;1
"galerie de mars";0;0;6;9.5
virgin-arts.fr;0;0;1;25
"oeuvre de cesar";0;0;1;5
"danilo di nenno";0;0;1;4
"oeuvre de banksy";0;0;11;8.9090909090909;0;0;2;9.5;0;0;1;10
"vincent ruffin";0;0;3;5.3333333333333;0;0;1;6
"les artistes contemporains";0;0;1;17
grisor;0;0;3;5
"ipso france";0;0;2;23.5
"nojnoma paris";0;0;1;2;0;0;1;2
"raynaud artiste peintre";0;0;1;4
"michel le belhomme photographe";0;0;1;4
"romain tichit";0;0;3;8.6666666666667
hypomène;0;0;2;3
speedygraphito;0;0;11;5.5454545454545
"vente sculpture bronze";0;0;1;30
"elias artiste";0;0;1;7
morisse;0;0;2;9.5
"pierre alex photo";0;0;2;1
"alain clement";0;0;5;4.2
"galerie loft";0;0;4;4.5
athur;0;0;1;10;0;0;1;9
"galeries d art contemporain";0;0;1;2
"galerie d'art en ligne contemporain";0;0;1;1
d-tone;0;0;1;25
"georges buffet peintre";0;0;1;7
"photographe lachapelle";0;0;1;9
"atlas blue";0;0;10;28
"vincent peters";0;0;2;9.5;0;0;1;10
"julien raynaud";0;0;5;3.4;0;0;2;3.5
mektoub;0;0;1;107
"galerie mondapart";0;0;2;7
"jean michel basquiat";0;0;4;13;0;0;1;13
"laurent roux";0;0;1;20
"tombeau vide";0;0;1;48
"galerie w";0;0;18;5;0;0;2;6;0;0;2;6
"raison d art";0;0;1;6
"françois morellet";0;0;38;7.9736842105263;0;0;3;10.333333333333;0;0;4;8.25
"galeries art";0;0;3;9
"fanny dubois";0;0;2;7
"patrick guidot";0;0;2;4
"etienne jacquin";0;0;1;292
"art traffik";0;0;1;2
"vente d'art contemporain";0;0;1;1
"jef aerosol chut";0;0;1;6
"chiffres en vrac";0;0;1;6
xinart;0;0;1;4
"chacun son chemin";0;0;1;34
"jm robert art";0;0;3;2
"philippe pasqua";0;0;8;5
"achat art africain";0;0;1;47
mbfactory;0;0;1;7
"artistes togolais";0;0;1;23
"easy sacha";0;0;3;10;0;0;1;10
"art contemporain photographie";0;0;2;2
"hermann nitsch oeuvres";0;0;1;3
"aurélie choné";0;0;1;246
"paolo pitacco";0;0;1;6
"drone furtif x45";0;0;1;154
mr.dob;0;0;2;8.5
artiane;0;0;1;3
"art achat";0;0;1;1
"jean pierre tissier";0;0;1;6
"acheter de l art";0;0;4;3;0;0;1;3
"atila biro";0;0;2;7
levrette;0;0;3;173.33333333333
"joan prats";0;0;1;9
"galerie contemporaine";0;0;1;10
"collectionner l'art contemporain";0;0;1;46
"jean marie drouet peintre";0;0;1;5;0;0;1;4
"gerard boudon";0;0;1;6
"ipso jure clarice";0;0;1;139
"keith haring wikipedia";0;0;1;10
"ambiance art";0;0;1;329
"ronald dupont artiste peintre";0;0;1;3
"lithographie vente";0;0;1;46
"x amat";0;0;1;33
accomodera;0;0;1;7
"télémaque peintre";0;0;3;8
"keith haring œuvres d'art";0;0;6;10
"charbonnel sculpteur";0;0;3;3;0;0;1;5
"laurence dreyfus";0;0;3;7;0;0;1;8;0;0;1;8
"villeglé jacques";0;0;2;3.5
"andreas gursky biographie";0;0;1;13
"vente statue";0;0;1;50
"galerie grand rue";0;0;2;3;0;0;1;5
"diane arbus biographie";0;0;2;14
"valérie lefebvre";0;0;6;8.6666666666667;0;0;5;7.6;0;0;1;7
"thierry carrier";0;0;2;7;0;0;2;6
"jeff aerosol";0;0;3;4.3333333333333
"nathalie dhenaut";0;0;4;6.25;0;0;1;7
"galerie d'art contemporain en ligne";0;0;2;1
"bernard buffet cote";0;0;1;40
slideme;0;0;1;33
"ron english";0;0;8;6.5;0;0;5;7;0;0;2;7
"hervé lewis photographe";0;0;2;1
"hervé di rosa biographie";0;0;1;2
"di rosa prix";0;0;1;4
"dominique mulhem";0;0;1;3
grisors;0;0;1;9
"oeuvres de andy warhol";0;0;1;24
"antonio segui peintre";0;0;1;10
"victoria klotz";0;0;2;4.5
"ivan messac";0;0;1;5
"olivia bloch";0;0;1;2
"max ernst œuvres d'art";0;0;7;5;0;0;3;6.6666666666667;0;0;1;6
"jean pierre attal";0;0;1;4;0;0;4;4
"wesselmann oeuvres";0;0;5;5.4
"blek le rat oeuvre";0;0;2;8
farting;0;0;1;13
"willy ronis oeuvres";0;0;2;4
"photographie d art contemporain";0;0;1;2
"sculpture deesse";0;0;1;9
laetitia;0;0;2;236.5
"patrick bastardoz";0;0;1;4
"marie louise sorbac";0;0;3;7.3333333333333
"art vitam";0;0;2;2
"philippe huart";0;0;5;3;0;0;2;3;0;0;1;3
"thierry dussac peintre";0;0;1;3
"sculpture panthere noire";0;0;1;4
"combas prix";0;0;1;6;0;0;2;5
"edouard buzon";0;0;2;2;0;0;1;2
"michel basquiat";0;0;1;18
"wolfgang krell";0;0;1;7
"anne brunet";0;0;11;4.8181818181818;0;0;1;5;0;0;1;6
"laure d’hauteville";0;0;1;7
synecdocque;0;0;1;5
"ted nomad";0;0;3;8.3333333333333;0;0;1;9
"francois houtin";0;0;1;11;0;0;1;2
"les chiens rouges";0;0;1;3
"artiste deesse";0;0;1;6
"bruno catalano prix sculptures";0;0;4;8.75;0;0;3;8.3333333333333;0;0;5;9
"sandy skogland";0;0;1;7
"clara poupel";0;0;1;1
"lou ros";0;0;4;6.5
nadau;0;0;11;12.545454545455
"déesse artiste";0;0;2;4;0;0;3;4
"david lachapelle photo";0;0;1;16
supermimi;0;0;1;1
araki;0;0;1;57
jef;0;0;1;17;0;0;2;16
"couture peintre";0;0;1;8
stoul;0;0;2;8;0;0;1;8
"mur végétal";0;0;1;277
"galerie vidal";0;0;1;8;0;0;1;9
jefaerosol;0;0;2;4
"marie laure gerard";0;0;2;6.5
"galerie street art en ligne";0;0;2;7.5
"open art galerie";0;0;1;5
"ron english van gogh";0;0;2;10
"pradalié peintre";0;0;1;6
"oeuvre de ernest pignon ernest";0;0;1;10
"vente art";0;0;1;1
"galerie gabel";0;0;1;4
"galerie nuances et lumière lyon";0;0;1;3
"robert combas oeuvres";0;0;3;3
"murakami takashi oeuvres";0;0;1;5
"jef aerosol prix";0;0;1;1
"cecilia makhloufi";0;0;4;2.75
"alexandre devals";0;0;1;8
"prise orange";0;0;1;10
"sabyl ghoussoub";0;0;1;1
"egor bogachev";0;0;1;3
aroa;0;0;1;7
"raphaël denis";0;0;2;4.5
durix;0;0;1;5;0;0;1;9
"annette messager oeuvres";0;0;1;7
"charles fazzino prix";0;0;1;11
monumentale;0;0;3;8
"gérard rancinan";0;0;5;5
"duane michals oeuvres";0;0;1;10
"micro galerie";0;0;2;4
djinane;0;0;1;9
"banksy oeuvres";0;0;1;10
"jr artiste";0;0;1;5
"kiki picasso";0;0;8;5.375;0;0;1;6
koor;0;0;1;10;0;0;1;9
"julien airault peintre";0;0;1;3
gnidzaz;0;0;1;9
"tic ses";0;0;1;8
"andré cervera";0;0;3;6
"galerie jal";0;0;1;6
nowart;0;0;3;3
"jr photos";0;0;1;1
"eric brugier";0;0;1;7
"gerstein design";0;0;1;3
"peintre di rosa";0;0;2;4
"isa marcelli";0;0;1;9
"moe girl advance";0;0;1;10
gregos;0;0;2;7.5
catte;0;0;5;2
"banksy acheter";0;0;1;4
masnager;0;0;1;6
aerosol;0;0;5;19.2
"benjamin vautier ses oeuvres";0;0;1;8;0;0;1;8
houtin;0;0;1;2
"roméro britto";0;0;1;8
"tableau du 21ème siècle";0;0;1;8
"peintre gabriel";0;0;1;9
"objet banal devient oeuvre d'art";0;0;1;10
"artiste ben";0;0;2;4;0;0;1;4
mendjisky;0;0;1;10
"jeremy lenoir";0;0;1;9
"nick walker art";0;0;2;7
"alain hatat";0;0;1;8
"bernard pras";0;0;7;4.8571428571429;0;0;11;4.8181818181818
"herve lewis";0;0;2;6
"galerie ad montpellier";0;0;1;3
"ad galerie";0;0;2;3
"pascale roberts nue";0;0;1;68
moya;0;0;1;30
artser;0;0;1;1
"karine paoli";0;0;1;8
"valerie lefebvre";0;0;2;9;0;0;1;8
"levalet art";0;0;1;3
"fullsizerender c'est quoi";0;0;2;3.5
rafiy;0;0;3;1
"oeuvre d'art amour";0;0;1;5
"acheter de l'art";0;0;1;3
boisrond;0;0;1;6;0;0;1;6
"godon peintre";0;0;2;3
"galerie ricci";0;0;1;2
"takashi murakami oeuvres";0;0;1;5;0;0;2;5
"hom nguyen";0;0;1;11
"artistes espagnols";0;0;1;9;0;0;1;10
"kosta kulundzic";0;0;1;63
"soly cisse";0;0;1;8
"drapé blanc";0;0;1;9
"jacques villeglé";0;0;1;4
"galerie d'art france";0;0;1;4
"peintre beaufils";0;0;1;4
"sergio moscona";0;0;6;4
"takashi murakami dessin";0;0;1;3
"clown brand";0;0;1;6
"fazzino charles";0;0;2;5
"clement cogitore";0;0;3;11
"c'est nous les gars de menilmontant";0;0;2;4
"jean cosentino";0;0;1;3;0;0;1;4
villegle;0;0;2;4
"laurent maes";0;0;2;10
"jean pierre schneider";0;0;1;10
"franck hombecq";0;0;1;6
"tete de mort art contemporain";0;0;1;5
"didier triglia";0;0;6;6
"ki to la gloire";0;0;4;5.25
josseau;0;0;1;3
streichenberger;0;0;1;11
"peter peintre";0;0;4;11;0;0;3;10.333333333333
"galerie charron";0;0;1;5
"truc ahn";0;0;1;2
"pierre de fenoyl";0;0;1;10;0;0;3;11
"marie drouet";0;0;1;8
guilleme;0;0;3;6.3333333333333
"galerie lille art contemporain";0;0;1;18
"shepard fairey";0;0;4;18
argentic;0;0;2;6
"affiche bernard buffet";0;0;2;7
"sunday b morning andy warhol";0;0;1;2
"tony soulie";0;0;1;4
"wang yan cheng";0;0;3;7.6666666666667
"philippe vasseur peintre";0;0;1;1
"artiste chinois liu bolin";0;0;1;4
"leon pop art";0;0;1;6
"richard de rosa";0;0;1;4
"yves krief";0;0;2;8;0;0;1;8
scholtes;0;0;6;18.333333333333;0;0;1;20
"robert schad";0;0;1;3
"acheter oeuvre d'art";0;0;1;1
"richard orlinski";0;0;1;11
"ahmed moustafa";0;0;2;3.5
"oeuvre art contemporain";0;0;1;1
"nills udo";0;0;2;10
"jean marie drouet";0;0;2;9.5;0;0;1;9
"une galerie d'art";0;0;5;6.4
triglia;0;0;1;5
miss.tic;0;0;2;7
"french art studio";0;0;1;6
smael;0;0;3;6.3333333333333;0;0;1;9
layral;0;0;1;6
"billet de banque banksy";0;0;1;4
"césar sculpteur";0;0;3;10;0;0;1;10
"alberto sanchez";0;0;5;16
"bertrand desprez";0;0;1;10
"olivier masmonteil";0;0;2;7;0;0;3;7
"kamasutra a 3";0;0;1;38
"georges autard";0;0;1;7
"art en ligne";0;0;1;1
"charlotte perrot";0;0;1;9
"leslie delamarre";0;0;1;5
"nick walker";0;0;1;8
"quik quik";0;0;1;8
"armand artiste";0;0;2;8
"france bruno catalano";0;0;4;6.75
"under construction gallery";0;0;1;5
"photo surréaliste";0;0;1;9;0;0;1;9
"jean faucheur";0;0;5;4.6
"buddy di rosa";0;0;1;6
"jiri borsky";0;0;1;4
"maarten stuer";0;0;2;3
"le turk";0;0;2;10
"skull basquiat";0;0;1;3;0;0;1;3
"uwe ommer";0;0;1;11;0;0;2;10
"daphne navarre";0;0;1;4
dtone;0;0;3;6;0;0;1;5
"myriam baudin";0;0;1;5
cedrix;0;0;1;8;0;0;1;8
"galerie binome";0;0;2;5
"cha noir";0;0;1;3
"geneviève garnier-fabre artiste-peintre";0;0;1;55
"ernest breleur";0;0;1;9
"pierre alex";0;0;2;6
"raymond hains";0;0;5;8;0;0;5;8
pencreach;0;0;1;7
"pascale cayla";0;0;2;10
sarla;0;0;4;9.5
"mr chat";0;0;3;6.3333333333333;0;0;3;6.6666666666667
"tony frank";0;0;2;8
"miss au masculin";0;0;2;9
"batista artist";0;0;1;1
"sylvie koechlin";0;0;1;10
"ipso facto";0;0;5;26
"nuances et lumieres";0;0;2;3
"laure d'hauteville";0;0;2;7
"cesar artiste";0;0;4;8.5
ghoussoub;0;0;1;10
"andoche praudel";0;0;2;4;0;0;2;4
"photo surrealiste";0;0;1;10
"anne hataway";0;0;1;11
"franck k";0;0;1;1
"crash art";0;0;1;6
"tilt graffiti";0;0;4;11.25
"investir dans l'art";0;0;1;9
"mambo artiste";0;0;3;10.666666666667
btoy;0;0;3;7.6666666666667
"canevas contemporain";0;0;1;18
"alexandre joly facebook";0;0;1;10
"bill blast graffiti";0;0;1;2
"manuel cohen";0;0;1;5
"bernard buffet 55";0;0;1;6
"unique gallery dubai";0;0;2;4
"juanito laguna";0;0;1;10
"galerie chenaux";0;0;3;3
"envie d art";0;0;1;2
"joan longas";0;0;1;3
"christian chapiron";0;0;3;5.3333333333333
"inge horup";0;0;1;10
"catalano bruno prix des oeuvres";0;0;1;3
"lucien murat";0;0;1;7
epry;0;0;1;7
"xavier blondeau";0;0;1;4
"panthère rouge";0;0;3;10
"shirley jaffe";0;0;1;9
"wesselmann tom";0;0;1;5
mapplethorpe;0;0;4;10.5;0;0;2;10
"nathan chantob";0;0;1;3
"ben bella artiste";0;0;1;1
"pascal jacquot";0;0;1;9
"andy warhol marilyn monroe";0;0;2;27
tafeta;0;0;2;6
"maurizio nannucci";0;0;1;9
"gerard alary";0;0;1;6
"tony soulié";0;0;1;3
"nadine defer";0;0;2;4.5
"hakim mouhous";0;0;1;9
"jonatan maldonado";0;0;1;2
"michel four";0;0;4;8
"gilles aillaud peinture";0;0;2;7
"césar baldaccini oeuvre";0;0;2;4;0;0;1;4
davidz;0;0;1;10
"colorfield gallery";0;0;2;7;0;0;3;6
"photo de jr";0;0;1;1;0;0;1;1
"galerie bertrand";0;0;1;9
"jerome bost";0;0;1;2;0;0;1;1
"art monochrome";0;0;2;8
one4you;0;0;3;9.3333333333333;0;0;3;9.3333333333333
"billet de banksy";0;0;1;1
"yoann merienne";0;0;1;1
"biographie jean dubuffet";0;0;2;4
"etienne cail";0;0;4;9;0;0;1;10
"chenaux gallery";0;0;1;4
"art acheter";0;0;1;1
stani;0;0;2;4.5
levlet;0;0;1;5
"bernard moninot";0;0;1;7;0;0;1;7
"cyril paglino";0;0;2;19.5;0;0;1;22
zokatos;0;0;3;4.6666666666667
"romain cadilhon";0;0;1;5
jojone;0;0;1;4
"les bons copains";0;0;1;8
"original pictures";0;0;1;6
"sculpture art contemporain";0;0;2;2
arriverent;0;0;1;8
eppele;0;0;1;9
joneone;0;0;1;4
"site oeuvre d'art";0;0;1;1
"anne brégeaut";0;0;1;5
"huet alain";0;0;1;15
"julien airault";0;0;2;5
"bard artiste peintre";0;0;1;1
combras;0;0;1;7
"art à vendre";0;0;2;1
"michel delamarre";0;0;1;5
"giulio parini";0;0;1;10
"murakami peintre";0;0;1;7;0;0;4;7.75
rancinan;0;0;6;6.3333333333333;0;0;3;7
"banksy biographie";0;0;5;9.4;0;0;4;10
"technique du tao";0;0;1;85
"sculpture moderne et contemporaine";0;0;1;6
"oeuvre max ernst";0;0;1;6
"mist street art";0;0;1;10
mulhem;0;0;1;3
"galerie envie d'art";0;0;1;3
"artsper avis";0;0;1;3
"agnes crepin";0;0;1;10
talard;0;0;1;9
"loup artwork";0;0;1;9
"biographie banksy";0;0;4;7.25
"fetish foot";0;0;1;21
"patrick villas sculpteur";0;0;1;8;0;0;2;3
"bernard rancillac";0;0;3;10.666666666667;0;0;2;10
"david monllor";0;0;1;4
art;0;0;1;82
"lolo pigalle";0;0;1;46
"gerti schiele";0;0;1;7
"galerie olivier waltman";0;0;2;5
"damien hirst oeuvres";0;0;2;8;0;0;2;8
"cornette de saint cyr";0;0;4;15.25
footfetish;0;0;1;20;0;0;1;19
"bernard pars";0;0;1;4;0;0;3;4
"mp 77";0;0;1;7
"claire bianchi";0;0;1;4
"telemaque hervé";0;0;2;5;0;0;3;5
"sandra david";0;0;2;8
"pink candy floss";0;0;1;10
"jan lisman";0;0;2;3
"black gallery";0;0;2;1
hyber;0;0;1;7
"miguel chevalier";0;0;1;11;0;0;1;11
"louis-nicolas darbon";0;0;2;10
"georgianna robertson";0;0;2;10
"philippe berry photo";0;0;3;1
"claude leveque";0;0;5;10.4;0;0;3;11
"arno elias";0;0;2;5.5
"banksy prix";0;0;1;8
"miss tik";0;0;1;6
"jean michel basquiat in italian";0;0;5;10;0;0;1;10
"l'atlas artiste";0;0;2;7.5
"pignon ernest oeuvre";0;0;2;7;0;0;1;9
"art vidal";0;0;1;7
opalka;0;0;1;19
"kenza sadoun";0;0;1;1
"terra peintre";0;0;2;1
"eros peinture";0;0;1;7
shuck2;0;0;1;8
cadeo;0;0;1;8;0;0;3;6.6666666666667
"leopard tete";0;0;2;9
"miss tic street art";0;0;1;10
jr;0;0;1;11
"peintre couture";0;0;1;6
"louis stettner";0;0;1;6
begarat;0;0;1;4
"artiste combas";0;0;1;4
"galerie virtuelle art contemporain";0;0;1;3
"arnaud liard";0;0;1;3
"cassius clay";0;0;2;11
"galerie laure roynette";0;0;1;8
ando;0;0;7;10.857142857143
"jonone graffiti";0;0;1;8;0;0;1;8
"orlinski richard";0;0;1;11
"ben artiste";0;0;11;4.6363636363636;0;0;2;4
"mist art";0;0;1;10
"christophe charbonnel";0;0;5;4.8;0;0;2;4
"vente en ligne d'oeuvres d'arts";0;0;1;1
"artiste japonais contemporain";0;0;2;9.5
"galerie catherine houard";0;0;1;6
"atlas artiste";0;0;1;7
"la souris sur le gateau";0;0;1;7
fulcrand;0;0;1;4
"john one street art";0;0;2;4
"caroline maurel";0;0;2;4;0;0;2;4
"laetitia casta x";0;0;1;16
"noe two";0;0;1;3
"galerie couteron";0;0;2;3
"jeff koons biographie";0;0;2;10
takala;0;0;2;4;0;0;1;4
streetartgalerie;0;0;2;6.5
"anette messager";0;0;3;10
"nathalie olivier facebook";0;0;1;21
"serie narcose";0;0;2;6
"antonio segui";0;0;2;8.5;0;0;2;8.5
"exposition jonone";0;0;1;10
"guy boyer";0;0;1;7;0;0;2;6
"luciano polverigiani";0;0;1;1
smash137;0;0;2;9
"toxic graffiti artist";0;0;1;5
"bernard gaume";0;0;1;1
rabus;0;0;1;11
"banksy œuvres d'art";0;0;5;9;0;0;4;8.75
"mike angelo";0;0;1;18
"peintre bernard buffet";0;0;1;9;0;0;4;9.5
"galerie nue";0;0;12;6;0;0;1;6
porras;0;0;5;9.4
"erro oeuvre";0;0;1;8
"envie dart";0;0;1;2
"oeuvre d'art contemporaine";0;0;2;1
"pierre budet";0;0;1;4
"jef aerosol";0;0;9;5;0;0;4;6
hiro;0;0;5;25.2
"eva jospin";0;0;2;10;0;0;1;10
"britto artiste";0;0;1;5
"gregory watin";0;0;1;2;0;0;2;3
"anne messager";0;0;1;8
"thomas canto";0;0;2;5
"guillemin greg";0;0;3;8
lisman;0;0;1;8
"tom wesselman";0;0;1;6
francton;0;0;1;4
"nani champy";0;0;2;8.5
"serge mendjisky";0;0;1;6
"cedric lollia";0;0;4;9
"yi ling";0;0;2;8
"takashi murakami oeuvres principales";0;0;1;4
skymirror;0;0;1;9
masmonteil;0;0;1;13
"nil udo";0;0;1;7
"renato pasmanik";0;0;1;2
"veronique bourgeois";0;0;1;10
"philippe charpentier";0;0;1;10
sgarra;0;0;1;4
"alberto rosselli";0;0;2;10.5
"jeremy chabaud";0;0;1;4
"jean hélion";0;0;2;10.5
"obey peace";0;0;1;7
"willy ronis biographie";0;0;4;10
"bernard langenstein";0;0;1;4
"grands artistes contemporains";0;0;1;8
ayline;0;0;1;10
"nathalie grenier";0;0;2;6
"raison d'art lille";0;0;1;7
"lawrence weiner oeuvres";0;0;3;1
"banksy billet de banque prix";0;0;2;2;0;0;1;2
"ernest pignon ernest";0;0;4;11.25
"bastien cuenot";0;0;1;3
basquiat;0;0;6;29.5;0;0;1;33
orlinski;0;0;7;10;0;0;1;7
maxanart;0;0;1;6
"jean michel basquiat oeuvres";0;0;1;10;0;0;2;10
"elodie lachaud";0;0;1;5
artop;0;0;3;10;0;0;3;10
artachat;0;0;1;3;0;0;2;3
"nyaba leon ouedraogo";0;0;1;9
"soly cissé";0;0;1;6
"troy henriksen";0;0;2;3;0;0;1;3
"gerard rancinan";0;0;5;6
"cesar sculpteur";0;0;13;10.153846153846;0;0;2;10
"david lynch art";0;0;1;10
renonciat;0;0;2;7
"flexo zed";0;0;1;9
"gilles aillaud peintre";0;0;1;9
"alfred manessier";0;0;1;11
"peinture pop art";0;0;1;27
"cesar baldaccini";0;0;1;8
"galerie jamault";0;0;2;8
"artiste césar";0;0;1;8
"laure gerard";0;0;1;10
"tête de guépard";0;0;1;4
"galerie photo d'art en ligne";0;0;1;2
"gérard schlosser peintre";0;0;1;5
"emilio scanavino";0;0;1;6
"rosa peintre";0;0;1;8
"galerie schwab";0;0;1;6
"tony soulié artiste peintre";0;0;2;4
"drouet peintre";0;0;1;5
"luke newton";0;0;1;7
"ernest pignon ernest oeuvres";0;0;2;7.5
"lisa norris gallery";0;0;1;4
"cricket fine art";0;0;1;4
"galerie bouillon d'art bordeaux";0;0;1;7
"peter lippmann";0;0;1;4
"galerie art contemporain";0;0;2;6
"ben heine";0;0;3;10
"norma bessieres prix";0;0;1;5
"cornwall contemporary";0;0;1;4
"robert combas cote";0;0;1;3
"corinne dalle ore";0;0;1;8
"djamel boucly";0;0;3;3
"cortade art";0;0;1;5
"galerie claudine legrand";0;0;1;3
"juliette schwartz";0;0;1;3
"clement alain";0;0;1;5
goet;0;0;1;10
cieu;0;0;1;7
"hugo laruelle";0;0;1;5
"pierre muckensturm";0;0;2;5
calirezo;0;0;1;8
"y galerie";0;0;1;2
"orlan artiste";0;0;1;16
"oeuvres de jean michel basquiat";0;0;1;9
"thierry alet";0;0;1;1
"patrick s naggar";0;0;1;5
"cecile plaisance";0;0;1;9
"aude carré";0;0;1;5
"gazelli art house";0;0;1;4
poés;0;0;1;2
"achat art en ligne";0;0;1;1
"acheter art";0;0;1;1
"à vendre";0;0;1;1
"peintre dubuffet";0;0;2;4
"boisrond peintre";0;0;1;6
"jef aerosol paris";0;0;1;7
"jean françois lefranc";0;0;1;6
"cesar sculpture";0;0;1;7
"biographie ernest pignon ernest";0;0;1;10
"noé two";0;0;2;3
"edmee delsol";0;0;2;6
"debut contemporary";0;0;1;6
"herve perdriel";0;0;1;2
"vente oeuvre d'art en ligne";0;0;1;1
"tatouage de boxeur thai";0;0;1;20
"achat oeuvre d art";0;0;1;1
"sculpture art moderne";0;0;1;2
"le 9eme art";0;0;1;10
"sarah schmidt-whitley";0;0;1;10
"benjamin spark";0;0;1;6
"squelette qui prie";0;0;1;3
godon;0;0;2;2
"peinture potiron";0;0;1;9
izabeau;0;0;1;3
"jeff koons œuvres d-art";0;0;1;7
"christian courreges";0;0;1;7
"fred calmets";0;0;3;5
"christy lee rogers";0;0;1;3
"alain buyse";0;0;2;10
"hamish fulton";0;0;3;7
"antoine rose";0;0;1;4
"elder batista";0;0;1;6
"tairou bodian";0;0;1;5
"arthur lanyon";0;0;1;10
"thierry rasine";0;0;1;1
"dominique clerc";0;0;1;8
"guy oberson";0;0;3;10
"telemaque peintre";0;0;1;9
"gorille sculpture";0;0;1;9
"alain longeaud";0;0;1;7
"clarisse debout photographe";0;0;1;24
"julian page";0;0;1;4
"galerie d art";0;0;3;6.3333333333333
"florence d'elle photographe";0;0;1;2
"xin art galerie";0;0;1;5
"little pussy .";0;0;1;31
aboudia;0;0;1;3
"jean-pierre schneider";0;0;1;11
deblonde;0;0;3;4
"galerie bertrand gillig strasbourg";0;0;2;5
"marc laffolay";0;0;2;5.5
"jean michel basquiat œuvres d'art";0;0;2;1
"debusschere peintre";0;0;1;7
"rakel wajnberg";0;0;1;2
"achat d'oeuvre d'art";0;0;1;1
wes21;0;0;1;9
"franky boy";0;0;1;5
"photo art nu feminin";0;0;1;59
"oeuvre monochrome";0;0;1;8
dysform;0;0;1;5
"gerstein sculpture";0;0;1;3
"julie mechali";0;0;1;6
"christine barres";0;0;1;3
"dope gallery";0;0;2;6.5
"juan ripolles";0;0;2;17
"gz store";0;0;2;3
"loulou picasso";0;0;1;4
"antonella masetti";0;0;1;1
"galerie vidal saint phalle";0;0;1;7
"oeuvre coloré";0;0;2;8
"bernard pras dali";0;0;1;1
"robert combas paintings";0;0;1;8
"colette hyvrard";0;0;1;11
"la sculpture contemporaine";0;0;1;6
