artsper;20;0.087336244541485;229;1;7;0.048611111111111;144;1;10;0.17857142857143;56;1;3;0.10344827586207;29;1
"bernard pras";14;0.15384615384615;91;3.7252747252747;10;0.15873015873016;63;3.2063492063492;3;0.16666666666667;18;5.1666666666667;1;0.1;10;4.4
jonone;10;0.076335877862595;131;3.0076335877863;5;0.064102564102564;78;3.0128205128205;2;0.048780487804878;41;3.5121951219512;3;0.25;12;1.25
"peter klasen";6;0.23076923076923;26;3.5;5;0.26315789473684;19;3.2631578947368;1;0.16666666666667;6;4.1666666666667;0;0;1;4
"miss tic";5;0.03125;160;6.5375;5;0.046296296296296;108;5.9722222222222;0;0;41;7.9756097560976;0;0;11;6.7272727272727
"robert combas";5;0.055555555555556;90;3.8555555555556;5;0.071428571428571;70;3.5714285714286;0;0;14;4.7857142857143;0;0;6;5
"pierre dubrunquez";4;0.8;5;2;4;1;4;2;0;0;1;2
"mahjoub ben bella";4;0.5;8;2.75;1;1;1;3;2;0.5;4;2.5;1;0.33333333333333;3;3
iemza;4;0.33333333333333;12;4;4;0.57142857142857;7;4;0;0;4;4;0;0;1;4
"galerie d'art";4;0.060606060606061;66;7.8181818181818;4;0.085106382978723;47;8.4468085106383;0;0;4;7
"jef aerosol";3;0.068181818181818;44;4.75;2;0.076923076923077;26;4.1923076923077;0;0;10;5.2;1;0.125;8;6
"ben artiste";3;0.21428571428571;14;3.8571428571429;2;0.25;8;3.5;1;0.2;5;4.4;0;0;1;4
"jacques villeglé";3;0.040540540540541;74;5.2162162162162;3;0.0625;48;5.1875;0;0;16;4.75;0;0;10;6.1
"jerome mesnager";3;0.16666666666667;18;3.7222222222222;3;0.25;12;3.25;0;0;1;4
"david gerstein";3;0.2;15;3.4;2;0.16666666666667;12;3.3333333333333;1;0.33333333333333;3;3.6666666666667
"yutao ge";3;0.42857142857143;7;1.5714285714286;2;0.66666666666667;3;1;1;0.33333333333333;3;2
"ernest pignon ernest";3;0.054545454545455;55;10.381818181818;1;0.2;5;11;2;0.048780487804878;41;10.170731707317;0;0;9;11
"jm robert";3;0.27272727272727;11;1.9090909090909;1;0.16666666666667;6;2;1;0.33333333333333;3;2;1;0.5;2;1.5
"oeuvres de nils udo";3;0.5;6;5.6666666666667;3;0.5;6;5.6666666666667
"eva jospin";3;0.085714285714286;35;3.1714285714286;3;0.125;24;1.75;0;0;9;6.1111111111111;0;0;2;7
"obey tableau";2;1;2;2;1;1;1;2;1;1;1;2
"sébastien bayet artiste peintre";2;1;2;1;1;1;1;1;1;1;1;1
"patrick moya";2;0.16666666666667;12;3.3333333333333;1;0.14285714285714;7;2.8571428571429;1;0.2;5;4
"rafiy okefolahan";2;1;2;1;2;1;2;1
"françois bard";2;0.15384615384615;13;3;2;0.18181818181818;11;3.1818181818182;0;0;2;2
"wang yan cheng";2;0.095238095238095;21;6.5714285714286;2;0.14285714285714;14;7.1428571428571;0;0;6;6.1666666666667;0;0;1;1
"annette messager";2;0.018867924528302;106;10.084905660377;2;0.023529411764706;85;9.8705882352941;0;0;14;10.928571428571;0;0;7;11
"hervé di rosa";2;0.08;25;4.44;1;0.052631578947368;19;4.2631578947368;0;0;3;5;1;0.33333333333333;3;5
"troy henriksen";2;0.125;16;3;2;0.18181818181818;11;3;0;0;2;3
"pierre et gilles oeuvres";2;0.28571428571429;7;7.5714285714286;2;0.33333333333333;6;7.6666666666667;0;0;1;7
"juliette choné";2;0.5;4;4;1;0.33333333333333;3;4;1;1;1;4
"richard di rosa";2;0.18181818181818;11;4.0909090909091;1;0.16666666666667;6;4.6666666666667;0;0;1;4;1;0.25;4;3.25
"nicolas dubreuille";2;0.4;5;2;1;0.5;2;2;1;0.33333333333333;3;2
"joaquim falco";2;0.66666666666667;3;13;1;0.5;2;14.5;1;1;1;10
"jean paul moscovino";2;0.66666666666667;3;3;2;0.66666666666667;3;3
"jacques villeglé oeuvres";2;0.28571428571429;7;2.5714285714286;1;0.25;4;2.25;1;0.33333333333333;3;3
"jean françois rauzier";2;0.2;10;7.3;2;0.28571428571429;7;7;0;0;1;8;0;0;2;8
"pierre marie brisson";2;0.5;4;2;1;1;1;2;1;0.33333333333333;3;2
zenoy;2;0.4;5;1.8;1;1;1;1;0;0;3;2.3333333333333;1;1;1;1
"takashi murakami oeuvres";2;0.22222222222222;9;2;2;0.22222222222222;9;2
fazzino;2;0.08;25;7.88;1;0.090909090909091;11;7.1818181818182;1;0.083333333333333;12;8.5833333333333;0;0;2;7.5
"jm robert peintre";2;1;2;2;2;1;2;2
"oeuvre de nils udo";2;0.5;4;5.5;2;0.5;4;5.5
"oleg dou";2;0.16666666666667;12;3.8333333333333;1;0.125;8;3.5;1;0.33333333333333;3;3;0;0;1;9
"olivia clavel peintre";2;0.66666666666667;3;2;2;0.66666666666667;3;2
quik;2;0.014285714285714;140;1.1928571428571;2;0.035087719298246;57;1.0526315789474;0;0;66;1.3636363636364;0;0;17;1
"oeuvre de banksy";2;0.046511627906977;43;7.8604651162791;2;0.1;20;7.35;0;0;16;8.25;0;0;7;8.4285714285714
combas;2;0.02020202020202;99;5.4040404040404;2;0.03125;64;4.859375;0;0;31;6.4838709677419;0;0;4;5.75
"eduardo chillida oeuvres";2;0.66666666666667;3;6;1;0.5;2;6;1;1;1;6
"bastien cuenot";2;0.66666666666667;3;2;2;0.66666666666667;3;2
"topolino artiste";2;1;2;1;2;1;2;1
"ron english";2;0.090909090909091;22;4.5909090909091;1;0.066666666666667;15;4;0;0;3;7;1;0.25;4;5
"ernest pignon ernest oeuvres";2;0.15384615384615;13;6.9230769230769;2;0.18181818181818;11;7;0;0;1;6;0;0;1;7
"thomas verny";2;0.66666666666667;3;1;2;0.66666666666667;3;1
"jonas sunset";2;0.33333333333333;6;2.3333333333333;1;1;1;3;1;0.2;5;2.2
"georges cabot";2;1;2;4;2;1;2;4
"ren hang";2;0.11111111111111;18;9.7777777777778;1;0.076923076923077;13;9.6923076923077;1;0.2;5;10
"antoine geiger";2;0.058823529411765;34;5.1764705882353;1;0.05;20;5.2;1;0.076923076923077;13;5.2307692307692;0;0;1;4
sculpture;2;0.012658227848101;158;10.227848101266;1;0.013888888888889;72;10.833333333333;1;0.016393442622951;61;9.4426229508197;0;0;25;10.4
"levalet artiste";2;0.5;4;2;2;1;2;2;0;0;2;2
"christine barres";2;0.2;10;3.6;2;0.25;8;3.5;0;0;2;4
"jacques villeglé biographie";2;0.5;4;2.5;2;1;2;3;0;0;2;2
jadikan;2;0.5;4;2.75;2;0.5;4;2.75
chanoir;2;0.22222222222222;9;2.5555555555556;0;0;2;4.5;2;0.33333333333333;6;2;0;0;1;2
"romero britto biographie";2;0.66666666666667;3;2.6666666666667;2;0.66666666666667;3;2.6666666666667
"jerome btesh";1;1;1;4;1;1;1;4
"jacques benaroch";1;0.25;4;2;0;0;2;2;1;1;1;2
flipo;1;0.125;8;7.125;0;0;3;8.3333333333333;0;0;2;9.5;1;0.33333333333333;3;4.3333333333333
"chat oeuvre d'art";1;1;1;4;1;1;1;4
"christof monnin";1;0.1;10;10;1;0.14285714285714;7;10;0;0;2;10;0;0;1;10
noetwo;1;1;1;14;1;1;1;14
"leo galamez";1;0.2;5;2;0;0;2;2;1;0.5;2;2
"jean dubuffet biographie";1;0.16666666666667;6;4;1;0.33333333333333;3;4
"kiki picasso";1;0.037037037037037;27;5.7037037037037;1;0.076923076923077;13;6.1538461538462;0;0;1;7
"combas prix";1;0.33333333333333;3;5;0;0;1;5;1;1;1;5
"jean michel voge";1;0.5;2;3;1;1;1;3;0;0;1;3
"ted nomad";1;1;1;3;1;1;1;3
"renaud philippot ebay";1;1;1;20;1;1;1;20
"christos kalfas";1;0.5;2;6.5;1;0.5;2;6.5
"massimo vitali prix";1;0.25;4;4;0;0;2;4;1;0.5;2;4
"chantal porras";1;1;1;2;1;1;1;2
"blek le rat oeuvre";1;0.125;8;7;1;0.125;8;7
"shirley jaffe";1;0.14285714285714;7;4.7142857142857;1;0.2;5;4.4;0;0;1;6;0;0;1;5
"tom wesselmann";1;0.033333333333333;30;4.4333333333333;1;0.047619047619048;21;3.6666666666667;0;0;5;5.8;0;0;4;6.75
"cesar artiste";1;0.0625;16;7.125;1;0.076923076923077;13;7;0;0;2;7.5;0;0;1;8
jisbar;1;0.5;2;1;1;0.5;2;1
"ben bella mahjoub";1;1;1;2;1;1;1;2
"ivan messac";1;0.25;4;4.75;1;1;1;5;0;0;1;5
"deesse sculpture";1;1;1;6;1;1;1;6
"laurent bouro";1;0.5;2;3;1;1;1;3;0;0;1;3
"seen street art";1;0.5;2;4;1;0.5;2;4
"cecile desserle";1;0.2;5;4.8;0;0;2;5;1;0.33333333333333;3;4.6666666666667
"hiro ando";1;1;1;1;1;1;1;1
ajee;1;1;1;9;1;1;1;9
"alain godon reproduction";1;0.5;2;8;1;0.5;2;8
"fernando costa prix";1;1;1;1;1;1;1;1
"tony soulie";1;0.16666666666667;6;3.3333333333333;1;1;1;1
"oswaldo guayasamin";1;0.33333333333333;3;7.6666666666667;0;0;2;7;1;1;1;9
"cactus sculpture";1;1;1;8;1;1;1;8
"jean luc beaufils";1;0.33333333333333;3;3.3333333333333;1;1;1;3;0;0;1;3
"henri matisse cirque";1;0.25;4;4.5;1;0.25;4;4.5
"billet banksy";1;1;1;1;1;1;1;1
"kouka artiste";1;0.5;2;4.5;1;0.5;2;4.5
"dubuffet oeuvres";1;0.058823529411765;17;4.4705882352941;1;0.083333333333333;12;4.25;0;0;3;5;0;0;2;5
arman;1;0.25;4;37.75;1;0.25;4;37.75
"galerie audet";1;0.5;2;10.5;1;0.5;2;10.5
"capton peinture";1;0.33333333333333;3;4.6666666666667;1;0.5;2;5
"jr oeuvres";1;0.33333333333333;3;4.6666666666667;1;0.33333333333333;3;4.6666666666667
"gilles capton";1;0.2;5;2.2;1;0.25;4;2;0;0;1;3
"philippe pasqua prix";1;0.5;2;1;0;0;1;1;1;1;1;1
"robert barry";1;0.11111111111111;9;3.2222222222222;1;0.11111111111111;9;3.2222222222222
"orlinski crocodile prix";1;0.33333333333333;3;7;1;0.5;2;9
"peintre milo";1;1;1;4;1;1;1;4
"oeuvres de dubuffet";1;0.33333333333333;3;5;1;0.33333333333333;3;5
"bertrand grégoire";1;0.5;2;7;1;0.5;2;7
"toma l";1;0.2;5;5;1;1;1;5;0;0;4;5
"ben bella peintre";1;0.16666666666667;6;1.3333333333333;0;0;3;1;1;0.5;2;2;0;0;1;1
"galerie w paris";1;1;1;19;1;1;1;19
"marie laure vareilles";1;0.2;5;8;1;0.2;5;8
"di rosa";1;0.03030303030303;33;2.7878787878788;1;0.041666666666667;24;3.2083333333333;0;0;7;1.8571428571429;0;0;2;1
"virginie soubeiroux";1;1;1;1;1;1;1;1
"did dontzoff";1;0.25;4;3.5;0;0;1;4;1;0.5;2;3.5
"max charvolen";1;0.33333333333333;3;3.6666666666667;1;0.33333333333333;3;3.6666666666667
"duane michals biographie";1;0.5;2;10;1;0.5;2;10
"delorme peintre";1;1;1;9;1;1;1;9
"jacques poli";1;1;1;11;1;1;1;11
"flipo pezenas";1;0.5;2;2;1;0.5;2;2
"bernard pras artiste";1;0.25;4;2;0;0;1;2;1;0.33333333333333;3;2
"ariane michel";1;0.5;2;13;1;0.5;2;13
"andre cervera";1;1;1;6;1;1;1;6
"philippe pasqua vanité papillons";1;0.2;5;1;1;0.25;4;1;0;0;1;1
villegle;1;0.25;4;4.75;1;0.33333333333333;3;4;0;0;1;7
"as i opened fire";1;0.33333333333333;3;3.3333333333333;1;0.5;2;3;0;0;1;4
"jin bo";1;0.5;2;3;1;0.5;2;3
"christine barres prix";1;1;1;2;1;1;1;2
"lou ros";1;0.2;5;6;1;0.25;4;6;0;0;1;6
fulcrand;1;0.5;2;2.5;1;1;1;2
"lucile callegari";1;0.33333333333333;3;5.6666666666667;0;0;1;5;1;1;1;6;0;0;1;6
"sophie sigorel";1;0.11111111111111;9;5;1;0.11111111111111;9;5
"carl andré";1;0.047619047619048;21;6.3333333333333;0;0;18;6.1111111111111;1;0.33333333333333;3;7.6666666666667
grisor;1;1;1;1;1;1;1;1
"nils udo biographie";1;0.5;2;3;0;0;1;3;1;1;1;3
"nils udo";1;0.01010101010101;99;7.020202020202;1;0.011904761904762;84;6.8095238095238;0;0;9;8.5555555555556;0;0;6;7.6666666666667
"leon guillemin";1;0.25;4;2.5;1;0.5;2;3;0;0;2;2
"oeuvre de benjamin vautier";1;0.5;2;6;1;0.5;2;6
"achat oeuvre banksy";1;0.5;2;1;1;0.5;2;1
"oeuvres keith haring";1;0.1;10;8;1;0.1;10;8
"bruno catalano prix";1;0.071428571428571;14;5.7142857142857;1;0.25;4;4
"oeuvre d'art oiseaux";1;0.5;2;6;1;0.5;2;6
"philippe pasqua";1;0.025;40;6.275;1;0.037037037037037;27;5.9259259259259;0;0;10;7;0;0;3;7
"di rosa herve";1;1;1;4;1;1;1;4
"richard orlinski";1;0.027027027027027;37;7.2972972972973;1;0.052631578947368;19;7.3157894736842;0;0;4;7.5
"gordon hopkins prix";1;0.5;2;1;1;0.5;2;1
"milo peintre";1;1;1;9;1;1;1;9
"zhang wei";1;0.33333333333333;3;6.6666666666667;0;0;1;7;1;0.5;2;6.5
"kathleen petyarre";1;0.2;5;3.8;1;0.25;4;4
"drm galerie";1;1;1;1;1;1;1;1
kyliss;1;1;1;1;1;1;1;1
"evelyne postic peintre";1;0.5;2;4;1;0.5;2;4
audiard;1;1;1;90;1;1;1;90
"jonone peintre";1;1;1;1;1;1;1;1
"antonio seguí";1;0.11111111111111;9;6.4444444444444;1;0.11111111111111;9;6.4444444444444
"bernard buffet";1;0.0067114093959732;149;10.51677852349;0;0;50;10.98;1;0.03448275862069;29;10.965517241379
"jacques villeglé biographie courte";1;0.2;5;2;1;0.2;5;2
"jerome mesnager cote";1;1;1;3;1;1;1;3
"john matos";1;1;1;4;1;1;1;4
"lucien murat artiste";1;0.16666666666667;6;1;1;0.33333333333333;3;1
"willy ronis oeuvres";1;1;1;5;1;1;1;5
"pierre cornudet";1;1;1;1;1;1;1;1
"wesselmann oeuvres";1;1;1;5;1;1;1;5
"britto romero";1;0.5;2;14;1;0.5;2;14
"art nue";1;1;1;16;1;1;1;16
"unique gallery";1;1;1;3;1;1;1;3
"claire fanjul";1;0.2;5;3;1;0.2;5;3
"jerome lagarrigue";1;0.1;10;4.9;1;0.5;2;4
"villeglé jacques";1;0.5;2;3;1;0.5;2;3
"mr brainwash mural";1;0.0625;16;6.375;1;0.11111111111111;9;6.4444444444444;0;0;5;6.2;0;0;2;6.5
"roland cat wikipedia";1;1;1;1;1;1;1;1
"clotilde ancarani";1;0.5;2;10;1;0.5;2;10
"cesar sculpteur";1;0.041666666666667;24;9.2916666666667;1;0.1;10;8.4;0;0;8;10.125;0;0;6;9.6666666666667
"oeuvre de miro";1;0.14285714285714;7;9.5714285714286;1;0.16666666666667;6;11;0;0;1;1
"philippe azema";1;1;1;2;1;1;1;2
"anya spielman";1;1;1;6;1;1;1;6
"philippe bonan";1;1;1;2;1;1;1;2
"robert combas cote";1;0.16666666666667;6;5;1;0.2;5;5.2;0;0;1;4
"galeries de nues";1;1;1;49;1;1;1;49
"vincent richeux";1;0.11111111111111;9;4.2222222222222;0;0;2;5;1;0.16666666666667;6;4;0;0;1;4
"jr oeuvre";1;0.16666666666667;6;5.1666666666667;1;0.2;5;5.4;0;0;1;4
"di rosa peintre";1;0.125;8;2;0;0;5;1.8;0;0;1;3;1;0.5;2;2
"pierre fava";1;0.5;2;3;1;1;1;3;0;0;1;3
"sebastien mehal";1;0.5;2;11;1;0.5;2;11
"marty de montereau";1;1;1;1;1;1;1;1
"olivia clavel";1;0.125;8;5;1;0.2;5;5
"hamish fulton";1;0.125;8;8.875;1;0.14285714285714;7;8.5714285714286;0;0;1;11
arsper;1;0.25;4;1;1;0.5;2;1;0;0;2;1
"frédéric blaimont";1;1;1;4;1;1;1;4
"david gerstein prix";1;0.5;2;3;1;1;1;1;0;0;1;5
"gerstein art";1;0.5;2;2;0;0;1;2;1;1;1;2
"andy warhol superman";1;0.16666666666667;6;8;1;0.16666666666667;6;8
"street art galerie en ligne";1;0.33333333333333;3;6;1;0.5;2;6;0;0;1;6
poes;1;0.16666666666667;6;4.5;1;0.5;2;5.5;0;0;4;4
"philippe huart";1;0.2;5;2.2;1;0.33333333333333;3;2.3333333333333;0;0;2;2
"rafael navarro";1;0.2;5;2.8;1;0.2;5;2.8
"xavier veilhan oeuvres";1;0.5;2;6;1;0.5;2;6
"maxime frairot";1;0.125;8;4;0;0;2;4;1;0.25;4;4
"combas robert oeuvres";1;0.5;2;4;1;0.5;2;4
"renk artiste";1;0.5;2;5;1;0.5;2;5
"galerie ricci";1;0.2;5;3;1;0.5;2;3
"jeanne lorioz peintre";1;0.5;2;4;1;0.5;2;4
"brno del zou";1;0.5;2;4;1;1;1;4;0;0;1;4
"jan schmidt whitley";1;1;1;12;1;1;1;12
"david sitbon";1;0.16666666666667;6;7.5;1;0.5;2;8
"buffet peintre";1;0.058823529411765;17;7.1764705882353;1;0.1;10;7.2;0;0;4;7.25;0;0;3;7
"banksy faux billets";1;1;1;16;1;1;1;16
"bernar venet";1;0.058823529411765;17;8.3529411764706;1;0.2;5;9.2
"filip mirazovic";1;0.25;4;3;1;0.25;4;3
"richard di rosa art contemporain";1;0.5;2;1;1;0.5;2;1
"michel four";1;0.33333333333333;3;6;1;0.33333333333333;3;6
"pignon ernest pignon";1;0.33333333333333;3;6;1;0.33333333333333;3;6
"oeuvre sur papier";1;1;1;29;1;1;1;29
triglia;1;0.2;5;6;1;0.25;4;6;0;0;1;6
"robert combas oeuvres";1;0.071428571428571;14;5.0714285714286;1;1;1;3;0;0;3;6
"jean francois jonvelle photographe";1;1;1;15;1;1;1;15
"roland cat peintre";1;1;1;2;1;1;1;2
"marc figueras";1;0.5;2;3;1;0.5;2;3
"jan saudek";1;0.03030303030303;33;9.3030303030303;1;0.041666666666667;24;9;0;0;1;11;0;0;8;10
yemza;1;1;1;4;1;1;1;4
"miguel chevalier";1;0.027027027027027;37;7.1081081081081;1;0.035714285714286;28;7;0;0;4;7.25;0;0;5;7.6
"sunday b morning";1;0.5;2;2;1;0.5;2;2
"affiche jr";1;0.5;2;5;1;0.5;2;5
"hin chua";1;0.5;2;5;1;1;1;5;0;0;1;5
"grands artistes contemporains";1;1;1;4;1;1;1;4
"jimmy ruf";1;0.5;2;2;1;0.5;2;2
"photographe surréaliste";1;0.1;10;9.8;1;0.11111111111111;9;9.8888888888889;0;0;1;9
"gastineau massamba";1;1;1;2;1;1;1;2
"nurcan giz";1;0.5;2;5;1;0.5;2;5
"julien raynaud artiste";1;0.5;2;1.5;1;1;1;2
"bruno catalano biographie";1;0.5;2;1.5;1;0.5;2;1.5
"hervé di rosa peinture";1;1;1;4;1;1;1;4
"no curves";1;0.5;2;10;1;0.5;2;10
"bernard gaume";1;1;1;1;1;1;1;1
"jeff koons vase";1;0.5;2;5;1;0.5;2;5
"nicolas tourte";1;0.25;4;9.5;1;0.33333333333333;3;9.3333333333333;0;0;1;10
aroa;1;0.33333333333333;3;6.6666666666667;1;0.5;2;7;0;0;1;6
"liu bolin oeuvres";1;0.33333333333333;3;4;1;0.5;2;4;0;0;1;4
"oeuvre d'art en or";1;0.5;2;4;1;1;1;1
lemilo;1;1;1;1;1;1;1;1
"sandro giordano in extremis";1;1;1;7;1;1;1;7
"brisson peintre";1;1;1;1;1;1;1;1
"herve lewis";1;0.16666666666667;6;1.8333333333333;1;0.2;5;1.6;0;0;1;3
"benjamin carbonne";1;0.1;10;1.2;0;0;5;1.4;1;0.2;5;1
"léo caillard";1;1;1;29;1;1;1;29
"artiste pez";1;0.5;2;7;1;1;1;7;0;0;1;7
"philippe pradalié";1;0.33333333333333;3;3;1;0.33333333333333;3;3
"lachapelle david";1;0.25;4;5.75;1;0.5;2;5.5;0;0;1;5;0;0;1;7
"fantasy females are impossible to satisfy";1;1;1;2;1;1;1;2
"jacque villeglé";1;0.1;10;5.2;1;0.125;8;5;0;0;2;6
"agnes baudet";1;0.5;2;6;1;0.5;2;6
"helder batista";1;0.5;2;5;1;0.5;2;5
"peintre en vogue";1;1;1;2;1;1;1;2
"david lachapelle photographe";1;0.2;5;5.4;1;0.33333333333333;3;5;0;0;2;6
"kate barry";1;0.071428571428571;14;31.571428571429;1;0.125;8;31.125;0;0;2;32.5;0;0;4;32
"orlinda lavergne";1;0.11111111111111;9;3.6666666666667;1;0.16666666666667;6;3.3333333333333;0;0;3;4.3333333333333
"thomas muller dessin";1;0.33333333333333;3;1;1;0.33333333333333;3;1
"mimi the clown";1;0.11111111111111;9;6.7777777777778;1;0.11111111111111;9;6.7777777777778
"louis pons dessins";1;1;1;5;1;1;1;5
"anthony murphy";1;0.5;2;5;1;0.5;2;5
"oeuvres d'ernest pignon ernest";1;1;1;4;1;1;1;4
"lionel sourisseau";1;1;1;1;1;1;1;1
"bernar venet biographie";1;1;1;4;1;1;1;4
"robert bradford";1;0.2;5;2;1;0.2;5;2
"jean charles millepied";1;0.14285714285714;7;4;0;0;1;4;1;0.16666666666667;6;4
"aurelie bauer";1;0.33333333333333;3;11.333333333333;1;0.33333333333333;3;11.333333333333
"sculpture orlinski";1;0.25;4;7;1;0.33333333333333;3;7
"philippe dannic";1;0.5;2;7;1;0.5;2;7
"susan shup";1;1;1;5;1;1;1;5
"carl andre";1;0.11111111111111;9;6.2222222222222;0;0;7;6;1;0.5;2;7
"philippe assalit";1;0.25;4;3;1;0.5;2;3;0;0;1;3;0;0;1;3
"banksy œuvres d'art";1;0.052631578947368;19;7.6842105263158;1;0.055555555555556;18;7.6666666666667;0;0;1;8
"richard dubure";1;1;1;2;1;1;1;2
"gerstein sculpture";1;0.5;2;2;1;0.5;2;2
"lucien murat";1;0.083333333333333;12;2.8333333333333;1;0.33333333333333;3;4.3333333333333;0;0;3;3
cedki;1;1;1;4;1;1;1;4
uriginal;1;1;1;5;1;1;1;5
"mahjoub ben bella biographie";1;0.5;2;1;1;0.5;2;1
"yann houri";1;0.25;4;4;0;0;2;4;0;0;1;4;1;1;1;4
"christine muller peintre";1;0.5;2;5.5;1;0.5;2;5.5
fkdl;1;0.25;4;6.25;0;0;1;6;1;1;1;6
"kristian von hornsleth";1;1;1;6;1;1;1;6
"rafael gomez barros";1;0.5;2;3;1;0.5;2;3
"karine chaudé";1;0.33333333333333;3;2;1;0.33333333333333;3;2
"arnaud liard";1;0.33333333333333;3;2;1;0.5;2;2;0;0;1;2
"gerard escougnou";1;0.33333333333333;3;4;1;0.5;2;4;0;0;1;4
"sculpture monumentale";1;0.16666666666667;6;3.1666666666667;1;0.33333333333333;3;3.3333333333333;0;0;2;3;0;0;1;3
"achat banksy";1;1;1;2;1;1;1;2
"du buffet peintre";1;0.2;5;5;1;0.33333333333333;3;5
"romain cadilhon";1;0.33333333333333;3;1.6666666666667;1;0.33333333333333;3;1.6666666666667
tanc;1;0.071428571428571;14;4.9285714285714;1;0.11111111111111;9;4.6666666666667;0;0;4;5.25;0;0;1;6
"christophe goutal";1;0.2;5;3.6;0;0;1;3;0;0;2;4;1;0.5;2;3.5
artop;1;0.066666666666667;15;8.2666666666667;1;0.125;8;8.375;0;0;1;9
"antoine veron";1;1;1;3;1;1;1;3
"shaka artiste";1;0.25;4;4.25;1;0.25;4;4.25
"pierre koppe";1;0.33333333333333;3;2.6666666666667;1;0.5;2;2.5;0;0;1;3
"joel barbiero";1;0.5;2;9;1;0.5;2;9
"raynaud artiste";1;0.16666666666667;6;6.5;1;0.33333333333333;3;6
"jef aerosol prix";1;1;1;1;1;1;1;1
"charlelie couture gallery new york";1;1;1;5;1;1;1;5
"less is more";1;1;1;41;1;1;1;41
"durix artiste";1;0.5;2;3.5;1;0.5;2;3.5
"peintre irlandais contemporain";1;0.25;4;5.5;1;0.25;4;5.5
"vincent hawkins";1;1;1;4;1;1;1;4
"yo marchand";1;0.33333333333333;3;2.6666666666667;1;0.33333333333333;3;2.6666666666667
"jan saudek photographe";1;1;1;4;1;1;1;4
sculture;1;0.071428571428571;14;9.6428571428571;0;0;6;9.6666666666667;1;0.2;5;9.4;0;0;3;10
"julien raynaud";1;0.125;8;3.875;1;0.2;5;4.2;0;0;2;3;0;0;1;4
"joelle troussier";1;0.5;2;3.5;1;1;1;3;0;0;1;4
"ayline olukman";1;1;1;3;1;1;1;3
"kiddy citny";1;0.14285714285714;7;5.2857142857143;0;0;2;6;1;0.2;5;5
"nathalie grall gravure";1;0.33333333333333;3;7.6666666666667;1;0.5;2;8;0;0;1;7
"francoise petrovitch";1;0.16666666666667;6;7.5;1;0.5;2;8
"philippe mougin";1;1;1;15;1;1;1;15
"michele destarac";1;0.5;2;1.5;1;1;1;1;0;0;1;2
"sculpture panda";1;1;1;10;1;1;1;10
"oeuvre banksy";1;0.041666666666667;24;6.8333333333333;0;0;13;6.3076923076923;1;0.2;5;7.4;0;0;6;7.5
"jean pierre nadau";1;0.5;2;1;1;0.5;2;1
"oeuvres de banksy";1;0.052631578947368;19;7.6842105263158;0;0;15;7.4666666666667;0;0;1;9;1;0.33333333333333;3;8.3333333333333
"nicolas moreau peintre";1;0.5;2;5;1;0.5;2;5
c215;1;0.16666666666667;6;26.5;1;0.33333333333333;3;18
"dan gerbo";1;1;1;12;1;1;1;12
"annette messager oeuvres";1;0.090909090909091;11;6.7272727272727;1;0.1;10;6.8;0;0;1;6
"anti artiste";1;0.5;2;1;1;1;1;1;0;0;1;1
"liu bolin biographie";1;1;1;2;1;1;1;2
"art jingle";1;0.16666666666667;6;4.6666666666667;0;0;2;4.5;1;0.25;4;4.75
"fabrice hyber";1;0.029411764705882;34;7;1;0.047619047619048;21;6.6666666666667;0;0;9;7.7777777777778;0;0;4;7
"catalano artiste";1;0.083333333333333;12;4;0;0;3;4;1;0.125;8;4
"gérard alary";1;1;1;4;1;1;1;4
stripart;1;0.25;4;6.25;1;1;1;5
"christophe catelain";1;0.5;2;1;1;1;1;1;0;0;1;1
"jean francois gambino sculpteur";1;0.33333333333333;3;8;1;1;1;8
"france art diffusion";1;0.25;4;2;1;0.25;4;2
"jean hélion peintre";1;0.25;4;4.25;0;0;1;4;1;1;1;4
"oeuvre de keith haring";1;0.05;20;6.6;1;0.16666666666667;6;7.1666666666667;0;0;5;7
"alain crocq peintre";1;0.066666666666667;15;7.3333333333333;0;0;2;7;0;0;9;7;1;0.25;4;8.25
"cyril paglino";1;0.33333333333333;3;20;1;0.5;2;19.5;0;0;1;21
"artiste ben";1;0.125;8;3.5;1;0.25;4;3;0;0;1;4
"sculpture crocodile rouge";1;1;1;2;1;1;1;2
"dubuffet biographie";1;0.5;2;4;1;0.5;2;4
artpers;1;1;1;1;1;1;1;1
"edmond van dooren";1;0.5;2;3;1;0.5;2;3
"oeuvre de bansky";1;0.090909090909091;11;7.9090909090909;1;0.16666666666667;6;8
goddog;1;0.5;2;4.5;1;1;1;5;0;0;1;4
"fabien granet";1;1;1;1;1;1;1;1
"béatrice terra";1;1;1;1;1;1;1;1
"thomas canto";1;0.083333333333333;12;6.5833333333333;1;0.33333333333333;3;6.3333333333333;0;0;8;6.75;0;0;1;6
"art traffik";1;0.5;2;2;1;0.5;2;2
"dan 23";1;0.11111111111111;9;7.8888888888889;1;0.25;4;7.25;0;0;1;8
"alistair taylor young";1;0.5;2;5;1;0.5;2;5
"bernard pras oeuvre";1;0.125;8;2.125;0;0;1;2;0;0;4;2;1;0.33333333333333;3;2.3333333333333
"benharrouche peintre";1;0.2;5;5.8;1;0.2;5;5.8
"orlinski prix";1;0.5;2;5;1;1;1;4;0;0;1;6
"envie d'art";1;0.1;10;3;0;0;5;3;0;0;1;4;1;0.25;4;2.75
"guillaine querrien";1;0.14285714285714;7;5;1;0.16666666666667;6;5;0;0;1;5
"soly cissé";1;0.11111111111111;9;8.5555555555556;1;0.2;5;11;0;0;1;7
"jonone prix";1;0.14285714285714;7;1;1;0.33333333333333;3;1;0;0;1;1
"rosa peintre";0;0;1;9;0;0;1;9
"gottfried salzmann aquarelle";0;0;1;22
"manolo chretien";0;0;6;4.6666666666667;0;0;1;4
"samuel levy";0;0;4;5.75;0;0;3;5.6666666666667
"andy warhol oeuvres";0;0;1;9
"claude loewer";0;0;1;4;0;0;1;4
xxxx;0;0;1;136
"art peinture contemporaine";0;0;2;3;0;0;1;3
"ernest pignon ernest oeuvre";0;0;3;10;0;0;3;10
"stephanie hoffer";0;0;1;309;0;0;1;309
"emmanuel barcilon";0;0;3;6.3333333333333;0;0;2;6
deblonde;0;0;1;4;0;0;1;4
"jean charles pigeau";0;0;2;4
"ben oeuvres";0;0;1;2;0;0;1;2
"la souris sur le gateau";0;0;2;7
"artiste arman";0;0;7;10.428571428571;0;0;3;11
"tom wesselmann biographie";0;0;3;5;0;0;1;3
"jasmine black";0;0;2;23.5;0;0;1;22
"sylvie koechlin";0;0;1;18;0;0;1;18
"claude leveque biographie";0;0;1;2;0;0;1;2
ruthy;0;0;1;10;0;0;1;10
"tableau jonone";0;0;2;1;0;0;1;1;0;0;1;1
"oeuvre de jean michel basquiat";0;0;6;9.1666666666667;0;0;1;10
"laetitia x";0;0;2;23.5;0;0;2;23.5
"basquiat skull";0;0;1;4;0;0;1;4
"ryan callanan";0;0;1;9
"l'homme arbre";0;0;1;43
"jean hélion";0;0;9;4.4444444444444;0;0;2;5;0;0;2;5
"miguel ortiz";0;0;1;15;0;0;1;15
"orlan oeuvre";0;0;4;4.5;0;0;1;6
"benoit lison";0;0;2;4.5
"photo contemporaine art";0;0;1;2
"oeuvre d'art pas cher";0;0;3;1.6666666666667;0;0;2;1.5
"morgan paslier";0;0;2;2.5;0;0;2;2.5
"robert rauschenberg œuvres d'art";0;0;1;11;0;0;1;11
"charles bataille";0;0;2;10;0;0;1;10;0;0;1;10
takala;0;0;16;4.9375;0;0;6;6.5;0;0;3;4
"pierre jourdan";0;0;1;325
"raimond hains";0;0;13;6
talcoat;0;0;1;11;0;0;1;11
"vente citadine";0;0;2;78
"bertrand meunier";0;0;3;6;0;0;1;11;0;0;1;3;0;0;1;4
"buffet le peintre";0;0;1;5;0;0;1;5
"vincent descotils";0;0;4;8;0;0;1;8;0;0;1;8
"charlotte champion";0;0;1;2;0;0;1;2
"lawrence wiener";0;0;2;7.5
"jean paul agosti";0;0;2;10
evolee;0;0;1;10
aboudia;0;0;7;3.2857142857143;0;0;6;3
jousse;0;0;1;126
"sunday b morning marilyn";0;0;1;15
"continuum tabouret vente";0;0;1;38;0;0;1;38
"mot avec ych";0;0;2;10
"jean dubuffet tableaux";0;0;1;8;0;0;1;8
jadanse;0;0;1;2;0;0;1;2
"de quatrebarbes";0;0;2;16;0;0;1;18
femmejambes;0;0;2;9
"peinture dubuffet";0;0;1;4
"stetson blanc";0;0;1;80
"victoria daniels pics";0;0;1;8
"pez artiste";0;0;4;7.5;0;0;2;6.5;0;0;2;8.5
"galerie en ligne";0;0;8;1.5;0;0;1;2;0;0;3;2
"galerie art jingle";0;0;4;3.75;0;0;1;5
"ange basso";0;0;1;3;0;0;1;3
bluebox;0;0;1;244
"photographie d\'art";0;0;2;29
"robert combas peintre";0;0;1;4
"pauline tonglet";0;0;1;2;0;0;1;2
"olivier vincent";0;0;1;12;0;0;1;12
"victoria mann";0;0;2;9
"troy henriksen prix";0;0;1;1;0;0;1;1
"shepard fairey biographie";0;0;6;3;0;0;1;3;0;0;1;3
poe's;0;0;1;5
"joan miro oeuvres";0;0;11;10.090909090909;0;0;1;1
"didier triglia";0;0;8;5.25;0;0;1;5
"inception gallery";0;0;1;8;0;0;1;8
œuvres;0;0;2;10.5;0;0;2;10.5
"peintre dou";0;0;1;13
"etienne buraud";0;0;1;3;0;0;1;3
"valerie hadida sculpture";0;0;1;4;0;0;1;4
"fotoart oü";0;0;1;39
"virginia benedicto";0;0;5;7.8;0;0;2;7.5;0;0;3;8
"sive 1";0;0;1;6;0;0;1;6
"+""madame bovary"" -""trailer"" -""bande annonce"" -""extrait"" -""mp3"" -""musique"" -""ps3"" -""ps4"" -""xbox*"" -""wii*"" -""psp*"" -""sample"" -""chabrol"" -""flaubert"" -""100.romans.d.auteurs.french.pdf"" -""1949"" -""1969"" -""1933"" -""1991"" -""2000"" -""1934""";0;0;2;121
"bernard pras biographie";0;0;1;2
"robert schad sculpteur";0;0;1;6
"veronique bourgeois";0;0;3;7;0;0;1;7;0;0;1;7
"galerie garnier delaporte";0;0;2;4;0;0;2;4
mitrofanoff;0;0;1;32;0;0;1;32
"joseph chiaramonte";0;0;7;3.8571428571429;0;0;4;4;0;0;2;3
"tom dale";0;0;2;19
"yan pei ming survivants";0;0;1;10;0;0;1;10
"damien hirst oeuvres";0;0;3;5.6666666666667;0;0;1;6;0;0;1;6
"miguel vallinas prieto";0;0;1;8
"liquid i";0;0;1;5;0;0;1;5
"trudy good";0;0;1;21;0;0;1;21
"pix art";0;0;1;25
"lampe en verre de murano";0;0;2;40.5
"les oeuvres d art";0;0;1;8;0;0;1;8
"djinane alsuwayeh";0;0;1;6
"herve di rosa";0;0;8;4.625;0;0;3;4;0;0;5;5
"galerie bertrand gillig";0;0;1;4;0;0;1;4
moustafa;0;0;1;31;0;0;1;31
"jeanne lorioz";0;0;5;4;0;0;3;4.6666666666667;0;0;1;3;0;0;1;3
"bernar venet oeuvres";0;0;2;5;0;0;1;5
"vincent ruffin";0;0;1;5;0;0;1;5
"gregoire leon guillemin";0;0;2;3;0;0;1;3
"balloon dog";0;0;27;8.0740740740741;0;0;19;7.9473684210526;0;0;2;8.5
araki;0;0;1;44
"jean dubuffet biographie courte";0;0;3;3;0;0;1;3
"nils udo maison d'eau";0;0;1;6
raboniak;0;0;1;9;0;0;1;9
"jean dubuffet peintre";0;0;5;3
"banksy biographie";0;0;1;10
"sunday b morning andy warhol";0;0;1;1
"sandrine paumelle";0;0;2;4;0;0;1;4
"galerie wagner";0;0;3;7;0;0;1;6;0;0;1;8
"mahe x";0;0;1;25
"christian courrèges";0;0;1;2
kraftwerk;0;0;1;238
"scorpion sculpture";0;0;2;10;0;0;2;10
"bru animal";0;0;2;5;0;0;2;5
"art vente";0;0;1;1;0;0;1;1
"sculpture acier";0;0;1;24;0;0;1;24
treit;0;0;1;3;0;0;1;3
ponita;0;0;1;9
"galerie dart";0;0;1;3;0;0;1;3
"luzia simons";0;0;1;5
"achat art en ligne";0;0;2;1
athur;0;0;1;10;0;0;1;10
"diane arbus œuvres d'art";0;0;1;7
"jean noel laszlo";0;0;1;7
"keith haring crack down";0;0;4;2.75;0;0;1;4
"biographie bansky";0;0;2;8;0;0;2;8
"patrick delaunay";0;0;8;3.875;0;0;1;4
"banksy oeuvre";0;0;10;8;0;0;6;7.8333333333333;0;0;4;8.25
"carles valverde";0;0;2;2;0;0;2;2
houri;0;0;1;40
"petits prix";0;0;4;67.75
"marylin cavin";0;0;3;5
"wes wilson";0;0;3;10;0;0;3;10
"this life loader";0;0;12;5.1666666666667
"galerie art";0;0;20;8.95;0;0;14;8.9285714285714;0;0;4;8.75;0;0;2;9.5
"mimi le clown";0;0;1;7;0;0;1;7
hains;0;0;5;9.8
"pasqua philippe";0;0;2;7;0;0;1;7
"martine francois";0;0;1;333
"artiste peintre en vogue";0;0;1;1;0;0;1;1
"uche okpa-iroha";0;0;3;2;0;0;3;2
"vincent fillon";0;0;4;7.5;0;0;4;7.5
"peintres russes";0;0;2;16;0;0;2;16
"otto shade";0;0;2;6;0;0;1;6
"michelle auboiron";0;0;1;6;0;0;1;6
"gerard fournier";0;0;1;28
"clémence veilhan";0;0;7;6
"photo art contemporain";0;0;6;2
"street art mr brainwash";0;0;1;7;0;0;1;7
"oeuvre d'art du 21eme siecle";0;0;1;5;0;0;1;5
"rancillac peintre";0;0;1;8
brugier;0;0;1;8;0;0;1;8
"christophe charbonnel artiste";0;0;2;2.5
"ben attar";0;0;1;44;0;0;1;44
"toile cirée contemporaine";0;0;2;77.5;0;0;2;77.5
"violon arman";0;0;1;7;0;0;1;7
"charbonnel christophe";0;0;1;5;0;0;1;5
"vente de sculpture";0;0;1;1;0;0;1;1
"sculpture art";0;0;4;4;0;0;1;4;0;0;1;4
"bouillon d'art";0;0;1;3
"miguel ortiz berrocal";0;0;2;8.5;0;0;1;8;0;0;1;9
ruchba;0;0;1;8
zalez;0;0;4;6;0;0;3;6;0;0;1;6
"jef aerosol gandhi";0;0;1;5
"estetika istanbul";0;0;1;17;0;0;1;17
"audoin desforges photographe";0;0;3;6
"requin tigre";0;0;1;81
"jacques de la villeglé";0;0;3;7.3333333333333
"olivia bona";0;0;1;3
"tete de mort art contemporain";0;0;1;8
"michèle destarac";0;0;2;1
"hank china prix";0;0;1;1;0;0;1;1
"elsa jean follando";0;0;1;3;0;0;1;3
"9e concept";0;0;3;9.3333333333333
oeuvrette;0;0;1;9;0;0;1;9
manuperez;0;0;1;4;0;0;1;4
"britto heart";0;0;1;9
"valerie hadida";0;0;7;2.4285714285714;0;0;6;2
"david maheo";0;0;2;3;0;0;2;3
fadier;0;0;2;9
"apple or";0;0;3;6.3333333333333;0;0;2;7;0;0;1;5
"basquiat inspiration";0;0;1;7;0;0;1;7
"art photographique contemporain";0;0;1;2;0;0;1;2
"sculpture art contemporain";0;0;9;2;0;0;2;2;0;0;2;2
"yan pei ming";0;0;1;31;0;0;1;31
"marlene alva";0;0;1;310
"pedro aykaz";0;0;1;24;0;0;1;24
"michel dubois photographe";0;0;1;3
"robert mapplethorpe oeuvres";0;0;6;4.8333333333333;0;0;1;5
"buffet artiste";0;0;2;4.5;0;0;1;5
"k haring oeuvre";0;0;3;5;0;0;1;6;0;0;2;4.5
"bernard buffet tableaux";0;0;1;24
"galerie sbk";0;0;5;3.6;0;0;5;3.6
"salon claudine playa del ingles";0;0;1;239
kaws;0;0;3;63.666666666667
"clarisse rebotier";0;0;1;5;0;0;1;5
"oeuvre d'art volcan";0;0;1;5
"marthe charlotte";0;0;1;349;0;0;1;349
moyoshi;0;0;2;2
"tristan alexandre";0;0;4;2.5;0;0;2;3
"homère est morte";0;0;1;10;0;0;1;10
"guy boyer";0;0;2;9;0;0;1;9
"cat woman milk";0;0;1;2;0;0;1;2
"jeff aerosol";0;0;7;4.2857142857143
"peter doig canoe";0;0;1;10;0;0;1;10
"jana & js";0;0;2;8;0;0;1;9;0;0;1;7
"olivier lelong photographe";0;0;1;2;0;0;1;2
"sculpture bronze animaux";0;0;2;93;0;0;2;93
"sumi e";0;0;2;28
"peinture julien";0;0;1;23;0;0;1;23
"anne brégeaut";0;0;2;7
"marlene gagne";0;0;1;403;0;0;1;403
"combas peinture";0;0;2;5
kontakthof;0;0;1;10;0;0;1;10
"jacques de villegle";0;0;1;3
saudek;0;0;9;8.4444444444444;0;0;6;8.6666666666667;0;0;2;7;0;0;1;10
"mensing artistes";0;0;13;6.3846153846154
dubreuil;0;0;1;240;0;0;1;240
"galerie collégiale";0;0;1;2
"icare sculpture";0;0;1;10
"charlotte lelong";0;0;2;7;0;0;2;7
"acheter peinture biot";0;0;1;43
"césar baldaccini ses oeuvres";0;0;1;4
nudes;0;0;1;189
bambel;0;0;1;9
nyaba;0;0;1;5;0;0;1;5
"torrick ablack";0;0;1;3
"serge labegorre";0;0;13;7.3846153846154;0;0;1;9
"aki kuroda prix";0;0;2;2;0;0;2;2
"gregory watin";0;0;2;2;0;0;2;2
"guy ferrer peintre";0;0;1;2
"jonone reproduction";0;0;1;5
"dob art";0;0;1;9;0;0;1;9
"xin art";0;0;2;4.5
"montreux art gallery 2015";0;0;1;8;0;0;1;8
"eric zambeaux";0;0;2;6
sabrina;0;0;1;231;0;0;1;231
"artiste keith haring";0;0;2;10.5;0;0;1;11
"adrien leguay";0;0;1;6
"stephanie slama";0;0;1;6;0;0;1;6
"romero britto love";0;0;1;8
"banksy tags";0;0;1;8
mrsex;0;0;11;13.454545454545;0;0;11;13.454545454545
"murielle vanhove";0;0;5;2.2;0;0;3;1.6666666666667;0;0;2;3
"iris binder";0;0;1;321
"peintre di rosa";0;0;3;2
zooportrait;0;0;2;5;0;0;2;5
rodja;0;0;1;9
scultures;0;0;8;9.625;0;0;3;9.6666666666667
"jace artiste";0;0;2;8
villéglé;0;0;1;5
"partners art contemporain russe";0;0;1;471;0;0;1;471
"johanne 8";0;0;4;4;0;0;4;4
"ros bio";0;0;1;10
"karl martens";0;0;1;13
"ben vautier oeuvres";0;0;15;7.9333333333333;0;0;1;7;0;0;4;8
"rak 5";0;0;1;85;0;0;1;85
"""fabrice hyber""";0;0;1;7;0;0;1;7
"solène ballesta";0;0;1;3
michou;0;0;1;73
prenat;0;0;2;24;0;0;1;29;0;0;1;19
"off course";0;0;1;10
"otto schade";0;0;3;6
"2nd amendment";0;0;1;7;0;0;1;7
malysse;0;0;1;11;0;0;1;11
"oeuvre ben";0;0;2;3
"monsieur le chat";0;0;10;7.8;0;0;4;5.75;0;0;3;7.3333333333333;0;0;3;11
"francine van hove peintre";0;0;2;9.5;0;0;1;10
"oeuvre d'art moderne";0;0;9;1;0;0;9;1
"maison flotante";0;0;1;3
"portrait miroir";0;0;1;5;0;0;1;5
keymi;0;0;3;8.6666666666667;0;0;1;9
"aurelie tomas";0;0;1;6;0;0;1;6
"gilles aillaud";0;0;13;9.2307692307692;0;0;1;10;0;0;1;10
"peintre new yorkais contemporain";0;0;2;9.5
"alain crocq";0;0;10;8.4;0;0;5;8.6;0;0;5;8.2
"johanna heeg";0;0;1;1;0;0;1;1
abcgallery;0;0;1;4
"eric lapierre";0;0;4;5.75
"andré cottavoz";0;0;1;1;0;0;1;1
"florent chopin peintre";0;0;1;4
"michel le belhomme photographe";0;0;2;2
"georges dumas";0;0;1;10
"mark jenkins";0;0;29;8.8620689655172;0;0;23;8.6521739130435;0;0;4;10;0;0;2;9
"annina x";0;0;1;10
"guofeng cao";0;0;1;10;0;0;1;10
"galerie art moderne";0;0;10;3.4;0;0;10;3.4
"pignon ernest oeuvre";0;0;1;6
"rent a car";0;0;1;323
"galerie d'art contemporain en ligne";0;0;2;1
"gerti schiele";0;0;1;9
"bambi puerto de la cruz";0;0;1;189
"john levee";0;0;4;6.75
"isabelle bonzom";0;0;4;3;0;0;2;3;0;0;2;3
"jean francois rauzier";0;0;6;8.5;0;0;2;9
"tete de poire";0;0;1;9;0;0;1;9
"adeline spengler";0;0;1;4
"goujon peintre";0;0;2;9
galeries;0;0;49;7.7959183673469;0;0;7;7.8571428571429;0;0;6;7.6666666666667
ommer;0;0;1;4
"peter lippmann wikipedia";0;0;3;7.3333333333333
"grégoire dalle";0;0;2;4;0;0;2;4
"galerie mecanica";0;0;2;4
"petra wunderlich";0;0;1;2
"oeuvres d'art moderne";0;0;1;1
"phillipe pasqua";0;0;1;6
"signature andy warhol";0;0;1;8;0;0;1;8
"sylvain lang";0;0;2;4;0;0;2;4
"kristeen chan and marine michaels";0;0;1;6;0;0;1;6
"mr chat paris";0;0;1;10
"anne et patrick poirier oeuvres";0;0;2;4
"john william waterhouse œuvres d'art";0;0;2;10;0;0;2;10
"sculpture pingouin";0;0;3;16.666666666667
koolkor;0;0;1;3
nowart;0;0;4;3.25;0;0;1;2
"photos julie andrieu";0;0;1;253
"guy ferrer sculpteur";0;0;1;7
"david guiraud";0;0;2;9
"tableau artiste contemporain";0;0;3;4;0;0;1;4
"fred ebami";0;0;1;10;0;0;1;10
"thierry feuz";0;0;1;10
titus-carmel;0;0;2;14
"cesar sculture";0;0;2;9;0;0;2;9
"tableau 21eme siecle";0;0;1;9;0;0;1;9
"peinture animaux";0;0;1;22
"romero brito";0;0;1;7;0;0;1;7
"galerie lyon art contemporain";0;0;1;60
"carlos cruz-diez";0;0;1;7;0;0;1;7
"erro portrait";0;0;2;6.5
carybe;0;0;2;8;0;0;1;10
"marc cerrone";0;0;3;18.333333333333
"seen seen";0;0;1;63;0;0;1;63
"oeuvre keith haring";0;0;15;6.8666666666667;0;0;3;8
speedygraphito;0;0;13;5;0;0;13;5
"miss coco";0;0;2;11;0;0;2;11
"lignes verticales artistes";0;0;1;1;0;0;1;1
"norma bessieres";0;0;1;4;0;0;1;4
"chris morin-eitner";0;0;2;3
"murakami sculpture";0;0;5;3.4;0;0;4;3.75
"art moderne sculpture";0;0;6;2.6666666666667;0;0;2;2;0;0;2;4
"benjamin aman";0;0;1;4
"jeunes artistes contemporains";0;0;2;9
"miro oeuvres";0;0;11;9.0909090909091;0;0;7;13.714285714286;0;0;3;1;0;0;1;1
"henry lamy";0;0;1;3;0;0;1;3
"cote bruno catalano";0;0;1;7
"roch vandromme";0;0;2;4
banq;0;0;1;65;0;0;1;65
"oeuvre d'art géométrique";0;0;1;9;0;0;1;9
"vente de tableaux contemporains";0;0;1;2;0;0;1;2
wesselmann;0;0;3;10.333333333333;0;0;1;11
"annette messager art";0;0;1;7
"ipso france";0;0;2;27.5
"fanny fischer";0;0;1;331
"diane arbus oeuvres";0;0;3;6
"orange nude";0;0;1;10
"jeanne susplugas";0;0;1;4
"dita ventees";0;0;1;9
"sayed haider raza";0;0;1;9;0;0;1;9
"francois bard";0;0;2;1
"david harber";0;0;1;9;0;0;1;9
"murielle belin";0;0;2;10;0;0;2;10
"francois morellet";0;0;29;7.3793103448276;0;0;1;8
jakè;0;0;2;3.5;0;0;1;4
"vente bouddha";0;0;2;44.5
"speedy graphito vente";0;0;1;1
"claire bianchi";0;0;1;4
verneret;0;0;2;10.5
fotover;0;0;1;1
mr.chat;0;0;1;6;0;0;1;6
"fabrice hybert artiste";0;0;1;4
camen;0;0;2;7;0;0;2;7
"renaud peinture";0;0;1;57;0;0;1;57
rivieras;0;0;1;188
"elisabeth lecourt";0;0;2;3;0;0;2;3
"kenny scharf oeuvres";0;0;1;4
"prix sculpture";0;0;4;1;0;0;3;1;0;0;1;1
"thierry carrier";0;0;8;4.875;0;0;5;5.4
lemmers;0;0;2;4.5;0;0;2;4.5
"marc gerenton";0;0;1;3;0;0;1;3
"biographie nils udo";0;0;1;4
"anne messager";0;0;6;8.6666666666667;0;0;1;8;0;0;1;9
carbonel;0;0;3;43.333333333333
"takashi art";0;0;1;10
"banksy achat";0;0;1;3
oneiro;0;0;2;8.5;0;0;1;8;0;0;1;9
"james coignard";0;0;1;48;0;0;1;48
"eduardo arroyo";0;0;14;6.6428571428571;0;0;7;7;0;0;2;7
"matisse jazz peinture";0;0;1;10
"banksy toile";0;0;2;9.5;0;0;2;9.5
"gianni colosimo";0;0;1;1
"herve telemaque";0;0;8;4.875;0;0;4;4.5;0;0;2;4.5;0;0;2;6
"eric bourse galerie en ligne";0;0;1;4;0;0;1;4
"laurence dreyfus";0;0;6;8.6666666666667;0;0;2;9;0;0;2;9
"jef aérosol";0;0;13;4.0769230769231;0;0;1;5
"philippe croq";0;0;1;6;0;0;1;6
"galerie jean denis walter";0;0;2;5.5;0;0;2;5.5
"peintre chamizo";0;0;1;6;0;0;1;6
"cedrix crespel prix";0;0;1;1;0;0;1;1
"métrages galerie stock";0;0;1;16;0;0;1;16
"portrait oeuvre d'art";0;0;5;10;0;0;1;10;0;0;4;10
"stanley greene";0;0;2;18.5
"singier gustave";0;0;1;7;0;0;1;7
"hopkins peintre";0;0;2;1;0;0;1;1
"veronique klein";0;0;1;314
"malevitch suprematist composition";0;0;1;9;0;0;1;9
"galerie claire corcia";0;0;2;6
pigeai;0;0;1;39
damez;0;0;1;2;0;0;1;2
"flipo emmanuel";0;0;1;2;0;0;1;2
"césar expansion";0;0;4;5.5
"compression cesar";0;0;2;17
"oeuvre d'art colère";0;0;1;8
"anette mesager";0;0;1;10
"cornette de saint cyr";0;0;4;18.5;0;0;1;20
"silvia calmejane";0;0;1;2;0;0;1;2
"sandra model photo gallery";0;0;1;7;0;0;1;7
"oeuvre miro";0;0;5;9;0;0;4;11;0;0;1;1
"miroir de l art";0;0;1;29
"elle d";0;0;1;4
"gregory renaud";0;0;1;350;0;0;1;350
"sculpture contemporaine platre";0;0;2;3
"hermann amann";0;0;1;4
"joan miro sculpture";0;0;1;9
combass;0;0;1;9
"vente art internet";0;0;2;1;0;0;2;1
"tieri trademark";0;0;1;2
"erro biographie";0;0;2;8;0;0;1;8
"zimmerling & jungfleisch";0;0;1;5
"basquiat oeuvre";0;0;2;10
laveri;0;0;1;4;0;0;1;4
"wilma tabacco";0;0;1;4
"miss van";0;0;1;15
"fleury sylvie";0;0;1;8
"galerie art france";0;0;1;16;0;0;1;16
"jan voss oeuvres";0;0;1;19
maohuang;0;0;2;3
"combasse peintre";0;0;2;4;0;0;1;3;0;0;1;5
"www.paris match.fr";0;0;1;25;0;0;1;25
"andy warhol mao";0;0;1;15
"chase school of fine and applied arts";0;0;1;7;0;0;1;7
"debusschere christoff";0;0;2;8;0;0;2;8
"edouardo arroyo";0;0;2;7;0;0;2;7
voyeur;0;0;1;204;0;0;1;204
"my an";0;0;2;6;0;0;2;6
gief;0;0;1;10;0;0;1;10
"alva bernadine";0;0;1;5;0;0;1;5
"john kacere";0;0;4;10;0;0;4;10
"joaquim falcó";0;0;2;6.5;0;0;1;3
"elsa guillaume";0;0;2;2;0;0;2;2
"peintre jean michel basquiat";0;0;1;11
"galerie roy sfeir";0;0;3;4
"nathan chantob";0;0;5;2;0;0;1;2
"galerie d art contemporain bruxelles";0;0;1;9
"julien durix";0;0;41;2.0243902439024;0;0;17;2;0;0;12;1.5833333333333
"tof vanmarque";0;0;3;3.6666666666667;0;0;2;4;0;0;1;3
"jean-pierre attal";0;0;1;1
"site galerie d'art";0;0;1;1;0;0;1;1
"marco barbon";0;0;1;8;0;0;1;8
streetartgalerie;0;0;5;6.2;0;0;1;5
"le belhomme";0;0;1;3;0;0;1;3
"veronique masurel";0;0;1;4
"oeuvres de miro";0;0;7;12;0;0;1;1;0;0;1;1
"roxane stroobant";0;0;4;4;0;0;4;4
"fabienne claesen";0;0;1;8;0;0;1;8
"eric klotz";0;0;1;336
"onur dinc";0;0;1;6
"jessica leguillon";0;0;1;3;0;0;1;3
"raphael denis";0;0;4;4.5;0;0;3;4.6666666666667;0;0;1;4
"sponsors oeuvre du pop art";0;0;2;141.5;0;0;2;141.5
"gerard schlosser";0;0;1;5;0;0;1;5
"collection leslie hiver 2015";0;0;1;33;0;0;1;33
baiba;0;0;1;27
"la chapelle photographe";0;0;2;9.5;0;0;1;10
"bagage homme blanc";0;0;9;13.222222222222;0;0;9;13.222222222222
"tableau de keith haring";0;0;2;9.5;0;0;1;10
bansky;0;0;1;44
"brigitte perrier";0;0;4;7.25;0;0;4;7.25
"franck chambrun";0;0;2;5.5;0;0;1;6
merienne;0;0;3;9.3333333333333;0;0;2;8.5;0;0;1;11
"achat sculpture";0;0;10;1;0;0;8;1;0;0;2;1
"stephane jacob";0;0;1;8;0;0;1;8
"caroline poulet";0;0;1;6;0;0;1;6
"oeuvres d";0;0;2;4
"keith haring";0;0;3;96.333333333333;0;0;3;96.333333333333
lebelhomme;0;0;1;3;0;0;1;3
"maxime boubekeur";0;0;1;24;0;0;1;24
"nus feminin";0;0;1;31;0;0;1;31
"jean helion";0;0;10;3.7;0;0;9;3.5555555555556;0;0;1;5
"caroline veith";0;0;2;4.5
"mr le chat";0;0;5;5.4;0;0;2;6
"correia antoine";0;0;1;2;0;0;1;2
"benoit mercusot";0;0;1;4
"natalia rak";0;0;2;4.5;0;0;1;5;0;0;1;4
"levalet street artist";0;0;1;7
"jacek hazuka";0;0;1;2
"laurent durrey";0;0;2;9;0;0;1;9
"shepard fairey œuvres d'art";0;0;1;3
"chat peinture";0;0;1;18;0;0;1;18
noart;0;0;3;11;0;0;1;10;0;0;1;12;0;0;1;11
"nadine vergues";0;0;1;7;0;0;1;7
"vente tableau contemporain";0;0;4;2;0;0;3;2;0;0;1;2
"andreas garnier";0;0;1;334
"photo jr achat";0;0;1;5
"miss tick";0;0;1;28;0;0;1;28
"oeuvre d'art hiver";0;0;1;3;0;0;1;3
youmin;0;0;1;10
"willy ronis le petit parisien";0;0;3;1;0;0;1;1;0;0;1;1;0;0;1;1
"david c";0;0;2;10;0;0;2;10
"trognon de pomme claes oldenburg";0;0;1;33
"lucky strike keith haring";0;0;2;4;0;0;2;4
"martin szekely";0;0;1;43
"bernard pras wiki";0;0;1;3;0;0;1;3
"murano lampe";0;0;1;32
"marie sester";0;0;1;6
henriksen;0;0;1;8
"christian bilger";0;0;5;1.8;0;0;4;2
"oeuvre d'art en fer";0;0;1;10;0;0;1;10
"robert longo oeuvres";0;0;5;6.8;0;0;2;7.5
"fabrice hyber artiste";0;0;2;5.5;0;0;2;5.5
unknow;0;0;1;19;0;0;1;19
"bertrand noël";0;0;2;2
"julian page";0;0;1;2
viallat;0;0;2;42
"robert zimmerman";0;0;1;46;0;0;1;46
"miro sculpture";0;0;2;9;0;0;2;9
"oxana x";0;0;4;10;0;0;1;10;0;0;2;10
"david gerstein disco large";0;0;1;55
"jean michel turpin";0;0;2;5.5;0;0;1;5;0;0;1;6
cedrix;0;0;6;6.6666666666667;0;0;2;6
"jean luc lacroix";0;0;2;3.5;0;0;1;6
"chat dans la peinture";0;0;1;19
"atlas blues";0;0;1;40
"leopold rabus";0;0;2;6.5
"francois melloul";0;0;2;2;0;0;2;2
"gerstein fisher";0;0;1;192
"galerie street art en ligne";0;0;1;6
"jean milo";0;0;1;3
"galerie carole kvasnevski";0;0;1;5;0;0;1;5
"eric ceccarini";0;0;1;9;0;0;1;9
"galerie vidal saint phalle";0;0;1;7
"galerie black";0;0;1;9
lorena;0;0;1;270
"colette hyvrard";0;0;1;7
"zenoy graffiti";0;0;3;3.6666666666667;0;0;1;3;0;0;2;4
"oeuvre d'art coca cola";0;0;1;5
"obey obama";0;0;1;13
"oeuvre d'art originale";0;0;2;1;0;0;2;1
"galerie bettina";0;0;6;5.6666666666667;0;0;5;5.4;0;0;1;7
"solene ballesta";0;0;4;3.75;0;0;1;3;0;0;1;4;0;0;2;4
"kiss the wookie";0;0;3;5;0;0;3;5
"hideka tonomura";0;0;1;1;0;0;1;1
"catarina bravo";0;0;2;2
"françois benoit";0;0;1;17
"herve all";0;0;1;5;0;0;1;5
"prix sculpture catalano";0;0;2;4
"maison dauphine";0;0;3;10
"art galerie en ligne";0;0;2;1;0;0;1;1;0;0;1;1
"marie drouet";0;0;2;10;0;0;2;10
guybert;0;0;1;5
"jean georges inca";0;0;2;2;0;0;2;2
"miss tik";0;0;2;7;0;0;1;8
"etienne cail";0;0;7;1.1428571428571;0;0;4;1
"philippe hiquily";0;0;6;5.6666666666667;0;0;2;6.5
"pascaline marre";0;0;1;10;0;0;1;10
"jean michel gnidzaz";0;0;1;4;0;0;1;4
"erro peintre oeuvre";0;0;4;8;0;0;4;8
"oeuvre de louis armstrong";0;0;1;5;0;0;1;5
"sculpture britto";0;0;1;7;0;0;1;7
"photographe nantes";0;0;1;365
"vente aquarelles en ligne";0;0;1;74;0;0;1;74
"bert stern";0;0;3;24.333333333333;0;0;3;24.333333333333
destarac;0;0;3;1.3333333333333
"oeuvre art";0;0;5;2
"thomas muller artiste";0;0;2;1
"eric ville";0;0;3;3;0;0;2;3;0;0;1;3
"site d'art en ligne";0;0;2;1;0;0;2;1
"eric de ville";0;0;1;4
"boccara tapis";0;0;1;7;0;0;1;7
"oeuvre d'art sur l'amour";0;0;5;3.2;0;0;2;3
"cédrix crespel";0;0;1;3;0;0;1;3
"oeuvre monochrome";0;0;4;9.75;0;0;2;9.5
"miro joan oeuvres";0;0;1;11
"galerie ricci menton";0;0;2;5;0;0;2;5
"collectionner l'art contemporain";0;0;2;45.5
benaroche;0;0;1;18;0;0;1;18
"john one peintre";0;0;2;3;0;0;1;3;0;0;1;3
"dominique mulhem";0;0;1;3
"marie-pierre fontaine";0;0;6;1.3333333333333;0;0;6;1.3333333333333
"jamel shabazz";0;0;7;10;0;0;7;10
"catherine ahnell wikipedia";0;0;3;10;0;0;3;10
"wesselmann nude";0;0;1;10
"margaret batten";0;0;1;416;0;0;1;416
"nicolas de montaigut";0;0;2;5;0;0;1;5
"red x green lemon";0;0;1;9;0;0;1;9
"matthias hauer";0;0;1;323
"art sculpture contemporaine";0;0;1;2;0;0;1;2
"mr brainwash love is the answer";0;0;1;8
"ben vautier oeuvre";0;0;2;7;0;0;2;7
nuitale;0;0;1;5;0;0;1;5
"sitbon david";0;0;1;8
"bart somers";0;0;2;4;0;0;2;4
"sculpture déesse";0;0;4;6;0;0;1;6
dtone;0;0;5;4.8;0;0;4;4.75
"achat art moderne";0;0;2;1;0;0;1;1
"aris messinis";0;0;2;14
"olivier long peintre";0;0;1;3
"luc dratwa";0;0;3;16
"c215 prix";0;0;1;9;0;0;1;9
dagada;0;0;7;5.2857142857143;0;0;1;8;0;0;4;5.25
"nom artiste contemporain";0;0;1;3;0;0;1;3
"vente d'art";0;0;7;1.8571428571429;0;0;3;2
bilger;0;0;1;43;0;0;1;43
"cruz diez";0;0;5;9.8;0;0;2;10.5
"alexandre moliera";0;0;1;9;0;0;1;9
"bernard rancillac";0;0;16;8.6875;0;0;3;9.6666666666667
"elisabeth frering";0;0;1;6;0;0;1;6
"oeuvre d'art drole";0;0;1;4;0;0;1;4
"joan mirp";0;0;1;3;0;0;1;3
"expansion cesar";0;0;2;6;0;0;1;7
"tony soulié";0;0;7;3.7142857142857;0;0;2;3.5
"eric michel";0;0;3;23.666666666667;0;0;1;13;0;0;1;16
"obey shepard fairey biographie";0;0;4;3;0;0;3;3
"yvan messac";0;0;1;5;0;0;1;5
"priska lorane";0;0;1;3;0;0;1;3
"investir dans l'art contemporain";0;0;1;3;0;0;1;3
"cortade art";0;0;4;3.5;0;0;2;4
"philippe weisbecker";0;0;8;8.5
"male nude";0;0;2;55;0;0;1;55
"john matos crash";0;0;5;2;0;0;3;2;0;0;3;2
"joan miro oeuvre";0;0;2;11
"vendre des oeuvres d'art";0;0;3;1
mel;0;0;3;98
"bernard pras portrait";0;0;1;5
assalit;0;0;2;6;0;0;2;6.5;0;0;1;7
"zofia rydet photography";0;0;1;9
"a nous paris";0;0;2;32
"david mesguich";0;0;2;7
"john crash matos art";0;0;1;3
"alain godon";0;0;7;2.8571428571429;0;0;2;1;0;0;3;1
"philippe favier";0;0;7;6.8571428571429
cyrilpaglino;0;0;2;21
"tal coat";0;0;3;14
m.chat;0;0;1;6;0;0;1;7
"peter wüthrich";0;0;1;2
"ron english mcdonalds";0;0;1;3
"big boss art";0;0;1;10
"galerie d'art contemporain";0;0;7;3.4285714285714;0;0;1;5
lemoduledezeer;0;0;1;2
"combas robert";0;0;10;3;0;0;2;4
"gautier deblonde atelier";0;0;1;5
"claude levêque";0;0;1;8
"maurice renoma";0;0;4;3.5
"ralph gibson";0;0;9;9.5555555555556;0;0;1;11
"jef aérosol street art";0;0;2;5
"marrakech palmeraie";0;0;1;244
"dean stockton";0;0;2;4
"françois bard peintre";0;0;1;1
nebay;0;0;5;3
"oeuvre de jr";0;0;1;6
"david ratcliff";0;0;1;8;0;0;1;7
"romero brtito";0;0;1;9
"jean marc dallanegra";0;0;2;7
"street art shop";0;0;1;34
"india leire";0;0;1;10
"edge hill contact";0;0;1;138
"art to be";0;0;1;8;0;0;1;8;0;0;1;6
"de spirt";0;0;1;6
"la foret orange";0;0;1;8
"sculpture contemporaine en terre cuite";0;0;1;20
"bernard pras anamorphose";0;0;2;4
"galerie orlinda lavergne";0;0;1;2
"robert sgarra";0;0;1;1;0;0;1;4
"artistes en vogue";0;0;1;2
"marc stammegna";0;0;4;9
oxana;0;0;1;26
"vente collioure le seris 2002";0;0;1;32
"oeuvre braque";0;0;2;25.5
lokiss;0;0;2;2
dorval;0;0;1;7
"eva jospin oeuvres";0;0;1;1;0;0;2;3
"peinture art contemporain";0;0;6;3;0;0;1;3
"speedy graffito";0;0;1;10
"ernest pignon-ernest";0;0;2;10.5
"seen artiste";0;0;2;1
"super mimi";0;0;1;7
"technique de breed";0;0;1;14
"monsieur chat street art";0;0;1;4
paxal;0;0;4;8.25;0;0;1;8
"spark peintre";0;0;1;9
"hotel moschini";0;0;1;184
"banksy œuvres d-art";0;0;2;7
"anaïs boudot";0;0;4;4
"cavin morris";0;0;1;6
"lola cola";0;0;1;2
"tableau topolino";0;0;1;19
"artiste contemporain photographie";0;0;2;1
stammegna;0;0;1;5
"maple contact";0;0;1;143
lorioz;0;0;3;7.3333333333333
"gustav klimt oeuvre";0;0;1;38
"galerie honfleur";0;0;1;39
"ben vautier ses oeuvres";0;0;1;6;0;0;1;6
"bram van velde";0;0;2;21
"jacques ibert";0;0;2;25
"sculpteur césar";0;0;3;9;0;0;1;10
"chat peace";0;0;1;9
"huang yan";0;0;2;8
"fernando costa";0;0;9;5;0;0;1;6
"resources tableau de roy lichtenstein";0;0;3;271.33333333333
"jan saudeck";0;0;1;9
"verney carron";0;0;2;57
"carl andré oeuvres";0;0;1;5
"zf a 210";0;0;1;125
"oeuvre nils udo";0;0;2;6
"animaux daum";0;0;1;52
"jonone street art";0;0;1;1
"atelier morales";0;0;1;4
"galerie marie vitoux";0;0;1;10
klasen;0;0;1;2;0;0;3;3;0;0;2;3.5
"arman violon";0;0;5;7;0;0;1;6
"artiste di rosa";0;0;2;1;0;0;1;1
graphito;0;0;3;9.6666666666667;0;0;1;10
"katherine hoffmann";0;0;1;5
"envie d'art paris";0;0;1;3
"bruno fontana";0;0;2;4
"french art";0;0;4;14
"kiss a wookie";0;0;1;9
mchat;0;0;2;9;0;0;2;9;0;0;1;10
"mel ramos";0;0;8;3.375;0;0;3;4.6666666666667;0;0;2;4
"tal coat artist";0;0;2;7.5
férial;0;0;1;39
"eric bourguignon";0;0;1;8;0;0;1;8
"miss tic pochoir";0;0;1;5;0;0;1;6
"arnaud franc";0;0;1;2
"jean-pierre nadau";0;0;2;1
"jerome ladiray";0;0;1;69
"catherine klein peintre";0;0;1;4
"the french art studio";0;0;8;4
"vente drapeau français";0;0;1;47
"maggie ross";0;0;1;10
"balloon flower koons";0;0;1;10
"mutant x";0;0;1;46
"oeuvre art banksy";0;0;1;9;0;0;1;9
"achat oeuvre d'art";0;0;3;1;0;0;1;1
"stephane gautier";0;0;2;3.5;0;0;2;4
"etienne gros peintre";0;0;1;4
"bettina von arnim";0;0;4;7.25
"akiza galerie";0;0;1;5
"rafael canogar";0;0;1;6
"didier avril";0;0;4;1;0;0;1;6
"charles fazino";0;0;1;5
"mesnager street art";0;0;1;3
"eva jospin biographie";0;0;2;2.5
"oeuvres d'art";0;0;1;7
"michel le belhomme";0;0;3;4.3333333333333
"pascale renaud";0;0;1;306
"thibault brunet";0;0;9;7.8888888888889
"sculpture platre";0;0;3;33.666666666667
"m. chat";0;0;4;6.75;0;0;4;8
"di rosa sculpteur";0;0;1;4
"henni alftan";0;0;4;16
"hains raymond";0;0;1;7
"oeuvres d'art en noir et blanc";0;0;1;5
"sculpture monumentale biot";0;0;1;19
"cesar art";0;0;1;6
"christine fabre";0;0;1;22
rabarama;0;0;1;9;0;0;1;11
"sandy skoglund biographie";0;0;1;3
"florian marco";0;0;2;7.5
"gautier deblonde";0;0;2;3.5
"kiddy citny biographie";0;0;1;2;0;0;5;2
"césar baldaccini compression";0;0;1;6
"oeuvre d'art sculpture";0;0;1;5
"vivian maier";0;0;2;23
"galerie brugier rigail";0;0;6;5;0;0;1;6;0;0;2;7
"henri cartier bresson oeuvre";0;0;1;21
"raymond lapierre";0;0;1;343
"jonone paris";0;0;2;6.5
"oeuvres de keith haring";0;0;7;6.1428571428571
"keith haring oeuvres";0;0;44;6.2045454545455;0;0;15;7;0;0;13;7.0769230769231
"carlos cruz diez";0;0;5;7.4;0;0;2;8
"frederic prat";0;0;2;9;0;0;1;8
"sylvie fleury biographie";0;0;3;2.6666666666667;0;0;1;3
"gille aillaud";0;0;1;5
"orlan photographe";0;0;1;4
"filtrer l eau du robinet";0;0;1;403
"damien hirst oeuvre";0;0;1;4
"hotel casa de romero";0;0;1;158
"michael bastow";0;0;1;6
"sculpture gorille rouge";0;0;1;7
"tête de poire";0;0;1;8
"willy ronis";0;0;2;38.5
"oeuvre d'art avec des pommes";0;0;3;2
"vente sculpture contemporaine";0;0;1;1
"peinture inca";0;0;2;3
"tableau oeuvre d'art moderne";0;0;3;1.3333333333333
dirosa;0;0;2;5;0;0;1;5;0;0;2;4.5
"street art reims";0;0;1;43
"claire corcia";0;0;1;7;0;0;2;8
"jérôme mesnager";0;0;5;3.8
"julien cresp";0;0;1;4
"oeuvre d'art avec des fruits";0;0;2;16
"richard baron";0;0;1;18
"valerie dupond";0;0;12;7.8333333333333
"andre nadal";0;0;2;4
fassianos;0;0;2;9.5;0;0;1;11
"vente art en ligne";0;0;10;1
"peter blake artiste";0;0;6;3.1666666666667;0;0;1;5;0;0;2;4
"sandra krasker";0;0;4;5.25
"jean claude deutsch";0;0;2;3;0;0;1;3
"truc anh";0;0;1;3
"cécile desserle";0;0;2;4
"laurence weiner";0;0;3;7.3333333333333;0;0;1;8
"lampe verre de murano";0;0;1;37
fubiz;0;0;3;12.333333333333;0;0;1;18
"oeuvre de takashi murakami";0;0;2;5
"skull jean michel basquiat";0;0;1;6;0;0;1;4
"sandy skoglund oeuvres";0;0;1;5
"harold and belles";0;0;1;209
"melanie peduzzi";0;0;1;2
"nathan chantob artiste peintre";0;0;1;2
"oeuvres art contemporain";0;0;3;2
"street artist obey";0;0;1;6
"obey artiste";0;0;2;3;0;0;2;3
"contemporary art club";0;0;1;3
"jean dubuffet oeuvre";0;0;1;5;0;0;1;5
"art de jean dubuffet";0;0;1;4
"roy lichtenstein as i opened fire";0;0;2;3.5;0;0;1;5
"coq multicolore";0;0;1;5
"ballon dog";0;0;5;7;0;0;2;7.5
obey;0;0;8;66.625
fist;0;0;1;268
pasqua;0;0;1;38
"p38 lightning";0;0;1;91
"araki nobuyoshi";0;0;2;31
"charles christopher hill";0;0;2;4
"jeune artiste peintre contemporain";0;0;3;9
nojnoma;0;0;6;3.1666666666667;0;0;14;2.1428571428571
"hedva ser";0;0;1;3;0;0;1;4
"stéphanie jeannet";0;0;1;7
"voyeur x";0;0;1;155
"philippe berger";0;0;1;19
"sculpture scorpion";0;0;1;5
"peter mc";0;0;1;6
"christine mathieu photographe";0;0;2;10
bouil;0;0;2;16
"galerie corcia";0;0;2;6
"artistes contemporains japonais";0;0;1;9
pigeau;0;0;1;11
"about pop art oeuvres";0;0;12;278
"karl lagasse";0;0;4;4;0;0;3;4;0;0;2;4
mrlolo;0;0;1;5
"bambi artiste";0;0;2;4
"christian zeimert";0;0;4;4
"audoin desforges";0;0;1;6
"cesar sculpteur oeuvres";0;0;2;4
"achat oeuvre d'art en ligne";0;0;1;1
"jeff koons œuvres d'art";0;0;7;4.1428571428571;0;0;3;5.3333333333333
"franck muracciole";0;0;1;2
"marre paris";0;0;1;121
"durix peintre";0;0;1;4;0;0;3;4
"filtrer eau du robinet";0;0;1;430
sugarbabe;0;0;1;31
"les artistes turk";0;0;1;5
"les galeries d'art";0;0;1;9
"galerie de nues";0;0;1;117
"eric vernhes";0;0;1;10
"costume vert";0;0;1;40
"greg guillemin pop art";0;0;1;9
"patrick villas";0;0;2;3;0;0;1;3
"oeuvre d'art blanc";0;0;1;9
"roger schall";0;0;4;1
"arnaud puig";0;0;1;5
"orlinski ours";0;0;1;6
"marie anne thieffry";0;0;16;2.25;0;0;9;3
"joseph kfoury";0;0;1;9
"jingdong france";0;0;1;6
vaubourg;0;0;2;12
"about oeuvre du pop art";0;0;5;281
"alain rivière";0;0;2;9;0;0;1;10
"philippe de la brosse";0;0;1;9
oehm;0;0;1;5
"guayasamin peintre";0;0;1;7
"pascal frament";0;0;1;2
"composition in blue";0;0;4;8.5
"cul x";0;0;1;118
"de jr";0;0;1;7
"vente oeuvre d art";0;0;1;1
"jamal shabazz";0;0;1;10
"jef aerosol sitting kid";0;0;1;7
"koons oeuvres";0;0;2;8.5
"frédéric garnier";0;0;1;28
"mr brainwash obama";0;0;3;4.3333333333333
"bernard chauveau éditeur";0;0;1;4
"jock sturges";0;0;1;27
"jm robert street art";0;0;1;2
"david gerstein elegance";0;0;1;54
"galerie oneiro";0;0;2;2
"hervé robillard";0;0;1;128
"robert indiana oeuvres";0;0;2;10
"peintre wilfred";0;0;1;5
"nathalie de frouville";0;0;1;17
"sculpteur cesar";0;0;1;9
"césar oeuvres";0;0;2;7
"galerie d art en ligne";0;0;12;1
"daniel cook";0;0;1;15
"vente d'art en ligne";0;0;1;1
"guillaume bourquin";0;0;1;4;0;0;1;5
"nuances et lumiere";0;0;1;2
"jadikan light painting";0;0;1;6
"romulus and remus art";0;0;1;10
holoversum;0;0;1;7
"samson nolwenn";0;0;2;2
hayuk;0;0;1;5
"noeud papillon";0;0;1;288
keza;0;0;1;7;0;0;1;7
"biographie keith haring";0;0;4;10
"pierre-marie brisson artiste peintre";0;0;1;2
"charles fazzino";0;0;6;7.8333333333333;0;0;7;5.5714285714286;0;0;5;5.6
"art'n pepper";0;0;1;6
"kerry eggleton";0;0;1;1
"the art of nasty";0;0;2;6
"oeuvre unique";0;0;1;1
"corps art";0;0;1;3;0;0;1;1
"francois morrellet";0;0;1;8
"klasen peintre";0;0;1;2
"jean dubuffet œuvres d'art";0;0;1;5
"murakami artiste";0;0;1;2;0;0;1;3
"francois poulat";0;0;3;7
"nicolas fremion";0;0;1;11
"autour de l'auto";0;0;1;8
"galerie des arts";0;0;1;10;0;0;3;10.666666666667
"ian saudek";0;0;1;9
"dan flavin fluored";0;0;1;14
"francois morrelet";0;0;2;7
"jacques villeglé affiches";0;0;2;4.5
piwowarczyk;0;0;1;8
"stephane joannes";0;0;2;2
"jeune artiste";0;0;6;8;0;0;1;7
"jean christophe ballot";0;0;3;7.6666666666667
"julien calot";0;0;1;3;0;0;2;2
"la micro galerie";0;0;1;5
"scuba girl";0;0;1;50
"planete srie";0;0;1;4
"art diffusion";0;0;2;8.5
"al ben";0;0;1;10;0;0;1;10
rigail;0;0;2;14
grandeetoile;0;0;1;9
"françoise gaujour";0;0;1;6
"galerie duret";0;0;5;6.2;0;0;2;6
"street art chat";0;0;2;5;0;0;1;5
"alfredo lopez";0;0;1;5;0;0;1;8
artper;0;0;2;1
"francine van hove";0;0;3;6;0;0;3;7.6666666666667;0;0;7;7
"oeuvre d'art 2015";0;0;1;10;0;0;2;9
"oeuvre calligraphie";0;0;1;7;0;0;2;7;0;0;1;7
"combas peintre";0;0;9;3.5555555555556;0;0;7;5.2857142857143;0;0;4;4.25
"césar baldaccini";0;0;21;5.3333333333333;0;0;2;7.5;0;0;5;6.2
"nathalie deshairs";0;0;4;3;0;0;1;5
"banksy billet";0;0;1;1
"tanc artiste";0;0;3;2.6666666666667
"ernest pignon ernest biographie";0;0;3;9;0;0;1;10
"sculpture contemporaine pas cher";0;0;1;6;0;0;1;6
"polin italie";0;0;1;9
besher;0;0;2;2;0;0;2;4
"salon art contemporain montreux";0;0;1;9
"vente art contemporain";0;0;3;1;0;0;1;1
"jacques renoir";0;0;4;7
"oeuvre de joan miro";0;0;2;11
houard;0;0;1;10;0;0;1;11
"gerard titus carmel";0;0;3;7
"oeuvres banksy";0;0;4;8.25;0;0;2;9.5
"alex katz oeuvres";0;0;1;4
"tableau skieur";0;0;1;1
"oeuvre d'art unique";0;0;2;1
"michael alford";0;0;1;9
"maryl le berre";0;0;2;8
"espace verney carron";0;0;1;7
"erró oeuvres";0;0;2;6
"michel dubois peintre";0;0;1;9
"l'artiste jr";0;0;1;8
"romain rivière";0;0;1;11
"femme en bas de soie";0;0;2;47
"michal batory";0;0;2;14.5
"emmanuel pons";0;0;1;8
"cru bourgeois margaux";0;0;1;406
"nature morte contemporaine peinture";0;0;1;30
guayasamin;0;0;2;10;0;0;1;8
"peintre buffet";0;0;5;7.2;0;0;4;7.75;0;0;1;8
skoglund;0;0;1;7
"vera molnar oeuvres";0;0;1;8
tadini;0;0;1;8
"le bal a jo";0;0;1;10
"anne valerie dupond";0;0;2;9
"acheter art moderne";0;0;1;1
"gregos street art";0;0;1;9
seaty;0;0;1;8;0;0;2;9
"art pussy";0;0;1;10
"françois houtin";0;0;1;11
"oeuvre papier";0;0;1;9
"begramoff gallery";0;0;1;7
"albane de saint remy";0;0;2;8
"acheter art contemporain";0;0;4;1
"corto maltess";0;0;1;33
scuplture;0;0;5;15.2
"bernard prass";0;0;1;3
"alejandra eggleton";0;0;1;46
"no art";0;0;1;8;0;0;2;6
"raison d'art";0;0;1;6
"david lachapelle";0;0;2;15.5
"jean du buffet";0;0;2;8.5
telemaque;0;0;4;38.75
"greg leon guillemin";0;0;3;2;0;0;1;7;0;0;1;2
"guyomard sylvie facebook";0;0;6;6.8333333333333
"sylvie fleury oeuvres";0;0;1;3
"amaury mulliez";0;0;1;4;0;0;1;4
"rudi pillen";0;0;2;1
levalet;0;0;6;6;0;0;1;8;0;0;3;6
"cedrix crespel";0;0;3;3.3333333333333
"annette messager oeuvre";0;0;1;6
"jacques lacroix";0;0;1;8
"artiste peintre orleans";0;0;1;49
"james mackeown";0;0;4;3.25
"daniel nadaud";0;0;1;5;0;0;1;6
"jeunes artistes peintres";0;0;2;10
"la caverne de sarah";0;0;1;28
"cécile durand";0;0;1;9
"césar oeuvre";0;0;2;5
"perrier affiche";0;0;1;24
vuk;0;0;1;65
"manu perez paris";0;0;4;9.25;0;0;1;10
"leslie caillard artiste peintre";0;0;1;9
"oeuvre de max ernst";0;0;1;10
"alex katz peintre";0;0;2;7
"osvaldo guayasamin";0;0;1;7
"oeuvres de benjamin vautier";0;0;1;5
"les oeuvres de miro";0;0;1;11
"charlotte aleman";0;0;1;2;0;0;1;4
"artiste romero britto";0;0;2;4;0;0;1;6
"mb factory";0;0;1;7;0;0;1;8
"isabelle vayron";0;0;3;4
"bertrand meunier photographe";0;0;1;4
"eduardo arroyo peintre";0;0;1;5
"peinture charlelie couture";0;0;1;2
kami;0;0;3;91
"franck lundangi";0;0;2;2;0;0;3;2
"serigraphie art";0;0;1;13
waylines;0;0;1;7
"tingting wang";0;0;1;1
"carlo nason";0;0;2;3.5;0;0;1;3
"delphine couturier";0;0;2;2
"little black gallery";0;0;2;6.5;0;0;1;7
"georges rousse oeuvre";0;0;1;21
"maya hayuk";0;0;4;6.5;0;0;1;8
"galerie argentic";0;0;5;7;0;0;1;8;0;0;2;8
"james barnor";0;0;1;15
"jef aerosol biographie";0;0;1;4
"galerie de nu feminin";0;0;1;56
"nathalie d'henaut";0;0;1;5
romerobritto;0;0;1;9
"acheter oeuvre d'art en ligne";0;0;1;1
"jean dubuffet";0;0;2;45
"guy de rougemont";0;0;3;6;0;0;1;7
"basquiat angel";0;0;1;407
"kevin vast";0;0;2;6
brainwash;0;0;2;7
"michael brack";0;0;3;8
"oeuvre d'art mobile";0;0;1;6
totomobile;0;0;1;29
"tapis en soie";0;0;5;27.8
"nude cynthia";0;0;1;4
"damien hirst œuvres d'art";0;0;2;4.5
"gottfried salzmann";0;0;3;7.6666666666667
buzon;0;0;2;10
"galeries d'art";0;0;2;7.5;0;0;2;2
"cedric lezin";0;0;1;44
"galerie art en ligne";0;0;11;1;0;0;4;1;0;0;2;1
"galerie art contemporain lille";0;0;1;22
"gérard schlosser";0;0;4;4;0;0;1;5
"boutique d'art en ligne";0;0;1;1
"christine flynn";0;0;1;10;0;0;2;5
"artiste japonaise contemporaine";0;0;1;15;0;0;1;8
"vendre oeuvre d'art";0;0;2;1
"easy sacha";0;0;7;9;0;0;4;9
"alain cl";0;0;1;4
"valérie vaubourg";0;0;1;2
"danseuse thai";0;0;2;9
"acheter banksy";0;0;1;2;0;0;1;2
"bernard chauveau";0;0;7;5.4285714285714;0;0;1;6
"bernard buffet images";0;0;1;7
surfboard;0;0;1;234
"alain josseau";0;0;3;3
"david lachapelle oeuvre";0;0;1;4
wildshut;0;0;1;10
"hervé télémaque";0;0;8;5.375;0;0;1;5
"roberto greco";0;0;1;8
"martin reyna";0;0;1;4;0;0;1;3
"photo d'art contemporain";0;0;2;2
"graffiti tilt";0;0;1;8
"oeuvre d'art thème noel";0;0;1;6
"champion charlotte";0;0;1;3
"art sculpture";0;0;2;8;0;0;1;8
taquinant;0;0;1;43
"mr sex";0;0;11;20.181818181818;0;0;1;27
"vente liberty";0;0;1;38
"galerie d'art en ligne";0;0;27;1.2962962962963;0;0;12;1;0;0;7;1
"tourisme dinard";0;0;2;22.5
"le corps dans l art";0;0;4;3.5
colomina;0;0;2;2.5
"gérard rancinan photos";0;0;1;8
"stephane gizard";0;0;1;10;0;0;1;10
"ahmad moustafa";0;0;1;5
"catherine lambermont";0;0;1;3
"venus arman";0;0;2;10
"marie cécile thijs";0;0;1;1
"julie de waroquier";0;0;1;18
"artiste orlan";0;0;5;9.8;0;0;1;11;0;0;1;11
"duong le thai";0;0;9;2;0;0;13;4.2307692307692
"jacqueline roberts";0;0;1;3
"artiste jr";0;0;4;10.5;0;0;1;11;0;0;6;1
"god dog";0;0;1;5
"jean pierre art";0;0;1;5
"oeuvre man ray";0;0;2;39.5
"dominique becker";0;0;1;328
"arman artiste";0;0;11;9.8181818181818;0;0;4;10.25
"claude champy";0;0;1;7
"spark benjamin";0;0;1;9;0;0;1;7
"dganit blechner";0;0;2;6
"chamizo prix";0;0;1;3
"petit bonhomme blanc";0;0;3;19.666666666667
"jean michel voge photographe";0;0;1;3
"sculpteur japonais contemporain";0;0;1;8;0;0;2;10
"tableau jeune artiste";0;0;2;9;0;0;1;9;0;0;2;9
"jason keeley";0;0;1;5
"galerie art 83";0;0;1;3
"galerie loft";0;0;4;9.5
"narcose serie";0;0;1;10;0;0;1;10
"gustav klimt biographie";0;0;1;60
"césar le sculpteur";0;0;2;9
scupltures;0;0;2;9
"reçu 5 sur 5";0;0;1;9
etam;0;0;1;231
"laurent roux";0;0;3;23.333333333333;0;0;1;20
"artiste erro";0;0;1;8;0;0;1;5
"assaf matarasso";0;0;1;8
"daniel paugam";0;0;1;7
"alex kizu";0;0;1;1
tanzania;0;0;1;383
"sylvia x";0;0;1;18
"hicham gardaf";0;0;1;11
"louis nicolas darbon";0;0;5;8;0;0;1;7
"antoine correia";0;0;2;4
foure;0;0;3;30
"armand artiste contemporain";0;0;2;5
"christoff debusschere";0;0;11;7.1818181818182;0;0;3;7.6666666666667;0;0;1;9
"germain plouvier";0;0;3;3.6666666666667
"roland topor art";0;0;1;6
"biographie de eduardo kac";0;0;2;7
"charlotte lepelletier";0;0;1;3;0;0;1;3
"artiste en vogue";0;0;1;2;0;0;1;2;0;0;1;2
"nom des oeuvres de keith haring";0;0;1;8
petrovitch;0;0;2;20;0;0;1;12
"martin dawe design";0;0;1;433
"art cubique";0;0;1;9
ren;0;0;1;129
"galerie d'art en ligne contemporain";0;0;1;1
"bernard buffet peintre";0;0;2;8.5
"christine bares";0;0;1;3
"adela burdujanu";0;0;6;3.5;0;0;1;4;0;0;1;4
bernadine;0;0;1;5;0;0;1;6
"jean michel basquiat";0;0;1;115
"bouquet celeste";0;0;1;7
"peintre israelien";0;0;1;124
"orlan biographie";0;0;1;5
"clement denis";0;0;2;4
"marie-anne thieffry, sculpteur de carton";0;0;1;5
"galerie bettina von arnim";0;0;1;2
"peintre chat";0;0;2;14
"evelyne postic";0;0;2;6
"edmée delsol";0;0;2;3.5
"sandy skoglund";0;0;16;7;0;0;6;8
"eliane larus";0;0;2;3;0;0;4;3
"jef aerosol chut";0;0;1;6
"cesar expansions";0;0;2;8.5
"helion peintre";0;0;3;5
"bloomfield hills mi venus freeze";0;0;1;99
"artistes luxembourgeois";0;0;3;7
"liu bolin sculpture";0;0;1;4
graphem;0;0;2;14
"martha cooper";0;0;1;15
pras;0;0;8;5.875;0;0;6;8
"patrick guidot";0;0;1;6
piechaud;0;0;1;12
"de seen";0;0;1;3
fanjul;0;0;1;23
"martine lamy";0;0;1;328
"galerie double s";0;0;1;7;0;0;2;7
"jean pierre attal";0;0;2;2
"mr brainwash";0;0;1;22
jonvelle;0;0;1;24
"galerie honfleur peinture";0;0;1;45
"godon alain";0;0;2;2
"françois morrelet";0;0;2;8
"biographie de jeff koons";0;0;1;9
"eva navarro";0;0;1;8;0;0;1;8
"alain clément";0;0;2;4.5
"léon spilliaert oeuvres";0;0;1;29
"arnaud paillard";0;0;4;5;0;0;4;5
"mor charpentier";0;0;1;40
"steven siegel";0;0;2;10
derrier;0;0;2;31
"george platt lynes";0;0;5;8.4
"philippe berry sculpteur";0;0;1;6;0;0;1;1
"maison kate barry";0;0;1;42
"romero britto";0;0;35;10.171428571429;0;0;11;7;0;0;16;10
"eduardo chilida";0;0;3;9
"composition 8";0;0;1;24
morisse;0;0;2;9
"miguel chevalier oeuvres";0;0;2;4
"c'est mieux que rien";0;0;2;8.5
"alain clement";0;0;4;4.25;0;0;1;6
"speedy graphito prix";0;0;2;2
flamboiement;0;0;1;40
"artiste turk";0;0;1;7
"galerie silbereis";0;0;1;3
"oeuvre de shepard fairey";0;0;2;2;0;0;1;3
"sculpture stratos";0;0;1;4
"christian renonciat sculpteur";0;0;1;4
"izabeau jousse";0;0;2;4;0;0;3;3;0;0;1;4
"vente d'oeuvre d'art en ligne";0;0;2;1
"uffe weiland";0;0;1;1
"vincent peters";0;0;2;9;0;0;1;9;0;0;1;9
"erro artiste";0;0;3;7.6666666666667
"daniel de spirt";0;0;2;6
miss-tic;0;0;4;6;0;0;1;7
"amandine levy";0;0;1;6
capton;0;0;30;3.2333333333333;0;0;7;3.8571428571429
"catalano sculpteur prix";0;0;1;3;0;0;1;4
"buddy di rosa";0;0;1;5
"antonio segui";0;0;6;8.1666666666667;0;0;1;8
"nills udo";0;0;1;9
"mist artiste peintre";0;0;1;9
"olivier masmonteil";0;0;2;5;0;0;3;5
"rancillac bernard";0;0;1;11
"robert combas prix";0;0;2;7;0;0;2;6.5
"e galeries";0;0;2;9
"audiard sculpteur";0;0;1;8
"oeuvre d'art miroir";0;0;1;7
"gwen marseille";0;0;1;5
"drapeau à damier";0;0;1;20
"max ernst œuvres d'art";0;0;4;9.75
gourier;0;0;1;18
"thierry alet";0;0;1;5
ecloz;0;0;2;5;0;0;1;5
"perez manu";0;0;2;8.5;0;0;1;7
"claude leveque";0;0;6;9.6666666666667;0;0;2;9.5
"jean faucheur";0;0;1;7
paulett;0;0;2;10
"castle galleries";0;0;1;5
"toxic graffiti";0;0;1;4
"edmee delsol";0;0;1;5
"oeuvre cube";0;0;1;10
"yann stofer";0;0;1;10
"monsieur chat paris";0;0;1;10
"to be sporty";0;0;1;7
"galerie bouillon d'art";0;0;1;3;0;0;1;5
"nathalie macquet";0;0;1;9
gangal;0;0;1;4
"david gouny";0;0;1;3
"photographe italien plage";0;0;2;5
"sandra larue maigre";0;0;1;17
"yang yongliang";0;0;1;6
"labégorre peintre";0;0;1;8
"artiste chat";0;0;1;11
"noe two artiste";0;0;1;6
"peter mclane";0;0;2;3
"peintre rosa";0;0;1;11
"christophe lachize";0;0;2;4.5
"qui est ernest pignon ernest";0;0;1;10
"orlanski sculpteur";0;0;1;8;0;0;5;8
artistes;0;0;2;24.5
"oeuvre d'art carton";0;0;1;6
arietti;0;0;2;6;0;0;1;5
"patrick poirier";0;0;3;7.3333333333333
"lady jday";0;0;1;9
"pierre francois grimaldi";0;0;2;3
"theo haggai";0;0;5;2.8
nellisa;0;0;1;2
"stephanie hays";0;0;1;339
"artiste allemande";0;0;2;10
"marko righo";0;0;1;24
"bernard buffet 55";0;0;1;8
"galerie cortade";0;0;1;9
"transe x";0;0;1;39
"cecile charron";0;0;1;4
"beaufils jean luc";0;0;3;6
"debusschere peintre";0;0;1;9
jazzu;0;0;2;4.5;0;0;1;6
urbanium;0;0;1;11
"olivier catté";0;0;1;1
"marie ange daudé";0;0;1;6;0;0;1;6
"statue deesse";0;0;2;4
picka;0;0;3;4.6666666666667
"philippe charpentier";0;0;1;10;0;0;2;1.5
"galerie artiane";0;0;2;3
braoudé;0;0;1;9
"photomontage art contemporain";0;0;1;3
"mambo street art";0;0;1;12
"aurel artiste";0;0;1;9
"telemaque hervé";0;0;2;5.5
"romain lardanchet";0;0;2;7
"oeuvre annette messager";0;0;1;8
"artistes australiens";0;0;1;9
"bonnie and clyde kiss";0;0;2;6
"quentin carnaille";0;0;3;10;0;0;1;10
"philippe buil";0;0;1;2
"richard orlinski king kong";0;0;1;2
"yaacov agam oeuvres";0;0;1;10
"the dude company";0;0;1;3;0;0;1;3
"plata peinture";0;0;1;27
"uwe ommer";0;0;1;8
"ann grim";0;0;1;6
cosmogarden;0;0;1;3
"norma bessieres prix";0;0;1;2
guilleme;0;0;2;3
"dato eric cheng";0;0;1;174
"xin tao";0;0;1;8
"balloon dog blue";0;0;1;11
"cesar sculpture";0;0;2;9
"crane avec papillon";0;0;1;5
"masculin de miss";0;0;1;8
"miroir de l'art";0;0;2;9.5;0;0;1;9
"drouet jean marie";0;0;1;4
"jack hironimus";0;0;1;2
"gérard rancinan";0;0;2;7.5;0;0;2;7
krm;0;0;8;3.125;0;0;2;4.5
"miguel angel sanchez";0;0;1;10
"claire trotignon";0;0;1;4
"galerie nuances et lumière";0;0;1;3;0;0;3;3
"beaufils peintre";0;0;2;5
"pierre riba";0;0;1;4
"noé two";0;0;2;3
"m chat";0;0;2;7;0;0;4;6.5
"gaelle villedary";0;0;1;5
"françoise petrovitch";0;0;5;7.2;0;0;1;7
"no nude";0;0;1;88
"miquel barcelo popera";0;0;1;9
"titus carmel artiste";0;0;1;3
"isa marcelli";0;0;1;9
"claire gastaud";0;0;2;5.5
"pablito zago";0;0;5;5.8;0;0;1;5
"xin art galerie";0;0;2;5
sculptures;0;0;2;11.5;0;0;1;9
"cecile durand";0;0;1;10
enviedart;0;0;1;4;0;0;1;4
akader;0;0;5;8
durix;0;0;2;4;0;0;1;5
"miss tiq";0;0;1;7
"tsuyu artiste";0;0;1;3;0;0;2;1
"georges poncet";0;0;1;4
"robert mapple";0;0;1;9
"nils udo oeuvre";0;0;2;6;0;0;2;6
"corsia peintre";0;0;2;7
"julien airault";0;0;1;3
"progress gallery";0;0;1;7
stoul;0;0;1;6
"bernard rancillac oeuvres";0;0;2;4
"vanessa cooper";0;0;1;4
"philippe berry";0;0;29;1.2758620689655;0;0;19;1.1052631578947
"dark vador artwork";0;0;1;4
"sculpture vente";0;0;1;1;0;0;1;1
"bernard pars";0;0;1;4
"courty neon art";0;0;1;74
smael;0;0;3;10;0;0;1;6
"galerie akiza";0;0;1;8
"art costa";0;0;1;9
"orlan artiste";0;0;3;9;0;0;1;7
"affiche obey";0;0;2;9
"sophie morisse";0;0;1;4
cadeo;0;0;1;11
"flipo peintre";0;0;1;2
"art amour";0;0;1;2
"galerie ko21";0;0;1;6;0;0;1;6
"lea chauvel levy";0;0;1;2
"tableau jean dubuffet";0;0;1;11
"david la chapelle photography";0;0;1;8
"ou est ma part";0;0;1;7
"aude carre";0;0;2;4.5
"banksy oeuvres";0;0;21;10;0;0;9;10
"zelda bomba";0;0;1;3
"oeuvre d'art contemporain";0;0;1;2
"vente art";0;0;2;1.5
"vincent chenut";0;0;1;5
susplugas;0;0;1;4
"catalano bruno prix des oeuvres";0;0;1;3
"miss tic street art";0;0;1;6
"affiche warhol";0;0;2;9.5;0;0;1;10
"galerie dorval lille";0;0;1;8
"marcel reynaud";0;0;12;5;0;0;1;5
"yuriko takagi";0;0;1;10
"guy denning";0;0;1;5;0;0;2;5
"julien durix prix";0;0;1;1;0;0;1;1
"samhart gallery";0;0;3;5;0;0;1;6
"monteoliveto gallery";0;0;1;34
"opalka oeuvres";0;0;2;10
"arno elias";0;0;1;7
"tom wesselman";0;0;1;25;0;0;1;6
"anne patrick poirier";0;0;2;8
"sculpture deesse";0;0;3;5;0;0;2;8
"opalka biographie";0;0;1;9
"pauline dufour";0;0;2;5.5
"fernando garcia";0;0;1;11
fotofever;0;0;1;17
"sandra ghosn";0;0;1;5
"mustapha azeroual";0;0;1;5
"morellet françois";0;0;2;8;0;0;1;8
"stephane pencréac'h";0;0;1;21
"lucky strike filtre creux";0;0;2;2
"elodie lachaud";0;0;1;4
"ad galerie";0;0;2;7;0;0;2;8
"jean marie drouet";0;0;1;6;0;0;2;7
aramane;0;0;1;8
"le turk";0;0;3;9.6666666666667;0;0;2;10
"poes artiste";0;0;4;1
"chris macauley";0;0;3;1
orlinski;0;0;10;7.5;0;0;4;7.25
"luc lacroix";0;0;1;18
"catherine klein";0;0;1;9;0;0;3;11.333333333333
"tilt street art";0;0;1;5
"nick walker";0;0;2;4;0;0;1;4
"guillemin gregoire";0;0;2;4;0;0;1;4
"monsieur chat";0;0;13;6.9230769230769;0;0;7;6.1428571428571
"filippo minelli";0;0;1;3
"elise oudin gilles";0;0;1;4;0;0;1;4
"loan nguyen";0;0;1;11
"galerie d art";0;0;1;14;0;0;1;4
"galeries des arts";0;0;1;9
"bruno mallart";0;0;3;7
chabiron;0;0;1;9
"bear galerie";0;0;1;8
"christophe charbonnel prix";0;0;1;1
"pop zelda";0;0;1;8;0;0;1;9
"annette messager biographie";0;0;1;7
"serge mendjisky";0;0;1;5
"benjamin artiste";0;0;2;6
"art contemporain achat";0;0;2;1;0;0;2;1
"barry cawston";0;0;1;3
"sculpture miro";0;0;1;9;0;0;3;10
"atila biro";0;0;2;6
sculptute;0;0;1;10
taki;0;0;1;36
"loup art";0;0;1;9
"wang yan";0;0;13;9.3846153846154
"alben artiste";0;0;1;6
mesnager;0;0;11;4.7272727272727
"manu paysages";0;0;1;79
"arthur dorval";0;0;3;2.6666666666667;0;0;1;2
"oeuvres annette messager";0;0;2;10
catte;0;0;7;4.1428571428571;0;0;3;3
"thomas bossard";0;0;1;4
"foot fetish";0;0;1;47
"photos d'art contemporain";0;0;1;2
"laetitia giraud";0;0;2;3.5
"j m robert";0;0;1;1
"artiste zed";0;0;1;2
"oeuvre de jean dubuffet";0;0;1;6
"annet messager";0;0;2;7.5
"basquiat untitled";0;0;1;8
"oeuvre d'art en pierre";0;0;1;9
"exhib nocturne";0;0;1;84
boudro;0;0;2;7
"raymond hains";0;0;2;7;0;0;3;7
"monika nowak art";0;0;1;2
"keith haring oeuvre";0;0;4;9.5;0;0;1;8
"ernest pignion ernest";0;0;1;10
"didier hoffmann";0;0;1;8
"oeuvre de coq";0;0;1;21
"capton peintre";0;0;1;4;0;0;2;5
bremermann;0;0;1;11
"fabien verschaere";0;0;3;2
chamizo;0;0;4;5.5
"utopie tangible";0;0;2;5
"huart philippe";0;0;1;1;0;0;1;1
"peinture kurt cobain";0;0;1;9
"patrick bailly";0;0;1;10
"galerie martine ehmer";0;0;4;5
hyber;0;0;1;10
"dani olivier";0;0;4;10
"artiste dubuffet";0;0;1;3
"aki kuroda";0;0;11;1;0;0;6;1
"love is the answer new york";0;0;4;10
"exposition miss tic";0;0;1;7
"vendre art en ligne";0;0;1;1
"les oeuvres de keith haring";0;0;3;10
"annina roescheisen";0;0;1;4
mengzhi;0;0;1;5
"francois morellet oeuvre";0;0;1;5
"gilles candelier";0;0;1;7
sartorio;0;0;2;9.5
"pingouin love";0;0;1;10
labegorre;0;0;1;5
"colorfield gallery";0;0;2;8;0;0;2;8
"georgianna robertson";0;0;6;10.333333333333
labegore;0;0;1;5
"galerie vitoux";0;0;1;9
"cecile colombo";0;0;2;5;0;0;3;5.3333333333333
"tilt graffiti";0;0;1;7;0;0;1;7
"nadine defer";0;0;1;4
"francois benoit";0;0;1;11
"galerie gillig";0;0;3;7
"bonhomme blanc";0;0;4;9.25;0;0;1;10
"toxic artiste";0;0;1;2
"jeff koons balloon dog prix";0;0;1;9
"wilfred lang";0;0;1;2
"atlas street art";0;0;1;8
"clement alain";0;0;1;7
"olivier ribardiere";0;0;1;6
"dominique piveteaud";0;0;1;6
"etienne rey";0;0;1;8
"oeuvre joan miro";0;0;1;1
monumentales;0;0;1;3
"mathieu mercier";0;0;4;9.5
"thierry dussac";0;0;3;3;0;0;1;8
"malcolm taylor";0;0;1;10
"achat tableau art";0;0;1;1
"marian williams";0;0;1;2
"eduardo kac";0;0;1;11
"troy artiste";0;0;2;3
"biographie banksy";0;0;2;9;0;0;1;9
"sculpture bronze contemporain";0;0;1;61
rabus;0;0;1;10;0;0;1;11
"emma vidal";0;0;3;2
"vente oeuvre d'art";0;0;1;1
"daphné navarre";0;0;3;3
"miss. tic";0;0;2;8.5
"sculpture cesar";0;0;1;10
"philippe pasqua tete de mort";0;0;1;5
"li wei";0;0;2;5;0;0;1;5
"jacques villegle";0;0;3;6
rydet;0;0;1;10
"open art galerie";0;0;2;5
"lawrence weiner";0;0;2;8;0;0;1;9
iglesis;0;0;2;6;0;0;1;2
bodnariu;0;0;1;2
"chat mr";0;0;1;6
"galerie sbk lyon";0;0;1;7;0;0;1;7
"acheter art contemporain en ligne";0;0;1;1
"oeuvre d'art peur";0;0;1;2
godon;0;0;2;1;0;0;5;1.4
hiquily;0;0;1;11
"thierry schwab";0;0;1;5
"willy ronis biographie";0;0;1;9
"césar artiste";0;0;1;8
"peinture buffet";0;0;1;7
"wilfred peintre";0;0;2;3
"manuel cohen";0;0;1;7
"banksy billet de banque";0;0;1;2
"artistes contemporains";0;0;15;9.0666666666667;0;0;11;10
"artiste obey";0;0;1;3
"manu perez";0;0;1;16;0;0;2;15
annya;0;0;1;2
"masmonteil olivier";0;0;1;6
"noelle koning";0;0;1;4
"margaret de clare";0;0;1;3
"alberto vejarano";0;0;2;7
"richard orlinsky";0;0;2;7
"massimo vitali";0;0;3;7;0;0;4;7.5
anderson;0;0;1;241
"sandro giordano";0;0;1;6
"le module de zeer";0;0;1;10
alben;0;0;1;10
"justin bieber";0;0;1;181
"artiste romain";0;0;1;4
"schlosser peintre";0;0;2;5
"le diamantaire artiste";0;0;4;6.5
"fazzino charles";0;0;2;5;0;0;1;5
"gérard titus carmel";0;0;1;8;0;0;1;7
taran;0;0;2;10
"street art miss tic";0;0;1;6
"francoise petrovitch peintre";0;0;1;5
"agnes crepin";0;0;3;8.3333333333333
"tableau blanc oeuvre d'art";0;0;1;21
"ernest pignon";0;0;2;10.5
"haude bernabé";0;0;2;8.5
cornillet;0;0;1;11
oksana;0;0;3;30.333333333333
"galerie sylvie le page";0;0;1;4
"photo art moderne";0;0;1;2
"vente d'oeuvre d'art";0;0;3;1
"saudek jan";0;0;3;11
villeglé;0;0;3;5.3333333333333;0;0;4;6.75
mygalo;0;0;1;3
"hank china";0;0;5;1
"survivants yan pei ming";0;0;2;10
"eduardo chillida";0;0;2;9.5;0;0;3;9.6666666666667
"bernard venet";0;0;2;9
"rero artiste";0;0;1;8
"chez kasimir";0;0;2;10
"laurent maes";0;0;1;10
"orlan oeuvres";0;0;1;5
"galerie la lanterne";0;0;1;7
"dali oeuvres";0;0;1;1
"david tran sezam";0;0;1;32
chubac;0;0;2;5
"eric chabiron";0;0;1;3
makhloufi;0;0;1;33
"myriam franck";0;0;1;40
"liu zhengyong";0;0;1;3;0;0;1;5
"balloon dog prix";0;0;1;8;0;0;2;8
"niels udo";0;0;1;9;0;0;1;9
"peintre godon";0;0;1;3;0;0;1;1
"achat art";0;0;1;1
"toma peintre";0;0;1;5
"pascale morin";0;0;1;7
"sylvie fleury";0;0;2;8.5;0;0;1;8
"jean michel basquiat oeuvres";0;0;1;8;0;0;1;9
"duster graffiti";0;0;1;10
"nathalie grenier";0;0;1;7
"galerie d'artiste";0;0;2;5
"bleu ciel mon compte";0;0;1;69
"mikael lafontan";0;0;1;3
"olivier moriette";0;0;1;2
"mr snop";0;0;1;1
"carlos cruz";0;0;9;11.333333333333;0;0;1;12
"galerie leadouze";0;0;1;3
"erro oeuvre";0;0;1;7
"escalier oeuvre d'art";0;0;1;10
"basquiat oeuvres";0;0;3;10
"monochrome noir";0;0;3;9.3333333333333
"césar sculpteur";0;0;1;10
"davidz custom";0;0;2;7
"nojnoma paris";0;0;5;9.6
"mist street art";0;0;1;10
"jean pierre schneider";0;0;1;7;0;0;1;7
"jace gouzou vente";0;0;1;8
"etienne gros";0;0;1;4
"nuances et lumieres";0;0;1;3;0;0;1;4
"pignon ernest";0;0;1;10
gaydes;0;0;1;45
"in dog we trust";0;0;1;12
"de belie";0;0;1;6
"le merrer";0;0;1;20
"thierry diers";0;0;2;8;0;0;6;8
"yoann merienne peintre";0;0;2;3
"yoann merienne";0;0;2;2;0;0;1;2
"david lachapelle photos";0;0;1;10
kacere;0;0;1;11
"romain tichit";0;0;5;4
"godon peintre";0;0;1;3;0;0;2;1
nils-udo;0;0;1;9
"galerie d'art belgique";0;0;1;3
"art a vendre";0;0;2;1
"biographie de ernest pignon ernest";0;0;2;8
jr;0;0;6;1.6666666666667;0;0;1;1
"guy ferrer";0;0;1;8
"art en ligne";0;0;4;1;0;0;2;1
misstic;0;0;28;8.6428571428571;0;0;1;9
"sylvie guyomard";0;0;1;4
"speedy graphito";0;0;11;5.8181818181818;0;0;9;6.1111111111111
"nuance et lumière";0;0;1;3
"picka picka";0;0;1;5
"miroir portrait";0;0;1;9
"nathalie grall";0;0;4;8;0;0;2;8.5
"amateur d'art";0;0;2;11
"jean cosentino";0;0;1;2;0;0;1;2
"galerie w";0;0;4;5;0;0;3;5
"artiste combas";0;0;3;4.6666666666667
"couture peintre";0;0;1;4
"reynald drouhin";0;0;1;4
"boom art";0;0;2;4
lapinthur;0;0;2;3
dontzoff;0;0;1;1
"mccarthy usa";0;0;1;10
"guy oberson";0;0;1;9
rancinan;0;0;2;7.5
"chris morin eitner";0;0;1;3
"shepard fairey oeuvres";0;0;4;3;0;0;1;3
"renaud delorme";0;0;1;2
"murakami flower cushion";0;0;1;4
"ricardo ozier lafontaine";0;0;1;9
"pras bernard";0;0;1;3;0;0;1;4
combsa;0;0;1;7
"acheter une oeuvre d'art";0;0;1;1
"billet de banksy";0;0;1;1
"maurizio nannucci";0;0;2;6
"galerie mondapart";0;0;1;5
"trinity actrice";0;0;1;129
"hermann nitsch";0;0;1;9
"sylvie lepage";0;0;1;11
"lucie bennett";0;0;1;7
"sculpture de cesar";0;0;1;10
"iemza artiste";0;0;1;5;0;0;1;5
gregos;0;0;1;6;0;0;1;6
"e galleries";0;0;3;8.6666666666667
"guillaume piechaud";0;0;2;3
"dominique clerc";0;0;1;8
"gallerie d'art";0;0;1;9
"peintre combas";0;0;1;5;0;0;1;5
"takala nu";0;0;2;9
"oeuvres de ernest pignon ernest";0;0;3;5
rasine;0;0;1;7
"galerie giraudeau";0;0;1;6
"galerie charlot";0;0;1;8
préférées;0;0;2;258
"manu perez artiste";0;0;9;2;0;0;1;2
"jonone prix toile";0;0;3;1
"ibuki artwork";0;0;1;10
"wall fuck";0;0;1;10
"laurent dauptain";0;0;5;3;0;0;1;4
koor;0;0;60;9.1;0;0;2;9
"hideki yoshida";0;0;1;7;0;0;1;7
déesse;0;0;1;68
"bdsm photographie";0;0;1;104
"philippe heurtaux artist";0;0;1;4
ardpg;0;0;3;9
adek;0;0;1;10
"oeuvre d'art a vendre";0;0;6;1.1666666666667
"olivier brouwers";0;0;1;9
"eric bourse";0;0;1;1
"art you galerie";0;0;1;3
"arman oeuvre";0;0;1;9
kouka;0;0;13;8.3076923076923
"jr peintre";0;0;3;5
bouro;0;0;4;6.5;0;0;1;5
"la soubrette";0;0;1;18
"ki to la gloire";0;0;1;7
"artigas planas";0;0;1;1;0;0;2;1
"reve yeux";0;0;1;65
"raynaud artiste peintre";0;0;2;4
"art contemporain pas cher";0;0;1;2
"oeuvre d'art portrait";0;0;1;9
"marie oger";0;0;2;10;0;0;1;10
"maxime foulon";0;0;1;8
"le chat artiste";0;0;2;4
"l'atlas artiste";0;0;3;7
"alexandre de poplavsky";0;0;1;6
"alberto martini";0;0;1;9
"charbonnel sculpteur";0;0;1;5;0;0;1;4
"photographie d'art";0;0;1;28
"nigel cox";0;0;1;4;0;0;2;4
"ecloz rouen";0;0;1;5
"li wei photographe";0;0;2;6
"l'atlas street art";0;0;2;6
gellie;0;0;1;10
"richard orlinski prix";0;0;2;6;0;0;1;6
johnone;0;0;1;1
leyto;0;0;1;4
"michel gueranger";0;0;2;3
"c'est nous les gars de menilmontant";0;0;1;4
"pascale cayla";0;0;1;10
"li foto love";0;0;2;1
"are we friend";0;0;1;8
"toma .l.";0;0;1;9
"alexandre joly";0;0;1;10;0;0;1;9
monsieur;0;0;1;7
"thomas jorion";0;0;2;3
"le bal à jo";0;0;1;11
"arroyo peintre";0;0;1;5
"statue gorille rouge";0;0;1;8
"arroyo eduardo";0;0;1;10
"vente sculpture";0;0;1;1
t195;0;0;1;5
"jean michel basquiat œuvres d'art";0;0;3;1
"sculpture a vendre";0;0;1;1
"erin cone";0;0;1;6
"aillaud gilles";0;0;2;7
"louis blanc photographie";0;0;2;9
"christophe charbonnel";0;0;1;5
"peintre artiste contemporain";0;0;1;4
"charles guyot";0;0;1;1
sculptu;0;0;1;10
"ronald dupont";0;0;3;2
"francois morelet";0;0;1;8
"galerie street art lille";0;0;1;10
"mr chat";0;0;1;6
"jonone graffiti";0;0;1;6
poés;0;0;2;4
"karine paoli";0;0;1;8
"rakel wajnberg";0;0;2;1
"jonone artiste peintre";0;0;1;2
"oeuvre d'art photographie";0;0;1;1
"artiste costa";0;0;2;3
"fazzino art";0;0;1;5
"victor richardson";0;0;1;11
"sergio ferro";0;0;1;1
"mecanic art";0;0;1;10
"chanoir artiste";0;0;1;2
beaufils;0;0;1;35
"anouk grinberg";0;0;1;35
"artiste bresilien britto";0;0;2;4
"antoine de la boulaye";0;0;1;4
"anne guillon";0;0;1;7
"benjamin vautier biographie";0;0;1;10
"galerie art contemporain";0;0;3;10
artiane;0;0;2;4
"galerie d'arts";0;0;1;5
banksy;0;0;1;48
"galerie en ligne art contemporain";0;0;1;1
"nicolas dhervillers";0;0;3;5
"richard orlinski oeuvres";0;0;1;5
"patrick gonzales";0;0;1;10
"marie-anne thieffry";0;0;1;2
"cécile colombo";0;0;1;5
"galerie hus";0;0;2;11
"anna silk nude";0;0;1;8
"guillaume moschini";0;0;1;4
cieu;0;0;1;5
"c'est pas rien";0;0;1;7
"valerie marty";0;0;2;9
"antonio segui peintre";0;0;1;11
"al katia";0;0;1;5
"eva jospin artiste";0;0;1;6
"angel l ortiz";0;0;1;6
"benjamin spark";0;0;1;9
"romain saintonge";0;0;1;5
"octave pixel";0;0;2;2.5
ideelart;0;0;1;3
"fred calmets";0;0;1;4
"zhang wei artist";0;0;1;2
"sculpture moderne et contemporaine";0;0;1;5
"peter hoffer";0;0;1;4
"emmanuel flipo";0;0;2;2
"gordon hopkins";0;0;2;3
"françois morellet";0;0;1;8
"oeuvre sérigraphie";0;0;1;9
"evelyne deret";0;0;1;3
"anne marie thieffry";0;0;2;2
"planete serie";0;0;1;7
"jean michel basquiat in italian";0;0;4;10
vilela;0;0;2;57
"fabrice hyber oeuvres";0;0;1;6
miss.tic;0;0;1;7
"jean baptiste dumont";0;0;2;9.5
"vente d art";0;0;1;1
"louis stettner";0;0;2;8
"biographie artiste contemporain";0;0;1;10
"artiste déesse";0;0;1;7
"carine joiris";0;0;1;3
skunkdog;0;0;1;1
"rené botti";0;0;1;4
"beatrice terra";0;0;1;1
"art to be gallery";0;0;1;5
"raphael tachdjian";0;0;1;3
"gregory berben";0;0;1;10
"chen yidan";0;0;1;5
"nils udo oeuvres";0;0;1;7
"yasse tabuchi";0;0;1;9
"maja desnuda tableau";0;0;1;11
"collection d'art";0;0;1;12
"photos portraits femmes";0;0;1;1
"andreas gursky oeuvres";0;0;1;4
"sans titre 01";0;0;1;5
"olivier masmonteil artiste peintre";0;0;1;6
"bruno catalano prix sculptures";0;0;2;2
"om mer";0;0;1;4
"photo david lachapelle";0;0;4;6
"gottfried honegger";0;0;1;11
"isabelle bartoli";0;0;1;2
"sergio moscona";0;0;3;4
"peintre ben bella";0;0;1;1
artspert;0;0;1;1
"andoche praudel";0;0;1;4
"france mitrofanoff";0;0;1;2
"vidal x";0;0;1;10
"manu perez peintre";0;0;1;4
"eugene begarat";0;0;1;1
"francoise danel";0;0;1;2
"galerie d'art virtuelle";0;0;1;2
"udo nils";0;0;1;9
"valerie hadida biographie";0;0;1;3
"francois giraudeau";0;0;1;10
"keith haring montreux";0;0;1;6
shup;0;0;1;9
"ski sex";0;0;1;8
"irina ionesco nue";0;0;1;7
"keith haring lucky strike";0;0;1;5
"ludovic chemarin";0;0;1;9
"jiji girl";0;0;1;8
"artiste peintre japonais contemporain";0;0;2;12.5
"frédéric prat";0;0;1;6
"oeuvre de david";0;0;1;10
"brigitte penicaud ceramiste";0;0;1;4
"hervé telemaque peintre";0;0;1;5
"french flag art";0;0;2;4.5
"patrick loste";0;0;4;9
"peintre leo galamez";0;0;1;2
kikayou;0;0;3;5
"anne brunet";0;0;1;6
"pastel 2";0;0;1;10
"norma bessiere";0;0;1;3
"artop lille";0;0;2;7.5
"herve perdriel";0;0;1;2
"messager annette";0;0;1;9
"francois bard prices";0;0;1;1
"photographie de rue";0;0;1;80
"sebastien bayet";0;0;1;1
"brugier rigail";0;0;2;7
"mont de venus";0;0;1;42
"cesar le sculpteur";0;0;2;10
"orlan œuvres d'art";0;0;1;7
"peter klasen oeuvres";0;0;1;1
"tilt toulouse";0;0;1;10
"alain josseau artiste";0;0;1;2
"gerard rancinan";0;0;2;7
"acheter sculpture";0;0;1;1
"helion jean";0;0;1;6
"crane papillon";0;0;1;5
"bob carlos clarke";0;0;1;10
"mahjoub ben bella prix";0;0;2;3
"sandra david";0;0;2;6.5
"pierre muckensturm";0;0;2;5
"li wei artist";0;0;1;6
"galerie ange basso";0;0;1;4
"photographer david lachapelle";0;0;1;9
"manu adam";0;0;3;4
osite;0;0;1;5
baldaccini;0;0;2;6
"y galerie";0;0;1;2
"eugène begarat peintre";0;0;1;1
"pierre boncompain";0;0;2;5
"fanny dubois artiste";0;0;1;1
"art achat";0;0;1;1
"la chambre rouge";0;0;1;193
"art contemporain sculpture";0;0;1;2
"jeff koons biographie";0;0;2;9
"elder batista";0;0;5;5
renonciat;0;0;1;6
"atelier murielle vanhove";0;0;1;4
"john crash matos";0;0;1;1
"folly and muse";0;0;1;4
"jean denis walter";0;0;1;6
"julien barcilon";0;0;2;3
"l'homme en mouvement";0;0;3;10.333333333333
"stéphane gautier";0;0;1;3
"rudolf hausner";0;0;1;4
"jef aerosol beaubourg";0;0;2;10
"cesar baldaccini";0;0;1;7
"renaud bargues";0;0;1;3
dubreuille;0;0;1;11
"alain huet";0;0;3;10
"pilar du breuil";0;0;1;6
"art vente en ligne";0;0;1;1
"damien gard";0;0;1;8
"patrick bailly maitre";0;0;1;7
"oeuvres arman";0;0;1;7
"acheter art";0;0;3;1
"sylvain coulaud";0;0;1;3
"marie rioux";0;0;1;9
"boudon sculpteur";0;0;1;8
"jaques villegle";0;0;1;5
"henri lamy";0;0;10;3.1
stani;0;0;1;3
"peter klasen peintre";0;0;1;3
"portraits de femmes";0;0;3;1
"jean dubuffet oeuvres";0;0;5;5.8
"chat street art";0;0;1;5
"philippe jarrigeon";0;0;1;10
"anne valérie dupond";0;0;1;7
"benjamin carbone";0;0;1;5
prettyportal;0;0;1;5
"sculptures monumentales";0;0;3;7
"romero britto prix";0;0;1;8
"ronald dupont artist";0;0;1;2
"thierry bigaignon";0;0;2;3
"marchal mithouard";0;0;1;8
argentic;0;0;3;7
"nico sculpture";0;0;1;7
"takashi murakami sculpture";0;0;1;4
"peinture de geisha";0;0;1;38
"cesar santos dvd";0;0;1;19
"bob verschueren";0;0;2;6
"mendjisky peintre";0;0;1;5
"david de lachapelle photographer";0;0;1;11
"toma artiste peintre";0;0;1;5
"galerie belgique";0;0;1;4
"jr photos";0;0;1;1
"isabelle cochereau";0;0;1;8
"galerie bacqueville lille";0;0;1;8
"peintre costa";0;0;1;7
frenchartstudio;0;0;2;5
"pierre kroll biographie";0;0;1;10
"sculpture contemporaine a vendre";0;0;2;1
"bernard buffet paysage";0;0;1;6
"leo mordac";0;0;1;3
"anne berry";0;0;1;8
"henri iglesis";0;0;1;4
"gallery d art";0;0;3;3
"artiste chinois liu bolin";0;0;1;4
unbo;0;0;1;7
"galerie photo d'art en ligne";0;0;2;4
"site vente art";0;0;1;1
"jean-michel coignard";0;0;1;183
"galerie david guiraud";0;0;1;5
"liu bolin wikipedia";0;0;1;5
"moya patrick";0;0;1;6
"galerie art contemporain bruxelles";0;0;1;11
"street art galerie";0;0;6;9.8333333333333
"daniel authouart";0;0;1;9
"galerie artiane honfleur";0;0;1;6
kuska;0;0;1;9
plouvier;0;0;2;23
"moninot bernard peintre";0;0;1;7
"artiste contemporain français connu";0;0;1;22
"mel ramos sculpture";0;0;1;8
"leo caillard";0;0;1;12
"cieu artiste";0;0;1;7
