artsper;21;0.11170212765957;188;1;15;0.11627906976744;129;1;5;0.13888888888889;36;1;1;0.043478260869565;23;1
sculpture;4;0.0078740157480315;508;5.2677165354331;4;0.014440433212996;277;5.3176895306859;0;0;150;5.2733333333333;0;0;81;5.0864197530864
quik;3;0.019867549668874;151;1.7086092715232;1;0.018181818181818;55;1.5454545454545;2;0.027397260273973;73;1.7260273972603;0;0;23;2.0434782608696
"galerie d'art";3;0.088235294117647;34;8.2352941176471;2;0.074074074074074;27;9;1;0.16666666666667;6;4.8333333333333;0;0;1;8
"speedy graphito";3;0.12;25;5.36;1;0.058823529411765;17;5.0588235294118;0;0;5;6.2;2;0.66666666666667;3;5.6666666666667
"dominique jousseaume";2;0.66666666666667;3;6.6666666666667;2;0.66666666666667;3;6.6666666666667
sculptures;2;0.08695652173913;23;5.5217391304348;2;0.095238095238095;21;5.5238095238095;0;0;1;6;0;0;1;5
"vincent richeux";2;0.11764705882353;17;4.0588235294118;1;0.16666666666667;6;4;1;0.125;8;4.125;0;0;3;4
"herve lewis";2;0.2;10;6.6;1;0.16666666666667;6;6.5;1;0.5;2;5.5;0;0;2;8
"jacques villeglé biographie courte";2;0.66666666666667;3;2;1;1;1;2;1;0.5;2;2
"costa fernando";2;1;2;6;2;1;2;6
"artsper galerie";2;1;2;1;2;1;2;1
"billet banksy";2;0.5;4;1;2;0.66666666666667;3;1;0;0;1;1
"jm robert";2;0.4;5;2;2;0.5;4;2;0;0;1;2
skunkdog;2;0.33333333333333;6;4.8333333333333;1;0.5;2;4.5;1;0.5;2;5
"fernando costa";2;0.1;20;4.7;0;0;7;4.1428571428571;0;0;7;5;2;0.33333333333333;6;5
jmrobert;2;1;2;2;2;1;2;2
"etienne rey";2;0.28571428571429;7;6.7142857142857;2;0.5;4;6.5;0;0;2;7;0;0;1;7
"kami voituriez";2;1;2;1;2;1;2;1
"julie hauer";2;0.66666666666667;3;5.3333333333333;2;1;2;7;0;0;1;2
"guy weladji";2;1;2;1;2;1;2;1
tanc;2;0.14285714285714;14;5.3571428571429;1;0.125;8;5;0;0;4;5.75;1;0.5;2;6
"bruno catalano prix";2;0.18181818181818;11;3.8181818181818;1;0.25;4;4;1;0.33333333333333;3;4
"jonone prix";1;0.2;5;1;1;0.5;2;1;0;0;3;1
"salon d'art contemporain montreux";1;1;1;5;1;1;1;5
"richeux vincent";1;1;1;4;1;1;1;4
"bernard pras";1;0.025;40;3.775;1;0.037037037037037;27;3.2222222222222;0;0;8;5.125;0;0;5;4.6
"james dean tattoo";1;0.5;2;10;1;0.5;2;10
"francois bard";1;0.2;5;2;1;0.25;4;2;0;0;1;2
"deesse artiste allemande";1;0.2;5;2;1;0.2;5;2
"eva jospin";1;0.0625;16;5.375;1;0.1;10;4.7;0;0;5;6.2;0;0;1;8
"mikael lafontan";1;0.5;2;2;1;1;1;1;0;0;1;3
chubac;1;0.33333333333333;3;5.3333333333333;1;0.33333333333333;3;5.3333333333333
"françois bard peintre";1;1;1;2;1;1;1;2
"carl andré";1;0.058823529411765;17;6.3529411764706;1;0.076923076923077;13;6.1538461538462;0;0;2;7;0;0;2;7
"patrick moya";1;0.25;4;3.5;1;0.5;2;4
"charlelie couture peinture";1;0.33333333333333;3;3;1;0.33333333333333;3;3
"renk artiste";1;0.33333333333333;3;6;1;0.5;2;6
"lampe carlo nason";1;0.5;2;3;1;0.5;2;3
"jeunes artistes contemporains";1;0.14285714285714;7;7.1428571428571;1;0.16666666666667;6;7
"ours en raku";1;1;1;68;1;1;1;68
"robert sgarra";1;1;1;3;1;1;1;3
"alain buyse";1;0.16666666666667;6;7.3333333333333;1;1;1;8
"jr oeuvre";1;0.5;2;5.5;0;0;1;6;1;1;1;5
zalez;1;0.33333333333333;3;4;1;1;1;6;0;0;2;3
"galerie art contemporain";1;0.16666666666667;6;5.3333333333333;1;0.25;4;5.5;0;0;1;5;0;0;1;5
"carlo nason";1;0.25;4;4;1;0.25;4;4
"henri cartier bresson biographie";1;1;1;28;1;1;1;28
"tom wesselmann biographie";1;1;1;2;1;1;1;2
"régis feugère";1;1;1;4;1;1;1;4
krm;1;0.11111111111111;9;2.6666666666667;1;0.2;5;2.2
"etienne gros";1;0.25;4;5;1;0.5;2;5;0;0;2;5
"laure andre";1;1;1;8;1;1;1;8
iemza;1;0.125;8;4;1;0.25;4;4
"galerie charron";1;1;1;4;1;1;1;4
nojnoma;1;0.33333333333333;3;8;1;0.33333333333333;3;8
denning;1;1;1;10;1;1;1;10
"malika mokadem photographe";1;0.33333333333333;3;9.3333333333333;1;0.5;2;9;0;0;1;10
"kenneth noland oeuvres";1;1;1;4;1;1;1;4
"jonone art for sale";1;1;1;1;1;1;1;1
"sculpture japonaise contemporaine";1;0.5;2;9;1;0.5;2;9
jonone;1;0.0079365079365079;126;4.6190476190476;0;0;34;5.7058823529412;1;0.076923076923077;13;5.6153846153846
"patrick bastardoz";1;1;1;4;1;1;1;4
"kiki picasso";1;0.033333333333333;30;6.4666666666667;1;0.043478260869565;23;6.2608695652174;0;0;4;7.25;0;0;3;7
"audoin desforges";1;0.25;4;6;1;0.25;4;6
"atila biro";1;0.33333333333333;3;3.6666666666667;1;0.33333333333333;3;3.6666666666667
"beatrice terra";1;0.5;2;1.5;1;0.5;2;1.5
"zed artiste";1;0.25;4;2.5;1;0.5;2;2;0;0;2;3
"galerie duret";1;0.11111111111111;9;3;1;0.11111111111111;9;3
"lindsay garreau";1;1;1;3;1;1;1;3
"di rosa prix";1;1;1;4;1;1;1;4
"renaud delorme";1;0.5;2;12;0;0;1;22;1;1;1;2
"sergio moscona";1;0.16666666666667;6;3.1666666666667;1;0.33333333333333;3;3;0;0;1;4
"jack pierson self portrait";1;0.5;2;3;1;0.5;2;3
"filles en bas de soie";1;0.2;5;2.6;1;0.25;4;2;0;0;1;5
"phil couture";1;1;1;3;1;1;1;3
"julien colombier";1;1;1;11;1;1;1;11
"alain godon";1;0.05;20;2.9;0;0;14;3.7142857142857;1;0.25;4;1;0;0;2;1
"charlotte champion";1;0.25;4;3.5;0;0;3;3.6666666666667;1;1;1;3
"orlan œuvres d'art";1;1;1;5;1;1;1;5
"norman rockwell œuvres d'art";1;1;1;16;1;1;1;16
chanoir;1;0.14285714285714;7;1;0;0;2;1;1;0.5;2;1;0;0;3;1
villeglé;1;0.045454545454545;22;5.5454545454545;1;0.2;5;5.2
"christof monnin";1;0.090909090909091;11;10;1;0.16666666666667;6;10;0;0;1;10;0;0;4;10
layral;1;0.5;2;6;1;0.5;2;6
"hervé di rosa";1;0.043478260869565;23;4.4347826086957;1;0.066666666666667;15;3.8;0;0;3;5;0;0;5;6
"amateur d'art";1;0.2;5;12.4;1;0.5;2;15;0;0;3;10.666666666667
"tilt artiste";1;0.5;2;6.5;1;1;1;6
"robert combas a vendre";1;1;1;12;1;1;1;12
"philippe pasqua";1;0.03448275862069;29;6.2758620689655;0;0;19;5.8947368421053;1;0.14285714285714;7;7;0;0;3;7
"ando hiro";1;0.5;2;1;1;0.5;2;1
"hiro ando";1;0.16666666666667;6;1.8333333333333;1;0.25;4;1.5;0;0;2;2.5
"costa sculpteur";1;0.25;4;2.75;0;0;3;2.3333333333333;1;1;1;4
"takashi murakami flower cushion";1;1;1;3;1;1;1;3
"troy henriksen prix";1;0.33333333333333;3;1;1;1;1;1;0;0;1;1;0;0;1;1
"crash john matos";1;1;1;3;1;1;1;3
"art en vogue";1;1;1;3;1;1;1;3
"gautier deblonde";1;0.5;2;3;1;0.5;2;3
"catalano bruno prix des oeuvres";1;0.5;2;3;1;1;1;3;0;0;1;3
"no art";1;1;1;5;1;1;1;5
"thomas bossard";1;0.25;4;3;0;0;3;3;1;1;1;3
"oeuvre d'art sur la peur";1;1;1;2;1;1;1;2
"eric deville";1;0.5;2;3.5;0;0;1;4;1;1;1;3
"topolino peintre sete";1;0.2;5;2.4;0;0;1;3;1;0.5;2;2
"mahjoub ben bella prix";1;0.5;2;2;1;1;1;2;0;0;1;2
"hanna sidorowicz";1;0.14285714285714;7;7;0;0;1;7;1;0.2;5;7
"jean-marie drouet";1;0.25;4;4;1;0.33333333333333;3;4;0;0;1;4
"philippe hiquily";1;0.33333333333333;3;7.3333333333333;1;0.33333333333333;3;7.3333333333333
"julien airault";1;0.16666666666667;6;3.1666666666667;1;0.5;2;3;0;0;4;3.25
"thomas subtil";1;0.16666666666667;6;5.6666666666667;1;0.5;2;5;0;0;1;6;0;0;3;6
"orlinski prix";1;0.5;2;8;1;1;1;8;0;0;1;8
"female nu";1;0.25;4;5.5;1;0.33333333333333;3;5.3333333333333;0;0;1;6
"olivier lelong";1;0.5;2;2.5;1;0.5;2;2.5
"duster graffiti artist";1;1;1;6;1;1;1;6
"luc lacroix";1;0.33333333333333;3;6.6666666666667;1;0.5;2;7.5;0;0;1;5
"sisyphe sculpture";1;0.2;5;9.2;1;1;1;10
"dan rawlings art";1;0.33333333333333;3;1;1;0.33333333333333;3;1
agafia;1;0.5;2;20.5;1;0.5;2;20.5
"gerstein david";1;0.33333333333333;3;4.3333333333333;0;0;1;3;1;1;1;6;0;0;1;4
"fabrice hyber oeuvres";1;0.5;2;6;1;1;1;6;0;0;1;6
"casey baugh";1;1;1;12;1;1;1;12
stani;1;0.2;5;1;1;0.25;4;1;0;0;1;1
"corinne pagny";1;1;1;3;1;1;1;3
"peintre nadal";1;0.25;4;8;1;0.5;2;8;0;0;2;8
"hank china prix";1;0.5;2;1;1;1;1;1;0;0;1;1
"l'atlas artiste";1;0.14285714285714;7;6.8571428571429;1;0.25;4;6.5;0;0;2;7.5;0;0;1;7
scultures;1;0.14285714285714;7;5.7142857142857;1;0.16666666666667;6;5.6666666666667;0;0;1;6
"pierre marie brisson prix";1;0.2;5;1;1;0.33333333333333;3;1;0;0;2;1
"françois malingrey";1;0.125;8;5;1;0.125;8;5
"matthew feyld";1;1;1;5;1;1;1;5
"ced vernay";1;0.5;2;4;1;0.5;2;4
"antonio segui";1;0.076923076923077;13;9.3846153846154;0;0;3;10;1;1;1;11
"banksy faux billets";1;1;1;10;1;1;1;10
"guillaumette duplaix";1;0.33333333333333;3;1;1;0.5;2;1;0;0;1;1
"anneke lauwaert";1;0.5;2;6;1;0.5;2;6
"marc petit sculpteur";1;1;1;18;1;1;1;18
"gérard boudon";1;1;1;2;1;1;1;2
"patrick loste";1;0.14285714285714;7;8.1428571428571;1;0.14285714285714;7;8.1428571428571
"airault peintre";1;0.25;4;4;1;1;1;2
"wang yan cheng";1;0.045454545454545;22;7.8181818181818;1;0.076923076923077;13;8;0;0;7;7.2857142857143;0;0;2;8.5
"francois glineur";1;0.5;2;1;1;0.5;2;1
"guy boyer peintre";1;0.5;2;1;0;0;1;1;1;1;1;1
"julien allegre";1;0.25;4;6.75;1;0.33333333333333;3;6.6666666666667;0;0;1;7
"catherine lambermont";1;1;1;3;1;1;1;3
"daniel paugam";1;0.25;4;7.75;0;0;2;8;1;1;1;7;0;0;1;8
"iemza artiste";1;1;1;6;1;1;1;6
"roberto santo sculpture";1;1;1;7;1;1;1;7
"olivier catté";1;1;1;2;1;1;1;2
"bernar venet";1;0.04;25;7;0;0;9;7.4444444444444;1;0.25;4;6.75
"joel hubaut";1;0.14285714285714;7;6.7142857142857;1;1;1;6
"richard orlinski";1;0.0080645161290323;124;8.3709677419355;0;0;40;8.725;1;0.0625;16;8.75
"marie claude le floch";1;1;1;9;1;1;1;9
"shaka artiste";1;1;1;5;1;1;1;5
"jef aerosol prix";1;0.5;2;1;1;1;1;1
"christoff debusschere";1;0.25;4;8.5;1;0.33333333333333;3;8;0;0;1;10
"patrick delaunay";1;0.2;5;6.2;1;0.2;5;6.2
"sara sammakia";1;1;1;5;1;1;1;5
"nicolas dubreuille";1;0.2;5;2.2;1;0.25;4;2;0;0;1;3
"troy henriksen cote";1;0.25;4;1.75;1;0.33333333333333;3;1.6666666666667;0;0;1;2
"philipe favier";1;1;1;9;1;1;1;9
"karl mårtens";1;1;1;10;1;1;1;10
"jean pierre attal";1;0.16666666666667;6;5.5;1;0.25;4;5.25;0;0;1;6;0;0;1;6
"angelica wiik";1;0.5;2;3;1;0.5;2;3
"britto artiste";1;0.25;4;4;1;0.25;4;4
"guillemette schlumberger";1;0.25;4;5.75;1;0.25;4;5.75
"herve telemaque";1;1;1;5;1;1;1;5
"stephane joannes";1;0.33333333333333;3;2;0;0;2;2;1;1;1;2
"christine barres prix";1;0.5;2;2;1;0.5;2;2
moscona;1;1;1;2;1;1;1;2
"robert combas oeuvres";1;1;1;5;1;1;1;5
"fabrice hyber";1;0.0625;16;5.3125;1;0.076923076923077;13;4.8461538461538;0;0;2;8;0;0;1;6
"benjamin spark";1;0.1;10;9.1;0;0;2;9;1;0.2;5;9
"peinture skieur";1;1;1;8;1;1;1;8
"main tendue vers le ciel";1;1;1;3;1;1;1;3
"tiffany chung";1;1;1;2;1;1;1;2
"charlotte perrot";1;0.5;2;4.5;1;0.5;2;4.5
"galerie envie d'art";1;0.25;4;3;1;1;1;3;0;0;1;3
"marc combas";1;0.33333333333333;3;2;1;1;1;2;0;0;2;2
"karine chaudé";1;1;1;2;1;1;1;2
tieri;1;0.2;5;7;0;0;1;7;1;0.5;2;7
"jean christophe fischer";1;0.33333333333333;3;4;1;0.33333333333333;3;4
durix;1;0.25;4;5;1;0.5;2;3.5;0;0;2;6.5
enviedart;1;0.25;4;4;1;1;1;4;0;0;1;4
"patrick guidot";1;1;1;12;1;1;1;12
"villas sculpteur";1;0.5;2;2.5;1;1;1;2
"feet fetish art";1;1;1;20;1;1;1;20
"ernest pignon ernest";1;0.083333333333333;12;9.75;1;0.1;10;9.5;0;0;1;13;0;0;1;9
"marie ange daudé";1;0.1;10;4.9;1;0.2;5;5;0;0;4;4.75;0;0;1;5
"olivier courty";1;0.11111111111111;9;6;1;0.11111111111111;9;6
"pierre francois grimaldi";1;0.16666666666667;6;2.6666666666667;1;0.5;2;2;0;0;2;3;0;0;2;3
"catherine lopes curval";1;1;1;6;1;1;1;6
"mahjoub ben bella biographie";1;0.25;4;1;0;0;2;1;1;1;1;1;0;0;1;1
"massimo vitali vente";1;1;1;4;1;1;1;4
"thierry feuz artiste peintre";1;0.5;2;3;1;0.5;2;3
zenoy;1;0.5;2;4;1;0.5;2;4
"charles fazzino";1;0.14285714285714;7;7.2857142857143;1;0.25;4;8.5;0;0;3;5.6666666666667
"anaïs boudot";1;1;1;4;1;1;1;4
"mont de vénus";1;0.5;2;40;1;1;1;41;0;0;1;39
"combas robert";1;0.14285714285714;7;4.5714285714286;0;0;3;4;1;0.33333333333333;3;5;0;0;1;5
sculture;1;0.037037037037037;27;5.6296296296296;0;0;21;5.5714285714286;0;0;4;6;1;0.5;2;5.5
"yutao ge";1;1;1;1;1;1;1;1
"truc anh";1;0.33333333333333;3;5;1;0.33333333333333;3;5
"marie piselli";1;0.5;2;6;0;0;1;5;1;1;1;7
"étienne gros";1;1;1;6;1;1;1;6
"duong le thai";1;0.5;2;5.5;0;0;1;5;1;1;1;6
"benjamin spark prix";1;0.5;2;4.5;0;0;1;5;1;1;1;4
"jeanne lorioz";1;0.5;2;3;1;0.5;2;3
"aki kuroda";1;0.14285714285714;7;5.1428571428571;1;0.2;5;5;0;0;1;5;0;0;1;6
"galerie roy sfeir";1;0.25;4;4;1;0.25;4;4
jakè;1;0.33333333333333;3;3.3333333333333;1;1;1;4
"soly cisse";1;1;1;8;1;1;1;8
"klasen peintre";1;0.5;2;2.5;1;1;1;2;0;0;1;3
"le chat peintre";1;1;1;5;1;1;1;5
"oeuvre keith haring";1;0.2;5;6;1;0.25;4;6;0;0;1;6
"jean luc beaufils";1;0.33333333333333;3;4.3333333333333;1;0.5;2;4.5
"ben artiste";1;0.083333333333333;12;4.4166666666667;1;0.14285714285714;7;4;0;0;3;5;0;0;2;5
"peintre milo";1;1;1;4;1;1;1;4
"cecile desserle";1;0.2;5;4.4;1;0.25;4;4.25;0;0;1;5
"laurence nolleau";1;1;1;10;1;1;1;10
"elodie grégoire";1;0.33333333333333;3;7;1;0.33333333333333;3;7
"balloon dog bernardaud";1;1;1;3;1;1;1;3
"hugo laruelle";1;0.11111111111111;9;3.2222222222222;1;0.25;4;3.25;0;0;2;3.5
"artiste deesse";1;1;1;4;1;1;1;4
"romain tichit";1;0.25;4;3.75;1;0.33333333333333;3;4;0;0;1;3
"charles guyot";1;0.125;8;1;0;0;3;1;1;0.2;5;1
"lionel sourisseau";1;1;1;3;1;1;1;3
"louis blanc photographie";0;0;1;1;0;0;1;1
"elias arno";0;0;1;5;0;0;1;5
"benjamin deroche";0;0;3;5.6666666666667;0;0;2;5.5;0;0;1;6
"milo artiste";0;0;1;7;0;0;1;7
"antoine mercusot";0;0;3;7;0;0;2;9;0;0;1;3
"hideka tonomura";0;0;3;2;0;0;3;2
"villa oriental frankfurt";0;0;1;188;0;0;1;188
"christian silvain";0;0;1;5;0;0;1;5
"miro oeuvres";0;0;1;11;0;0;1;11
"andré nadal";0;0;1;5;0;0;1;5
"vente tzarina aucun";0;0;2;14;0;0;2;14
"artiste angolais";0;0;1;10;0;0;1;10
"daniel de spirt";0;0;2;7;0;0;2;7
"izabeau jousse";0;0;3;3.6666666666667;0;0;2;3;0;0;1;5
"sophie cavalié";0;0;1;5;0;0;1;5
"jerome mesnager cote";0;0;2;3;0;0;2;3
"statue art moderne";0;0;1;2;0;0;1;2
yzeult;0;0;1;1;0;0;1;1
"helene duclos";0;0;1;9;0;0;1;9
adamaszek;0;0;1;4;0;0;1;4
"galerie leadouze";0;0;1;4;0;0;1;4
"as i opened fire lichtenstein";0;0;1;3;0;0;1;3
"achat oeuvres d'art";0;0;1;1;0;0;1;1
"sylvie koechlin";0;0;1;15;0;0;1;15
"e galleries";0;0;1;34;0;0;1;34
"laurent roux";0;0;1;24;0;0;1;24
"alexandre de poplavsky";0;0;2;4;0;0;1;4;0;0;1;4
"galerie mondapart";0;0;2;4;0;0;2;4
"isabelle levistre";0;0;1;6;0;0;1;6
flamboiement;0;0;1;44;0;0;1;44
"oeuvre d'art a vendre";0;0;2;1;0;0;1;1;0;0;1;1
graphem;0;0;2;13;0;0;2;13
"anne vignal";0;0;1;3;0;0;1;3
"oeuvre monumentale";0;0;2;6;0;0;2;6
"bob verschueren";0;0;2;6.5;0;0;1;6;0;0;1;7
"steven siegel";0;0;2;7;0;0;1;7;0;0;1;7
"sculpture lievre";0;0;1;8;0;0;1;8
"pablito zago";0;0;2;7
"jean michel basquiat ses oeuvres les plus célèbres";0;0;1;16;0;0;1;16
"claude mollard";0;0;6;4.3333333333333;0;0;3;4.3333333333333;0;0;1;4;0;0;2;4.5
"john matos crash";0;0;3;4;0;0;3;4
"roger edgar gillet";0;0;1;10;0;0;1;10
"richard orlinsky";0;0;3;8.3333333333333;0;0;3;8.3333333333333
fkdl;0;0;5;5.8;0;0;3;6;0;0;2;5.5
"nowart peintre";0;0;1;2;0;0;1;2
"fabio coruzzi";0;0;1;8
"galerie d'art contemporain";0;0;4;2.75;0;0;4;2.75
"hanns peter krafft";0;0;1;3;0;0;1;3
"artistes contemporains japonais";0;0;1;13;0;0;1;13
"a nous paris";0;0;2;33.5;0;0;2;33.5
grisor;0;0;2;2
venet;0;0;1;41;0;0;1;41
"galerie art";0;0;11;10.090909090909;0;0;10;10;0;0;1;11
"gerard schlosser";0;0;3;5.3333333333333;0;0;2;6;0;0;1;4
"peinture vache";0;0;2;19.5;0;0;2;19.5
"ralph gibson";0;0;1;15;0;0;1;15
"dubuffet peintre";0;0;4;5.25;0;0;4;5.25
"valerio adami prix";0;0;1;13;0;0;1;13
"home alone 7";0;0;1;8;0;0;1;8
"franck muracciole";0;0;1;6;0;0;1;6
"elizabeth gourlay";0;0;1;22
"9e concept";0;0;8;7;0;0;8;7
scotta;0;0;1;10;0;0;1;10
"tal coat";0;0;14;7.7857142857143;0;0;9;11.555555555556;0;0;4;1;0;0;1;1
"christophe charbonnel sculpteur";0;0;3;6
"photographe surréaliste";0;0;3;9.3333333333333;0;0;1;10;0;0;2;9
"solene ballesta";0;0;2;4;0;0;1;4;0;0;1;4
"homme qui cour";0;0;1;45
"maxime boubekeur";0;0;1;27;0;0;1;27
sugarbabe;0;0;1;32;0;0;1;32
"benjamin artiste";0;0;1;7;0;0;1;7
"antoine veron";0;0;3;5.3333333333333
"eric ville";0;0;1;4;0;0;1;4
"david maheo";0;0;2;3;0;0;2;3
"art paris art fair";0;0;2;37
"uche okpa-iroha";0;0;1;3
"speedy grafito";0;0;2;6;0;0;2;6
"oswaldo guayasamin";0;0;2;7;0;0;2;7
"timothée talard";0;0;1;4
keymi;0;0;4;10
"valerio adami";0;0;1;23;0;0;1;23
"alain rivière";0;0;1;10;0;0;1;10
dugied;0;0;2;5.5;0;0;2;5.5
"oeuvre de keith haring";0;0;4;5.5;0;0;1;6
"benjamin carbonne";0;0;1;1;0;0;1;1
"tom wesselmann";0;0;25;4.96;0;0;20;4.95;0;0;5;5
"galerie bettina";0;0;1;7;0;0;1;7
lokiss;0;0;3;10;0;0;3;10
"galerie envie d'art paris 8";0;0;2;9.5;0;0;1;11
wesselman;0;0;4;8
lemoduledezeer;0;0;4;4;0;0;3;4;0;0;1;4
"ralf peters";0;0;1;6;0;0;1;6
"georges bru";0;0;1;2
"jef aerosol sitting kid";0;0;1;6;0;0;1;6
"france mitrofanoff";0;0;1;2
"hedva ser";0;0;1;4;0;0;1;4
"frédéric garnier";0;0;1;27
oksana;0;0;1;45;0;0;1;45
"claas gutsche";0;0;1;5;0;0;1;5
"jerome menager";0;0;1;7;0;0;1;7
"leveque claude";0;0;1;7;0;0;1;7
"gustav links";0;0;1;1
"philippe gourier";0;0;3;6;0;0;1;6
"kongo artiste";0;0;2;8.5;0;0;2;8.5
"toshinobu sugimoto";0;0;1;87
demsteader;0;0;1;7;0;0;1;7
"basquiat skulls";0;0;1;8;0;0;1;8
"oeuvre d'art en ligne";0;0;1;1;0;0;1;1
"super mimi";0;0;1;8
"annette messager";0;0;42;8.5238095238095;0;0;7;9;0;0;8;9
"serge labégorre";0;0;1;9;0;0;1;9
benaroche;0;0;1;30;0;0;1;30
"poes graffiti";0;0;1;7
"india leire";0;0;1;6;0;0;1;6
"gilles de beauchene";0;0;1;6;0;0;1;6
"morgan paslier";0;0;2;4;0;0;2;4
"hotel moschini";0;0;1;185
"pantalon de peintre";0;0;1;138;0;0;1;138
"nathalie de frouville";0;0;1;17
henriksen;0;0;3;7.3333333333333;0;0;1;5;0;0;1;10
"arbus magazine";0;0;1;444;0;0;1;444
"anne lacouture";0;0;3;4;0;0;3;4
"vente collioure le seris 2002";0;0;1;40;0;0;1;40
"bambi artiste";0;0;2;3.5;0;0;2;3.5
"peinture art";0;0;1;17;0;0;1;17
"durix peintre";0;0;1;3;0;0;1;3
"et toi";0;0;1;7;0;0;1;7
"shepard fairley";0;0;2;10.5;0;0;1;11
"jean marc dallanegra";0;0;3;5.3333333333333;0;0;3;5.3333333333333
"guillaume bourquin";0;0;2;3
fiona;0;0;1;206
"bernard pras anamorphose";0;0;2;4;0;0;2;4
tal-coat;0;0;1;11;0;0;1;11
"oeuvre d'art originale";0;0;2;2;0;0;2;2
"gustav klimt oeuvre";0;0;1;32;0;0;1;32
"chat street art";0;0;3;5.6666666666667;0;0;1;5;0;0;2;6
"olivier vincent";0;0;1;10;0;0;1;10
"ren hang";0;0;19;10;0;0;7;10;0;0;12;10
"sophie morisse";0;0;4;4;0;0;3;4;0;0;1;4
"alain vaissiere peintre";0;0;1;4;0;0;1;4
"nathalie tacheau";0;0;2;4;0;0;2;4
exhibe;0;0;1;61;0;0;1;61
"vente trampoline";0;0;1;60;0;0;1;60
"bahareh navabi";0;0;1;5;0;0;1;5
"liu bolin wikipedia";0;0;1;5;0;0;1;5
"oeuvre d'art photographie";0;0;1;1;0;0;1;1
"léopold rabus";0;0;1;6;0;0;1;6
kerbidi;0;0;1;6;0;0;1;6
"sculpteur césar";0;0;1;10;0;0;1;10
"jin bo";0;0;1;5;0;0;1;5
"ernest pignon-ernest";0;0;2;13;0;0;2;13
"kerry eggleton";0;0;2;1;0;0;1;1;0;0;1;1
dauptain;0;0;2;10;0;0;2;10
"anthony lietart";0;0;2;5;0;0;2;5
zooportrait;0;0;2;5;0;0;2;5
"street art shop";0;0;2;21.5;0;0;2;21.5
compoint;0;0;1;37;0;0;1;37
"roman opalka";0;0;1;35;0;0;1;35
"albert chubac";0;0;1;5;0;0;1;5
"catwoman milk";0;0;1;5;0;0;1;5
asa-rt;0;0;1;9;0;0;1;9
"greenwood gallery";0;0;1;8;0;0;1;8
sculprure;0;0;1;4;0;0;1;4
"galerie jacques germain";0;0;2;8;0;0;2;8
leadouze;0;0;1;2;0;0;1;2
"le floch et le floch";0;0;1;1;0;0;1;1
"basquiat jean michel";0;0;1;28;0;0;1;28
"oeuvre nils udo";0;0;3;8;0;0;3;8
"never never";0;0;1;10;0;0;1;10
"vente tableau art contemporain";0;0;1;1;0;0;1;1
"clément denis";0;0;2;3;0;0;2;3
"artistes egyptiens";0;0;1;12;0;0;1;12
"galerie marie vitoux";0;0;4;6.25;0;0;3;6;0;0;1;7
"drouet jean marie";0;0;1;4;0;0;1;4
"patrick marin";0;0;2;5.5;0;0;2;5.5
"bagage homme blanc";0;0;1;17;0;0;1;17
"arman violon";0;0;2;6;0;0;2;6
"galerie d art en ligne";0;0;4;1;0;0;4;1
noetwo;0;0;1;21;0;0;1;21
"francois morrelet";0;0;1;8;0;0;1;8
"live galerie";0;0;1;48;0;0;1;48
"huang yan";0;0;1;4;0;0;1;4
jessome;0;0;1;6;0;0;1;6
"1755 portugal";0;0;1;26;0;0;1;26
"autoportrait robot arman";0;0;1;111;0;0;1;111
"peinture murale gris dior";0;0;1;24;0;0;1;24
"claire fanjul";0;0;2;3;0;0;2;3
lorioz;0;0;1;7;0;0;1;7
"r combas";0;0;1;341;0;0;1;341
"mel ramos";0;0;11;8.2727272727273;0;0;11;8.2727272727273
"photographe belge contemporain";0;0;1;12;0;0;1;12
"peinture de jazz";0;0;2;44;0;0;2;44
"ben bella peintre";0;0;15;2;0;0;7;2;0;0;7;2;0;0;1;2
moschini;0;0;3;4.3333333333333;0;0;2;4;0;0;1;5
"vinz feel free";0;0;1;81;0;0;1;81
"francois poulat";0;0;1;7;0;0;1;7
rigail;0;0;2;19.5;0;0;2;19.5
"galerie nuances et lumieres";0;0;2;3;0;0;2;3
"yahiaoui kamel";0;0;1;9;0;0;1;9
"couvre lit contemporain";0;0;1;41;0;0;1;41
"sayed haider raza";0;0;1;10;0;0;1;10
"catherine klein peintre";0;0;1;7;0;0;1;7
"gérard alary";0;0;1;4;0;0;1;4
klasen;0;0;3;4;0;0;1;2;0;0;2;5
"alfredo lopez";0;0;6;6.1666666666667;0;0;5;6;0;0;1;7
"valérie marty";0;0;2;8;0;0;2;8
"jean-françois jonvelle";0;0;1;11;0;0;1;11
"francine van hove";0;0;6;7;0;0;6;7
"de gottal";0;0;1;58;0;0;1;58
"nathalie grall gravure";0;0;2;6;0;0;2;6
"arbre robuste";0;0;2;10;0;0;1;10;0;0;1;10
"jean faucheur artiste";0;0;2;5.5;0;0;2;5.5
"sculpture gorille";0;0;4;9;0;0;2;10;0;0;2;8
"eric bourguignon";0;0;2;9.5;0;0;1;10;0;0;1;9
nilscale;0;0;1;3;0;0;1;3
"achat oeuvre d'art";0;0;8;1;0;0;4;1;0;0;2;1;0;0;2;1
"florian marco";0;0;3;9;0;0;3;9
"biographie de roman opalka";0;0;2;7;0;0;2;7
"jeff aérosol";0;0;1;5;0;0;1;5
"le bal à jo";0;0;2;6;0;0;2;6
asgar;0;0;1;9;0;0;1;9
"banksy billet";0;0;4;1;0;0;1;1;0;0;2;1;0;0;1;1
"gilles aillaud oeuvres";0;0;2;5;0;0;2;5
"stephane gautier";0;0;3;5.3333333333333;0;0;1;6;0;0;2;5
"ernest pignon ernest biographie";0;0;8;8.125;0;0;6;8.1666666666667;0;0;1;8;0;0;1;8
"mimi the clown";0;0;3;8.3333333333333;0;0;3;8.3333333333333
"mathilde le cabellec";0;0;1;5;0;0;1;5
"john kacere";0;0;3;10;0;0;3;10
"biographie de arman";0;0;3;10;0;0;3;10
"aillaud peintre";0;0;1;8;0;0;1;8
"ambiance architecture";0;0;1;12;0;0;1;12
"oeuvres d'art";0;0;4;6.5;0;0;2;6;0;0;1;7;0;0;1;7
"eduardo chillida oeuvres";0;0;1;6;0;0;1;6
"pierre-marie brisson";0;0;1;3;0;0;1;3
"combas peintre";0;0;8;3.875;0;0;3;3.3333333333333;0;0;3;4.3333333333333;0;0;2;4
"vente art contemporain";0;0;3;1;0;0;3;1
"peinture street";0;0;1;9;0;0;1;9
"m endormir";0;0;1;228;0;0;1;228
"m. chat";0;0;2;10;0;0;2;10
"di rosa sculpteur";0;0;1;5;0;0;1;5
"benoit lemercier";0;0;7;8.8571428571429;0;0;2;9.5;0;0;5;8.6
mrsex;0;0;1;20;0;0;1;20
pecson;0;0;1;10;0;0;1;10
"bruno catalano tarif";0;0;1;5;0;0;1;5
"jacques renoir";0;0;5;7.8;0;0;1;7;0;0;4;8
"michel dubois peintre";0;0;1;6;0;0;1;6
"signature andy warhol";0;0;1;5;0;0;1;5
"clement denis";0;0;2;4.5;0;0;2;4.5
"schneider jean pierre";0;0;1;8;0;0;1;8
"antoine geiger";0;0;1;7;0;0;1;7
"déesse sculpture";0;0;3;6.6666666666667;0;0;1;6;0;0;1;6;0;0;1;8
bjerger;0;0;1;6;0;0;1;6
shup;0;0;3;6.3333333333333;0;0;1;7;0;0;2;6
"patrick naggar";0;0;1;11;0;0;1;11
"caroline poulet";0;0;1;3;0;0;1;3
"compression de cesar";0;0;3;9.3333333333333;0;0;1;8;0;0;2;10
raynaud;0;0;1;50;0;0;1;50
"xose casal";0;0;1;7;0;0;1;7
morinoh;0;0;4;3.75;0;0;4;3.75
"oeuvre sculpture";0;0;2;8.5;0;0;1;9;0;0;1;8
"oeuvre d'art unique";0;0;4;1;0;0;4;1
"peintre combas";0;0;3;4;0;0;3;4
"emmanuel pons";0;0;5;7;0;0;2;8.5;0;0;3;6
"patrick loste artiste peintre";0;0;1;7;0;0;1;7
"claude deutsch";0;0;1;9;0;0;1;9
"peintre buffet";0;0;6;7.8333333333333;0;0;2;7.5;0;0;3;8;0;0;1;8
"julien calot";0;0;4;2;0;0;2;2;0;0;2;2
"arnaud franc";0;0;5;4;0;0;3;4;0;0;1;4;0;0;1;4
"galerie brugier rigail";0;0;1;7;0;0;1;7
"cieu peintre";0;0;1;9;0;0;1;9
"henri cartier bresson oeuvre";0;0;1;20;0;0;1;20
deprun;0;0;1;10;0;0;1;10
"galerie art moderne";0;0;1;3;0;0;1;3
"gregos street art";0;0;2;7;0;0;1;7;0;0;1;7
"street art chat";0;0;2;5;0;0;1;5;0;0;1;5
guayasamin;0;0;3;10;0;0;3;10
"robert bradford";0;0;1;2;0;0;1;2
"photo d'art noir et blanc";0;0;1;34;0;0;1;34
"ben vautier acheter";0;0;2;10;0;0;2;10
"achat oeuvre street art";0;0;1;3;0;0;1;3
"pasqua philippe";0;0;5;6.8;0;0;2;6.5;0;0;1;7;0;0;2;7
"oeuvre artistique contemporaine";0;0;1;2;0;0;1;2
"street art jonone";0;0;2;3;0;0;2;3
"art peinture";0;0;1;44;0;0;1;44
akader;0;0;1;10;0;0;1;10
"galerie d'art en ligne contemporain";0;0;2;1;0;0;2;1
soubrette;0;0;1;98;0;0;1;98
"armand artiste contemporain";0;0;1;6;0;0;1;6
"philippe pasqua biographie";0;0;1;3;0;0;1;3
l.bouro;0;0;1;6;0;0;1;6
"bicha gallery";0;0;2;51;0;0;2;51
merienne;0;0;3;8.6666666666667;0;0;3;8.6666666666667
"galeries art";0;0;1;10;0;0;1;10
"annina roescheisen";0;0;4;6;0;0;3;6;0;0;1;6
"jana & js";0;0;1;9;0;0;1;9
"florent chopin";0;0;2;5.5;0;0;1;5;0;0;1;6
"envie d'art london";0;0;1;6;0;0;1;6
"roman opalka biographie";0;0;1;8;0;0;1;8
louiset;0;0;1;8;0;0;1;8
iglesis;0;0;3;4.6666666666667;0;0;2;5.5;0;0;1;3
"eva navarro";0;0;1;6;0;0;1;6
"walasse ting";0;0;8;11;0;0;8;11
dooze;0;0;1;23;0;0;1;23
"art contemporain";0;0;1;141;0;0;1;141
"rakel wajnberg";0;0;5;1;0;0;4;1;0;0;1;1
"bossard peintre";0;0;1;2;0;0;1;2
"isabel espinoza";0;0;2;2;0;0;1;1;0;0;1;3
"pierre fava";0;0;4;3;0;0;1;3;0;0;2;3;0;0;1;3
miss-tic;0;0;1;5;0;0;1;5
m.chat;0;0;11;6.3636363636364;0;0;8;6.125;0;0;2;7;0;0;1;7
kacere;0;0;1;8;0;0;1;8
"cecile colombo";0;0;1;4;0;0;1;4
"vente d'art";0;0;2;1;0;0;1;1;0;0;1;1
"ludovic chemarin";0;0;2;8.5;0;0;2;8.5
"wilfred lang";0;0;1;6
"raymon hains";0;0;1;10;0;0;1;10
"oeuvres de keith haring";0;0;2;8;0;0;2;8
"di rosa peintre";0;0;3;4;0;0;1;4;0;0;2;4
"artiste chinois";0;0;1;66;0;0;1;66
"achat oeuvre banksy";0;0;2;1;0;0;2;1
"don davide galbiati";0;0;4;38;0;0;4;38
"galerie gilardi le mans";0;0;1;5;0;0;1;5
"artistes belges";0;0;1;25
"peintre brack";0;0;2;6.5;0;0;2;6.5
"roberto matta";0;0;3;133;0;0;2;119.5;0;0;1;160
"jean pierre tissier";0;0;2;5
"francois mendras";0;0;1;3;0;0;1;3
"valérie hadida";0;0;1;3;0;0;1;3
"nathalie deshairs";0;0;3;3;0;0;3;3
"albane de saint remy";0;0;5;5;0;0;5;5
"acheter art contemporain";0;0;2;1;0;0;2;1
"photo d'art en ligne";0;0;3;4;0;0;3;4
"galerie colin";0;0;2;4.5;0;0;1;4;0;0;1;5
"claude levêque";0;0;1;9;0;0;1;9
pookky;0;0;1;2
"art life gallery";0;0;1;7;0;0;1;7
"christian zeimert";0;0;1;4;0;0;1;4
"pierre dubrunquez";0;0;1;1;0;0;1;1
kouka;0;0;10;5.8;0;0;7;6;0;0;3;5.3333333333333
"biographie de valls";0;0;1;39;0;0;1;39
"peintre clamart";0;0;1;65;0;0;1;65
"monochrome rouge";0;0;1;9;0;0;1;9
"nurcan giz";0;0;4;4;0;0;3;4;0;0;1;4
"la collégiale";0;0;1;7;0;0;1;7
"kamel yahiaoui";0;0;3;6.6666666666667;0;0;2;6.5;0;0;1;7
"carole benichou artiste";0;0;1;4;0;0;1;4
"gautier stephane";0;0;1;8;0;0;1;8
"alejandra eggleton";0;0;1;35;0;0;1;35
"galerie bruno massa";0;0;2;9;0;0;1;9;0;0;1;9
"vito hannibal acconci";0;0;1;62
"juliette brown";0;0;1;6;0;0;1;6
"art entreprise";0;0;2;3
d'art;0;0;1;8;0;0;1;8
"galerie ricci menton";0;0;1;3;0;0;1;3
"superman andy warhol";0;0;1;4;0;0;1;4
"gilbert dufois";0;0;1;4;0;0;1;4
bossard;0;0;2;95;0;0;2;95
"greg leon guillemin";0;0;3;5;0;0;1;5;0;0;2;5
"jean paul barray";0;0;2;5;0;0;2;5
"hervé di rosa oeuvres";0;0;2;6;0;0;2;6
roy;0;0;1;1;0;0;1;1
"richard harper peintre";0;0;3;6.6666666666667;0;0;3;6.6666666666667
"richard di rosa";0;0;5;3.6;0;0;1;4;0;0;1;4
jonona;0;0;1;6;0;0;1;6
"judith goldnadel";0;0;1;1;0;0;1;1
"alexis gorodine";0;0;1;4
"galerie brugier";0;0;3;6.6666666666667;0;0;1;6;0;0;2;7
"karl lagasse";0;0;10;3.8;0;0;3;3.3333333333333;0;0;6;4;0;0;1;4
"galerie art france";0;0;2;10;0;0;2;10
"3 cerises sur une étagère";0;0;1;3
"galerie dart";0;0;1;11
"platt lynes";0;0;1;11;0;0;1;11
"peter wüthrich";0;0;1;3
"peinture chapeau melon";0;0;1;11;0;0;1;11
"maurice renoma";0;0;3;3;0;0;2;3;0;0;1;3
"gilles verneret";0;0;1;3
"priska lorane";0;0;1;3
"peinture art contemporain";0;0;3;3;0;0;1;3;0;0;2;3
"galerie street art lyon";0;0;1;45;0;0;1;45
"étienne rey";0;0;1;5
"jaké artiste";0;0;1;4;0;0;1;4
"aline robin";0;0;4;5;0;0;1;5
"c215 chat";0;0;8;9;0;0;8;9
"shépard fairey";0;0;1;5;0;0;1;5
"remo lienhard";0;0;1;10;0;0;1;10
"jean michel basquiat biographie";0;0;2;10
"mist artiste";0;0;2;9.5
brugier;0;0;1;8;0;0;1;8
assalit;0;0;10;4.1;0;0;4;4.25;0;0;4;3.25;0;0;2;5.5
"fabrice hyber artiste";0;0;1;5
"les catcheurs";0;0;1;62;0;0;1;62
"galerie oneiro";0;0;1;4
"david mesguich";0;0;2;5.5;0;0;1;6;0;0;1;5
"tof vanmarque";0;0;2;3;0;0;1;4
"combas a vendre";0;0;1;15;0;0;1;15
"jacques pellegrin";0;0;4;9.75;0;0;2;10;0;0;1;10
"peinture inca";0;0;1;5;0;0;1;5
"envie d'art paris 8";0;0;1;8;0;0;1;8
"thibault brunet";0;0;3;12;0;0;2;13.5;0;0;1;9
"eric ceccarini";0;0;1;10;0;0;1;10
"cesar peintre";0;0;3;7;0;0;2;7;0;0;1;7
"sculpture crocodile";0;0;1;4;0;0;1;4
"oeuvre banksy";0;0;4;8;0;0;3;7.6666666666667;0;0;1;9
"christophe art";0;0;1;9;0;0;1;9
"puzzle pulp fiction";0;0;1;7;0;0;1;7
"achat paper board";0;0;1;36
"eric vernhes";0;0;4;6.25;0;0;3;6;0;0;1;7
"dessin fille cheveux rouge";0;0;1;6;0;0;1;6
"art post-internet";0;0;1;10;0;0;1;10
"galerie raison d'art lille";0;0;3;8.3333333333333;0;0;1;9
"odile decq";0;0;1;40
"harrie sijbers";0;0;1;8;0;0;1;8
stammegna;0;0;2;7;0;0;2;7
"chris morin";0;0;1;3;0;0;1;3
"pierre pignon";0;0;2;3;0;0;1;3;0;0;1;3
"galerie honfleur";0;0;2;38;0;0;2;38
"astucieux en arabe";0;0;1;402;0;0;1;402
"crache enfant handicap ivry sur seine";0;0;1;78;0;0;1;78
"banksy oeuvre";0;0;12;7.8333333333333;0;0;12;7.8333333333333
dorval;0;0;1;7;0;0;1;7
"jean-michel basquiat";0;0;2;29;0;0;2;29
"jacques ibert";0;0;1;29;0;0;1;29
"acheter du street art";0;0;1;5;0;0;1;5
"art vente";0;0;1;1;0;0;1;1
"harald wolff peintre";0;0;1;2;0;0;1;2
"philippe favier";0;0;7;9.8571428571429;0;0;6;10;0;0;1;9
dirosa;0;0;1;8;0;0;1;8
"qi zhuo";0;0;2;1;0;0;2;1
"femme et le chien";0;0;1;33;0;0;1;33
"mimi le clown";0;0;3;6.3333333333333;0;0;2;6;0;0;1;7
"capital culture gallery";0;0;5;6;0;0;5;6
"georges poncet";0;0;1;6;0;0;1;6
"antoine de la boulaye";0;0;1;2;0;0;1;2
"agnès baillon";0;0;1;4;0;0;1;4
"voyeur panda.com";0;0;2;53.5;0;0;2;53.5
"penelope x";0;0;2;16.5;0;0;1;26;0;0;1;7
moskova;0;0;1;96;0;0;1;96
kikayou;0;0;1;4;0;0;1;4
"pierre riba sculpteur";0;0;1;3;0;0;1;3
"gerard mortier peintre";0;0;1;1;0;0;1;1
"valerie dupond";0;0;16;8;0;0;16;8
"debusschere peinture";0;0;1;7;0;0;1;7
"laurence bruguière";0;0;1;8;0;0;1;8
infinissable;0;0;1;9;0;0;1;9
"keith haring nom de ses oeuvres";0;0;2;8;0;0;2;8
"lucile callegari";0;0;2;6;0;0;2;6
"spark peintre";0;0;3;9;0;0;3;9
"david gerstein prix";0;0;6;1;0;0;1;1;0;0;5;1
"estampe phnom penh";0;0;1;30;0;0;1;30
"murakami artiste";0;0;3;3;0;0;2;3;0;0;1;3
john@speedy.com.ar;0;0;2;42;0;0;2;42
"nicolas fremion";0;0;1;2;0;0;1;2
grandeetoile;0;0;1;9;0;0;1;9
"robert barry";0;0;15;4.3333333333333;0;0;10;4.5;0;0;4;4;0;0;1;4
"keith haring andy warhol";0;0;1;10;0;0;1;10
paxal;0;0;1;3;0;0;1;3
"erwann tirilly";0;0;2;4;0;0;2;4
"denis rouvre technique";0;0;1;12;0;0;1;12
"yz artiste";0;0;1;10;0;0;1;10
"jules l'atlas";0;0;3;7;0;0;3;7
"galerie pop art";0;0;1;41;0;0;1;41
"love oeuvre d'art";0;0;1;8;0;0;1;8
"jeune artiste";0;0;6;7.3333333333333;0;0;5;7.4;0;0;1;7
"aykaz arzumanyan";0;0;1;3;0;0;1;3
"susanne stemmer";0;0;4;7;0;0;1;4;0;0;1;7;0;0;2;8.5
mchat;0;0;1;11;0;0;1;11
"art feminin";0;0;1;7;0;0;1;7
"isabelle cochereau";0;0;1;8;0;0;1;8
anodines;0;0;1;436;0;0;1;436
"patrick dumas facebook";0;0;3;10;0;0;3;10
"mark jenkins";0;0;12;8.75;0;0;10;8.5;0;0;2;10
malysse;0;0;2;9;0;0;2;9
fanent;0;0;1;13;0;0;1;13
"raphael denis";0;0;3;4;0;0;2;4;0;0;1;4
"klasen peter";0;0;4;4;0;0;4;4
corcia;0;0;1;8;0;0;1;8
"jérôme mesnager";0;0;2;3.5;0;0;1;4;0;0;1;3
"galerie wallpepper";0;0;1;3;0;0;1;3
"deesse artiste";0;0;2;5;0;0;1;4;0;0;1;6
"oeuvre ernest pignon ernest";0;0;1;6;0;0;1;6
"jonone street art";0;0;1;3;0;0;1;3
"oeuvre miro";0;0;3;4.3333333333333;0;0;1;11;0;0;2;1
"achat lin";0;0;1;21;0;0;1;21
"davidz custom";0;0;1;10;0;0;1;10
"bruno fontana";0;0;1;5;0;0;1;5
"the french art studio";0;0;11;4;0;0;11;4
"jean dubuffet œuvres d'art";0;0;2;5;0;0;2;5
rauzier;0;0;4;10;0;0;3;10;0;0;1;10
"jean christophe ballot";0;0;1;7;0;0;1;7
"vendre oeuvre d'art";0;0;3;1;0;0;3;1
"james wigger";0;0;3;4;0;0;3;4
"grands noms";0;0;1;49;0;0;1;49
"biographie jean michel basquiat";0;0;1;8;0;0;1;8
sculpteur;0;0;1;375;0;0;1;375
"mechanic art";0;0;2;7.5;0;0;2;7.5
"schlosser gerard";0;0;4;3;0;0;4;3
"galerie numero 1";0;0;3;3.3333333333333;0;0;3;3.3333333333333
"tal coat artist";0;0;2;9;0;0;2;9
"oeuvre calligraphie";0;0;1;26;0;0;1;26
"mestre jaime";0;0;1;4;0;0;1;4
"césar baldaccini";0;0;21;5.7142857142857;0;0;15;5.1333333333333;0;0;3;7.6666666666667;0;0;3;6.6666666666667
"galerie urbaine";0;0;1;7;0;0;1;7
"photographie d'art noir et blanc";0;0;2;38;0;0;2;38
"cedrix crespel";0;0;4;4;0;0;2;4.5;0;0;2;3.5
"philippe pasqua cotation";0;0;1;1;0;0;1;1
"jean-pierre nadau";0;0;2;1;0;0;2;1
"andreas gursky oeuvres";0;0;1;5;0;0;1;5
"fred ebami";0;0;2;9;0;0;2;9
"francky boy";0;0;2;10;0;0;1;10;0;0;1;10
"laetitia x";0;0;2;19.5;0;0;1;19;0;0;1;20
"madame et son chien";0;0;1;24;0;0;1;24
"photographie d'art en ligne";0;0;5;3.2;0;0;4;3;0;0;1;4
"so what";0;0;1;172;0;0;1;172
besher;0;0;3;4.6666666666667;0;0;3;4.6666666666667
"maggie ross";0;0;1;13;0;0;1;13
"oeuvre papier";0;0;2;5;0;0;2;5
"oeuvre de joan miro";0;0;2;1;0;0;2;1
"shepard faireu";0;0;1;10;0;0;1;10
"peintre jonone";0;0;2;1;0;0;1;1;0;0;1;1
wajnberg;0;0;1;9;0;0;1;9
"la lison lille";0;0;1;79;0;0;1;79
"galerie d'art belgique";0;0;2;3;0;0;2;3
"philippe brosse";0;0;2;2;0;0;2;2
"murielle belin";0;0;2;6;0;0;2;6
"eva jospin biographie";0;0;2;4;0;0;2;4
"aki kuroda prix";0;0;1;2;0;0;1;2
"alistair taylor young";0;0;1;7;0;0;1;7
"cremonini peintre";0;0;1;39;0;0;1;39
"michel le belhomme";0;0;1;5;0;0;1;5
"karel de gendre";0;0;3;5;0;0;3;5
"marianne jonone";0;0;1;8;0;0;1;8
"christine fabre";0;0;1;24;0;0;1;24
"prix tableau renoir";0;0;1;47;0;0;1;47
maxent;0;0;1;139;0;0;1;139
"trudy good";0;0;1;6;0;0;1;6
"mirage 3";0;0;1;96;0;0;1;96
"oeuvres banksy";0;0;6;8;0;0;6;8
"miss tie";0;0;1;5;0;0;1;5
"ten arts";0;0;2;5.5;0;0;2;5.5
"skate licorne";0;0;1;8;0;0;1;8
"sculpture monumentale biot";0;0;2;2;0;0;2;2
"dubuffet jean oeuvres";0;0;1;6;0;0;1;6
"sheng qi";0;0;1;8;0;0;1;8
"vivian maier";0;0;3;20;0;0;3;20
"apostolos andreas";0;0;1;349;0;0;1;349
"daniel authouart";0;0;5;8.4;0;0;3;8;0;0;2;9
art,tableaux,provence;0;0;1;243;0;0;1;243
"christophe catelain";0;0;1;3;0;0;1;3
"i belong to you oeuvre d'arts";0;0;1;11;0;0;1;11
"michal batory";0;0;2;18;0;0;2;18
"mickey vador";0;0;3;5.6666666666667;0;0;3;5.6666666666667
"modern art exhibition";0;0;1;19;0;0;1;19
"topolino sete";0;0;4;3.5;0;0;3;3;0;0;1;5
"keith haring oeuvres";0;0;26;6.2692307692308;0;0;15;6;0;0;5;7;0;0;6;6.3333333333333
"peter blake artiste";0;0;3;3.6666666666667;0;0;2;3.5;0;0;1;4
flipo;0;0;22;5.6363636363636;0;0;12;5.9166666666667;0;0;7;5.5714285714286;0;0;3;4.6666666666667
"leslie caillard artiste peintre";0;0;1;8;0;0;1;8
matryochka;0;0;2;4;0;0;2;4
"victor richardson";0;0;3;9.3333333333333;0;0;3;9.3333333333333
"cousinade forcalquier";0;0;4;35;0;0;4;35
"art life 2";0;0;1;4;0;0;1;4
"aude minart";0;0;2;3;0;0;2;3
"gille aillaud";0;0;4;8.25;0;0;4;8.25
"peintre et graveur d'origine russe";0;0;1;30;0;0;1;30
"carl andre";0;0;14;6.1428571428571;0;0;12;6;0;0;2;7
"damien hirst oeuvre";0;0;1;7;0;0;1;7
"jean-michel basquiat oeuvres";0;0;3;7;0;0;2;7;0;0;1;7
"raphael laventure";0;0;2;1;0;0;2;1
"oeuvre jr";0;0;1;4;0;0;1;4
"lawrence weiner sculpture";0;0;1;6;0;0;1;6
"sebastien layral";0;0;3;6;0;0;3;6
"tête de poire";0;0;1;10;0;0;1;10
"sculture bruno catalano";0;0;1;10;0;0;1;10
"guyomard sylvie facebook";0;0;4;8.5;0;0;4;8.5
"romero britto prix";0;0;1;8;0;0;1;8
litao;0;0;3;9;0;0;3;9
"leila rose";0;0;3;10;0;0;3;10
"amaury mulliez";0;0;2;9;0;0;2;9
galeriecollin;0;0;1;2;0;0;1;2
levalet;0;0;27;5.6666666666667;0;0;22;5.5;0;0;2;5.5;0;0;3;7
"hank china";0;0;6;1;0;0;2;1;0;0;4;1
"rené botti";0;0;2;4;0;0;2;4
"aurélie deplus";0;0;1;4;0;0;1;4
"daniel nadaud";0;0;1;5;0;0;1;5
"mesnager street art";0;0;1;4;0;0;1;4
"la caverne de sarah";0;0;1;27;0;0;1;27
gorodine;0;0;1;4;0;0;1;4
"google da vinci";0;0;1;315;0;0;1;315
"jacques lacroix";0;0;2;7;0;0;1;8;0;0;1;6
"andre nadal";0;0;2;4;0;0;2;4
"vente sculpture terre cuite";0;0;1;5;0;0;1;5
"vente art en ligne";0;0;5;1;0;0;5;1
"oeuvre de bernard buffet";0;0;1;9;0;0;1;9
"œuvres d'art";0;0;3;7;0;0;3;7
"ben bella mahjoub";0;0;2;3;0;0;1;3;0;0;1;3
"galerie greenwood";0;0;3;3.3333333333333;0;0;2;3;0;0;1;4
"jeunes artistes peintres";0;0;1;9;0;0;1;9
"miguel chavalier";0;0;1;9;0;0;1;9
murakami;0;0;3;44.333333333333;0;0;3;44.333333333333
"raoul rauschenberg";0;0;1;9;0;0;1;9
"richard baron";0;0;2;10;0;0;2;10
"laurence weiner";0;0;2;10;0;0;2;10
"claude closky";0;0;1;9;0;0;1;9
"rudolf hausner";0;0;1;3;0;0;1;3
"alex katz peintre";0;0;2;5;0;0;2;5
"envie d'art";0;0;4;4;0;0;3;4;0;0;1;4
"greet helsen";0;0;2;6;0;0;2;6
"art galerie en ligne";0;0;1;1;0;0;1;1
"sculpture murale";0;0;1;44;0;0;1;44
"oksana france";0;0;1;9;0;0;1;9
"lampe verre de murano";0;0;1;36;0;0;1;36
"stephanie cabrera";0;0;1;6;0;0;1;6
"frederic prat";0;0;3;9.3333333333333;0;0;3;9.3333333333333
"richard orlinski prix";0;0;7;7.4285714285714;0;0;1;7;0;0;6;7.5
"charlotte aleman";0;0;1;24;0;0;1;24
"eckart hahn";0;0;2;4;0;0;2;4
fubiz;0;0;3;12.333333333333;0;0;3;12.333333333333
"art sculture";0;0;2;6;0;0;2;6
darmigny;0;0;2;11;0;0;2;11
camen;0;0;4;4;0;0;4;4
"james ostrer";0;0;1;10;0;0;1;10
"nils udo biographie";0;0;2;3;0;0;2;3
"sandy skoglund oeuvres";0;0;1;5;0;0;1;5
"achat oeuvre d'art entreprise";0;0;1;3;0;0;1;3
"isabelle vayron";0;0;1;4;0;0;1;4
frairot;0;0;2;5;0;0;1;4;0;0;1;6
"etam mon compte";0;0;2;7;0;0;2;7
"qui est ernest pignon ernest";0;0;1;9;0;0;1;9
"fab prenat art";0;0;1;6;0;0;1;6
"artistes francais";0;0;1;410;0;0;1;410
"biographie de christian boltanski";0;0;1;8;0;0;1;8
"vente tableau contemporain";0;0;2;1;0;0;1;1;0;0;1;1
"franck lundangi";0;0;1;2;0;0;1;2
"l bouro";0;0;1;6;0;0;1;6
"cesar oeuvre";0;0;2;5.5;0;0;1;6;0;0;1;5
"2 planas";0;0;1;201;0;0;1;201
obey;0;0;1;87;0;0;1;87
"banksy billet de banque";0;0;1;1;0;0;1;1
"venet bernar";0;0;1;11;0;0;1;11
"georges rousse oeuvre";0;0;1;21;0;0;1;21
"elisabeth lecourt";0;0;2;11;0;0;2;11
combas;0;0;61;5.9180327868852;0;0;38;5.4210526315789;0;0;16;6.9375;0;0;7;6.2857142857143
"oeuvre de duchamp";0;0;1;43;0;0;1;43
"sandra krasker";0;0;2;3;0;0;2;3
"spark artiste";0;0;1;8;0;0;1;8
"adrian buba";0;0;1;8;0;0;1;8
"bernard pras oeuvre";0;0;4;2;0;0;2;2;0;0;2;2
"princesse julia";0;0;1;10;0;0;1;10
"galerie d arts";0;0;1;6;0;0;1;6
"jérome revon";0;0;1;10;0;0;1;10
"guy de rougemont";0;0;4;7.25;0;0;1;7;0;0;2;7;0;0;1;8
"vente d'oeuvres d'art en ligne";0;0;3;3;0;0;3;3
"peinture architect";0;0;1;23;0;0;1;23
"christy lee";0;0;1;5;0;0;1;5
"statue deesse";0;0;1;4;0;0;1;4
"nathalie d'henaut";0;0;1;6;0;0;1;6
"david gerstein elegance";0;0;1;51;0;0;1;51
"ticket original";0;0;1;4;0;0;1;4
"mb factory";0;0;4;7.75;0;0;3;7.3333333333333;0;0;1;9
"oeuvres de georges rousse";0;0;1;21;0;0;1;21
"jean michel basquiat untitled skull 1981";0;0;1;1;0;0;1;1
"michael brack";0;0;1;37;0;0;1;37
"francis martel";0;0;6;7.1666666666667;0;0;2;6.5;0;0;2;7;0;0;2;8
"costume vert";0;0;3;27.666666666667;0;0;1;31;0;0;2;26
"""vu brugier""";0;0;1;10;0;0;1;10
"biographie keith haring";0;0;6;8;0;0;6;8
seaty;0;0;1;10;0;0;1;10
"yo marchand";0;0;1;4;0;0;1;4
haggai;0;0;1;10;0;0;1;10
"galerie sbk";0;0;1;4;0;0;1;4
keza;0;0;1;9;0;0;1;9
"acheter tableau art";0;0;1;2;0;0;1;2
"formation gravure pierre luxembourg";0;0;1;15;0;0;1;15
"jacques ibert oeuvre";0;0;1;10;0;0;1;10
"robert combas cotation";0;0;1;4;0;0;1;4
allory;0;0;1;1;0;0;1;1
"jerome mesnager";0;0;13;4.1538461538462;0;0;6;3.5;0;0;5;4.8;0;0;2;4.5
"elodie gregoire photographe";0;0;1;5;0;0;1;5
risote;0;0;1;7;0;0;1;7
"shepard fairey oeuvre";0;0;1;3;0;0;1;3
"michael bastow";0;0;2;5.5;0;0;2;5.5
"peinture nelson mandela";0;0;1;8;0;0;1;8
"helder batista";0;0;3;5.6666666666667;0;0;3;5.6666666666667
"marie laure nue";0;0;1;45;0;0;1;45
"moulin rudelle muret";0;0;1;90;0;0;1;90
"adam et eve sculpture";0;0;2;7;0;0;2;7
"anne valerie dupond";0;0;1;10;0;0;1;10
"nathan chantob artiste peintre";0;0;2;2;0;0;2;2
"dietz allemagne";0;0;1;12;0;0;1;12
"orlinski crocodile";0;0;1;7;0;0;1;7
"leon guillemin";0;0;1;4;0;0;1;4
"laetitia giraud";0;0;5;3.4;0;0;3;3;0;0;2;4
"prix sculpture";0;0;3;5;0;0;3;5
"oeil arraché";0;0;1;32;0;0;1;32
"kouka artiste";0;0;4;3;0;0;4;3
"james mackeown";0;0;1;5;0;0;1;5
"corneille biographie";0;0;2;67.5;0;0;2;67.5
scuplture;0;0;3;5;0;0;3;5
"jean hélion biographie";0;0;1;2;0;0;1;2
"christophe goutal";0;0;3;4.6666666666667;0;0;1;4;0;0;2;5
telemaque;0;0;1;39;0;0;1;39
"aki kuroda peintre";0;0;1;3;0;0;1;3
"jeff aerosol";0;0;2;4;0;0;2;4
"kenny scharf";0;0;1;99;0;0;1;99
"muriel belin";0;0;1;9;0;0;1;9
"galerie art en ligne";0;0;7;1.1428571428571;0;0;6;1.1666666666667;0;0;1;1
"genevieve claisse a vendre";0;0;1;8;0;0;1;8
"tilt street art";0;0;1;5;0;0;1;5
"léonard foujita";0;0;1;23;0;0;1;23
"carles valverde";0;0;1;6;0;0;1;6
"robert piéchaud";0;0;1;109;0;0;1;109
giangreco;0;0;1;11;0;0;1;11
"pauline dufour";0;0;4;5;0;0;3;5;0;0;1;5
"astro stone";0;0;1;5;0;0;1;5
"victoria benmussa";0;0;2;5;0;0;2;5
dessirier;0;0;1;45;0;0;1;45
"boutique d'art en ligne";0;0;1;1;0;0;1;1
"dark vador artwork";0;0;2;4;0;0;2;4
"tingting wang";0;0;1;7;0;0;1;7
"jean claude deutsch";0;0;1;4;0;0;1;4
"costa artiste peintre";0;0;1;2;0;0;1;2
parismatch.fr;0;0;1;45;0;0;1;45
"oleg dou";0;0;7;6;0;0;4;5.5;0;0;2;8;0;0;1;4
"jean du buffet";0;0;2;10;0;0;2;10
"tapis en soie";0;0;1;38;0;0;1;38
"gérard schlosser";0;0;2;3;0;0;2;3
mrchat;0;0;1;8;0;0;1;8
"photographie de mode urbaine";0;0;1;40;0;0;1;40
"puzzle mickey";0;0;1;37;0;0;1;37
"elisabeth frering";0;0;1;6;0;0;1;6
"zhang wei";0;0;2;76;0;0;2;76
"bernard st maxent";0;0;2;10;0;0;2;10
"charles giulioli";0;0;2;9;0;0;2;9
"delphine couturier";0;0;4;6.25;0;0;1;2;0;0;3;7.6666666666667
"jean helion";0;0;5;3;0;0;5;3
"monsieur le chat";0;0;3;7.6666666666667;0;0;1;5;0;0;2;9
"bernard chauveau";0;0;2;5.5;0;0;1;6;0;0;1;5
saudek;0;0;8;9.25;0;0;3;9;0;0;2;7;0;0;3;11
"roberto greco";0;0;1;7;0;0;1;7
jisbar;0;0;2;1;0;0;2;1
"peinture dark vador";0;0;2;4;0;0;1;4;0;0;1;4
"jessica snow";0;0;1;10;0;0;1;10
"art sculpture";0;0;5;4.6;0;0;4;4.25;0;0;1;6
"gottfried salzmann";0;0;1;6;0;0;1;6
"mr sex";0;0;3;25.333333333333;0;0;3;25.333333333333
"achat sculpture";0;0;5;1;0;0;4;1;0;0;1;1
"laure andré";0;0;5;3.8;0;0;5;3.8
"tony soulie artist";0;0;2;6;0;0;1;6;0;0;1;6
"galerie d'art en ligne";0;0;15;1;0;0;11;1;0;0;4;1
"hong kong mappa";0;0;2;14;0;0;2;14
giulioli;0;0;1;11;0;0;1;11
"julie de waroquier";0;0;3;4;0;0;3;4
"artiste jr";0;0;1;12;0;0;1;12
"peter klasen";0;0;16;3.5625;0;0;10;3.3;0;0;6;4
"alain josseau";0;0;3;4;0;0;3;4
"biographie de jr";0;0;2;8;0;0;1;8;0;0;1;8
"art sur internet";0;0;1;1;0;0;1;1
"georges-philippe & nathalie vallois";0;0;1;89;0;0;1;89
"arman artiste";0;0;3;10.666666666667;0;0;1;10;0;0;2;11
"biographie batista";0;0;1;10;0;0;1;10
"christine muller artiste peintre";0;0;2;4;0;0;2;4
"galerie filles nues noir et blancs";0;0;1;36;0;0;1;36
"clément cogitore";0;0;1;11;0;0;1;11
"araki nobuyoshi";0;0;3;25.333333333333;0;0;1;28;0;0;1;20;0;0;1;28
"hervé télémaque";0;0;11;4.5454545454545;0;0;11;4.5454545454545
"claude champy";0;0;5;7.4;0;0;4;7.25;0;0;1;8
"tribu carnivore";0;0;1;12;0;0;1;12
cortade;0;0;1;23;0;0;1;23
"galerie bear";0;0;1;8;0;0;1;8
"sculpteur japonais contemporain";0;0;1;7;0;0;1;7
"hd gallery";0;0;1;7;0;0;1;7
"jean georges inca";0;0;2;2;0;0;1;2;0;0;1;2
"oeuvre d'art moderne";0;0;1;1;0;0;1;1
mitrofanoff;0;0;4;16;0;0;1;35;0;0;3;9.6666666666667
"homme pressé";0;0;9;6.4444444444444
"peintre versailles";0;0;1;100
voyeur;0;0;4;223.5;0;0;1;226
"yoel benharrouche";0;0;2;7;0;0;1;7
"paysage fantastique";0;0;1;18
"samuel bacon";0;0;1;6
moriette;0;0;1;6;0;0;1;7
"louis nicolas darbon";0;0;2;6;0;0;1;6
arthelix;0;0;1;330
"lance letscher";0;0;1;6;0;0;1;6;0;0;1;6
"photographie artistique noir et blanc";0;0;1;57
"gustav klimt biographie";0;0;2;27.5
"nicolas nicolini";0;0;3;3
"artiste en vogue";0;0;1;2
lachize;0;0;3;6.3333333333333
"art cubique";0;0;1;10
"charlotte lelong";0;0;2;7
speedygraphito;0;0;14;6
"office de tourisme de dinard";0;0;1;21
"hommage mandela";0;0;1;79
"helion peintre";0;0;1;5
"bloomfield hills mi venus freeze";0;0;1;98
"on kawara oeuvres";0;0;1;6
pras;0;0;2;5.5;0;0;6;6.8333333333333
"jacques poli";0;0;1;8
"antwerp ny";0;0;1;417
jonvelle;0;0;3;11.333333333333
"victor vasarely biographie";0;0;1;23
"guillaume guerin biographie";0;0;2;6
"michal batory biographie";0;0;1;7
anthropomorphisme;0;0;1;124
"sculpture en ligne";0;0;1;1
noart;0;0;2;19
"hall line";0;0;1;20
"oeuvres de basquiat";0;0;1;10
"george platt lynes";0;0;1;8;0;0;1;9
"romero britto";0;0;32;13.8125;0;0;14;7.2857142857143;0;0;6;8.1666666666667
totomobile;0;0;1;35
"alain clément";0;0;6;4;0;0;3;5
"chantal porras";0;0;2;2
"thierry michelet";0;0;1;6;0;0;2;5
saifou;0;0;1;8
suculture;0;0;1;6
"vente d'oeuvre d'art en ligne";0;0;1;1
"vincent peters";0;0;3;9.3333333333333
"c'est mieux que rien";0;0;1;10
"polar achat";0;0;1;31
"jean philippe berger";0;0;1;2;0;0;1;2;0;0;1;2
artiane;0;0;1;4
"achat bob";0;0;2;20
"shirley jaffe artiste";0;0;1;2
"tableau jonone";0;0;4;1;0;0;1;1;0;0;1;1
"jérôme lagarrigue";0;0;2;6
"galerie w";0;0;4;3;0;0;3;4;0;0;2;4
"françois morellet";0;0;19;8.6842105263158;0;0;1;10
"matt devine";0;0;2;46.5
"oeuvres ernest pignon ernest";0;0;1;6
"23 25 rue jean jacques rousseau 75001 paris";0;0;1;11
"marc figueras";0;0;2;4;0;0;1;4
"vente d'art contemporain";0;0;3;1.6666666666667
"greg gorman";0;0;3;7
"isabelle bartoli";0;0;2;3;0;0;1;2
"hervé di rosa peinture";0;0;1;3
"hamish fulton oeuvre";0;0;1;6
"françoise petrovitch";0;0;5;8
"publicité inspiré d'oeuvre d'art";0;0;1;20
"romain cadilhon";0;0;3;15.666666666667
"airoh france";0;0;2;61
"art jingle";0;0;7;5
"surrealisme photographie";0;0;1;17
prosperi;0;0;2;76
"mr-bio fr";0;0;4;32
mbfactory;0;0;1;8
"bruce clarke";0;0;3;9
"galerie d art lille";0;0;1;36
"biographie de banksy";0;0;2;10;0;0;4;9;0;0;1;10
virgin-arts.fr;0;0;1;18
"vilmouth jean luc";0;0;2;138
"oeuvre de cesar";0;0;1;6
"jacques verdier artiste";0;0;1;4
"monica angkor hotel";0;0;1;194
mysogine;0;0;1;32
"oeuvre de banksy";0;0;15;7.1333333333333;0;0;1;8;0;0;1;8
"bar noma";0;0;1;23
"stew street art";0;0;1;9
"miss. tic";0;0;1;5
"puzzle bande dessinée";0;0;1;84
mengzhi;0;0;1;3
"marie maertens";0;0;1;6
"jon one";0;0;9;3.7777777777778;0;0;4;5.25;0;0;3;5
"atlas blue";0;0;3;49
"galerie sylvie lepage";0;0;1;7
"luc dratwa";0;0;4;15.25;0;0;1;7
"mother sky";0;0;1;6
"sculpture noire";0;0;1;8
"art contemporain photographie";0;0;1;2
"keith haring œuvres d'art";0;0;3;8;0;0;1;5
"marie rauzy";0;0;1;3;0;0;2;4
"galerie loft";0;0;2;16
"andreas gursky biographie";0;0;3;8
"galerie grand rue";0;0;1;4
diorama;0;0;1;298
"thierry carrier";0;0;3;3.6666666666667
"peter mclane";0;0;1;3
"guy denning";0;0;7;5
"dominique mulhem";0;0;1;3
"oeuvres de banksy";0;0;5;6.2;0;0;1;8
"ben bella peinture";0;0;1;1;0;0;1;1
soun;0;0;1;36
"jacques villeglé oeuvres";0;0;6;1
missitic;0;0;1;5
"jean charles millepied";0;0;2;4
"art et entreprise";0;0;1;5
"jean michel turpin";0;0;3;5.3333333333333;0;0;1;6
"ben peinture";0;0;1;6
"caroline vi";0;0;1;1
"petit bonhomme blanc";0;0;21;9.047619047619
"germain plouvier";0;0;3;4.6666666666667
"françois harray";0;0;1;4
"stephane dauthuille";0;0;2;10
"achat m";0;0;1;39
"adela burdujanu";0;0;1;5;0;0;1;5
dolgane;0;0;1;5
poes;0;0;5;4.8;0;0;2;4
"sculpture disque vinyle";0;0;1;37
"evelyne postic";0;0;1;5
"c215 acheter";0;0;2;8
"sandy skoglund";0;0;8;7.875
"roy sfeir";0;0;2;3
gerbo;0;0;2;16
"cactus sculpture";0;0;1;5
"herve di rosa";0;0;6;4.1666666666667;0;0;4;5
petrovitch;0;0;1;19
"veil de noel";0;0;5;6.2;0;0;7;4.4285714285714;0;0;1;5
"julien raynaud";0;0;4;4
"max ernst œuvres d'art";0;0;2;8;0;0;1;9
"a matter of time";0;0;1;49
"warhol superman";0;0;1;5
"horaires piaget alain michal paris";0;0;2;83
"françois grimaldi";0;0;1;10
marrian;0;0;1;6;0;0;2;6
"nature morte vivante";0;0;3;9.3333333333333
"philippe berry sculpteur";0;0;2;4;0;0;1;9
"mr brainwash";0;0;1;31
"alain clement";0;0;1;5;0;0;2;5.5
"fetish foot";0;0;1;43
"champignon atomique";0;0;2;34.5
"philippe assalit";0;0;4;3.25;0;0;1;3
"longmen art projects";0;0;1;54
"delphine lebourgeois artist";0;0;1;6
"wesselmann oeuvres";0;0;1;5
"erro artiste";0;0;1;9;0;0;2;8
"artistes togolais";0;0;1;20
"galerie le point fort";0;0;2;7
"david lachapelle";0;0;1;31
"balloon dogs";0;0;1;10
"galerie de mars";0;0;12;10.083333333333
"nicolas moreau peintre";0;0;2;5
"olivia clavel";0;0;2;7;0;0;1;5
"ipso france";0;0;2;30
byzantios;0;0;1;2
"hélène duclos";0;0;4;9
"fanny dubois";0;0;4;8.25;0;0;2;7
"hopkins peintre";0;0;2;2.5
"cornette de saint cyr";0;0;1;27
"clément alain";0;0;1;5
"acheter sculpture";0;0;1;1
"valérie vaubourg";0;0;1;8
"photographe d'art";0;0;3;46.333333333333;0;0;1;42
acanthephippium;0;0;1;15
"hiro orange";0;0;1;39
"jonone marianne";0;0;2;9;0;0;2;9
"aurore de sousa";0;0;2;7;0;0;1;9
"andrew mcattee";0;0;2;6
"mel ramos art";0;0;2;4
"christian boltanski biographie";0;0;3;8
"mirage iii";0;0;1;94
"oeuvres dali";0;0;1;43
"didier delgado";0;0;1;11
"dita von teese";0;0;1;188
"art conceptuel disney";0;0;1;40
"gerstein peintre";0;0;2;1
"béatrice meunier";0;0;1;8;0;0;1;10
"schlosser peintre";0;0;2;4
"acheter de l art";0;0;3;3
"sculpture deesse";0;0;5;6
"nues feminin";0;0;1;21
miffy;0;0;1;89
"jean michel basquiat sculptures";0;0;1;3
"aslan pin up";0;0;1;26
"thomas labarthe";0;0;1;4;0;0;1;5
taki183;0;0;2;6
"gerard boudon";0;0;1;3;0;0;1;2
"3d pop art";0;0;1;9
laveri;0;0;5;3.4;0;0;3;4
"smee sue discuss the archers";0;0;1;31
"pom pom blanc";0;0;1;37
"sculpture rhinocéros";0;0;1;20
"michel madore";0;0;1;4
arstper;0;0;1;1
"punk rose";0;0;2;10
tattu;0;0;1;9
"charbonnel sculpteur";0;0;4;6;0;0;2;7
"jean michel vador";0;0;1;1;0;0;1;1
"laurence dreyfus";0;0;3;8;0;0;1;9
"easy sacha";0;0;4;10;0;0;2;10;0;0;1;10
"thierry diers";0;0;1;6;0;0;1;7
"bertrand grégoire";0;0;3;4.3333333333333;0;0;1;4
"l'art contemporain peinture";0;0;1;3
"galerie d'art contemporain en ligne";0;0;6;1;0;0;1;1
"murakami peintre";0;0;1;4
"ron english";0;0;10;4.1
"skunkdog peintre";0;0;1;1
"laurent doucet";0;0;2;585.5
"ivan messac";0;0;5;5
arman;0;0;2;54.5
"shepherd fairey";0;0;1;10
"victoria mann";0;0;4;5.75;0;0;1;5
"willy ronis oeuvres";0;0;1;6
"marie louise sorbac";0;0;2;7
"edouard buzon";0;0;3;8.6666666666667
"oeuvres jean dubuffet";0;0;1;7
"thierry dussac";0;0;1;4;0;0;3;4
"en vogue";0;0;1;31
"jacques roch";0;0;1;2
youmin;0;0;4;7.75
"ariele rozowy";0;0;1;3
"chu teh chun";0;0;1;32
jago;0;0;1;47
"anne brunet";0;0;3;7.3333333333333;0;0;3;7
"gérard clisson";0;0;1;3
quadriptyque;0;0;1;28
"ted nomad";0;0;1;10
"bob carlos clarke";0;0;1;10
"marlene dumas";0;0;2;65
"speedy graphito prix";0;0;2;1
"snoopy ski";0;0;3;2
"strip art";0;0;3;6.3333333333333;0;0;1;5
"alexis dubois";0;0;1;18
"des artistes turin";0;0;1;152
"tobias putrih";0;0;1;36
"thomas bossard peintre";0;0;1;3
"œuvre médias mixtes";0;0;1;14
"art de vendre";0;0;1;3;0;0;1;3
"oeuvre d'art lune";0;0;1;8
"antoni tapies biographie";0;0;1;11
"clara poupel";0;0;2;2
"lou ros";0;0;4;6.25
nadau;0;0;2;25;0;0;1;19
"déesse artiste";0;0;4;2;0;0;1;2;0;0;1;4
"pierre tal coat";0;0;1;9;0;0;1;1
"achat d'art communication";0;0;1;62
eppelé;0;0;1;4
"biographie de keith haring";0;0;4;7.25
conbas;0;0;1;4
"bear galerie";0;0;3;4.3333333333333;0;0;3;5
jef;0;0;1;13;0;0;1;30
"couture peintre";0;0;2;5
"chat danemark";0;0;1;419
"peinture turquoise";0;0;1;79
stoul;0;0;2;5;0;0;2;4;0;0;1;6
"cesar santos";0;0;1;7;0;0;1;9
jefaerosol;0;0;1;4
"galerie street art en ligne";0;0;2;7
maxanart;0;0;1;5
erró;0;0;2;48
"art moderne sculpture";0;0;7;2
"vente oeuvres d'art";0;0;1;1
trovic;0;0;1;5;0;0;1;5
"françois malingrëy";0;0;7;5.2857142857143
"jimmy de bock";0;0;1;9
"bernard moninot";0;0;2;5;0;0;3;6.3333333333333
aerosol;0;0;1;16
"kiki achat";0;0;1;23
"fabien granet";0;0;1;3
"henri de quatrebarbes";0;0;1;4
"joyeux noel art";0;0;6;3
"jonathan monk";0;0;1;6;0;0;1;6
"jimmy who";0;0;1;9
"le 9eme art";0;0;1;10
galeries;0;0;3;8.3333333333333;0;0;3;8
"raymond hains";0;0;1;10;0;0;1;10
"galerie onega";0;0;2;6
"gohar dashti";0;0;1;7
takala;0;0;3;6.6666666666667
"francis latreille";0;0;1;7
"vendre oeuvres d'art";0;0;1;1
"takashi murakami oeuvres";0;0;1;3
rosa;0;0;1;4
"patrick poirier";0;0;6;6.3333333333333
dtone;0;0;3;5.3333333333333
artop;0;0;1;8;0;0;1;6
"christof monnin peinture";0;0;1;10
"thierry schwab";0;0;1;9
"street art noir et blanc";0;0;1;10;0;0;1;9
"balloon dog prix";0;0;1;10
"rauschenberg oeuvres";0;0;2;10
"tableau de keith haring";0;0;1;9
"guy de lussigny";0;0;2;7
"om mer";0;0;1;7
"achat oeuvre art fiscalité";0;0;1;9
"maxime frairot";0;0;1;4
"fabio de santis";0;0;1;9
"jef aerosol";0;0;10;5;0;0;1;5
"rancinan gérard";0;0;1;8
hdgallery;0;0;3;5
"robert longo oeuvres";0;0;1;9
"mail art noel";0;0;1;10
"robert zandvliet";0;0;1;4
clock2;0;0;1;5
basquiat;0;0;3;16.666666666667;0;0;2;26.5
"vincent dufresne";0;0;2;7
"etienne cail";0;0;1;8
"bang hai ja";0;0;1;7
"mahjoub ben bella";0;0;8;4
"dufresne peintre";0;0;1;17
"cecile plaisance";0;0;1;8
"sandy skoglung";0;0;1;9
"les 3 garces";0;0;1;8;0;0;1;10
glineur;0;0;1;9
"artiste bresilien britto";0;0;1;5
"galerie ricci";0;0;1;3
"orlinski crocodile prix";0;0;3;5.3333333333333;0;0;1;5
"vincent breed";0;0;1;6
"tableau jeune artiste";0;0;1;10;0;0;1;10
iamza;0;0;1;4
"oeuvre de basquiat";0;0;1;9;0;0;1;8
"murakami sculpture";0;0;1;4
streichenberger;0;0;1;6
n61;0;0;3;10
"jacques mahé";0;0;1;8
"marie houset";0;0;1;5
"leonards gallery antwerpen";0;0;1;9
"oeuvre basquiat";0;0;2;9
"pierre marie brisson";0;0;1;3
"sculpture bronze";0;0;1;70
"philippe berry";0;0;77;6.3636363636364;0;0;33;6.6666666666667
"miguel chevalier";0;0;1;10;0;0;1;10
"robert combas peintre";0;0;1;6
"philippe pasquat";0;0;1;7
muckensturm;0;0;1;10
"jeremie lenoir";0;0;1;5
"espace seven";0;0;1;10
triglia;0;0;5;5.8
"artiste mist";0;0;1;6
"artiste déesse";0;0;1;6
"julien calot peintre";0;0;1;2
"peintre beaufils";0;0;3;5
"ernest pignon";0;0;4;11
"keith haring wikipedia";0;0;1;8;0;0;1;8
"basquiat oeuvres";0;0;2;6
"crane pasqua";0;0;1;6
"fernando garcia";0;0;1;11
vacossin;0;0;2;8
"nicolas tourte";0;0;1;11
"galerie en ligne";0;0;5;1
"zelda bomba";0;0;1;2
"bernard boscher";0;0;1;29
"tom wesselman";0;0;1;5
"robert peintre";0;0;2;10
"stanley greene";0;0;1;11
"artsper avis";0;0;2;1
"gaspard mitz";0;0;1;1;0;0;3;1
"jerry hall jeune";0;0;2;1;0;0;2;1
"photos david lachapelle";0;0;1;7
"galerie collin";0;0;3;4.3333333333333;0;0;3;4.3333333333333
catte;0;0;7;3
"edelmann yrjö";0;0;1;5
"kuroda peintre";0;0;2;4
"acheter une oeuvre d'art";0;0;1;1
auboiron;0;0;1;8
"in caelo et in terra";0;0;1;3
"jean luc lacroix";0;0;1;1
scepulture;0;0;2;6
"solene x";0;0;4;6.5
"jm robert peintre";0;0;1;2
"robert combas cote";0;0;1;5;0;0;1;5
gta;0;0;1;141
"robert combas biographie";0;0;1;4
"jean michel basquiat oeuvres";0;0;4;7.25;0;0;1;7
"flexo zed";0;0;3;5
maoual;0;0;2;6.5
"catalano artiste";0;0;1;5
"linear quest";0;0;1;7
"marcus egli";0;0;1;3
"mieux que rien c'est pas assez";0;0;1;1
"galerie alb";0;0;1;11
"severine boutry";0;0;1;3
"marie bagot";0;0;1;9
"mr chat";0;0;9;6.5555555555556;0;0;1;6
"laure d'hauteville";0;0;1;6
"angel l ortiz";0;0;1;3;0;0;1;4
"nathalie grenier";0;0;1;7
"jeff koons biographie";0;0;1;7
"john one street art";0;0;1;3
"alva bernadine";0;0;3;7.6666666666667
"soly cissé";0;0;1;11
"gallery d'art";0;0;1;5
"arman œuvres d'art";0;0;1;6
"alain huet";0;0;2;6
"louis stettner";0;0;1;7
"artiste ben";0;0;5;4.4
"wesselmann tom";0;0;1;10
bouro;0;0;7;7.7142857142857
"frairot peintre";0;0;1;4
lisman;0;0;1;5
"laurent bouro";0;0;2;3
aboudia;0;0;3;6
"henri lamy";0;0;2;4
"thierry alet";0;0;1;1
alfarone;0;0;1;2
kontakthif;0;0;1;10
"poulat peintre";0;0;1;8
"gallerie w";0;0;1;4
"leo caillard";0;0;2;10
"annette messager oeuvres";0;0;1;8
"mathieu mercier";0;0;5;8.6
"m chat";0;0;2;6;0;0;5;7
filfury;0;0;1;9
"peintre britto";0;0;1;5
"peintre bernard buffet";0;0;1;11
leobardo;0;0;1;9
"franky boy";0;0;1;10
"nils udo";0;0;3;8.6666666666667;0;0;4;8.25
"nicolas hugo";0;0;1;5;0;0;1;5
koolkor;0;0;1;4
"bonhomme blanc";0;0;2;9.5
"oeuvres d'art moderne";0;0;2;1
"gordon hopkins";0;0;1;3
"victor soren";0;0;2;5
"acheter de l'art";0;0;2;3
"acheter oeuvre d'art";0;0;1;1
"jean pierre nadau";0;0;1;1
mitrovanoff;0;0;1;10
"jana et js";0;0;1;8
"jean claude berens";0;0;1;2
cedki;0;0;1;1
"iker valle";0;0;1;8
"yinka shonibare";0;0;1;9
"bernard venet";0;0;2;8;0;0;1;8
"brugier rigail";0;0;1;7
"banksy oeuvres";0;0;9;8.1111111111111;0;0;7;8
"photo surréaliste";0;0;1;9
"arts sculpture";0;0;1;9
"emmanuel flipo";0;0;1;2
"david de lachapelle photographer";0;0;1;8
"artistes contemporains";0;0;3;7.6666666666667;0;0;4;9
"oeuvre d'art pas cher";0;0;1;2
"richard olinski";0;0;1;8
"goujon peintre";0;0;1;10
"investir dans l'art";0;0;1;9;0;0;1;7
morinno;0;0;1;6
"galerie du buisson";0;0;1;10
"achat art contemporain";0;0;1;1;0;0;1;1
"robert combas";0;0;13;4.8461538461538;0;0;4;5.75
"richard orlinski kong";0;0;1;8
"mr brainwash art";0;0;2;7
"alexandre mulliez";0;0;2;1
scuptures;0;0;1;6
goddog;0;0;4;5
braoudé;0;0;2;11
"dude company";0;0;1;9
"miss tic street art";0;0;1;6;0;0;1;6
"james coignard";0;0;3;10.666666666667;0;0;1;11
"sbk lyon";0;0;1;8
"pomme pop art";0;0;1;6
"charbonnel christophe";0;0;1;6
"poes artiste";0;0;1;1
"robert combass";0;0;1;5;0;0;2;7
"michel audiard sculpteur biographie";0;0;1;5
"jean francois rauzier";0;0;1;7
"monsieur chat";0;0;7;6.7142857142857;0;0;2;6.5
"charlelie couture new york";0;0;1;5
"jean michel basquiat in italian";0;0;6;8.8333333333333;0;0;2;9
"murakami flower cushion";0;0;1;5
"valérie hadida sculpture";0;0;1;2
"achat d'oeuvre d'art";0;0;2;1
fulcrand;0;0;1;5
"oeuvre d'art contemporaine";0;0;3;1;0;0;3;1
"galerie bacqueville";0;0;1;8
"ski sex";0;0;2;8
"galerie numéro 1";0;0;1;5
"galerie d'art france";0;0;1;6
renk;0;0;1;13
"didier hamey";0;0;1;5
"chris morin eitner";0;0;3;3
"lucien murat";0;0;7;7.1428571428571;0;0;1;6
"orlinski panthere";0;0;1;10
fazzino;0;0;5;6.8;0;0;2;9
one4you;0;0;1;17
"karl lagasse prix";0;0;1;2
"wilfred peintre";0;0;1;3
"telemaque peintre";0;0;2;8;0;0;2;6.5
travayer;0;0;1;9
"dominique clerc";0;0;1;9;0;0;2;7.5
"statue déesse";0;0;1;4
"jésus marche sur les eaux tibériade";0;0;1;9
"pascale morin";0;0;1;8
"morellet françois";0;0;1;11
"nathan chantob";0;0;1;2;0;0;1;2
"galerie brugier-rigail";0;0;1;7
monumentale;0;0;1;10
"nojnoma paris";0;0;2;9.5
misstic;0;0;29;8.7586206896552;0;0;2;8.5
"le diamentaire";0;0;1;10
"pierre cornette de saint cyr";0;0;2;15
"ernest pignon biographie";0;0;1;7
fazino;0;0;1;7
"hervé lewis";0;0;2;5
"françois bard";0;0;2;2;0;0;2;2.5
"ange basso";0;0;2;4
"fiscalité oeuvre d'art entreprise";0;0;1;3
"troy henriksen";0;0;2;3
"photographie d'art";0;0;1;25
"site de vente d'art";0;0;1;1
"miss tik";0;0;1;6
"richard burel";0;0;1;6
"basquiat in italian";0;0;1;9
"jean baptiste dumont";0;0;4;10
"emmanuelle bousquet";0;0;2;8
"dominique perreau";0;0;1;9
"orlinski sculpteur";0;0;3;6
"galerie audet";0;0;1;7
miss.tic;0;0;1;6
"sophie favier";0;0;1;252
"galerie vidal st phalle";0;0;1;9
sarla;0;0;6;9;0;0;1;10
"basquiat oeuvre";0;0;2;8
cieu;0;0;2;10
silbereis;0;0;1;3
"artistes allemands contemporains";0;0;1;9
"parfum fanny";0;0;1;10
"squelette qui prie";0;0;1;4
"anne berry";0;0;2;10
chamizo;0;0;3;8
"berry philippe";0;0;2;8
mordac;0;0;1;8
"requin sourire";0;0;1;9
"jean hélion";0;0;3;5
"shepard farey";0;0;1;11
"oxana x";0;0;3;8.3333333333333
"l'atlas street art";0;0;2;7
"michael cailloux";0;0;1;15
horkan;0;0;1;6
"le diamantaire artiste";0;0;1;7
"jack hironimus";0;0;2;4
"mengzhi zheng";0;0;1;5
"thomas canto";0;0;3;7
villegle;0;0;1;5
"helene goddyn";0;0;1;2
"buffet artiste peintre";0;0;3;7
"jean-pierre attal";0;0;1;6
"mail art artistes";0;0;1;28
"christine mathieu";0;0;1;9
"biographie ben";0;0;1;5
"miroir de l'art";0;0;1;9
combasse;0;0;3;6.6666666666667;0;0;1;6
"doucet peintre";0;0;2;10
"galeries d'art";0;0;2;5.5;0;0;1;3
"miss au masculin";0;0;1;9
"isa marcelli";0;0;1;8
"keith haring oeuvre";0;0;1;7
dan23;0;0;5;7
"jacques villeglé";0;0;2;5;0;0;3;5
"john one peintre";0;0;2;3
djoroukhian;0;0;1;8
"jerome revon";0;0;1;10
"claire trotignon";0;0;2;4
"christophe fischer";0;0;1;7
"claude leveque";0;0;12;10.083333333333;0;0;5;11
"cesar baldaccini";0;0;1;6
"nathalie dhenaut";0;0;1;6
"leo galamez";0;0;1;2
"compression cesar";0;0;1;10
capton;0;0;5;3.8;0;0;2;3
"audiard sculpteur";0;0;1;10
"untitled 12";0;0;1;8
e-gallery;0;0;1;10
"oeuvre d'art noir et blanc";0;0;1;7
dallanegra;0;0;1;5;0;0;1;4
capocci;0;0;6;5.6666666666667
"di rose";0;0;1;5
"jorg doring";0;0;1;7
"william holman gallery";0;0;1;6
"emilie danchin";0;0;1;10
"yang yongliang";0;0;1;6
"li wei";0;0;2;5
cedrix;0;0;2;9
chamozo;0;0;1;8
"cesar jordan";0;0;1;4
"biographie de thomas muller";0;0;1;10
"sculpteur japonais";0;0;1;10
moyoshi;0;0;2;4
"destarac peintre";0;0;2;4
"vincent ruffin";0;0;2;6
"pat andrea";0;0;1;9
kontakthof;0;0;3;10
"vanessa cooper";0;0;1;2
"ernest pignon ernest oeuvres";0;0;19;6.9473684210526;0;0;5;7
"richard orlinski tarif";0;0;1;5
liwei;0;0;2;6
"miguel ortiz";0;0;1;10
gnidzaz;0;0;1;3
"laurent allory";0;0;1;4
"richard orlinski panthere";0;0;1;1
"buffet peintre";0;0;12;9.9166666666667;0;0;6;10
smael;0;0;1;6
"french art studio";0;0;1;3;0;0;1;3
"lady jday";0;0;1;7
"vente oeuvre d'art";0;0;1;1
"sculpture tete de mort";0;0;1;8
"alva bernardine";0;0;2;7
"artistes ivoiriens";0;0;1;10
"hélder batista";0;0;1;7
hyber;0;0;3;6.3333333333333
topolino;0;0;3;7.6666666666667;0;0;1;8
"jone one";0;0;1;6
"sylvie guilleme";0;0;1;3
"costa artiste";0;0;3;4;0;0;1;4
"eastpak pop art";0;0;1;1
"john caroll";0;0;1;5
"amateurs d'art";0;0;1;10
ngliang;0;0;1;8
kowit;0;0;1;12
"sculpture art";0;0;2;3.5
"art acheter";0;0;1;2
"lievre des neiges";0;0;2;9
"davide lachapelle";0;0;1;6
"jacques villegle";0;0;3;5;0;0;2;4
"singier peintre";0;0;1;7;0;0;1;6
miistic;0;0;1;6
"lawrence weiner";0;0;1;11
"galerie artiane";0;0;2;4;0;0;1;4
"bernard buffet portrait";0;0;1;9
"miss tic";0;0;47;6.4468085106383;0;0;7;6.8571428571429
"zenoy graffiti";0;0;2;5
"peinture monochrome";0;0;5;8.2
arietti;0;0;1;3
"rosa peintre";0;0;1;12
"eduardo kac";0;0;6;11
"mr chat paris";0;0;1;10
"orlanski sculpteur";0;0;1;6
"alva bernadine wikipedia";0;0;3;10
"le diamantaire";0;0;5;9.8;0;0;1;9
annya;0;0;3;3.3333333333333
"planete serie";0;0;2;7;0;0;15;5
"ralph gibson the somnambulist";0;0;1;10
"gerard quenum";0;0;1;8
"cesar artiste";0;0;1;8;0;0;2;8
"jaké artwork";0;0;1;5
apesteguy;0;0;1;3
"valerie hadida";0;0;1;2
"clément delmas";0;0;1;9
"banksy prix";0;0;1;10
"lucile callegari prix";0;0;2;5
"clint peinture";0;0;2;9
"hyber fabrice";0;0;1;7
"murakami cushion";0;0;1;8
"mahjoub ben bella wikipedia";0;0;1;1
"samhart gallery";0;0;1;5
"thierry diers peintre";0;0;1;6
"jace gouzou vente";0;0;1;5
"philippe charpentier";0;0;1;10
guilleme;0;0;1;8
"david gerstein";0;0;1;3;0;0;3;3
"takala photo";0;0;1;1
"25 rue jean jacques rousseau 75001 paris";0;0;3;10
"cesar le sculpteur";0;0;1;10
"kiki picasso femme";0;0;2;4
"christine muller";0;0;4;6.25
"peinture dissection";0;0;2;4
"jeff koons chien ballon";0;0;2;10
"jean michel basquiat œuvres d'art";0;0;6;9.6666666666667
"alain schank";0;0;2;4
"leslie meme";0;0;1;10
"dani olivier";0;0;1;11
"roméro britto";0;0;1;5
"john levee artist";0;0;1;4
"philippe de saint lager";0;0;1;6;0;0;1;3
"cesar sculpteur";0;0;4;6.25;0;0;1;7
"tieri trademark";0;0;3;1
"carlos cruz";0;0;10;11.8;0;0;1;12
"gerstein design";0;0;1;3
"oeuvres jean michel basquiat";0;0;2;10
"peinture coca cola";0;0;1;10
"art en ligne";0;0;1;1;0;0;1;1
"yann houri";0;0;1;3
"timur novikov";0;0;1;1
"pierre françois grimaldi";0;0;1;3;0;0;2;3
"peintre godon";0;0;1;3
benharrouche;0;0;1;10
"galerie nuances et lumière";0;0;2;4
"francis apesteguy";0;0;1;1
"alexandre joly";0;0;4;11
"tag banksy";0;0;1;9
"jean faucheur";0;0;3;7
"art oeuvre";0;0;1;3
"guy oberson";0;0;2;11
aroa;0;0;6;7;0;0;1;7
rancinan;0;0;2;7
"elise oudin gilles";0;0;1;3
"galerie d art";0;0;2;8;0;0;1;3
"peinture clint";0;0;1;10
"michel audiard sculpteur wikipedia";0;0;1;8
"sculpture d";0;0;1;6
"ino tout nu";0;0;1;22
"pop zelda";0;0;1;10
ronenglish;0;0;1;6
"eric zambeaux";0;0;2;6
"josi paula";0;0;1;9
"desir secret";0;0;1;68
"beaufils peintre";0;0;2;7.5
"stéphane compoint";0;0;1;4
"valerie hadida sculpture";0;0;1;2;0;0;1;3
"kaws boba fett";0;0;1;3
"jef aérosol";0;0;2;5
abelardo;0;0;1;10
"von wrede";0;0;1;10
"dope gallery";0;0;1;6;0;0;1;6
orlinski;0;0;15;8.0666666666667;0;0;3;7.6666666666667
"romero britto oeuvres";0;0;1;6
traffik;0;0;1;4
"gwenael billaud";0;0;1;8
"raynaud artiste";0;0;1;8
"kim de molenaer";0;0;1;6
bremermann;0;0;1;7
combass;0;0;1;6
"di rosa";0;0;4;4;0;0;1;4
"clement cogitor";0;0;1;11
"roch vandromme";0;0;1;5
"art you galerie";0;0;1;4
"mambo artiste";0;0;1;8
"lichtenstein girl with ball";0;0;1;11
"laforet orange";0;0;1;10;0;0;1;11
"levalet street art";0;0;1;6;0;0;2;6
"christophe charbonnel";0;0;6;6.6666666666667;0;0;5;7
"ki to la gloire";0;0;2;7
"hermann nitsch";0;0;1;11
"achat photo d'art en ligne";0;0;1;1
"raynaud artiste peintre";0;0;1;5
"jean-michel voge";0;0;2;4
"philippe azema";0;0;1;2
mesnager;0;0;11;4.1818181818182;0;0;3;4.3333333333333
"gérard titus carmel";0;0;1;7
"series red";0;0;1;47
"2nd amendment";0;0;1;9
"le chat artiste";0;0;1;7
"arthur dorval";0;0;3;3
georgik;0;0;1;13
"fred calmets";0;0;3;4.3333333333333
"bruno catalano prix sculptures";0;0;2;4;0;0;1;3
"galerie claire corcia";0;0;1;6;0;0;3;6.6666666666667
"lgr 150 paris";0;0;2;8
"peinture baiser";0;0;1;25
"tilt graffiti";0;0;4;7
"julien durix";0;0;7;2.2857142857143;0;0;2;2
"jonas sun7";0;0;2;2
"muller christine";0;0;1;10
"sculpture bronze contemporain";0;0;1;54
"dan 23";0;0;1;8;0;0;2;8
bodnariu;0;0;1;4
"l'art et les mots";0;0;1;9
"peintre harris";0;0;1;7
"sculteur cesar";0;0;1;11
"galerie street art lille";0;0;1;10
"yz yseult";0;0;1;10
"richard orlanski";0;0;1;8
"art murakami";0;0;1;10
mulhem;0;0;1;3
"galerie gilbert dufois";0;0;2;4
"bernard rancillac";0;0;2;11
"phillipe favier";0;0;1;9
lebourgeois;0;0;1;36
"joyeux noel artistique";0;0;1;6;0;0;2;9
"julien airault peintre";0;0;2;3
"nicolas maureau";0;0;1;5
"miss tic artiste";0;0;1;4
bernar;0;0;1;10
"john perello";0;0;3;5
ayline;0;0;5;9.2
"1a en ma";0;0;1;8
"takashi murakami sculpture";0;0;1;5
"monochrome noir";0;0;1;9
"xavier dumont photographe";0;0;2;15
"arroyo eduardo";0;0;1;9
"galerie under construction";0;0;1;4
"bernard buffet oeuvres";0;0;1;5
"mr chat street art";0;0;1;5
levlet;0;0;1;5
"ming mao";0;0;1;5
"tableau martin luther king";0;0;1;10
"guy mansuy";0;0;4;2
"planète serie";0;0;1;5
"shepard fairey";0;0;29;11;0;0;4;11
"delphine 000";0;0;2;7.5
"veronique bourgeois";0;0;1;10
nuitale;0;0;1;7
"sophie sigorel";0;0;1;5
"jorge orta";0;0;1;10
"thomas jorion";0;0;2;4
bambel;0;0;1;11
"valérie le merrer";0;0;1;3
"marie benattar";0;0;1;8
"huston usa";0;0;1;6
"kool koor";0;0;2;3
"romero britto sculpture";0;0;1;7
"sculpture art contemporain";0;0;3;2
"christmas keith haring";0;0;1;10
"peintre paris 1";0;0;1;20
"jacques benaroch";0;0;1;2
"exposition miss tic";0;0;5;8.4
"sculpture art contemporain pas cher";0;0;1;1
"oeuvre d'art en chocolat";0;0;1;6;0;0;1;6
"patrick cornillet";0;0;1;4
scupture;0;0;2;5
"armand artiste";0;0;1;6;0;0;1;7
"anne cindric";0;0;2;4
joneone;0;0;2;6;0;0;3;6
"bernard quentin";0;0;1;9
"peinture de dubuffet";0;0;1;8
"robert schad";0;0;1;5
oneiro;0;0;1;6
"jpg4 junior nude";0;0;1;7
"petra wunderlich";0;0;1;2
"michel dubois";0;0;2;12
daurios;0;0;1;10
"art contemporain pas cher";0;0;1;4
"photo massimo vitali";0;0;1;4
"marc dupont";0;0;1;48
"philippe mougin";0;0;1;11
"herve lewis photographe";0;0;2;7
"galerie bettina paris";0;0;1;8
"oeuvre en papier";0;0;2;6
"jean marie drouet";0;0;1;4
"carole benichou";0;0;1;7
"photographie jr";0;0;1;10
"thomas muller";0;0;1;26
dubure;0;0;1;4
"khawater 1";0;0;2;9
"hopare prix";0;0;1;9
"sculpture bruno catalano prix";0;0;1;4
"peter klasen artist";0;0;1;2
shuck2;0;0;1;9
duytter;0;0;1;2
"sculpture déesse";0;0;1;6
"baptiste fompeyrine";0;0;1;4
"zevs oeuvres";0;0;2;5
"orlan oeuvre";0;0;2;5
"laurent dauptain";0;0;1;4
"oeuvre d'ernest pignon ernest";0;0;2;6
"keith haring biographie";0;0;1;9
"michelle auboiron";0;0;1;7
"vendre art";0;0;2;1
"joel barbiero";0;0;1;7
"christian renonciat";0;0;1;6
"oeuvre de jean dubuffet";0;0;1;6
"anne guillon";0;0;2;8
"peinture zeus";0;0;5;10
hiquily;0;0;1;11
"francoise carrasco sculpteur";0;0;1;2
"jericho peinture";0;0;1;9
"michele destarac";0;0;1;4
"uwe ommer";0;0;1;9
pentaptyque;0;0;1;8
fompeyrine;0;0;1;15
nudes;0;0;3;94
c215;0;0;1;13
desroziers;0;0;1;135
"philippe dannic";0;0;1;7
"julien grudzinski";0;0;1;2
"venter art";0;0;1;1
"oeuvre art contemporain";0;0;1;1
surian;0;0;1;7
"jean marie marion";0;0;1;8
"robert combas prix oeuvres";0;0;1;4
"sunday b. morning";0;0;1;3
taran;0;0;1;21
"basquiat biographie";0;0;1;15
"hoffmann pierre";0;0;1;18
chikako;0;0;1;11
"robert barry closed gallery";0;0;1;6
"jeunes artistes peintres contemporains";0;0;1;8
"statue oeuvre d'art";0;0;1;3
"fairey shepard";0;0;1;11
"robert combas prix";0;0;4;8
"terra peintre";0;0;1;1
"liu bolin biographie";0;0;1;2
"gustave singier";0;0;1;8
"damien hirst oeuvres";0;0;2;7.5
"didier marien";0;0;2;2
"open art galerie dijon";0;0;1;6
"jasmine black";0;0;1;23
"chris verkaemer";0;0;1;6
"isabelle leclercq céramiste";0;0;1;10
"mieux que rien";0;0;1;8
"tony curanaj artist";0;0;2;10
"cesar sculteur";0;0;1;8
"philippe vasseur peintre";0;0;4;2
"art antica";0;0;1;4
"peinture deesse";0;0;1;6
"joan miro oeuvres";0;0;4;1.75
"planète série";0;0;1;5
"panthere sculpture";0;0;1;10
"jonone a vendre";0;0;1;4
"sunday b morning andy warhol";0;0;1;3
"eric de ville";0;0;1;2
"messager annette";0;0;1;7
chabiron;0;0;1;11
boudro;0;0;1;8
"stephane jacob";0;0;1;11
"andre carl";0;0;2;8
"jan saudek photographe";0;0;1;4
"martin singe";0;0;1;1
"chantal dugave";0;0;1;6
"tal coat prix";0;0;2;2
"philippe croq";0;0;1;7
"patrick bailly maitre grand";0;0;1;9
"crane et papillon";0;0;2;4
"bleu stratos";0;0;1;3
aizee;0;0;3;10
"jonone peintre";0;0;2;3
"anne lesca";0;0;2;5
"guillaume piechaud";0;0;1;3
"marie drouet";0;0;1;10
"dessin nadal";0;0;1;10
"objet d'art contemporain";0;0;1;2
ardpg;0;0;1;8
"opalka biographie";0;0;1;8
"brigitte perrier";0;0;1;7
joannesse;0;0;1;211
"antoine neron bancel";0;0;2;4
"vente sculpture";0;0;1;1
"manolo chretien";0;0;1;3
"wilfred lang art";0;0;1;7
"nicolas kuligowski";0;0;1;6
"dussac peintre";0;0;1;4
"luc skywalker";0;0;1;39
"combas peintre cote";0;0;1;4
"galerie bertrand gillig";0;0;2;4
"orlinski richard";0;0;1;8
"shirley jaffe";0;0;3;4
"godon alain";0;0;1;1
"galerie waltman";0;0;3;7.3333333333333
"nils udo oeuvres";0;0;1;6
valentin_caro;0;0;1;7
"lucile chauveau";0;0;1;53
"bernard saint maxent";0;0;2;10
"tony soulier";0;0;1;11
"nicolas laugero lasserre";0;0;1;10
"peinture kurt cobain";0;0;1;9
"oeuvre arman";0;0;1;8
"le turk";0;0;1;10
cumbone;0;0;3;6
"hideki yoshida";0;0;1;7
"sculpture bleu";0;0;1;9
"galerie d'art internet";0;0;3;1
"denis fompeyrine";0;0;1;3
"oeuvre d'art géométrique";0;0;1;9
"corinne dalle ore";0;0;1;4
"vente oeuvre d'art en ligne";0;0;2;1
"richard orlinski acheter";0;0;1;1
"fabien verschaere";0;0;1;2
"jean hélion peintre";0;0;1;4
"prisme art";0;0;1;2
"philippe pasqua vanité";0;0;1;4
"torrick ablack";0;0;1;6
"alberto vejarano";0;0;1;9
"artop lille";0;0;1;6
"tony bevan";0;0;1;7
"emma levine";0;0;1;6
"sculpture art moderne";0;0;1;2
kalfas;0;0;3;4
"jeunes artistes contemporains français";0;0;1;7
"olivier masmonteil";0;0;2;11
