artsper;18;0.068702290076336;262;1;12;0.056338028169014;213;1;2;0.068965517241379;29;1;4;0.2;20;1
jonone;5;0.037878787878788;132;4.5454545454545;3;0.042857142857143;70;4.0285714285714;2;0.040816326530612;49;5.1632653061224;0;0;13;5
"bernard pras";4;0.061538461538462;65;3.5846153846154;3;0.061224489795918;49;3.2244897959184;0;0;6;5;1;0.1;10;4.5
"christine barres";4;0.5;8;3;2;0.5;4;3;2;0.5;4;3
"patrick delaunay";4;0.22222222222222;18;3.5555555555556;4;0.26666666666667;15;3.6;0;0;3;3.3333333333333
"shepard fairey";3;0.017341040462428;173;9.3526011560694;3;0.022388059701493;134;9.2313432835821;0;0;30;9.7333333333333;0;0;9;9.8888888888889
"richard orlinski";3;0.0093457943925234;321;7.7352024922118;2;0.018348623853211;109;7.6422018348624;1;0.0066666666666667;150;7.8;0;0;62;7.741935483871
"jerome mesnager";3;0.10714285714286;28;3.9285714285714;1;0.083333333333333;12;3.1666666666667;2;0.22222222222222;9;4.3333333333333;0;0;7;4.7142857142857
"nils udo";3;0.026315789473684;114;7.4649122807018;3;0.028571428571429;105;7.3619047619048;0;0;2;8;0;0;7;8.8571428571429
"l'atlas artiste";3;0.3;10;6.1;2;0.4;5;5.2;1;0.25;4;7;0;0;1;7
"bruno catalano prix";3;0.1875;16;4.375;2;0.33333333333333;6;4.8333333333333;0;0;1;4;1;0.11111111111111;9;4.1111111111111
"speedy graphito";3;0.048387096774194;62;6.2741935483871;2;0.064516129032258;31;5.6129032258065;1;0.041666666666667;24;7.125;0;0;7;6.2857142857143
"jeanne lorioz";3;0.5;6;4.3333333333333;3;0.6;5;4.6;0;0;1;3
"galerie d'art";3;0.051724137931034;58;6.5862068965517;2;0.05;40;6.525;1;0.083333333333333;12;6.0833333333333;0;0;6;8
sculpture;3;0.005524861878453;543;7.828729281768;1;0.0029325513196481;341;7.8445747800587;0;0;125;8.176;2;0.025974025974026;77;7.1948051948052
"jef aerosol";3;0.044117647058824;68;5.1911764705882;3;0.055555555555556;54;5.2222222222222;0;0;14;5.0714285714286
"banksy oeuvres";3;0.036585365853659;82;7.4146341463415;3;0.053571428571429;56;7.0535714285714;0;0;14;8.1428571428571;0;0;12;8.25
"robert bradford";2;0.5;4;2;2;0.66666666666667;3;2;0;0;1;2
skunkdog;2;0.5;4;3;1;0.33333333333333;3;3;1;1;1;3
pechane;2;1;2;1;2;1;2;1
quik;2;0.016806722689076;119;1.5294117647059;1;0.016129032258065;62;1.3709677419355;1;0.021739130434783;46;1.8478260869565;0;0;11;1.0909090909091
"gerard escougnou";2;0.5;4;4;2;0.66666666666667;3;4;0;0;1;4
"la peur dans l'art";2;0.66666666666667;3;1;2;0.66666666666667;3;1
"yoann merienne";2;0.66666666666667;3;3.3333333333333;1;1;1;2;1;0.5;2;4
"annette messager";2;0.016806722689076;119;8.3109243697479;2;0.019607843137255;102;8.156862745098;0;0;11;9.1818181818182;0;0;6;9.3333333333333
"yutao ge";2;0.66666666666667;3;1;2;0.66666666666667;3;1
villeglé;2;0.068965517241379;29;3.6896551724138;2;0.095238095238095;21;3.5238095238095;0;0;4;4.25;0;0;4;4
"wang yan cheng";2;0.11111111111111;18;7.1666666666667;2;0.16666666666667;12;7;0;0;6;7.5
"jean pierre attal";2;0.33333333333333;6;6.6666666666667;2;0.33333333333333;6;6.6666666666667
"olivier moriette";2;0.16666666666667;12;2;2;0.16666666666667;12;2
"thomas bossard";2;0.28571428571429;7;3.2857142857143;2;0.28571428571429;7;3.2857142857143
"philippe azema";2;0.33333333333333;6;1.3333333333333;1;0.33333333333333;3;1.6666666666667;1;0.33333333333333;3;1
"alain crocq";2;0.66666666666667;3;5;2;0.66666666666667;3;5
"jef aérosol";2;0.125;16;4.3125;2;0.16666666666667;12;4;0;0;3;5.3333333333333;0;0;1;5
"oeuvre de keith haring";2;0.28571428571429;7;5.2857142857143;2;0.33333333333333;6;5.1666666666667;0;0;1;6
dan23;2;0.14285714285714;14;7.0714285714286;1;0.11111111111111;9;7.1111111111111;0;0;3;7.3333333333333;1;0.5;2;6.5
rancinan;2;0.16666666666667;12;6.3333333333333;2;0.33333333333333;6;6.6666666666667
"jérôme mesnager";2;0.16666666666667;12;3.5833333333333;2;0.25;8;3.375;0;0;4;4
chanoir;2;0.14285714285714;14;1.0714285714286;2;0.22222222222222;9;1.1111111111111;0;0;3;1;0;0;2;1
"yuriko takagi";2;1;2;11;2;1;2;11
"bernard pras oeuvre";2;0.33333333333333;6;2;2;1;2;2;0;0;4;2
"robert combas";2;0.025;80;4.6125;2;0.038461538461538;52;4.2115384615385;0;0;21;5.2857142857143;0;0;7;5.5714285714286
"robert barry";2;0.064516129032258;31;3.6451612903226;1;0.05;20;3.4;1;0.125;8;4.125;0;0;3;4
"noe two prix";2;0.66666666666667;3;3.3333333333333;1;0.5;2;4;1;1;1;2
"julien airault";2;0.5;4;1.75;1;0.33333333333333;3;2;1;1;1;1
"ben bella peintre";2;0.11111111111111;18;2.2777777777778;2;0.15384615384615;13;2.1538461538462;0;0;5;2.6
"eva jospin";2;0.11111111111111;18;5.3888888888889;1;0.076923076923077;13;5.3076923076923;1;0.2;5;5.6
jisbar;2;0.25;8;1;2;0.25;8;1
"bastien cuenot";2;0.2;10;1.7;1;0.2;5;1.4;1;0.2;5;2
"corine pagny";2;0.66666666666667;3;3;2;1;2;3;0;0;1;3
iemza;2;0.13333333333333;15;4.1333333333333;2;0.33333333333333;6;4.3333333333333;0;0;6;4;0;0;3;4
"vitali photographe";2;1;2;3;2;1;2;3
orlinski;2;0.01025641025641;195;7.025641025641;1;0.010989010989011;91;7.021978021978;1;0.018518518518519;54;6.8888888888889
"pierre francois grimaldi";1;0.2;5;2.6;1;0.33333333333333;3;3
"bernard rancillac oeuvres";1;0.33333333333333;3;4.6666666666667;1;1;1;4
"aline robin";1;0.5;2;6.5;1;0.5;2;6.5
"césar baldaccini oeuvres";1;1;1;3;1;1;1;3
"dan 23";1;0.2;5;8;1;0.33333333333333;3;8;0;0;2;8
"topolino artiste";1;0.33333333333333;3;1;1;0.5;2;1;0;0;1;1
"portrait huile sur toile";1;1;1;19;1;1;1;19
"lionel sourisseau";1;1;1;2;1;1;1;2
"emmanuel flipo";1;0.33333333333333;3;2;1;1;1;2
"mr brainwash bio";1;1;1;3;1;1;1;3
"renaud delorme";1;1;1;2;1;1;1;2
"thierry carrier";1;0.25;4;3;1;0.33333333333333;3;3;0;0;1;3
"peter lippmann";1;0.16666666666667;6;3.6666666666667;1;0.25;4;3.25;0;0;2;4.5
"jan lisman";1;1;1;3;1;1;1;3
sculture;1;0.022222222222222;45;7.8222222222222;1;0.033333333333333;30;7.4333333333333;0;0;7;8.2857142857143;0;0;8;8.875
"jean christophe ballot";1;0.16666666666667;6;7;1;0.16666666666667;6;7
"m chat";1;0.055555555555556;18;6.2222222222222;1;0.2;5;6.8
"troy henriksen";1;0.14285714285714;7;3;1;0.2;5;3;0;0;2;3
"tom wesselmann oeuvres";1;0.25;4;5.25;1;0.33333333333333;3;5;0;0;1;6
"pasqua philippe";1;0.5;2;6.5;1;0.5;2;6.5
"atlas artiste";1;0.2;5;5;1;0.25;4;5;0;0;1;5
"francky boy";1;0.16666666666667;6;9.1666666666667;0;0;3;8.3333333333333;1;0.33333333333333;3;10
"jacques damez";1;0.5;2;3;1;0.5;2;3
"jean-philippe berger";1;0.33333333333333;3;2.3333333333333;1;0.5;2;2.5;0;0;1;2
"saudek photographe";1;1;1;4;1;1;1;4
"didier majewski";1;0.25;4;4.25;1;0.33333333333333;3;4.3333333333333;0;0;1;4
"arnaud liard";1;0.25;4;2.25;1;0.33333333333333;3;2.3333333333333;0;0;1;2
"jean marie drouet";1;0.16666666666667;6;4.1666666666667;1;0.2;5;4;0;0;1;5
"carlo nason";1;0.5;2;8;1;0.5;2;8
"antonio segui";1;0.16666666666667;6;10.5;1;0.25;4;10;0;0;2;11.5
"marie maertens";1;0.11111111111111;9;6.3333333333333;1;0.11111111111111;9;6.3333333333333
miss-tic;1;1;1;7;1;1;1;7
"jm robert";1;0.11111111111111;9;2.7777777777778;1;0.33333333333333;3;3;0;0;1;2
"peter klasen peintre";1;1;1;1;1;1;1;1
"galerie art 83";1;0.5;2;5;1;0.5;2;5
"jerome revon photographe";1;1;1;10;1;1;1;10
"maxime acker";1;0.125;8;2;1;0.2;5;2;0;0;3;2
"photographie d'art contemporain";1;0.5;2;4.5;1;0.5;2;4.5
"laure fissore";1;0.5;2;3;1;0.5;2;3
"armand scholtès";1;0.33333333333333;3;3.3333333333333;1;0.33333333333333;3;3.3333333333333
dubure;1;1;1;5;1;1;1;5
"nathan chantob";1;0.16666666666667;6;2;1;0.25;4;2;0;0;1;2;0;0;1;2
"lucile callegari";1;0.125;8;6;1;0.33333333333333;3;6;0;0;5;6
"olivier masmonteil";1;0.090909090909091;11;6.6363636363636;1;0.2;5;6.2
"galeries d'art";1;0.1;10;3.7;1;0.125;8;4.125;0;0;2;2
"li wei artist";1;1;1;5;1;1;1;5
"florian marco";1;0.5;2;5;1;0.5;2;5
"artiste deesse";1;0.33333333333333;3;5;1;0.33333333333333;3;5
"louboutin peter lippmann";1;0.5;2;10;1;0.5;2;10
"ayline olukman";1;0.5;2;4;1;0.5;2;4
"claude leveque biographie";1;0.33333333333333;3;2;1;0.33333333333333;3;2
"raymond hains";1;0.041666666666667;24;7.5;1;0.045454545454545;22;7.4090909090909;0;0;2;8.5
"jerome menager";1;0.33333333333333;3;4.6666666666667;1;1;1;4;0;0;2;5
"richard di rosa";1;0.11111111111111;9;3;1;0.11111111111111;9;3
"valerie hadida";1;0.16666666666667;6;3.1666666666667;1;0.25;4;3.25;0;0;2;3
"charlotte champion";1;0.5;2;3;1;0.5;2;3
"joan miro oeuvres";1;0.047619047619048;21;8.1904761904762;1;0.058823529411765;17;9.8823529411765;0;0;3;1;0;0;1;1
"butz et fouque";1;0.33333333333333;3;3;0;0;1;3;1;0.5;2;3
"sun hyuk kim";1;0.33333333333333;3;1;1;1;1;1;0;0;2;1
"galerie bertrand gillig";1;0.071428571428571;14;3.6428571428571;1;0.2;5;3;0;0;6;4;0;0;3;4
"jonone prix";1;0.25;4;1;1;0.5;2;1;0;0;2;1
"emmanuelle bousquet photographe";1;0.14285714285714;7;4;1;0.14285714285714;7;4
"solène ballesta";1;0.33333333333333;3;3.6666666666667;1;0.33333333333333;3;3.6666666666667
"miss tic";1;0.0058479532163743;171;5.6842105263158;1;0.021276595744681;47;6.6808510638298;0;0;14;6.7142857142857
"annette messager oeuvres";1;0.090909090909091;11;7.3636363636364;1;0.090909090909091;11;7.3636363636364
"guillaume collignon";1;0.5;2;9.5;1;1;1;9
"keith haring oeuvres";1;0.03030303030303;33;5.5757575757576;1;0.05;20;5.4;0;0;11;5.7272727272727;0;0;2;6.5
"olivier lelong";1;0.16666666666667;6;3;1;0.2;5;3;0;0;1;3
"artiste toxic";1;1;1;1;1;1;1;1
"artiste jr";1;0.125;8;10.25;1;0.16666666666667;6;10;0;0;1;11;0;0;1;11
"julien durix prix";1;0.33333333333333;3;1;1;0.5;2;1;0;0;1;1
"mendjisky serge";1;0.066666666666667;15;6.0666666666667;1;1;1;7
"bambi artiste";1;1;1;2;1;1;1;2
"balloon dog prix";1;0.14285714285714;7;9.2857142857143;1;0.5;2;9;0;0;1;9
"robert combas prix";1;0.25;4;7;1;0.5;2;7;0;0;2;7
"jean charles quillin";1;0.5;2;7;1;0.5;2;7
"murakami peintre";1;0.2;5;4;1;0.2;5;4
"chris morin";1;0.2;5;3;1;0.33333333333333;3;3;0;0;2;3
"olivier sultan";1;0.5;2;2.5;0;0;1;3;1;1;1;2
"guy denning";1;0.066666666666667;15;4.1333333333333;1;0.071428571428571;14;4.1428571428571;0;0;1;4
"stéphanie jeannet";1;1;1;4;1;1;1;4
"sylvie guyomard";1;0.0625;16;5.1875;1;0.066666666666667;15;5.2;0;0;1;5
"hervé télémaque";1;0.11111111111111;9;5.5555555555556;1;0.2;5;5;0;0;3;6.3333333333333;0;0;1;6
voyeur;1;0.16666666666667;6;189.33333333333;1;0.2;5;192;0;0;1;176
"jean luc beaufils artiste peintre";1;1;1;4;1;1;1;4
bastardoz;1;1;1;4;1;1;1;4
"julian opie";1;0.052631578947368;19;5.3684210526316;1;0.058823529411765;17;5.0588235294118;0;0;2;8
"olivier courty";1;0.33333333333333;3;10;1;1;1;10;0;0;2;10
"xavier veilhan";1;0.25;4;11.75;1;0.25;4;11.75
"fernando garcia ponce";1;0.5;2;4;1;0.5;2;4
"etienne gros";1;0.25;4;4.5;1;0.33333333333333;3;4.3333333333333;0;0;1;5
"britto romero";1;0.25;4;8.25;0;0;1;7;1;0.33333333333333;3;8.6666666666667
lorioz;1;0.125;8;8.5;1;0.125;8;8.5
"achat oeuvre banksy";1;1;1;1;1;1;1;1
"yazid oulab";1;0.1;10;4.1;1;0.11111111111111;9;4.1111111111111;0;0;1;4
"photo jr achat";1;1;1;4;1;1;1;4
"le diamantaire artiste";1;0.5;2;6;1;0.5;2;6
"christine barres prix";1;1;1;2;1;1;1;2
"toxic street artist";1;1;1;3;1;1;1;3
"alfredo lopez";1;0.5;2;4;1;0.5;2;4
"prix sculpture bruno catalano";1;0.33333333333333;3;6;1;1;1;5;0;0;1;8;0;0;1;5
"pierre marie brisson prix";1;1;1;1;1;1;1;1
"christophe streichenberger";1;0.2;5;1.8;1;0.25;4;2;0;0;1;1
"sculpture orlinski";1;0.5;2;6;1;1;1;6
"philippe brosse";1;0.33333333333333;3;5;1;0.5;2;3.5;0;0;1;8
"thomas verny peintre";1;0.5;2;1;1;0.5;2;1
"sandro giordano";1;0.33333333333333;3;6;1;0.33333333333333;3;6
"roland cat peintre";1;1;1;2;1;1;1;2
"bernard buffet oeuvres";1;0.25;4;4.75;1;0.25;4;4.75
"gérard rancinan";1;0.066666666666667;15;6.8;1;0.090909090909091;11;6.4545454545455;0;0;4;7.75
chamizo;1;0.055555555555556;18;7.5555555555556;1;0.2;5;6.6;0;0;9;8;0;0;4;7.75
"barthes christophe";1;0.5;2;9;1;0.5;2;9
"pierre riba sculpteur";1;1;1;3;1;1;1;3
ajee;1;0.25;4;4.75;1;0.33333333333333;3;5;0;0;1;4
"yoel benharrouche prix";1;1;1;9;1;1;1;9
"emma vidal";1;0.2;5;2.6;1;0.5;2;2;0;0;1;4
sgarra;1;0.33333333333333;3;3.6666666666667;1;1;1;3;0;0;2;4
"richard di rosa art contemporain";1;1;1;1;1;1;1;1
"kiddy citny";1;0.25;4;6;1;0.25;4;6
"yasse tabuchi";1;0.5;2;7.5;1;0.5;2;7.5
"di rosa peintre";1;0.125;8;4.25;1;0.2;5;4.2;0;0;1;3;0;0;2;5
"louis stettner";1;0.25;4;6.5;1;0.33333333333333;3;6;0;0;1;8
abelardo;1;0.14285714285714;7;6.7142857142857;1;0.2;5;6.4;0;0;1;9;0;0;1;6
"julien durix";1;0.052631578947368;19;1.7368421052632;1;0.090909090909091;11;1.5454545454545;0;0;6;2.1666666666667;0;0;2;1.5
"affiche jr";1;1;1;5;1;1;1;5
"dominique mulhem";1;0.11111111111111;9;3.2222222222222;1;0.5;2;4
"manolo chretien";1;0.25;4;4.75;1;0.33333333333333;3;5;0;0;1;4
"artiste murakami";1;1;1;3;1;1;1;3
"hank china prix";1;1;1;1;1;1;1;1
"benjamin spark";1;0.125;8;10.75;1;0.14285714285714;7;11;0;0;1;9
"flor garduño";1;1;1;8;1;1;1;8
"loulou picasso";1;0.125;8;5;1;0.16666666666667;6;5;0;0;2;5
"vincent richeux";1;0.0625;16;4.125;1;0.16666666666667;6;4;0;0;7;4;0;0;3;4.6666666666667
"erro artiste";1;0.33333333333333;3;4;1;0.33333333333333;3;4
"claude mollard";1;0.11111111111111;9;4.2222222222222;1;1;1;5
"oeuvre de banksy";1;0.03030303030303;33;5.6060606060606;1;0.14285714285714;7;6;0;0;7;6
"liu bolin biographie";1;0.33333333333333;3;3.3333333333333;0;0;2;4;1;1;1;2
"hervé perdriel";1;0.5;2;3;1;0.5;2;3
"karel de gendre";1;0.5;2;4.5;1;1;1;5
"speedy graphito vente";1;0.5;2;1;1;1;1;1;0;0;1;1
mendjisky;1;1;1;13;1;1;1;13
"peter wuthrich";1;1;1;2;1;1;1;2
"tous les bleus en peinture";1;1;1;10;1;1;1;10
"guy de rougemont";1;0.25;4;7;1;0.25;4;7
"caroline poulet";1;0.5;2;3;1;0.5;2;3
"klasen peintre";1;0.2;5;2;1;0.33333333333333;3;2;0;0;1;2;0;0;1;2
"galerie rivière faiveley";1;0.14285714285714;7;7;1;0.33333333333333;3;8
"john crash matos art";1;1;1;5;1;1;1;5
"durix julien";1;1;1;1;1;1;1;1
brodlim;1;0.5;2;2;1;0.5;2;2
"jonone reproduction";1;1;1;5;1;1;1;5
mumart;1;1;1;2;1;1;1;2
"ben bella mahjoub";1;0.33333333333333;3;2.6666666666667;1;1;1;2
"m le chat";1;0.25;4;5.5;1;0.5;2;5;0;0;2;6
"sophie morisse";1;0.125;8;4;1;0.125;8;4
"catalano bruno prix des oeuvres";1;0.5;2;2.5;1;1;1;1;0;0;1;4
"majd bazerji";1;0.5;2;4;1;0.5;2;4
"thomas verny";1;0.5;2;2.5;1;0.5;2;2.5
"labégorre peintre";1;0.25;4;8;1;0.25;4;8
"edmée delsol";1;0.33333333333333;3;4;1;0.33333333333333;3;4
"beaufils jean luc";1;1;1;3;1;1;1;3
"monsieur chat";1;0.033333333333333;30;5.8666666666667;0;0;7;6.4285714285714;1;0.2;5;6.2
"jean michel basquiat oeuvres";1;0.066666666666667;15;6.9333333333333;1;0.1;10;6.6;0;0;4;7.75;0;0;1;7
"mahjoub ben bella peintre";1;0.5;2;2;1;0.5;2;2
"prix tableau peinture";1;1;1;34;1;1;1;34
"greg gorman";1;0.04;25;8.48;1;0.055555555555556;18;8.7222222222222;0;0;5;7;0;0;2;10
"charles fazzino broadway";1;0.5;2;10;1;0.5;2;10
"philippe favier";1;0.25;4;16;1;0.25;4;16
"antoine de laboulaye";1;1;1;3;1;1;1;3
"artigas planas";1;1;1;1;1;1;1;1
"leon guillemin";1;1;1;5;1;1;1;5
"brno del zou";1;0.25;4;1.5;1;0.25;4;1.5
"iemza artiste";1;0.5;2;5;1;0.5;2;5
"benjamin deroche";1;0.090909090909091;11;6;1;0.125;8;5.625;0;0;2;7;0;0;1;7
"boudon sculpteur";1;0.5;2;9.5;1;0.5;2;9.5
"benjamin carbonne";1;0.16666666666667;6;1;1;0.5;2;1
"jérome mesnager";1;0.2;5;3;1;0.2;5;3
"zed flexo";1;0.5;2;4;1;0.5;2;4
"li wei";1;0.083333333333333;12;5.3333333333333;1;0.11111111111111;9;4.3333333333333;0;0;1;11;0;0;2;7
"stephane joannes";1;0.5;2;2;1;0.5;2;2
"philippe assalit";1;0.2;5;3;1;0.33333333333333;3;3
"nikolas fouré";1;0.25;4;3;1;1;1;3
"yves krief";1;1;1;5;1;1;1;5
"cyprien clément-delmas";1;0.5;2;7;1;0.5;2;7
"micro galerie";1;0.33333333333333;3;6;1;0.33333333333333;3;6
"obey artiste";1;0.2;5;3.2;1;0.25;4;3.25;0;0;1;3
"vincent chenut";1;0.5;2;7;1;0.5;2;7
"mahé boissel";1;0.16666666666667;6;4;1;0.2;5;4;0;0;1;4
moscona;1;0.5;2;2;1;0.5;2;2
"orlinski prix";1;0.052631578947368;19;6.6842105263158;0;0;9;6.6666666666667;1;0.14285714285714;7;6.8571428571429
"loup orlinski";1;0.33333333333333;3;2.3333333333333;1;0.5;2;2;0;0;1;3
"césar baldaccini";1;0.047619047619048;21;6.1428571428571;1;0.052631578947368;19;6.1578947368421;0;0;2;6
"jr oeuvre";1;0.14285714285714;7;5.8571428571429;1;0.16666666666667;6;6;0;0;1;5
"boom art";1;0.25;4;5;1;0.25;4;5
"guillaume guerin biographie";1;0.25;4;7;0;0;2;7;1;0.5;2;7
"martin reyna";1;0.33333333333333;3;4;1;0.5;2;4;0;0;1;4
"renk artiste";1;0.5;2;6;1;1;1;6
"francois morelet";1;0.5;2;10.5;1;1;1;11
"françois glineur";1;1;1;2;1;1;1;2
"bernard pras art";1;1;1;4;1;1;1;4
"oeuvre monumentale";1;0.25;4;6;1;0.5;2;6
"jean philippe berger";1;0.33333333333333;3;3;1;0.33333333333333;3;3
"eduardo arroyo oeuvres";1;0.5;2;5;1;0.5;2;5
"toxic peintre";1;0.5;2;1;1;0.5;2;1
"christof monnin";1;0.2;5;11;1;0.2;5;11
"street art jef aerosol";1;0.33333333333333;3;5;1;0.5;2;5;0;0;1;5
"tof vanmarque";1;0.33333333333333;3;2;1;0.5;2;2;0;0;1;2
capton;1;0.045454545454545;22;3.2727272727273;1;0.058823529411765;17;3.2941176470588;0;0;4;3.25;0;0;1;3
"ramzi adek";1;0.25;4;5;1;1;1;5
"le cirque matisse";1;1;1;5;1;1;1;5
"daniel convenant";1;0.33333333333333;3;3.3333333333333;1;0.5;2;2.5;0;0;1;5
"banksy billet";1;1;1;1;1;1;1;1
"hengki koentjoro";1;1;1;14;1;1;1;14
"aurelie bauer";1;1;1;14;1;1;1;14
misstic;1;0.02;50;7.36;1;0.035714285714286;28;7.0357142857143;0;0;21;7.7619047619048;0;0;1;8
"jean michel basquiat in italian";1;0.066666666666667;15;7.2666666666667;1;0.25;4;7;0;0;9;7.2222222222222;0;0;2;8
"capton peintre";1;1;1;6;1;1;1;6
"thierry michelet";1;0.2;5;7;1;1;1;7;0;0;4;7
"brainwash street art";1;1;1;19;1;1;1;19
"claude leveque oeuvres";1;1;1;5;1;1;1;5
"norma bessieres prix";1;0.33333333333333;3;1.6666666666667;1;0.5;2;2;0;0;1;1
"ben vautier oeuvre";1;1;1;5;1;1;1;5
"jacques villeglé oeuvres";1;0.33333333333333;3;3;1;0.5;2;3;0;0;1;3
vigier;1;1;1;199;1;1;1;199
"oeuvre d'art drole";1;1;1;2;1;1;1;2
"thomas muller artiste";1;1;1;1;1;1;1;1
"artyou galerie";0;0;2;5;0;0;2;5
"artiste peintre yo";0;0;2;4;0;0;2;4
"éva jospin";0;0;1;6;0;0;1;6
"paris iii";0;0;2;83.5;0;0;2;83.5
"gerard schlosser";0;0;5;3;0;0;5;3
"galerie polysemie";0;0;1;10;0;0;1;10
"leo galamez";0;0;2;2;0;0;2;2
"herman nitch";0;0;1;5;0;0;1;5
"k roll";0;0;2;62;0;0;2;62
unknow;0;0;1;17;0;0;1;17
"jean michel turpin";0;0;1;5;0;0;1;5
"chat peinture";0;0;1;17;0;0;1;17
"alexandre joly artiste";0;0;1;5;0;0;1;5
"vente manege";0;0;1;77;0;0;1;77
"jean milo";0;0;1;7;0;0;1;7
"galerie du buisson";0;0;2;9;0;0;2;9
"david gerstein disco large";0;0;1;61;0;0;1;61
"maison dauphine";0;0;1;17;0;0;1;17
"philippe hiquily";0;0;1;7;0;0;1;7
"bernard pras wiki";0;0;1;10
"eric ceccarini";0;0;1;9;0;0;1;9
"bert stern";0;0;1;26;0;0;1;26
"sébastien bayet artiste peintre";0;0;1;3;0;0;1;3
"street art ernest pignon ernest";0;0;1;13;0;0;1;13
claas;0;0;2;73.5;0;0;2;73.5
"eric de ville";0;0;5;4;0;0;3;4;0;0;2;4
"baby smile";0;0;2;78
"philippe bonan";0;0;2;3
"arden quin";0;0;1;10
waroquier;0;0;2;46
fulcrand;0;0;2;3.5;0;0;1;4
ln;0;0;3;76.666666666667
"born to be alive";0;0;2;96.5
"catherine ahnell wikipedia";0;0;1;12;0;0;1;12
"cruz diez";0;0;3;11.666666666667;0;0;1;12
"obey shepard fairey biographie";0;0;1;3;0;0;1;3
"peinture monochrome noir";0;0;1;5
"expansion cesar";0;0;1;7
"carl andré";0;0;22;5.6363636363636;0;0;1;7
euclide;0;0;1;234
"don mateo street art";0;0;1;58
nils-udo;0;0;7;7;0;0;1;7
"françoise gaujour";0;0;1;8;0;0;1;8
"cousinade forcalquier";0;0;4;38.75
"speedy graphito serial painter";0;0;1;7
"agnès baillon";0;0;1;7
"oeuvres de victor vasarely";0;0;1;24
"l'homme en mouvement";0;0;7;10
"shirley jaffe";0;0;7;4
"artiste russe contemporain";0;0;1;35;0;0;1;35
"rafael marquez";0;0;2;42
gaudaire;0;0;1;15;0;0;1;15
"orlan artiste";0;0;50;8.82;0;0;19;9.2105263157895;0;0;8;9.25
wei;0;0;1;85
"galerie sylvie le page";0;0;1;3;0;0;1;3
"crane et papillon";0;0;1;4
"isabelle vayron";0;0;1;4;0;0;1;4
"nicolas touron";0;0;1;7
"vente skate board";0;0;1;74
"alain huet";0;0;3;8.3333333333333;0;0;1;9
"street art en france";0;0;1;61
"street machine";0;0;1;47
"achat peinture acrylique";0;0;1;74
"petit calin";0;0;1;99
"oeuvres de keith haring";0;0;3;5.3333333333333;0;0;1;6
"rayon gamma";0;0;1;94
"jean-françois rauzier";0;0;3;6
"oeuvres de bernard pras";0;0;1;3;0;0;1;3
"andreas gursky";0;0;1;41
bazanova;0;0;2;6;0;0;2;6
"vente tongs";0;0;1;60
"patrick moya";0;0;4;3.5;0;0;2;4
mulhem;0;0;1;3;0;0;1;3
"achat oeuvre art entreprise";0;0;1;2
"nathalie grall";0;0;3;8
"billet bansky";0;0;2;1;0;0;2;1
"galerie brugier rigail";0;0;11;6.1818181818182;0;0;8;5.875;0;0;3;7
"ced vernay";0;0;6;3
"lucien murat";0;0;4;5.5;0;0;2;6
"cecile plaisance";0;0;5;8.4;0;0;5;8.4
"rancinan gérard";0;0;4;6.25;0;0;3;6.6666666666667
"vera molnar";0;0;1;73;0;0;1;73
"pete doherty";0;0;2;80;0;0;2;80
"miss tic biographie";0;0;3;4.3333333333333;0;0;3;4.3333333333333
rommel;0;0;1;97;0;0;1;97
be1;0;0;1;57;0;0;1;57
"peinture jeanne lorioz";0;0;1;6;0;0;1;6
"franck benoualid";0;0;1;5;0;0;1;5
"graphik arts";0;0;1;8;0;0;1;8
"art asiatique";0;0;1;71;0;0;1;71
"anne valérie dupond";0;0;1;10;0;0;1;10
"acheter un crane";0;0;1;59;0;0;1;59
"noe two artist";0;0;2;10;0;0;2;10
"david tom";0;0;1;32;0;0;1;32
"focus 1";0;0;1;30;0;0;1;30
"haring keith";0;0;1;99;0;0;1;99
"shepherd fairey";0;0;1;9;0;0;1;9
"bernard buffet peintre";0;0;1;9;0;0;1;9
deesse;0;0;1;99;0;0;1;99
"richard orlinski king kong";0;0;4;3;0;0;2;2;0;0;2;4
"andy warhol flowers";0;0;1;20;0;0;1;20
"matthew tyson";0;0;2;4;0;0;2;4
"jacques pellegrin artiste peintre";0;0;1;10;0;0;1;10
rabus;0;0;1;14;0;0;1;14
"elise oudin gilles";0;0;3;3;0;0;1;3;0;0;2;3
"oeuvre d'art en chocolat";0;0;1;7;0;0;1;7
"planète série";0;0;3;6;0;0;3;6
"marchal mithouard";0;0;1;7;0;0;1;7
"brigitte penicaud";0;0;2;5.5;0;0;1;5;0;0;1;6
"monsieur chat paris";0;0;3;9.6666666666667;0;0;3;9.6666666666667
"oeuvre de bansky";0;0;1;6;0;0;1;6
"pamela anderson x";0;0;1;100;0;0;1;100
"shepard feray";0;0;2;9.5;0;0;1;10;0;0;1;9
"photographe art contemporain";0;0;1;1;0;0;1;1
tuxon;0;0;2;20;0;0;2;20
"thomas canto";0;0;7;7.5714285714286;0;0;6;7.6666666666667;0;0;1;7
"galerie sbk lyon";0;0;1;10;0;0;1;10
"vente oeuvre d'art en ligne";0;0;1;1;0;0;1;1
"oeuvre d'art unique";0;0;4;3;0;0;4;3
"oeuvre sur la peur";0;0;3;2;0;0;2;2;0;0;1;2
"du commerce basel";0;0;1;198
clock2;0;0;1;4;0;0;1;4
"jean cocteau oeuvres";0;0;1;24;0;0;1;24
"hans christian schink";0;0;1;6;0;0;1;6
"jean-michel basquiat oeuvres";0;0;3;6.6666666666667;0;0;2;6;0;0;1;8
loisel;0;0;1;90;0;0;1;90
"verney carron";0;0;2;57;0;0;2;57
"vente autruche";0;0;1;79;0;0;1;79
"amat photo";0;0;1;98;0;0;1;98
"rosa peintre";0;0;1;9;0;0;1;9
"agnes dubart";0;0;2;10;0;0;2;10
"galerie collégiale lille";0;0;1;3;0;0;1;3
"vente sculpture";0;0;8;1;0;0;6;1;0;0;2;1
"3 cerises sur une étagère";0;0;1;3;0;0;1;3
"peinture grecque contemporaine";0;0;2;10;0;0;1;10;0;0;1;10
"galerie art";0;0;19;9.7894736842105;0;0;15;10.066666666667;0;0;2;10.5;0;0;2;7
"home alone 5";0;0;1;17;0;0;1;17
fazzino;0;0;13;8.0769230769231;0;0;6;7;0;0;4;8.75;0;0;3;9.3333333333333
"gwenael billaud";0;0;2;3;0;0;2;3
"biographie christian boltanski";0;0;2;13;0;0;2;13
krief;0;0;2;62.5;0;0;2;62.5
"hyber fabrice";0;0;3;6;0;0;3;6
"francoise petrovitch";0;0;11;8.6363636363636;0;0;4;8;0;0;4;9;0;0;3;9
"abdel rahman";0;0;1;93;0;0;1;93
alva;0;0;1;95;0;0;1;95
"sheppard fairey";0;0;1;11;0;0;1;11
"vladimir velickovic";0;0;1;56;0;0;1;56
"tableau miss tic";0;0;2;2.5;0;0;1;2;0;0;1;3
"photo art contemporain";0;0;4;2;0;0;3;2;0;0;1;2
"kong orlinski";0;0;1;3;0;0;1;3
"ernest pignon ernest oeuvre";0;0;2;7.5;0;0;1;7;0;0;1;8
"vente snow";0;0;1;99;0;0;1;99
"laetitia x";0;0;2;17;0;0;1;18;0;0;1;16
"œuvres d'art à l'encre";0;0;1;1;0;0;1;1
"jean hélion";0;0;8;5.125;0;0;8;5.125
"pascale barret";0;0;1;9;0;0;1;9
"michelle auboiron";0;0;3;5.6666666666667;0;0;3;5.6666666666667
"toon x";0;0;2;44.5;0;0;2;44.5
"sculpture art";0;0;3;4;0;0;2;4;0;0;1;4
"wilfred new york";0;0;1;3;0;0;1;3
"jack otway";0;0;1;3;0;0;1;3
"art des lèvres";0;0;1;21;0;0;1;21
"vincent descotils";0;0;4;8.25;0;0;1;8;0;0;1;9;0;0;2;8
"st-art strasbourg";0;0;1;48;0;0;1;48
"photo contemporaine art";0;0;1;2;0;0;1;2
"requin tigre";0;0;1;93;0;0;1;93
"maelle de coux";0;0;4;4;0;0;3;4;0;0;1;4
"paris match";0;0;1;55;0;0;1;55
"raimond hains";0;0;16;7;0;0;16;7
"françois bard";0;0;5;4;0;0;4;4.5;0;0;1;2
"jacques villeglé";0;0;31;4.9354838709677;0;0;25;4.96;0;0;5;4.8;0;0;1;5
"toile cirée contemporaine";0;0;2;72.5;0;0;2;72.5
"gerard schlosser artist";0;0;1;2;0;0;1;2
"costa sculpteur";0;0;2;4;0;0;1;4;0;0;1;4
"bouillon d'art";0;0;3;5.3333333333333;0;0;3;5.3333333333333
"klein peintre";0;0;2;78;0;0;2;78
"jeff koons";0;0;1;59;0;0;1;59
"pez artiste";0;0;3;10;0;0;3;10
annick;0;0;1;418;0;0;1;418
"vente chaise design";0;0;1;72;0;0;1;72
"sandra artiste peintre";0;0;1;75;0;0;1;75
"jacques de la villeglé";0;0;1;9;0;0;1;9
"oeuvre d'art contemporaine";0;0;10;1.1;0;0;7;1.1428571428571;0;0;3;1
"banksy street art oeuvres";0;0;1;10;0;0;1;10
"peinture dubuffet";0;0;1;6;0;0;1;6
bambel;0;0;1;6;0;0;1;6
"robert rauschenberg oeuvres";0;0;1;15;0;0;1;15
"françois malingrëy";0;0;3;6;0;0;3;6
"art acheter";0;0;1;2;0;0;1;2
"sam francis oeuvres";0;0;1;9;0;0;1;9
"artiste belge contemporain";0;0;1;13;0;0;1;13
"robert mapplethorpe oeuvres";0;0;5;4.2;0;0;4;4;0;0;1;5
"k haring oeuvre";0;0;3;5.6666666666667;0;0;1;5;0;0;2;6
"billet banksy";0;0;2;1;0;0;1;1;0;0;1;1
"pierre cornudet";0;0;1;1;0;0;1;1
bargues;0;0;1;4;0;0;1;4
"agam artiste";0;0;1;7;0;0;1;7
marjolaine;0;0;1;420;0;0;1;420
"art photographique contemporain";0;0;1;2;0;0;1;2
anca3;0;0;1;18;0;0;1;18
"kouka artiste";0;0;2;2.5;0;0;1;3;0;0;1;2
"oeuvre jean paul sartre";0;0;1;56;0;0;1;56
"gerstein david";0;0;2;3;0;0;1;3;0;0;1;3
jadanse;0;0;1;2;0;0;1;2
"guy boyer";0;0;5;7.8;0;0;5;7.8
"peinture tornade";0;0;1;6;0;0;1;6
"clarisse rebotier";0;0;2;4;0;0;2;4
"olivier waltman";0;0;1;7;0;0;1;7
"marcel dumont peintre";0;0;3;5;0;0;3;5
"füssli le cauchemar";0;0;1;40;0;0;1;40
c215;0;0;2;15;0;0;2;15
"sumi e";0;0;3;36.666666666667;0;0;3;36.666666666667
"anne brégeaut";0;0;6;6.5;0;0;6;6.5
"raymond hains oeuvres";0;0;1;5;0;0;1;5
"prix lithographie";0;0;1;96;0;0;1;96
"myriam baudin";0;0;2;6;0;0;2;6
"as i opened fire lichtenstein";0;0;1;5;0;0;1;5
"fille et chien";0;0;2;98;0;0;2;98
"dan gerbo";0;0;2;6;0;0;1;5;0;0;1;7
"peinture julien";0;0;1;24;0;0;1;24
"oeuvres de ben";0;0;1;2;0;0;1;2
"historique photographie";0;0;2;94;0;0;2;94
"perlin pinpin";0;0;1;35;0;0;1;35
"tableau de banksy";0;0;3;9.6666666666667;0;0;3;9.6666666666667
yahiaoui;0;0;1;37;0;0;1;37
"valerie hadida sculpture";0;0;2;3;0;0;2;3
"fieroza doorsen";0;0;1;3;0;0;1;3
"galerie d arts";0;0;1;4;0;0;1;4
"kiosque paris";0;0;1;95;0;0;1;95
"vente tableau contemporain";0;0;3;2;0;0;2;2;0;0;1;2
"lolita galerie";0;0;1;48;0;0;1;48
"willy ronis le petit parisien";0;0;1;1;0;0;1;1
henni;0;0;2;61;0;0;2;61
"christian bilger";0;0;3;3;0;0;3;3
"keith haring";0;0;1;97;0;0;1;97
viallat;0;0;1;41;0;0;1;41
"fabrice hyber artiste";0;0;1;4;0;0;1;4
"salon international d'art contemporain";0;0;1;29
"office tourisme dinard";0;0;3;16.666666666667;0;0;3;16.666666666667
"vente d'oeuvres d'art";0;0;2;1;0;0;2;1
"galerie bettina";0;0;3;6;0;0;2;5.5;0;0;1;7
noart;0;0;1;10
guybert;0;0;1;7;0;0;1;7
"francois melloul";0;0;2;7;0;0;2;7
huart;0;0;1;54;0;0;1;54
"art folie";0;0;2;69.5
"zao wou ki oeuvres";0;0;1;27;0;0;1;27
"etienne cail";0;0;7;8.1428571428571;0;0;7;8.1428571428571
"philippe pasqua crane";0;0;2;3;0;0;2;3
"dumont marcel";0;0;1;7;0;0;1;7
"chicago spectacle";0;0;1;30;0;0;1;30
"miro joan oeuvres";0;0;1;11
"ours orlinski";0;0;1;8;0;0;1;8
"chatte blonde";0;0;2;62
"marylin monroe andy warhol";0;0;1;36
"henri matisse jazz";0;0;1;10
"yan pei ming survivants";0;0;4;8;0;0;4;8
"l'art en ligne";0;0;1;1;0;0;1;1
"mensing artistes";0;0;19;9.4210526315789;0;0;19;9.4210526315789
"oeuvre monochrome";0;0;3;9
"munch cri";0;0;1;88
"mis tic";0;0;2;10
kn;0;0;4;86.75
"luc dratwa";0;0;2;9;0;0;1;10
"steve hickok";0;0;3;2
"michel dubois";0;0;1;14
"juan szafran wikipedia";0;0;1;48
fallen;0;0;1;265
guayasamin;0;0;6;9.6666666666667;0;0;3;10.333333333333
"bernard rancillac";0;0;6;8;0;0;2;8
"wilfred lang";0;0;1;3
"biographie robert delaunay";0;0;1;67
"keith haring biographie";0;0;4;15.75
"atlas street art";0;0;1;10
btoy;0;0;7;8;0;0;1;8
"alben artiste";0;0;1;8
"photo surréaliste";0;0;8;8.875;0;0;2;9
"jimmy ruf";0;0;1;3
manolo;0;0;1;54
"fantastique art";0;0;1;34
"jacques villéglé";0;0;2;6.5
"fanny x";0;0;1;25;0;0;1;25
"jean pierre schneider";0;0;4;5.25
taki;0;0;2;47.5
"oeuvre rubens";0;0;1;52;0;0;1;52
"oeuvres de jean michel basquiat";0;0;1;8;0;0;1;8
mulliez;0;0;1;59;0;0;1;59
kolb;0;0;1;71
"painters project";0;0;1;4;0;0;1;4
"à petits prix";0;0;1;29
goutal;0;0;1;81
"acheter de l'art contemporain";0;0;1;1;0;0;1;1
bremermann;0;0;1;8
"jacque villeglé";0;0;1;7
"juergen teller";0;0;1;9;0;0;1;9
"di rosa herve";0;0;2;4
"jean françois rauzier";0;0;3;6
"sculpture murale";0;0;2;39.5
"thibault brunet";0;0;2;9;0;0;1;9;0;0;1;9
"untitled skull";0;0;1;9;0;0;1;9
"claude closky";0;0;2;8;0;0;2;8
peinture;0;0;1;148
"davide lachapelle";0;0;2;9;0;0;2;9
"catherine klein";0;0;7;10;0;0;1;10
"statue deesse";0;0;1;4;0;0;1;4
"investir dans l'art";0;0;4;7.75;0;0;1;7
"biographie clovis";0;0;1;87;0;0;1;87
"art polonais";0;0;1;70;0;0;1;70
"galerie garnier delaporte";0;0;2;3.5;0;0;1;3;0;0;1;4
"spark artiste";0;0;1;7;0;0;1;7
"lawrence weiner";0;0;1;13;0;0;1;13
"oeuvre braque";0;0;2;23.5;0;0;2;23.5
"sa collection";0;0;1;7;0;0;1;7
"oeuvre d'art en papier";0;0;1;5;0;0;1;5
"maya i";0;0;1;7;0;0;1;7
"biographie de jean dubuffet";0;0;1;4;0;0;1;4
"galerie onega";0;0;1;5;0;0;1;5
"bernar venet oeuvres";0;0;1;4;0;0;1;4
"artiste peintre toulouse";0;0;1;222;0;0;1;222
"moovie maker";0;0;1;85;0;0;1;85
"beetles huxley";0;0;1;6;0;0;1;6
"espace catherine max";0;0;1;73;0;0;1;73
"galerie street art";0;0;3;27.666666666667;0;0;3;27.666666666667
"seen street art";0;0;1;4;0;0;1;4
"speedy graphito prix";0;0;3;1;0;0;2;1;0;0;1;1
"severine boutry";0;0;1;3;0;0;1;3
guilleme;0;0;9;5.2222222222222;0;0;6;5.3333333333333;0;0;2;5;0;0;1;5
"galerie bruno massa";0;0;8;9.375;0;0;8;9.375
"vente ligne sculpture africaine";0;0;1;20;0;0;1;20
piens;0;0;2;35;0;0;2;35
"galerie artiane honfleur";0;0;2;5;0;0;2;5
"le requin tigre";0;0;1;55;0;0;1;55
"planète serie";0;0;1;15;0;0;1;15
josseau;0;0;1;3;0;0;1;3
"art 83";0;0;1;49;0;0;1;49
"mediastore lorient";0;0;1;67;0;0;1;67
"albane de st remy";0;0;1;7;0;0;1;7
"mains tendues vers le ciel";0;0;1;10;0;0;1;10
"petitie bodnariu";0;0;1;6;0;0;1;6
"gérard schlosser";0;0;5;4.8;0;0;4;4.75;0;0;1;5
"jean louis audibert";0;0;1;2;0;0;1;2
escougnou;0;0;2;13;0;0;2;13
"berry philippe";0;0;2;7;0;0;1;7;0;0;1;7
"tableau obey";0;0;1;2;0;0;1;2
"lamy peinture";0;0;2;6;0;0;2;6
"art aborigene contemporain";0;0;2;36;0;0;2;36
rancillac;0;0;2;20;0;0;2;20
"vente tzarina aucun";0;0;1;15;0;0;1;15
"claude levêque";0;0;3;9;0;0;3;9
"gerard alary";0;0;3;4.6666666666667;0;0;1;5;0;0;1;5
"espace verney carron";0;0;1;10;0;0;1;10
"bernar venet sculpteur";0;0;2;8;0;0;2;8
"9 eme art";0;0;1;32;0;0;1;32
"wes wilson";0;0;1;9;0;0;1;9
"galerie charron";0;0;4;4.25;0;0;4;4.25
"azz och mo ass orgie del";0;0;1;29;0;0;1;29
nowak;0;0;1;74;0;0;1;74
"deesse statue";0;0;1;4;0;0;1;4
"sous bock";0;0;2;98;0;0;2;98
"stéphanie guglielmetti";0;0;1;6;0;0;1;6
xxxx;0;0;1;137;0;0;1;137
"office de tourisme dinard";0;0;1;14;0;0;1;14
"art peinture contemporaine";0;0;2;3;0;0;1;3;0;0;1;3
aniel;0;0;2;93.5;0;0;2;93.5
"emmanuel barcilon";0;0;5;5;0;0;5;5
"warhol oeuvres";0;0;1;21;0;0;1;21
"serge labegorre";0;0;3;9;0;0;2;9;0;0;1;9
"la souris sur le gateau";0;0;7;9.4285714285714;0;0;7;9.4285714285714
"claude viallat oeuvres";0;0;1;10;0;0;1;10
"artiste arman";0;0;12;9.3333333333333;0;0;9;9.1111111111111;0;0;2;10;0;0;1;10
"jean charles pigeau";0;0;1;7;0;0;1;7
"jean hélion oeuvres";0;0;1;4;0;0;1;4
"honegger gottfried";0;0;1;7;0;0;1;7
"mi hyun kim";0;0;1;7;0;0;1;7
"jasmine black";0;0;2;20;0;0;1;20;0;0;1;20
"remi delaplace";0;0;1;2;0;0;1;2
brugier;0;0;2;8.5;0;0;1;9;0;0;1;8
"banksy girl with balloon";0;0;1;13;0;0;1;13
"oeuvre de jean michel basquiat";0;0;5;7.2;0;0;3;7;0;0;1;8;0;0;1;7
"artiste peintre vichy";0;0;1;51;0;0;1;51
"la galerie b&b";0;0;1;182;0;0;1;182
alary;0;0;2;97;0;0;2;97
"galerie borzo";0;0;1;266;0;0;1;266
"ben oeuvres";0;0;1;2;0;0;1;2
"chat dessin";0;0;1;99;0;0;1;99
"mr lindt";0;0;1;8;0;0;1;8
"cadeau bleu blanc rouge";0;0;5;10.2;0;0;4;10;0;0;1;11
"rancillac peintre";0;0;1;8;0;0;1;8
zalez;0;0;9;6;0;0;3;6;0;0;6;6
"office du tourisme dinard";0;0;1;14;0;0;1;14
desailly;0;0;1;90;0;0;1;90
"gare milan";0;0;1;194;0;0;1;194
"leonardo agosti";0;0;1;9;0;0;1;9
"cote jonone";0;0;1;6;0;0;1;6
"art de la rue";0;0;1;20;0;0;1;20
"chat telemaque";0;0;1;87;0;0;1;87
"vente citadine";0;0;1;90;0;0;1;90
"philippe berry sculpteur";0;0;6;6.6666666666667;0;0;1;6;0;0;2;7;0;0;3;6.6666666666667
"9e concept";0;0;3;8.3333333333333;0;0;2;8;0;0;1;9
"antoine geiger";0;0;3;7;0;0;3;7
phil;0;0;1;411;0;0;1;411
"clément denis";0;0;1;4;0;0;1;4
"bertrand meunier";0;0;4;9;0;0;4;9
"orlan oeuvre";0;0;12;4.0833333333333;0;0;1;5;0;0;6;4;0;0;5;4
"oeuvre juan miro";0;0;3;14.333333333333;0;0;3;14.333333333333
"carrier france";0;0;1;96;0;0;1;96
"vente singe";0;0;2;50;0;0;2;50
"philippe lopez";0;0;2;20.5;0;0;2;20.5
"jerome mesnager cote";0;0;1;3;0;0;1;3
"oeuvre d'art pas cher";0;0;3;1.3333333333333;0;0;2;1.5;0;0;1;1
"vente peinture";0;0;4;29;0;0;4;29
aboudia;0;0;2;8;0;0;2;8
takala;0;0;7;4.2857142857143;0;0;4;4;0;0;2;5;0;0;1;4
"anti artiste";0;0;1;2;0;0;1;2
"pin up resine";0;0;1;79;0;0;1;79
"sculteur cesar";0;0;1;9;0;0;1;9
"pauline tonglet";0;0;2;2;0;0;2;2
"veronique bourgeois";0;0;2;10;0;0;2;10
"herve di rosa";0;0;14;4.2857142857143;0;0;10;4;0;0;2;5;0;0;2;5
"galerie art jingle";0;0;4;4;0;0;4;4
"david maheo";0;0;1;3;0;0;1;3
"galerie bruxelles art contemporain";0;0;1;8;0;0;1;8
"didier triglia";0;0;4;4.5;0;0;1;5;0;0;3;4.3333333333333
"photographie d\'art";0;0;2;22;0;0;2;22
"jean luc beaufils";0;0;4;4.25;0;0;1;4;0;0;2;4;0;0;1;5
"the medias grim shootings";0;0;1;9;0;0;1;9
"peintre polonais";0;0;1;73;0;0;1;73
"robert combas peintre";0;0;1;6;0;0;1;6
"peinture sur bitume";0;0;2;42;0;0;2;42
"victoria mann";0;0;1;9;0;0;1;9
"bernard buffet prix";0;0;1;13;0;0;1;13
youngboy;0;0;2;44.5;0;0;2;44.5
"galerie en ligne";0;0;15;1.1333333333333;0;0;13;1;0;0;1;2;0;0;1;2
"biographie renoir";0;0;1;98;0;0;1;98
"mis tik";0;0;1;5;0;0;1;5
"fabrice hyber";0;0;44;6.4772727272727;0;0;30;6.5333333333333;0;0;11;6.4545454545455;0;0;3;6
moyoshi;0;0;1;4;0;0;1;4
"vente coquillage";0;0;1;67;0;0;1;67
"laure gerard";0;0;1;10;0;0;1;10
"oeuvre ionesco";0;0;2;44.5;0;0;2;44.5
"sive 1";0;0;1;6;0;0;1;6
"tal coat prix";0;0;1;9;0;0;1;9
"sam szafran peintre";0;0;1;14;0;0;1;14
mambo;0;0;1;83;0;0;1;83
"charlotte lepelletier";0;0;2;2;0;0;2;2
sumi;0;0;2;74;0;0;2;74
"eric zambeaux";0;0;4;5.25;0;0;3;5.3333333333333;0;0;1;5
"damien hirst oeuvres";0;0;3;5;0;0;1;5;0;0;1;4;0;0;1;6
graby;0;0;1;14;0;0;1;14
"etienne buraud";0;0;2;3;0;0;1;3;0;0;1;3
"shepard fairey biographie";0;0;5;3.6;0;0;4;3.5;0;0;1;4
"artiste jonone";0;0;2;1;0;0;2;1
sclupture;0;0;1;11;0;0;1;11
"adele moreau";0;0;1;6;0;0;1;6
"jonone cote";0;0;1;8;0;0;1;8
"nicolas moreau peintre";0;0;1;8;0;0;1;8
"fetish pieds";0;0;1;71;0;0;1;71
"antonio seguí";0;0;1;10;0;0;1;10
"yves gellie";0;0;1;6;0;0;1;6
"bernard buffet";0;0;1;69;0;0;1;69
"chien jeff koons achat";0;0;2;8.5;0;0;1;9;0;0;1;8
"bernard pras biographie";0;0;1;2;0;0;1;2
"+""madame bovary"" -""trailer"" -""bande annonce"" -""extrait"" -""mp3"" -""musique"" -""ps3"" -""ps4"" -""xbox*"" -""wii*"" -""psp*"" -""sample"" -""chabrol"" -""flaubert"" -""100.romans.d.auteurs.french.pdf"" -""1949"" -""1969"" -""1933"" -""1991"" -""2000"" -""1934""";0;0;1;116;0;0;1;116
"cat soubbotnik";0;0;1;7;0;0;1;7
frisee;0;0;1;46;0;0;1;46
"richard orlinski tarif";0;0;5;5.4;0;0;3;5.3333333333333;0;0;1;5;0;0;1;6
"corto maltes";0;0;2;54.5;0;0;2;54.5
"galerie bertrand";0;0;1;10;0;0;1;10
nudes;0;0;1;97;0;0;1;97
"vente d'oeuvres d'art en ligne";0;0;1;1;0;0;1;1
"galerie sculpture contemporaine";0;0;2;2;0;0;1;2;0;0;1;2
sober;0;0;1;61;0;0;1;61
"dubuffet oeuvres";0;0;12;5.5;0;0;8;5.25;0;0;4;6
"musées d'art à chattanooga";0;0;3;53.333333333333;0;0;3;53.333333333333
"isabelle de mars";0;0;2;8;0;0;2;8
"ivan messac";0;0;3;4;0;0;3;4
"oeuvre d'ernest pignon ernest";0;0;1;4;0;0;1;4
"alain bonnefoit";0;0;2;20.5;0;0;2;20.5
"corps masculin";0;0;2;67;0;0;2;67
wesselman;0;0;3;17;0;0;2;20;0;0;1;11
slideme;0;0;1;32;0;0;1;32
"sculpture terre cuite";0;0;2;19;0;0;2;19
"torrent fr";0;0;1;136;0;0;1;136
"honegger peintre";0;0;2;4;0;0;2;4
manbo;0;0;1;83;0;0;1;83
"galerie argentic paris";0;0;1;7;0;0;1;7
"torrick ablack";0;0;1;3;0;0;1;3
facto;0;0;2;82.5;0;0;2;82.5
araki;0;0;2;50;0;0;2;50
scultures;0;0;1;7;0;0;1;7
"english ron";0;0;2;4;0;0;2;4
"art galerie";0;0;1;24;0;0;1;24
"rouge ming";0;0;1;66;0;0;1;66
"lampe en verre de murano";0;0;2;42.5;0;0;2;42.5
"peintre di rosa";0;0;1;3;0;0;1;3
"budet joel";0;0;2;48;0;0;2;48
fudiz;0;0;1;7;0;0;1;7
"no name gallery";0;0;1;2;0;0;1;2
"girl with balloon";0;0;2;14;0;0;2;14
"duong le";0;0;1;5;0;0;1;5
"hannah adamaszek";0;0;1;4;0;0;1;4
"galerie zimmerling & jungfleisch";0;0;2;3;0;0;1;3;0;0;1;3
"miroir oeuvre d'art";0;0;1;4;0;0;1;4
"art vente";0;0;2;1.5;0;0;1;2;0;0;1;1
"peinture pop art";0;0;3;18;0;0;2;18;0;0;1;18
"majhoub ben bella";0;0;1;3;0;0;1;3
"jace artiste";0;0;2;8;0;0;2;8
"al eman";0;0;1;80;0;0;1;80
"sandrine paumelle";0;0;1;5;0;0;1;5
"jean dubuffet peintre";0;0;1;3;0;0;1;3
"bonhome blanc";0;0;2;10;0;0;2;10
ponita;0;0;3;8.6666666666667;0;0;3;8.6666666666667
"achat art en ligne";0;0;3;1;0;0;3;1
"gregoire leon guillemin";0;0;2;3;0;0;2;3
"off course";0;0;1;39;0;0;1;39
"galerie riviere faiveley";0;0;3;6;0;0;3;6
"diane arbus œuvres d'art";0;0;1;6;0;0;1;6
"sculpture acier";0;0;1;27;0;0;1;27
"angele guerre";0;0;2;3;0;0;2;3
"vente tableau art contemporain";0;0;5;1;0;0;1;1;0;0;4;1
athur;0;0;3;11.333333333333;0;0;2;12.5;0;0;1;9
"michael kenna";0;0;2;88.5;0;0;2;88.5
"galerie audet";0;0;4;6.5;0;0;4;6.5
"keith haring crack down";0;0;4;2.25;0;0;3;2;0;0;1;3
roch3;0;0;1;7;0;0;1;7
mrsex;0;0;4;13.25;0;0;4;13.25
"oeuvre d'art moderne";0;0;3;1;0;0;2;1;0;0;1;1
"gérard alary";0;0;2;4;0;0;2;4
"jean dubuffet biographie courte";0;0;2;4;0;0;2;4
"aurelie nemours";0;0;2;32;0;0;2;32
"peintre nadal";0;0;2;9;0;0;2;9
"vente de cerf volant";0;0;1;39;0;0;1;39
"oeuvres d'art adolescence";0;0;1;2;0;0;1;2
"ren hang gallery";0;0;1;4;0;0;1;4
"art jingle";0;0;3;5;0;0;3;5
"vente estampe";0;0;1;46;0;0;1;46
koolkoor;0;0;1;3;0;0;1;3
"peintre new yorkais contemporain";0;0;2;8;0;0;1;7;0;0;1;9
zooportrait;0;0;2;2;0;0;2;2
fazino;0;0;1;9;0;0;1;9
"bossa talents";0;0;1;2;0;0;1;2
"oeuvre kandinsky";0;0;1;63;0;0;1;63
"photos d art femmes";0;0;1;46;0;0;1;46
villéglé;0;0;1;5;0;0;1;5
"fille chien";0;0;2;88.5;0;0;2;88.5
"bouche ouverte";0;0;1;87;0;0;1;87
"jean dubuffet biographie simple";0;0;3;5;0;0;1;5;0;0;2;5
"emilie danchin";0;0;1;9;0;0;1;9
"karl martens";0;0;1;16;0;0;1;16
"yan pei ming";0;0;2;39.5;0;0;2;39.5
"michel le belhomme photographe";0;0;1;6;0;0;1;6
"oeuvre en papier";0;0;1;5;0;0;1;5
"galerie sbk";0;0;2;4.5;0;0;1;4;0;0;1;5
"mark jenkins";0;0;9;10.111111111111;0;0;5;9.6;0;0;4;10.75
bevilacqua;0;0;1;96;0;0;1;96
"photo d art";0;0;1;23;0;0;1;23
"tristan alexandre";0;0;1;2;0;0;1;2
"gilles capton";0;0;1;3;0;0;1;3
michou;0;0;2;77.5;0;0;2;77.5
"jr photographie";0;0;3;10.666666666667;0;0;3;10.666666666667
"petit jeune";0;0;2;26.5;0;0;2;26.5
"cassius clay";0;0;3;40;0;0;1;98;0;0;2;11
"uche okpa iroha";0;0;1;3;0;0;1;3
fobiz;0;0;1;7;0;0;1;7
"covent garden";0;0;1;244;0;0;1;244
"patrick cornillet";0;0;1;3;0;0;1;3
"philippe pasqua prix";0;0;1;1;0;0;1;1
"scorpion mulhouse";0;0;1;53;0;0;1;53
"artiste peintre en vogue";0;0;1;1;0;0;1;1
laviw;0;0;1;6;0;0;1;6
"jean francois rauzier";0;0;2;7;0;0;1;6;0;0;1;8
"gregory watin";0;0;1;2;0;0;1;2
"roman klonek";0;0;1;7;0;0;1;7
"de la villeglé";0;0;3;4;0;0;3;4
"guy mansuy";0;0;5;3.4;0;0;3;4;0;0;2;2.5
"lucien murat artiste";0;0;1;3;0;0;1;3
"vente pignon";0;0;1;46;0;0;1;46
"untitled 12";0;0;1;9;0;0;1;9
"johnatan monk";0;0;1;5;0;0;1;5
"otto schade";0;0;1;7;0;0;1;7
lachize;0;0;2;7.5;0;0;1;10;0;0;1;5
"inde paysage";0;0;1;34;0;0;1;34
"annina x";0;0;1;9;0;0;1;9
"levalet artiste";0;0;2;2;0;0;1;2;0;0;1;2
"eric brugier";0;0;2;6;0;0;2;6
ommer;0;0;2;7;0;0;2;7
"l bouro";0;0;2;6.5;0;0;2;6.5
"""gabriel jones""";0;0;1;4;0;0;1;4
"""fabrice hyber""";0;0;2;6.5;0;0;2;6.5
"annette massager";0;0;1;10;0;0;1;10
"elodie grégoire";0;0;3;7;0;0;3;7
"malysse sa";0;0;2;23;0;0;2;23
"bertrand desprez";0;0;1;6;0;0;1;6
"marie madeleine gautier";0;0;1;98;0;0;1;98
"sandra zeenni";0;0;3;5;0;0;3;5
"mesnager jerome";0;0;4;2;0;0;4;2
"2nd amendment";0;0;1;7;0;0;1;7
"art attack pierre a secret";0;0;1;8;0;0;1;8
"oeuvre de bernard buffet";0;0;2;4;0;0;2;4
"œuvre médias mixtes";0;0;1;21;0;0;1;21
"jana & js";0;0;1;7;0;0;1;7
"banksy oeuvre";0;0;14;6.2857142857143;0;0;12;6.1666666666667;0;0;2;7
"heiner meyer artist";0;0;1;5;0;0;1;5
"anne et patrick poirier oeuvres";0;0;1;4;0;0;1;4
keymi;0;0;3;8.3333333333333;0;0;2;8;0;0;1;9
"deesse gaia";0;0;2;68;0;0;2;68
"sculpture pingouin";0;0;1;17;0;0;1;17
vanites;0;0;1;100;0;0;1;100
"biographie marcel duchamp";0;0;1;36;0;0;1;36
pablito;0;0;1;20;0;0;1;20
nowart;0;0;1;3;0;0;1;3
"shepard farey";0;0;1;10;0;0;1;10
"eric lapierre";0;0;1;18;0;0;1;18
"photos de portraits de femmes";0;0;3;1;0;0;3;1
"galerie art moderne";0;0;2;4;0;0;2;4
"marie ange daude";0;0;1;6;0;0;1;6
"joan salo";0;0;1;8;0;0;1;8
"vente bernard buffet";0;0;1;29;0;0;1;29
"mp 77";0;0;1;250;0;0;1;250
"gerti schiele";0;0;1;10;0;0;1;10
"emmanuel debarre";0;0;1;6;0;0;1;6
"alexandre durand";0;0;7;9.8571428571429;0;0;5;9.8;0;0;2;10
"jean michel basquiat oeuvre";0;0;1;11;0;0;1;11
"ron mueck biographie";0;0;2;45.5;0;0;2;45.5
"tableau artiste contemporain";0;0;4;4;0;0;3;4;0;0;1;4
"kokian prix";0;0;1;6;0;0;1;6
"olivier lelong photographe";0;0;2;3;0;0;2;3
"artiste suedoise";0;0;1;63;0;0;1;63
"isabelle bonzom";0;0;1;5;0;0;1;5
"cheval de przewalski";0;0;1;91;0;0;1;91
nilsudo;0;0;1;6;0;0;1;6
"thompson's spirit";0;0;1;23;0;0;1;23
"philippe favier artiste";0;0;1;7;0;0;1;7
"bansky oeuvres";0;0;3;7.3333333333333;0;0;3;7.3333333333333
"adeline spengler";0;0;2;4;0;0;1;4;0;0;1;4
"sculpture art contemporain";0;0;6;2;0;0;5;2;0;0;1;2
"erotisme masculin";0;0;1;94;0;0;1;94
correia;0;0;1;60;0;0;1;60
truc-anh;0;0;1;7;0;0;1;7
"peinture animaux";0;0;1;27;0;0;1;27
"small the";0;0;1;25;0;0;1;25
"erro portrait";0;0;1;6;0;0;1;6
"oeuvre keith haring";0;0;8;5.25;0;0;6;5;0;0;2;6
"stéphane joannes";0;0;1;1;0;0;1;1
saudek;0;0;1;13;0;0;1;13
speedygraphito;0;0;15;6;0;0;15;6
"marchand art";0;0;2;73;0;0;2;73
"photo bel homme";0;0;2;79;0;0;2;79
"chris morin-eitner";0;0;1;3;0;0;1;3
"justine smith";0;0;1;9;0;0;1;9
"galerie 3 cerises sur une étagère";0;0;1;3;0;0;1;3
"dijon originale";0;0;1;431;0;0;1;431
"sonia delaunay oeuvres";0;0;1;20;0;0;1;20
koolkor;0;0;2;3;0;0;2;3
"jr oeuvres";0;0;2;5;0;0;1;5;0;0;1;5
"art moderne sculpture";0;0;2;2;0;0;2;2
"benjamin aman";0;0;1;4;0;0;1;4
galeries;0;0;2;21;0;0;2;21
"miro oeuvres";0;0;2;1;0;0;1;1;0;0;1;1
"henry lamy";0;0;1;4;0;0;1;4
"plage abstrait";0;0;1;100;0;0;1;100
"monsieur le chat";0;0;3;5.3333333333333;0;0;2;5;0;0;1;6
banq;0;0;1;72;0;0;1;72
"vente de tableaux contemporains";0;0;3;3;0;0;2;3;0;0;1;3
bailart;0;0;1;6;0;0;1;6
"peintre milo";0;0;1;4;0;0;1;4
"hamburger pop";0;0;1;9;0;0;1;9
"tete de poire";0;0;2;10;0;0;2;10
"phillipe pasqua";0;0;1;7;0;0;1;7
"chaton vente";0;0;2;91.5;0;0;2;91.5
"jm robert peintre";0;0;1;2;0;0;1;2
atila;0;0;2;56;0;0;2;56
"galerie d'art contemporain en ligne";0;0;3;1;0;0;2;1;0;0;1;1
"play boy";0;0;1;278;0;0;1;278
"ipso france";0;0;2;31;0;0;2;31
"marc cerrone";0;0;2;25;0;0;2;25
"john levee";0;0;1;7;0;0;1;7
eppelé;0;0;2;6;0;0;1;5;0;0;1;7
"taureau peinture";0;0;2;66;0;0;2;66
"andrew painter";0;0;2;15;0;0;2;15
"francis apesteguy";0;0;1;5;0;0;1;5
"petits bonhomme blanc";0;0;1;9;0;0;1;9
"j'irai décrocher la lune";0;0;1;10;0;0;1;10
"anne-laure chamboissier";0;0;1;5;0;0;1;5
"cote bruno catalano";0;0;1;3;0;0;1;3
"vente foulard";0;0;1;69;0;0;1;69
"francois bard";0;0;8;1.875;0;0;4;1.75;0;0;3;2;0;0;1;2
"murielle belin";0;0;5;9.6;0;0;4;9.5;0;0;1;10
"signature andy warhol";0;0;1;5;0;0;1;5
"francois morellet";0;0;13;9.3846153846154;0;0;12;9.3333333333333;0;0;1;10
verneret;0;0;3;9.3333333333333;0;0;3;9.3333333333333
wesselmann;0;0;5;9.6;0;0;4;9.25;0;0;1;11
ebubedike;0;0;1;11;0;0;1;11
"pierre-marie brisson";0;0;1;3;0;0;1;3
mr.chat;0;0;5;6;0;0;2;5.5;0;0;3;6.3333333333333
"prix icart artistik rezo";0;0;2;39;0;0;2;39
rivieras;0;0;1;155;0;0;1;155
"marilyn andy warhol";0;0;2;44;0;0;2;44
"magic summer";0;0;2;58;0;0;2;58
"jeanne susplugas";0;0;6;4.1666666666667;0;0;5;4;0;0;1;5
"parisian time";0;0;1;9;0;0;1;9
"elisabeth lecourt";0;0;2;2;0;0;1;2;0;0;1;2
"prix sculpture";0;0;3;3;0;0;3;3
demsteader;0;0;1;5;0;0;1;5
desserle;0;0;2;6;0;0;2;6
"vente bouddha";0;0;2;43;0;0;2;43
leinwand;0;0;3;40.666666666667;0;0;3;40.666666666667
oneiro;0;0;3;8;0;0;1;8;0;0;2;8
"james coignard";0;0;3;26;0;0;1;56;0;0;2;11
"miss coco";0;0;1;9;0;0;1;9
"banksy toile";0;0;5;10;0;0;3;10;0;0;2;10
"wtc 25";0;0;1;8;0;0;1;8
"le doare";0;0;1;18;0;0;1;18
"romero brito";0;0;4;8;0;0;3;8.3333333333333;0;0;1;7
"pignon ernest oeuvre";0;0;2;6;0;0;1;6;0;0;1;6
"joseph chiaramonte";0;0;3;5;0;0;3;5
malysse;0;0;1;12;0;0;1;12
"aslan pin up";0;0;1;27;0;0;1;27
"murakami sculpture";0;0;1;4;0;0;1;4
youssoufi;0;0;2;73.5;0;0;2;73.5
"herve telemaque";0;0;5;6.6;0;0;2;4;0;0;1;10;0;0;2;7.5
"eva jospin forêt";0;0;1;9
camen;0;0;2;5
"pieds fetish";0;0;1;80
"eric bourse galerie en ligne";0;0;1;4;0;0;1;2
"wesselmann oeuvres";0;0;1;5
opalka;0;0;2;19
"jacques poli";0;0;4;9.5
doppeldenk;0;0;1;6
"zao wouki";0;0;2;46
"cornette de saint cyr";0;0;2;24
"art conceptuel disney";0;0;1;23
"delphine lebourgeois";0;0;4;3
"tieri trademark";0;0;1;4
molinier;0;0;1;80
"oeuvre gauguin";0;0;3;56.333333333333
mapplethorp;0;0;1;24
"sol lewitt oeuvres";0;0;1;24
"dessin keith haring";0;0;1;27
"laetitia casta x";0;0;1;20
"galerie art france";0;0;1;13
"artiste contemporain australien";0;0;1;17
arman;0;0;4;49.25
"fuck suck";0;0;2;27.5
annelides;0;0;1;97
"gottfried salzmann peintre";0;0;2;6;0;0;1;8
"luc chopplet";0;0;3;1
"patrick loste peintre";0;0;1;14
"julien peinture";0;0;2;52
"thierry couet";0;0;1;2;0;0;1;2
"flipo emmanuel";0;0;1;1
"cote philippe pasqua";0;0;1;1
"galerie d art contemporain bruxelles";0;0;1;6
"site galerie d'art";0;0;1;1
"vente cactus";0;0;1;100
"pretty boys";0;0;1;69
"david guiraud";0;0;3;10;0;0;1;12
mnff;0;0;2;8
"art nazi";0;0;1;53
"vente buste";0;0;1;35
"lithographie bernard buffet";0;0;1;89
"vente enveloppe";0;0;1;65
ramos;0;0;2;56.5
bansky;0;0;1;37
"joan miro sculpture";0;0;1;18
combass;0;0;1;8;0;0;2;7.5
merienne;0;0;1;9
"achat sculpture";0;0;2;1;0;0;1;1
"sculpture à vendre";0;0;24;1
"arte de romero brito";0;0;1;23
"mr le chat";0;0;2;7.5
"galerie mecanica";0;0;2;4;0;0;2;4
"bouge paris";0;0;1;44
"shirly jaffe";0;0;1;4
"koons balloon dog";0;0;1;20
"hugo mulliez";0;0;2;8
"john william";0;0;1;88
"oeuvre rimbaud";0;0;1;83
millo;0;0;2;63.5
"laurent allory";0;0;1;3
"the fisher king";0;0;2;59.5
"ben vautier oeuvres";0;0;3;6.3333333333333;0;0;1;6
"miss tic paris";0;0;1;11
"mapplethorpe robert";0;0;1;16
"oeuvre sculpture";0;0;1;8
"miroir art";0;0;1;22
"césar expansion";0;0;2;5.5
"dubuffet peintre";0;0;1;5
"compression cesar";0;0;1;19
"gilles aillaud peinture";0;0;2;6
"jean paul barray";0;0;1;6
"format art";0;0;1;56
"oeuvre miro";0;0;3;14.333333333333
supercordes;0;0;1;29
"anne messager";0;0;1;6;0;0;1;6;0;0;1;6
"feng hatat";0;0;1;5
"oeuvre d'art hiver";0;0;2;6
artdog;0;0;1;14
"keith haring nom des oeuvres";0;0;1;6
"miss van";0;0;10;9;0;0;9;10
"stanley greene";0;0;1;13
"street girl";0;0;1;65
"art fessee";0;0;1;31
"galerie aka";0;0;1;7
"alva bernadine";0;0;1;5
carbonel;0;0;2;60.5
"oeuvre dali";0;0;1;64
graphicline;0;0;2;11
"peinture nature";0;0;1;49
"jean-michel chesné";0;0;2;4
sculputure;0;0;1;6
"jean faucheur street art";0;0;2;5.5
navabi;0;0;2;40
"nobuyoshi araki";0;0;1;32
"silvia calmejane";0;0;1;3
"pop speedy";0;0;1;7
henriksen;0;0;1;8
"veronique masurel";0;0;1;4;0;0;1;2
"philippe croq";0;0;2;8
"artiste contemporains";0;0;1;16
"hervé audouin";0;0;2;4
"raphael denis";0;0;1;5;0;0;1;4
"malevitch suprematist composition";0;0;1;9;0;0;3;9.6666666666667
"takashi murakami biographie";0;0;1;3
"bagage homme blanc";0;0;1;20
"panthere blanche";0;0;1;24
"brigitte perrier";0;0;1;9;0;0;1;9
"helmuth newton";0;0;1;96
acet;0;0;2;51
"fazzino prix";0;0;1;5;0;0;1;13
"marie pascale engelmann";0;0;1;3
"basquiat oeuvre";0;0;1;8;0;0;2;8.5
"jean helion";0;0;3;4.3333333333333;0;0;1;5
laveri;0;0;1;3
shaka;0;0;1;83
"oeuvres d'art moderne";0;0;1;1
"art concept galerie";0;0;1;13
rauschenberg;0;0;1;97
"oeuvre de miro";0;0;4;11
"jerome lagarrigue";0;0;3;6.6666666666667
"mont venus";0;0;2;77.5
"cali rezo";0;0;1;8
"botticelli printemps";0;0;1;26
"robert longo oeuvres";0;0;3;7.6666666666667
"oeuvres de gustav klimt";0;0;1;21
juliendurix;0;0;1;2;0;0;1;2
"peinture arlequin et pierrot";0;0;1;10
streetartgalerie;0;0;1;6;0;0;1;6
"صديق ""contact"" ~جيجل";0;0;2;252.5
"""romero britto""";0;0;1;8
"art artefact";0;0;1;7
"art culinaire";0;0;1;73
"gilles aillaud";0;0;2;18;0;0;1;11
"caverne platon";0;0;1;79
"jean-pierre attal";0;0;1;6
"robert zimmerman";0;0;1;54
art,tableaux,provence;0;0;1;213
cedrix;0;0;2;8.5
"nyaba ouedraogo";0;0;1;8
"jean luc lacroix";0;0;2;11.5
"oeuvres de dubuffet";0;0;1;6
"leopold rabus";0;0;2;6.5
"andy warhol marilyn monroe l'original";0;0;1;18
"galerie street art en ligne";0;0;2;7
"art belgique";0;0;2;9
"roxane stroobant";0;0;1;4
"vincent dufresne";0;0;2;10
"andy warhol superman";0;0;3;5;0;0;1;5
"patrice larue";0;0;3;4.6666666666667
arbus;0;0;2;72
"aurélie deplus";0;0;1;4
"oeuvre d'art originale";0;0;4;2
nasty;0;0;2;39
"solene ballesta";0;0;1;5
"arbres oeuvre d'art";0;0;1;7
"ballon dogs";0;0;1;9
"oeuvre d'art résistance";0;0;1;20
"toile artiste";0;0;1;70
"oeuvres de miro";0;0;5;11
"technique pop art";0;0;2;54.5
"marie drouet";0;0;2;10
"jean georges inca";0;0;1;2
"paris art fair";0;0;1;36
"miss tik";0;0;2;5;0;0;1;6
"guayasamin oswaldo";0;0;3;7
"nielly francoise technique";0;0;1;32
"c215 acheter";0;0;1;5
"guy weladji";0;0;1;4
"expansion césar";0;0;3;6;0;0;1;5
"cirque peinture";0;0;1;77
jakè;0;0;6;4;0;0;1;4
colomer;0;0;1;76
destarac;0;0;4;5.25
"oeuvre art";0;0;7;2.7142857142857;0;0;2;2.5
"séverine bernard";0;0;3;10
"tableau d artiste";0;0;1;49
"oeuvre artiste peintre";0;0;1;26
chillida;0;0;1;40
"stephane jacob";0;0;1;13
"eric ville";0;0;2;3
"khawater 1";0;0;1;10
"ouvres d'art";0;0;1;8
"bruno del zou";0;0;1;3
moya;0;0;1;37
"jeff aerosol";0;0;9;4.1111111111111
"laurence dreyfus";0;0;9;8.3333333333333;0;0;3;9.6666666666667;0;0;2;9
"envie art";0;0;2;4
"futurisme italien";0;0;2;45.5
"tendance floue";0;0;1;62
combasse;0;0;4;5;0;0;2;6
"suck fuck";0;0;2;15.5
"oeuvres de dali";0;0;1;33
"soasig chamaillard";0;0;1;22
cephale;0;0;1;61
mr.dob;0;0;2;6
"kalouf street art";0;0;1;13
"vente memoire";0;0;2;54.5
"jean miro";0;0;2;75.5
"david sitbon";0;0;9;5.6666666666667
"oeuvre d'art qui fait peur";0;0;1;3
sbk;0;0;1;87
"jean michel voge";0;0;2;3
"buffet peintre";0;0;2;8.5;0;0;3;9.3333333333333
"lampadaire oriental";0;0;1;90
"ron english";0;0;5;6;0;0;1;5;0;0;1;6
"anri sala";0;0;2;50.5
"art sculpture contemporaine";0;0;2;3;0;0;1;2
obey;0;0;5;68.2
"fritz the cat";0;0;1;56
"andy warhol affiche";0;0;1;9
"loane nguyen";0;0;1;8
"carole duhayer";0;0;4;2;0;0;2;2
cornette;0;0;1;81
"banksy acheter";0;0;2;2;0;0;1;2
"yazid oulab artiste";0;0;1;2
"damien hirst biographie";0;0;1;8
duprey;0;0;2;77
"iss van";0;0;1;9
"photographie art";0;0;1;32
"richard olinski";0;0;2;7.5;0;0;3;8;0;0;1;7
"tracey emin oeuvre";0;0;3;7.3333333333333
"alain diotallevi";0;0;1;45
"peintre art contemporain";0;0;2;6
"cadeaux rigolos";0;0;1;36
dtone;0;0;6;6;0;0;2;5.5
"tao art aimer";0;0;1;85
"vente d'art";0;0;3;1.3333333333333
"vente partition";0;0;1;71
"vente neon";0;0;1;67
"peintre adami";0;0;1;15
triglia;0;0;2;4.5;0;0;2;9
"les mexicaines";0;0;1;20
"tony soulié";0;0;7;3.7142857142857
"eric michel";0;0;1;20
"galerie sylvie lepage";0;0;1;6
"cortade art";0;0;4;3;0;0;1;4
"male nude";0;0;2;63.5
"david lachapelle photos";0;0;1;8
sculputre;0;0;2;6
"tilt street art";0;0;3;7.6666666666667
"definition oeuvre art";0;0;1;93
barrat;0;0;2;94.5
rds;0;0;1;92
lemmers;0;0;2;6
"biographie victor vasarely";0;0;2;39
vernay;0;0;1;94
"marcus egli";0;0;5;4.6
"sculpture catalano prix";0;0;1;3;0;0;1;1;0;0;3;3
"photographes surréalistes";0;0;1;18
"vente poussin";0;0;1;59
"christophe charbonnel";0;0;7;4.8571428571429
fubiz;0;0;158;7.6139240506329;0;0;9;7.8888888888889;0;0;3;8
"papillon crane";0;0;1;5
"pierrot men";0;0;1;17
"jeff koons balloon dog prix";0;0;1;8
"galerie ricci";0;0;1;4
"crocodile rouge orlinski";0;0;2;4
ravagnani;0;0;1;7
"envie d'art";0;0;1;3;0;0;1;3
"acheter de l'art";0;0;2;3
dysform;0;0;1;3;0;0;1;3
"peintre lamy";0;0;1;1
"jonathan monk";0;0;1;5
"nicolas hugo";0;0;1;5
"haring oeuvre";0;0;1;6
"nathalie d'henaut";0;0;2;6
"shirley pellicer";0;0;1;47
stoul;0;0;2;5.5;0;0;2;7
arzumanyan;0;0;1;9
sculpure;0;0;1;11
"oeuvre cesar";0;0;1;5
"laurence poitou";0;0;1;5
sculpeur;0;0;1;6
"richard orlinski cote";0;0;2;9.5;0;0;1;9
"peintre 21eme siecle";0;0;1;18
"massimo vitali";0;0;2;7
"jana et js";0;0;2;6
"bernard venet";0;0;1;8;0;0;1;11
"galerie artiane";0;0;1;4
"olivier catté";0;0;1;3
"isabelle cochereau";0;0;2;9;0;0;1;8
"oleg dou";0;0;2;6.5
"niels udo";0;0;2;7
"lolitas nude art";0;0;1;15
goet;0;0;3;11
klasen;0;0;1;3;0;0;1;3
"toma jankowski";0;0;1;3
"galerie petitjean lyon";0;0;1;7
"arno elias";0;0;1;5
"nature morte rose";0;0;1;7
"banksy tag";0;0;1;9
"henri lamy";0;0;1;4;0;0;3;4
"peter blake artiste";0;0;4;4
"hugo laruelle";0;0;2;4
sculptures;0;0;7;8.2857142857143;0;0;6;7.3333333333333
"leo caillard";0;0;1;9
"noe two exposition";0;0;2;10;0;0;2;10
streichenberger;0;0;1;7
"shepard fairey lotus";0;0;1;2
"jerome revon";0;0;2;11
"murakami artiste";0;0;5;3.4
"french art studio";0;0;2;3
"pascal frament";0;0;2;3
durix;0;0;6;5.1666666666667
guinio;0;0;1;5
"galerie schwab";0;0;4;5.5
"jonone marianne";0;0;2;9
"gottfried salzmann";0;0;1;5
"peintre buffet";0;0;3;7.3333333333333
"philippe pradalie";0;0;1;4
"noe two artiste";0;0;1;7;0;0;2;7
"minjung kim";0;0;1;4
artop;0;0;4;8.25
"john one street art";0;0;1;3
"jonone sculpture";0;0;1;2
"ernest pignon";0;0;2;9
"oeuvres d'art originales";0;0;1;6
"michel four";0;0;1;9
"orlan oeuvres";0;0;1;4
xintao;0;0;1;3
"caroline maurel";0;0;2;4
"achat art";0;0;1;1
"oeuvres de banksy";0;0;1;7;0;0;3;7.3333333333333
"affiche warhol";0;0;1;10
"sbk lyon";0;0;1;9
"eric bourguignon peintre";0;0;1;6
"basquiat oeuvres";0;0;3;7;0;0;2;7.5
varvat;0;0;1;10
"la chapelle photo";0;0;1;10
"anne patrick poirier";0;0;1;6
"philippe huart";0;0;2;4;0;0;2;4
"nils inne";0;0;2;6
"capucine pelletane";0;0;1;10
"fernando costa";0;0;4;5
"yoann merienne peintre";0;0;1;2
"artop galerie";0;0;1;5;0;0;1;6
"henri iglesis";0;0;1;2;0;0;1;3
"ernest pignon ernest biographie";0;0;1;8
"durix peintre";0;0;1;4
"hervé di rosa";0;0;5;5.2
"yann houri";0;0;3;3.3333333333333
"yanko tihov";0;0;1;1
"sculpture monumentale contemporaine";0;0;1;2
"eduardo arroyo peintre";0;0;1;7
"oeuvres keith haring";0;0;1;6
"vincent peters";0;0;2;8
"mimi the clown";0;0;1;6;0;0;1;6
"oeuvres d'art";0;0;4;7;0;0;1;7
"jef aerosol prix";0;0;1;1
"no orange";0;0;1;10
"ben artiste francais";0;0;1;5
"johanne 8 facebook";0;0;2;5
"tableau oeuvre d'art moderne";0;0;1;1
misskiss;0;0;1;8
"serge mendjisky";0;0;1;7
flipo;0;0;3;6.6666666666667;0;0;1;4
"galerie miss tic";0;0;1;4
"bear galerie";0;0;2;5.5;0;0;1;9
"ernest pignon biographie";0;0;2;8
"julien calot";0;0;1;5
bilger;0;0;1;50
"jpg4 nude";0;0;1;10
"cruz diez artiste";0;0;1;6
"art entreprise";0;0;2;4
"peinture jean dubuffet";0;0;1;9
"peintre leo galamez";0;0;2;2
pras;0;0;5;6.4;0;0;1;6
"lgr 150 paris";0;0;1;8
"oeuvre d'art a vendre";0;0;2;1;0;0;2;1
"cynthia nude";0;0;1;5
"louis nicolas darbon";0;0;1;7
"alain clément";0;0;3;5.3333333333333
"eric herrmann";0;0;2;10
furbiz;0;0;5;7.4
"alain clement";0;0;2;5.5
"matisse cirque";0;0;1;5
"villegle jacques";0;0;2;3
"galerie roy sfeir";0;0;1;5
"gerard gallery";0;0;1;3
"olivier leroy artiste";0;0;2;1
villegle;0;0;1;4
tanc;0;0;3;5.3333333333333
"francine van hove";0;0;1;8
"artiste cesar";0;0;1;11
"david mesguich";0;0;2;7
braoude;0;0;2;9
"galerie argentic";0;0;2;6.5
"david lynch œuvres d'art";0;0;1;7
"luz severino";0;0;1;2
"florent chopin";0;0;1;6
"sculpture richard orlinski";0;0;1;7;0;0;5;7
"fabrice hyber oeuvres";0;0;1;6
nojnoma;0;0;1;10
tieri;0;0;1;5;0;0;1;7
"thierry dussac";0;0;1;4
"frédéric blaimont";0;0;2;4
"bonhomme blanc";0;0;4;9.25;0;0;2;10
fourmillion;0;0;1;9
"guillaume bourquin";0;0;1;5
gangal;0;0;5;5;0;0;6;5
"pierre lesage";0;0;3;8
"joel andrianomearisoa";0;0;1;10
"thomas herault";0;0;1;39
"oeuvre basquiat";0;0;2;8.5
"alexandre mulliez";0;0;3;1
"progress gallery";0;0;3;7
"brunet anne";0;0;1;10
"bernard chauveau";0;0;2;6;0;0;1;6
"je suis blue";0;0;1;8
"galerie d'art 249";0;0;1;18
calirezo;0;0;1;9;0;0;1;9
"sculpture gorille rouge";0;0;2;6
"galerie orlinda lavergne";0;0;1;3
"vente oeuvre d'art";0;0;3;1
"banksy billet de banque";0;0;1;2
"oeuvres de basquiat";0;0;1;8
"kumi sugai";0;0;1;8
"bonhomme art";0;0;1;7
brusadelli;0;0;1;10
"jakoe michel";0;0;1;6
"sylvie le page";0;0;1;6
"kamel yahiaoui";0;0;1;6
"planete serie";0;0;2;4;0;0;1;7
www.fuck;0;0;1;248
massamba;0;0;1;51
mackeown;0;0;1;5
"christine barres peintre";0;0;2;3
"georges platt lynes";0;0;2;6
zoxx;0;0;1;7
"chat jaune street art";0;0;1;9
"shaka artiste";0;0;2;6
"peintre beaufils";0;0;1;4
"claude champy";0;0;1;7
"argentic galerie";0;0;1;7
"vinz street art";0;0;1;6
"grégoire guillemin";0;0;1;16
"laurent durrey";0;0;2;10;0;0;1;10
"delorme peintre";0;0;1;8
"miss tic oeuvres";0;0;1;4
"filip mirazovic";0;0;2;5;0;0;1;8
"gerard rancinan";0;0;3;7.3333333333333
"alain godon";0;0;2;1
"emmanuel pons";0;0;1;7
"photo surealisme";0;0;3;9
"john matos crash";0;0;1;3
"mireille porte";0;0;1;10
"ma che bella";0;0;1;10
"carlos cruz diez";0;0;2;11
"phillipe berry";0;0;1;8
aroa;0;0;7;7.5714285714286
"lachapelle photographe";0;0;1;7
"oeuvres banksy";0;0;1;8
"claire fanjul";0;0;1;2
"pignon ernest";0;0;1;9
"artist bambi";0;0;1;8
alison;0;0;1;254
takashi;0;0;2;4
"stephane dauthuille";0;0;1;9
"sculpture panthere noire";0;0;1;6;0;0;1;7
poes;0;0;3;4.6666666666667
"galerie virginie barrou planquart";0;0;1;4
"orlinski panthere";0;0;3;10
"ren hang";0;0;2;9.5;0;0;2;8.5
"pauline dufour";0;0;1;5
"robert combas figuration libre";0;0;1;6
"art cubique";0;0;2;10.5
"art en ligne";0;0;1;1;0;0;1;1
"ko 21";0;0;1;8
"sergio ferro";0;0;1;3
"le turk";0;0;1;10
"galerie hus";0;0;1;11;0;0;1;11
"sculpteur cesar";0;0;1;11
"romain tichit";0;0;1;5
"robert peintre";0;0;4;9.5
"jonas sun7";0;0;1;1
"shepard fairey oeuvres";0;0;1;3
"patrick loste";0;0;1;6;0;0;1;9
"galerie d art";0;0;2;6;0;0;1;9
"patrick loste artiste peintre";0;0;1;7
"kim de molenaer";0;0;1;6
"under construction gallery";0;0;1;5
"didier avril";0;0;1;6
"linear quest";0;0;1;5
"mambo artiste";0;0;1;8
"3 cerises";0;0;1;7
besher;0;0;2;4
"hermann nitsch";0;0;2;7
"le voyageur au-dessus de la mer de nuages";0;0;1;16
gregos;0;0;3;8
"oeuvres miro";0;0;1;1
"miguel angel sanchez";0;0;1;10
"sculpture sumo";0;0;2;10
"bruno catalano prix sculptures";0;0;2;10;0;0;2;2.5
"cesar oeuvre";0;0;1;5
"bernar venet";0;0;7;8;0;0;4;8.5
"camille hervouet";0;0;1;3
kouka;0;0;14;7.2857142857143;0;0;1;7
"mustapha azeroual";0;0;1;5
"francoise danel";0;0;3;2
"john andrew perello";0;0;1;4
"tony franck";0;0;3;9.6666666666667
"artiste erro";0;0;2;5;0;0;2;5.5
"miss tic pochoir";0;0;4;6.75
"anthony knapik-bridenne";0;0;1;5
"galerie double s";0;0;1;7
"armand artiste";0;0;1;7
"favier philippe";0;0;1;10
"gérard rancinan photos";0;0;1;5
"lucky strike oriental";0;0;1;27
"sarah maple";0;0;1;9
catelain;0;0;1;3;0;0;1;2
"galerie brugier-rigail";0;0;2;7
"nojnoma paris";0;0;3;9
godeau;0;0;1;83
lapinthur;0;0;1;4
maoual;0;0;1;9
"mickael doucet";0;0;1;1
"david gouny";0;0;1;3
"philippe pasqua";0;0;17;7.0588235294118;0;0;2;7
"sam szafran artiste";0;0;1;9
"artefact art";0;0;1;9
"le concert caravage";0;0;2;10
"silvana solivella";0;0;1;8
"gottfried honegger";0;0;2;8;0;0;3;9
"galerie alb";0;0;1;10;0;0;1;11
"carl andre";0;0;1;7;0;0;2;8
"moya peintre";0;0;1;5
stani;0;0;1;6
"wild kong";0;0;1;2
"jeune artiste";0;0;1;8
"sculpture homme valise";0;0;1;10;0;0;1;10
"laure d'hauteville";0;0;2;8.5
nezn;0;0;1;5
"hermann nitch";0;0;1;7
"jin bo";0;0;2;5;0;0;1;5
"stephane gautier";0;0;1;5;0;0;2;4.5
ayline;0;0;2;9.5
"jeff koons biographie";0;0;4;8.75
"peter soubbotnik";0;0;1;48
"leslie caillard artiste peintre";0;0;1;9
"ouvre-moi la galerie";0;0;2;11
assalit;0;0;1;6
"oeuvre de max ernst";0;0;1;9
"cerf art contemporain";0;0;1;7
"galerie duret";0;0;1;4
jef;0;0;3;11
"arroyo peintre";0;0;1;5
"seen artiste";0;0;3;2
m.chat;0;0;1;7
"daniel authouart";0;0;1;11;0;0;1;9
"oeuvre de haring";0;0;1;6
"tudi deligne";0;0;1;3
"alex katz peintre";0;0;1;5;0;0;1;7
"jean michel gnidzaz";0;0;1;2
"sorane rotellini";0;0;2;8
"roy lichtenstein";0;0;1;194
"technique de breed";0;0;1;9
"duffu duck";0;0;1;10
"isabelle bartoli";0;0;4;2.5;0;0;1;2
"beatrice terra";0;0;2;1;0;0;5;1
kokekoko;0;0;1;5
krm;0;0;5;2.6;0;0;1;2
fkdl;0;0;7;6.2857142857143;0;0;1;7
labegorre;0;0;1;7
"oeuvre jr";0;0;2;6
"colorfield gallery";0;0;1;8
lympi;0;0;2;6
"adalla costa";0;0;1;6
"al ain girl";0;0;1;10
"galerie oneiro";0;0;1;4
"berry sculpteur";0;0;1;6
"theophile kintgen";0;0;2;2
"dark vador artwork";0;0;1;5
"gustave singier";0;0;1;6
"pierre alex";0;0;1;7
telquel;0;0;1;77
haussner;0;0;1;10
"pablito zago";0;0;3;5.6666666666667;0;0;1;5
"galerie françois giraudeau";0;0;1;8
"la fille aux cheveux rouges";0;0;1;29
skulpture;0;0;1;5
"galerie macadam";0;0;1;4
"oeuvre de david";0;0;1;10
"etienne rey";0;0;1;7
"kilian glasner";0;0;1;5
bluegun;0;0;1;14
"kiki picasso";0;0;4;7.25;0;0;4;7
"jeanne lorioz artiste peintre";0;0;1;3
"artiste orlan";0;0;8;10.75;0;0;1;9
"mathieu mercier";0;0;3;8
"galerie perahia";0;0;1;8
"dire 132";0;0;6;6.6666666666667
doulat;0;0;1;10
"joel hubaut";0;0;1;7;0;0;1;6
"laurence weiner";0;0;1;11
enviedart;0;0;1;5
"miroir de l'art";0;0;2;10
"anais boudot";0;0;1;4
"chanoir artiste";0;0;1;2;0;0;1;2
yidan;0;0;2;9
"galerie numero 1";0;0;1;4;0;0;1;4
"sculpture panthère";0;0;1;10
"vente art contemporain";0;0;1;1
"hamish fulton";0;0;1;9
gnidzaz;0;0;1;4
"yang yongliang";0;0;3;6.3333333333333
"ben artiste";0;0;2;5;0;0;4;4.75
"galerie d'art en ligne";0;0;6;1;0;0;3;1
"kathleen petyarre";0;0;2;9
"alexandra gestin sculpture";0;0;1;9
"emma jousse";0;0;1;4
"sculpture bronze";0;0;1;67
"art mb";0;0;1;7
"herve lewis";0;0;1;6
"karine paoli";0;0;1;10
"eva jospin artiste";0;0;3;4.6666666666667;0;0;1;4
thomas.muller;0;0;1;22
"francois giraudeau";0;0;1;10
surian;0;0;2;6.5;0;0;2;6.5
ddessin;0;0;1;7;0;0;1;7
"pierre marie brisson";0;0;3;3;0;0;2;3
oksana;0;0;1;42
"achat oeuvre d'art entreprise";0;0;1;3
"takashi murakami oeuvres";0;0;2;3
"julien raynaud";0;0;8;4.875
demsky;0;0;1;9
"sculpture arbre de vie";0;0;1;99
"tom wesselmann";0;0;1;5
"banksy achat";0;0;1;2
kikayou;0;0;1;4
"philippe berry";0;0;107;8.0280373831776;0;0;27;8
"jésus marche sur les eaux tibériade";0;0;1;9
"gordon hopkins";0;0;1;3
grisor;0;0;1;5
"michel le belhomme";0;0;2;3
"karl lagasse";0;0;5;7.2
"miguel chevalier";0;0;1;10;0;0;1;11
"akiza la galerie";0;0;1;8
"alain hatat";0;0;1;8
"ernest pinon ernest";0;0;1;11
smael;0;0;6;7.5
"photographe surréaliste";0;0;2;9
"les galeries d'art";0;0;1;10
paxal;0;0;1;10
"christoff debusschere";0;0;2;10;0;0;1;11
"artiste mist";0;0;1;7
frament;0;0;1;10
"cynthia nu";0;0;4;9
"cesar artiste";0;0;1;6
"combas prix";0;0;1;5
"césar artiste";0;0;1;6
"richard orlinski prix panthere";0;0;2;6.5
"anne vignal";0;0;1;4
dalleas;0;0;1;10
"tableau art moderne a vendre";0;0;2;1
fassianos;0;0;1;11
"artistes contemporains";0;0;5;9.4;0;0;3;9
"stephane gizard";0;0;1;10
"claude leveque artiste";0;0;2;6
"galerie ko21";0;0;3;10
"jola sidi gallery";0;0;1;5
"anne et patrick poirier";0;0;3;8
"romero britto sculpture";0;0;1;7
"marin patrick";0;0;1;6
picka;0;0;1;6;0;0;1;5
rienc;0;0;1;3
"lea miguel nue";0;0;4;9
"alfons alt";0;0;2;10
"richard orlinsky";0;0;3;7.6666666666667;0;0;2;8
"combas robert";0;0;3;5.6666666666667;0;0;1;5
cieu;0;0;1;9;0;0;14;6
"shaka peintre";0;0;1;4
"hank china";0;0;1;1
"patrick villas";0;0;1;3
"alain clément peintre";0;0;1;4
"patrick bastardoz";0;0;1;4;0;0;2;4
"peter klasen";0;0;4;4
"ou est ma part";0;0;1;6
"sculpture art contemporain pas cher";0;0;1;1
agrinier;0;0;1;6
"grisser art";0;0;1;16
"peter hoffer peintre";0;0;1;3;0;0;1;4
"rakel wajnberg";0;0;1;1
"britto paris";0;0;3;9.6666666666667
"andre nadal";0;0;2;6.5
"le diamantaire";0;0;2;9.5;0;0;1;9
"orlan biographie";0;0;1;7
"nolwenn samson";0;0;1;1
graphito;0;0;2;10.5
"pascal jacquot";0;0;2;8
"robert combasse";0;0;2;4
"jean michel basquiat œuvres d'art";0;0;7;10.714285714286;0;0;4;11
"banksy œuvres d-art";0;0;1;8
"oksana x";0;0;2;19.5
"miss tic street art";0;0;1;6;0;0;1;6
benarosh;0;0;1;9;0;0;1;8
"artistes australiens";0;0;1;10
"galerie art contemporain";0;0;1;8;0;0;4;7.75
"guillaine querrien";0;0;1;5
"l'art de la rue";0;0;1;9
"mikael lafontan";0;0;1;4
"achat art contemporain";0;0;1;1
"romain lardanchet";0;0;4;7.75
"samhart gallery";0;0;1;7
"carlos cruz";0;0;11;10.636363636364
"b andy";0;0;1;8
"jm robert street art";0;0;1;2
"torrick ablack wikipedia";0;0;1;3
"art et sculpture";0;0;1;5
"césar sculpteur";0;0;1;9
"oeuvre banksy";0;0;1;7;0;0;1;7
"mist street art";0;0;3;10
"no milk today";0;0;1;49
"eric bourguignon";0;0;1;9;0;0;1;8
"lord anthony cahn";0;0;4;7
"aykaz arzumanyan";0;0;1;5;0;0;2;3
"anne berry";0;0;1;7
"gregos paris";0;0;1;9
authouart;0;0;1;14
"david gerstein";0;0;1;3
revon;0;0;1;11
"miss bombe";0;0;1;10
"christine muller";0;0;3;5;0;0;1;7
"mecanic art";0;0;1;6
"james mackeown peintre";0;0;3;5
"fernando garcia";0;0;1;10
"tom wesselman";0;0;1;5
"richard orlinski ours";0;0;1;6;0;0;1;6
"britto artiste";0;0;2;5
scuture;0;0;1;8
"galerie urbaine";0;0;2;8;0;0;1;4
"godon peintre";0;0;2;3
joneone;0;0;2;5
"li wei wei";0;0;1;5
"bert prins";0;0;1;3
"cesar sculpteur";0;0;10;6.9;0;0;2;7
"banksy pound";0;0;1;1
"césar baldaccini compression";0;0;1;6
"drouet peintre";0;0;1;5
timmers;0;0;1;5
"achat oeuvre d'art";0;0;1;1
"street art galerie";0;0;1;8
"robert sgarra";0;0;1;3;0;0;1;3
"mahjoub ben bella";0;0;1;3
"marie laure gerard";0;0;1;4
rabarama;0;0;1;8
"poes artiste";0;0;1;1
"anca 3";0;0;1;7;0;0;1;6
"telemaque peintre";0;0;2;6;0;0;1;6
"claude leveque";0;0;7;10.428571428571;0;0;6;10.833333333333
"envie d art";0;0;1;3
"juliette vivier";0;0;1;7
"galerie w";0;0;4;5;0;0;6;5
"cecile desserle";0;0;4;5.25;0;0;1;5
"olivier borst";0;0;2;6
"mark demsteader";0;0;1;8
"big ben peinture";0;0;4;10
ferreira;0;0;1;31
"remo lienhard";0;0;1;6
"mel ramos";0;0;3;4
"armand art";0;0;2;7
"richard orlinski sculpteur";0;0;2;7
"gregory berben";0;0;1;8
"nocturne ii";0;0;1;9
"mr jago";0;0;1;7
"cesar art";0;0;1;7
"monika nowak facebook";0;0;1;7
oeuvres;0;0;4;10.75
"nuance et lumière";0;0;1;3
"cécile desserle peintre";0;0;1;5
"chris morin eitner";0;0;1;3;0;0;1;3
"jr artiste de rue";0;0;1;14
"acheter une oeuvre d'art";0;0;2;1
"peinture street";0;0;1;10
"nick walker";0;0;3;4
"sandy skoglund";0;0;1;9;0;0;1;9
"venet bernar";0;0;1;10
"catherine houard";0;0;1;7
"jerry hall jeune";0;0;3;1
lisman;0;0;1;3
"hedva ser";0;0;1;6;0;0;1;6
"francois lefranc";0;0;1;1
"milo peintre";0;0;4;4
"levalet street art";0;0;3;6.6666666666667
"catherine lambermont";0;0;1;2
"raphaël denis";0;0;1;5
"loft galerie";0;0;1;6
"sculpture deesse";0;0;2;6
"kenza sadoun";0;0;1;1
scepulture;0;0;1;9
catte;0;0;8;2.875;0;0;1;3
"artistes indiens";0;0;1;10
"art internet";0;0;1;2
mesnager;0;0;5;4.6;0;0;1;4
"galerie charlot";0;0;1;5
"françoise petrovitch";0;0;3;8.3333333333333;0;0;1;9
"fabien verschaere";0;0;1;2
"duong le thai";0;0;2;6
"sculpture panthere";0;0;1;10
"di rosa";0;0;3;5;0;0;2;5
"flower power slogan";0;0;1;6
"sculpture bronze contemporain";0;0;1;55
calmets;0;0;1;3
"alain buyse";0;0;1;10
"benharrouche peintre";0;0;1;8
miss.tic;0;0;1;7;0;0;3;6.3333333333333
"orlinski loup";0;0;1;5
"l'atlas street art";0;0;1;7
"arnaud paillard";0;0;1;6
"serigraphie art contemporain";0;0;1;5
"monika nowak";0;0;4;4;0;0;1;4
"galerie vivendi";0;0;1;5
"romero britto";0;0;13;7;0;0;4;9
"aki kuroda";0;0;5;6.6;0;0;2;7
"le chat artiste";0;0;1;3
"sergio moscona";0;0;6;3;0;0;4;3
"fred calmets";0;0;3;5
combas;0;0;14;5.3571428571429;0;0;3;6
"alain bertrand";0;0;1;18
"nathalie grenier";0;0;2;7
"denis christophel";0;0;1;4
"robert bradford wikipedia";0;0;1;5
"monochrome noir";0;0;2;7
"pras bernard";0;0;1;4
"john kacere";0;0;1;11
"nicolas dessauvage";0;0;1;25
"chenaux gallery";0;0;1;8;0;0;1;8
dirosa;0;0;1;6
"jacque villegle";0;0;2;3
"alain bertrand facebook";0;0;2;9
"concorde v2";0;0;1;3
"gregos street art";0;0;1;10;0;0;1;8
"leonardo cremonini";0;0;1;10
leyto;0;0;1;6
"art monochrome";0;0;1;9
"jacques lacroix";0;0;1;9
"compression de cesar";0;0;1;9
"luo dan";0;0;1;9
bouro;0;0;1;7
"sylvie lepage";0;0;1;11
"mel ramos toblerone";0;0;1;1
"art to be gallery";0;0;2;6
"murakami oeuvres";0;0;2;4.5
"clothilde lasserre";0;0;1;5
"arman oeuvre";0;0;1;7
"robert indiana oeuvres";0;0;1;6
"claudio locatelli";0;0;1;10
"thomas jorion";0;0;2;4
"fanny dubois";0;0;1;8
"debusschere christoff";0;0;1;11
"mr chat";0;0;16;6.5625
"funny art";0;0;1;9
"wishlist homme";0;0;2;16
"art contemporain pas cher";0;0;1;3;0;0;3;3
"jingdong france";0;0;1;5
"franck chambrun";0;0;2;7
"anthony murphy";0;0;1;6
"georges autard";0;0;1;5
"richard orlinski prix";0;0;11;6.8181818181818;0;0;11;6.6363636363636
"sandra david";0;0;2;6.5
"galerie art en ligne";0;0;1;2
"oswaldo guayasamin";0;0;2;6
boudro;0;0;3;9
"didier marien";0;0;1;3
"artiste ben";0;0;2;4;0;0;1;4
"orlinski richard";0;0;2;7;0;0;1;7
"carpentier benoit";0;0;1;11
"panthère noire sculpture";0;0;3;6
"le paradis est ici";0;0;1;8
"gilles molinier";0;0;1;6
"fkdl street art";0;0;3;10
"françois morellet";0;0;2;10;0;0;2;11
"oeuvre d'art sculpture";0;0;1;8
"pretty portal";0;0;1;4
"elisabeth von wrede";0;0;2;7
"emmanuelle bousquet";0;0;2;6.5
"combas peintre";0;0;2;5.5;0;0;2;4
parisbouge;0;0;1;37
"oeuvre peur";0;0;1;2
"orlinski sculpteur";0;0;3;6;0;0;2;6
"nyaba léon ouedraogo";0;0;1;5
"ralph gibson";0;0;1;11
"kool koor";0;0;5;3.2
"vente carlin";0;0;1;38
"thierry alet";0;0;2;3
argentic;0;0;1;7
"frederic prat";0;0;1;7
"carole goujon";0;0;1;2
"richard orlinski crocodile";0;0;1;8
"biographie de keith haring";0;0;1;10;0;0;1;10
"arman artiste";0;0;3;10;0;0;5;10
"vincent breed";0;0;1;7
"annina roescheisen";0;0;2;7.5
"artiste césar";0;0;1;7
graphem;0;0;2;8.5
"artiste pez";0;0;1;8
"basquiat sculpture";0;0;1;3
"oeuvres d art";0;0;1;9
"parfum apocalypse";0;0;1;10
"ernest pignon ernest";0;0;35;10.857142857143
"oeuvre art contemporain";0;0;1;1
"leveque claude";0;0;1;7
"achat contemporain paris";0;0;1;4
"claire trotignon";0;0;4;5.5
"requin sourire";0;0;2;8
"laurent bouro";0;0;1;3
"marie louise sorbac";0;0;1;2
"emmanuel bousquet";0;0;3;9
"galerie chenaux";0;0;1;6
"gaspard mitz";0;0;1;1
"galerie claire gastaud";0;0;1;6
"stephane ducatteau";0;0;2;6.5
"gilles candelier";0;0;1;10;0;0;1;8
feurman;0;0;1;10
"pierre fava";0;0;2;4.5
"galerie d art contemporain";0;0;1;5
"picka picka";0;0;1;1
"marc dupont";0;0;1;50
"chat peintre";0;0;1;5
"joan miro oeuvre";0;0;1;1
"valerie le merrer";0;0;1;3
"marie claude le floch";0;0;2;10
"jon one";0;0;1;5
"oeuvre dubuffet";0;0;1;6
"shaka street art";0;0;1;5
"nathalie deshairs";0;0;1;3
"les artiste turk";0;0;1;10
"gallerie w";0;0;2;5
"costa artiste";0;0;1;4
"antoine correia";0;0;1;4
"pilar du breuil";0;0;1;2
"galerie mondapart";0;0;1;4
"uwe ommer";0;0;2;9
"edmée delsol artiste";0;0;1;1
"hervé dirosa";0;0;1;5
"oeuvre d'art achat";0;0;1;1
"eric en ville";0;0;1;4
"tony frank";0;0;2;9
"ernest pignon ernest oeuvres";0;0;1;8
"jerome mesnager street art";0;0;1;6
"schlosser gerard";0;0;2;4
"peintre artiste contemporain";0;0;1;6
"schlosser peintre";0;0;1;6
"veilhan xavier";0;0;2;10
"lacroix jacques";0;0;2;8
"guillaume moschini";0;0;1;5
"richard orlinski oeuvres";0;0;1;5
"li wei photographe";0;0;2;6
"eric bourse";0;0;1;3
"eric marrian";0;0;2;4.5
"sculpture art moderne";0;0;1;2
auboiron;0;0;1;8
"alice gotheil";0;0;2;9
"cote combas";0;0;3;5
"eric kellerman";0;0;1;6
levalet;0;0;2;5.5
"helene goddyn";0;0;2;2
www.vincent-richeux.fr;0;0;1;4
"gastineau massamba";0;0;2;2
"orlinski crocodile";0;0;1;7
"charlelie couture peinture";0;0;2;2
"banksy œuvres d'art";0;0;1;9
"art contemporain galerie";0;0;1;6
"jorg doring";0;0;1;7
"nathalie dhenaut";0;0;2;6
"shepard fairey obey";0;0;1;7
"clotilde ancarani";0;0;1;6
"banksy faux billets";0;0;1;1
"christophe monnin peintre";0;0;1;14
"dussac peintre";0;0;1;4
"mateus bailon";0;0;1;7
"francois glineur";0;0;2;1
"morales architecte";0;0;1;8
"francoise pétrovitch";0;0;1;8
"gerstein peintre";0;0;1;1
"romero britto paris";0;0;1;7
jonol;0;0;1;5
johnone;0;0;1;5
"nils udo oeuvres";0;0;1;7
"denis robert";0;0;1;29
"sculpture achat";0;0;1;1
jankowski;0;0;1;30
"antoine veron";0;0;1;5
"art3f montpellier";0;0;2;15
"pius fox";0;0;2;7
"did dontzoff";0;0;2;4
"quentin boucly";0;0;1;2
"viallat artiste";0;0;1;8
"vente sculpture contemporaine";0;0;1;1
"l'art dans la rue";0;0;1;8
"beaufils peintre";0;0;2;6
310514;0;0;1;7
"david gerstein prix";0;0;1;1
"dganit blechner";0;0;1;4
"charles henry sommelette";0;0;1;5
"cecile colombo";0;0;2;5
"liu bolin oeuvres";0;0;1;4
"catherine klein peintre";0;0;1;4
"salzmann gottfried";0;0;1;6
"andy warhol bilder";0;0;1;1
jadikan;0;0;1;5
"artiste espagnol contemporain";0;0;1;10
"galerie d'art contemporain";0;0;1;2
benaroch;0;0;1;5
"galerie bear";0;0;2;8
"didier hamey";0;0;2;6
"jolie fille";0;0;1;110
"rancillac bernard";0;0;1;11
"orland artiste";0;0;1;9
"coq multicolore";0;0;1;6
"art sculpture";0;0;1;4
"rolf saint agnes";0;0;2;5
missitic;0;0;2;6
"seize happywallmaker";0;0;1;4
www.artsper.com;0;0;1;1
"duane michals oeuvres";0;0;1;5
"acheter sculpture";0;0;2;1
"galerie des petit carreaux";0;0;1;6
"boccara design";0;0;1;5
"bard artiste peintre";0;0;1;3
"manu perez artiste";0;0;1;4
"germain plouvier";0;0;1;3
"keith haring oeuvre";0;0;2;6
"vente d'art sur internet";0;0;1;1
brooklynstyle;0;0;1;29
"speedy grafito";0;0;1;7
"francoise petrovich";0;0;1;8
"love oeuvre d'art";0;0;1;7
"olivier ribardiere";0;0;1;4
unbo;0;0;2;5
"peinture de bernard buffet";0;0;2;7
"peintre irlandais";0;0;1;6
"oeuvres de benjamin vautier";0;0;3;5
"françois machado";0;0;1;8
"triglia didier";0;0;1;6
"victor soren";0;0;3;6
"jean claude deutsch";0;0;1;4
"anna bocek";0;0;1;5
"isa marcelli";0;0;1;8
"art sculptures";0;0;1;5
"mackeown peintre";0;0;1;6
"xavier jambon";0;0;1;5
scupture;0;0;1;8
"peintre dubuffet";0;0;2;4.5
"franck mercky";0;0;1;2
"art sper";0;0;3;1
iglesis;0;0;1;2
"cedric bacqueville";0;0;1;4
"charlotte de perrot";0;0;1;7
"pascale morin";0;0;1;8
"jacques benaroch";0;0;1;2
tipoti;0;0;1;2
"sculpture a vendre";0;0;3;1
maodus;0;0;2;4
orlan;0;0;2;39
"georges poncet";0;0;1;9
"dino valls";0;0;1;8
"galerie claire corcia";0;0;1;6
"poulat peintre";0;0;1;8
"gallery hd";0;0;1;8
"photographie art contemporain";0;0;1;2
"artiste en vogue";0;0;4;2.5
"marie pierre fontaine";0;0;1;3
"thomas subtil";0;0;4;6
"anette messager";0;0;1;11
"oeuvre de sol lewitt";0;0;1;17
"anaïs boudot";0;0;1;5
"cesar sculpture";0;0;1;10
"kongo artiste";0;0;1;9
"mihai bara";0;0;1;5
"cecile aurejac";0;0;3;10
cornillet;0;0;3;9.6666666666667
"jean francois lefranc";0;0;1;3
"oeuvres ernest pignon ernest";0;0;1;7
"jean michel pasqua";0;0;1;4
"galerie nuances et lumieres";0;0;1;4
"art sur internet";0;0;1;1
"ronald dupont";0;0;1;7
"marcel dumont";0;0;1;8
"yves zurstrassen";0;0;2;6
"photo david lachapelle";0;0;1;6
"valérie hadida sculpture";0;0;1;3
"robert combas cote";0;0;1;4
piasecki;0;0;2;13.5
"oeuvres de ernest pignon ernest";0;0;1;6
"michel audiard sculpteur biographie";0;0;1;6
"jean louis emond";0;0;1;9
"bernard langenstein";0;0;2;4
"wilfred peintre";0;0;1;3
"adela burdujanu";0;0;1;5
"françois bard peintre";0;0;2;2.5
"galerie gastaud";0;0;1;6
"3d jaillissement";0;0;1;12
