artsper;29;0.10469314079422;277;1.0036101083032;18;0.08256880733945;218;1.0045871559633;8;0.20512820512821;39;1;3;0.15;20;1
sculpture;7;0.011725293132328;597;6.179229480737;3;0.0077922077922078;385;6.2779220779221;0;0;153;6.1633986928105;4;0.067796610169492;59;5.5762711864407
"vincent richeux";6;0.13333333333333;45;4.1333333333333;2;0.095238095238095;21;4.2857142857143;3;0.15789473684211;19;3.8947368421053;1;0.2;5;4.4
"bernar venet";5;0.089285714285714;56;5.4285714285714;5;0.10416666666667;48;5.0208333333333;0;0;6;7.6666666666667;0;0;2;8.5
"robert combas";4;0.036036036036036;111;4.3693693693694;4;0.050632911392405;79;4.0506329113924;0;0;22;5;0;0;10;5.5
"fernando costa";4;0.12121212121212;33;4.1515151515152;3;0.12;25;3.92;1;0.125;8;4.875
jonone;4;0.025316455696203;158;4.9810126582278;4;0.12121212121212;33;5.6363636363636;0;0;11;5.6363636363636
"mahjoub ben bella";3;0.42857142857143;7;3.7142857142857;3;0.42857142857143;7;3.7142857142857
combas;3;0.031914893617021;94;5.7872340425532;2;0.028571428571429;70;5.5714285714286;0;0;19;6.3684210526316;1;0.2;5;6.6
"galerie d'art";3;0.0625;48;7.625;3;0.090909090909091;33;7.6363636363636;0;0;3;8.6666666666667
"claude mollard";3;0.21428571428571;14;3.5;3;0.23076923076923;13;3.3846153846154;0;0;1;5
chanoir;3;0.27272727272727;11;1;3;0.27272727272727;11;1
"annette messager";3;0.017341040462428;173;8.1676300578035;3;0.023076923076923;130;7.9384615384615;0;0;23;8.7826086956522;0;0;20;8.95
goddog;2;0.22222222222222;9;4.3333333333333;2;0.4;5;4.6;0;0;3;4;0;0;1;4
"eva jospin";2;0.037735849056604;53;5.1132075471698;2;0.047619047619048;42;4.7857142857143;0;0;6;6.3333333333333;0;0;5;6.4
"mark jenkins oeuvre";2;0.66666666666667;3;2;2;0.66666666666667;3;2
"françois malingrey";2;0.18181818181818;11;5.3636363636364;2;0.22222222222222;9;5.2222222222222;0;0;2;6
"robert bradford";2;0.25;8;2.125;2;0.28571428571429;7;2.1428571428571;0;0;1;2
"speedy graphito";2;0.042553191489362;47;6.4893617021277;2;0.054054054054054;37;6.2702702702703;0;0;6;7.3333333333333;0;0;4;7.25
"annick bouvattier";2;1;2;11;1;1;1;11;1;1;1;11
"etienne rey";2;0.15384615384615;13;6.9230769230769;2;0.15384615384615;13;6.9230769230769
banksy;2;0.125;16;18.5625;1;0.083333333333333;12;16.666666666667;1;0.33333333333333;3;24.666666666667;0;0;1;23
"butz & fouque";2;1;2;1.5;1;1;1;2;1;1;1;1
"christine barres";2;0.4;5;3.4;1;0.33333333333333;3;3;1;0.5;2;4
keymi;2;0.33333333333333;6;8.3333333333333;0;0;2;9;2;0.5;4;8
"miss tic";2;0.014925373134328;134;5.5970149253731;1;0.011904761904762;84;5.1785714285714;1;0.026315789473684;38;6.3947368421053;0;0;12;6
"ron english";2;0.11111111111111;18;4.8333333333333;1;0.066666666666667;15;4.4;0;0;2;8;1;1;1;5
"banksy billet";2;0.33333333333333;6;1.1666666666667;1;0.25;4;1.25;1;0.5;2;1
zokatos;2;0.28571428571429;7;3;2;0.28571428571429;7;3
"did dontzoff";2;0.28571428571429;7;3;2;0.5;4;3;0;0;2;3;0;0;1;3
"serge mendjisky";2;0.28571428571429;7;4.7142857142857;2;0.28571428571429;7;4.7142857142857
"max ernst œuvres d'art";2;0.18181818181818;11;7.2727272727273;2;0.2;10;7.1;0;0;1;9
"pablito zago";2;0.2;10;5.4;2;0.28571428571429;7;5.5714285714286;0;0;3;5
"elisabeth lecourt";2;0.66666666666667;3;2.6666666666667;2;0.66666666666667;3;2.6666666666667
zenoy;2;0.28571428571429;7;4.1428571428571;2;0.28571428571429;7;4.1428571428571
"mesnager street art";2;0.5;4;4.5;2;0.66666666666667;3;4.6666666666667
"acheter banksy";2;0.5;4;2;2;0.5;4;2
"alain josseau";2;0.28571428571429;7;3;2;0.28571428571429;7;3
"vente banksy";2;1;2;3;1;1;1;2;1;1;1;4
"noe two prix";2;0.5;4;3;1;1;1;3;1;0.33333333333333;3;3
"thibault brunet";2;0.16666666666667;12;8.8333333333333;0;0;9;8.7777777777778;1;0.5;2;9;1;1;1;9
"jm robert";2;0.14285714285714;14;1.8571428571429;2;0.2;10;1.8;0;0;3;2;0;0;1;2
calirezo;2;0.5;4;8;2;0.5;4;8
"romero britto";2;0.029411764705882;68;11.029411764706;2;0.037735849056604;53;11.735849056604;0;0;8;8.25;0;0;7;8.8571428571429
"olivier catte";2;0.5;4;2;2;0.5;4;2
"adeline spengler";2;0.4;5;4.6;2;0.5;4;4.5;0;0;1;5
tanc;2;0.083333333333333;24;5;2;0.125;16;5;0;0;3;6;0;0;5;4.4
"philippe pasqua";2;0.031746031746032;63;6.5555555555556;1;0.023255813953488;43;6.3720930232558;1;0.066666666666667;15;6.9333333333333;0;0;5;7
"ben bella peintre";2;0.33333333333333;6;2.8333333333333;1;1;1;2;1;0.2;5;3
"richard dubure";2;0.25;8;2.75;2;0.5;4;2.25;0;0;4;3.25
"hervé lewis";2;0.22222222222222;9;4.7777777777778;2;0.25;8;4.75;0;0;1;5
"mr chat";2;0.055555555555556;36;6.1111111111111;2;0.13333333333333;15;6.6666666666667;0;0;3;6
"jonone prix";2;0.16666666666667;12;1;1;0.14285714285714;7;1;1;0.2;5;1
"john crash";1;1;1;5;1;1;1;5
"francoise petrovitch";1;0.14285714285714;7;8.4285714285714;1;0.25;4;7.75;0;0;1;10;0;0;2;9
"orlan artiste";1;0.037037037037037;27;9.5185185185185;1;0.05;20;9.3;0;0;7;10.142857142857
"tilt street art";1;1;1;5;1;1;1;5
"cedrix crespel prix";1;0.25;4;1.5;1;0.25;4;1.5
"mimi le clown";1;1;1;4;1;1;1;4
"tableau obey";1;0.25;4;1.5;1;1;1;1;0;0;3;1.6666666666667
"david monllor";1;1;1;3;1;1;1;3
iemza;1;0.090909090909091;11;3.9090909090909;1;0.14285714285714;7;4;0;0;4;3.75
"peintre hopkins";1;1;1;1;1;1;1;1
"gregos street art";1;0.33333333333333;3;6;1;1;1;6;0;0;2;6
"julien grudzinski";1;0.33333333333333;3;3.6666666666667;1;1;1;2;0;0;1;7
"oeuvre nils udo";1;1;1;7;1;1;1;7
psyckoze;1;1;1;15;1;1;1;15
"nathalie dhenaut";1;0.5;2;5;1;0.5;2;5
"oeuvre de erro";1;1;1;5;1;1;1;5
"nicolas dhervillers";1;0.16666666666667;6;4.8333333333333;1;0.25;4;5.25;0;0;1;4;0;0;1;4
"etienne gros";1;0.14285714285714;7;5.7142857142857;1;0.2;5;5.8;0;0;2;5.5
"claude closky oeuvre";1;1;1;5;1;1;1;5
"jef aerosol prix";1;1;1;1;1;1;1;1
"bob verschueren land art";1;0.33333333333333;3;7;0;0;1;7;1;1;1;6
"andre saraiva";1;1;1;21;1;1;1;21
"tony soulie artist";1;0.33333333333333;3;6;1;0.33333333333333;3;6
"cesar sculpteur";1;0.033333333333333;30;6.0666666666667;1;0.11111111111111;9;6.8888888888889;0;0;3;6.6666666666667
lorioz;1;0.5;2;7.5;1;0.5;2;7.5
"sandra david";1;0.16666666666667;6;5.5;1;0.2;5;5.6
topolino;1;0.25;4;26.25;1;1;1;8
"raison d'art";1;0.5;2;9;1;0.5;2;9
"nathalie deshairs";1;0.5;2;3;1;0.5;2;3
mesnager;1;0.055555555555556;18;3.8888888888889;1;0.125;8;4.75;0;0;1;5
"sorane rotellini";1;0.33333333333333;3;9;1;0.33333333333333;3;9
"thierry alet";1;0.33333333333333;3;1;1;0.33333333333333;3;1
"françois mendras";1;0.2;5;2.6;1;1;1;3;0;0;4;2.5
"françois glineur";1;0.2;5;1;1;0.2;5;1
"roland cat wikipedia";1;0.5;2;1;1;0.5;2;1
"monika nowak";1;0.5;2;4;1;0.5;2;4
"sebastien bayet";1;1;1;4;1;1;1;4
"tableau c215";1;0.33333333333333;3;1;1;0.33333333333333;3;1
"mahé boissel";1;0.5;2;4;1;0.5;2;4
"di rosa peintre";1;0.33333333333333;3;5;1;1;1;5;0;0;1;5
"assalit philippe";1;1;1;2;1;1;1;2
"nathan chantob";1;0.090909090909091;11;2;1;0.14285714285714;7;2;0;0;3;2;0;0;1;2
"dominique mulhem";1;0.16666666666667;6;4.6666666666667;1;0.16666666666667;6;4.6666666666667
"pierre francois grimaldi";1;0.11111111111111;9;2.2222222222222;1;0.14285714285714;7;2;0;0;2;3
"jean hélion";1;0.0625;16;4.8125;1;0.083333333333333;12;4.75;0;0;4;5
"hideka tonomura";1;0.33333333333333;3;2.6666666666667;1;0.33333333333333;3;2.6666666666667
"cesar peintre";1;0.16666666666667;6;6.5;1;0.33333333333333;3;6.3333333333333;0;0;3;6.6666666666667
"rancillac peintre";1;0.5;2;10;1;0.5;2;10
"benoit lison";1;0.25;4;2;0;0;1;2;1;0.33333333333333;3;2
"cadeau bleu blanc rouge";1;1;1;11;1;1;1;11
zalez;1;0.090909090909091;11;5.2727272727273;0;0;9;5.3333333333333;1;0.5;2;5
"didier triglia";1;0.2;5;5.4;1;0.25;4;5.5
"artsper adresse";1;1;1;1;1;1;1;1
"telemaque hervé";1;0.5;2;5;1;1;1;6
"marcel dumont peintre";1;1;1;3;1;1;1;3
"ernest pignon ernest";1;0.035714285714286;28;10.214285714286;1;0.055555555555556;18;9.8888888888889
"hervé lewis photographe";1;0.33333333333333;3;7.3333333333333;1;1;1;10
"agnès baillon";1;1;1;4;1;1;1;4
"cesar pop art";1;0.33333333333333;3;8;1;0.33333333333333;3;8
"mickael doucet";1;1;1;1;1;1;1;1
"envie d art";1;0.5;2;3;1;0.5;2;3
"puppy koons";1;0.5;2;16.5;1;0.5;2;16.5
"yaacov agam oeuvres";1;0.5;2;4;1;0.5;2;4
"jerome mesnager cote";1;0.33333333333333;3;3;1;0.5;2;3;0;0;1;3
"joan miro oeuvres";1;0.043478260869565;23;11.260869565217;1;0.05;20;12.8;0;0;1;1;0;0;2;1
joneone;1;0.2;5;5.2;1;0.5;2;6
"galerie vidal";1;0.5;2;7.5;1;1;1;4;0;0;1;11
"léa chauvel-lévy";1;0.5;2;1;1;0.5;2;1
"tintin pop art";1;1;1;10;1;1;1;10
"charlelie couture new york";1;0.2;5;4.2;1;0.25;4;3.75;0;0;1;6
"unit london paintguide";1;1;1;32;1;1;1;32
"investir dans l'art";1;0.1;10;7.5;1;0.125;8;7.375;0;0;1;8;0;0;1;8
"oeuvre d'art jaune";1;1;1;8;1;1;1;8
"futurisme italien";1;0.5;2;39.5;1;0.5;2;39.5
"raymond hains oeuvres";1;0.2;5;5.2;1;0.2;5;5.2
"gaspard mitz";1;0.2;5;1;1;0.25;4;1;0;0;1;1
"catherine seher";1;0.25;4;5;1;0.5;2;5
"sculpture geisha";1;0.5;2;3;1;0.5;2;3
"robert mapplethorpe oeuvres";1;0.5;2;4.5;1;0.5;2;4.5
"le floch et le floch";1;0.33333333333333;3;1.3333333333333;1;0.5;2;1;0;0;1;2
"nick walker";1;0.25;4;4;1;0.33333333333333;3;4;0;0;1;4
"oeuvre d'ernest pignon ernest";1;0.33333333333333;3;5;1;0.33333333333333;3;5
"bernard pras";1;0.012345679012346;81;3.4197530864198;1;0.014492753623188;69;3.1304347826087;0;0;8;5.125;0;0;4;5
"emmanuelle bousquet";1;0.25;4;5;1;0.5;2;5
"alexandre devals";1;1;1;2;1;1;1;2
"juliette clovis";1;0.33333333333333;3;3;1;0.5;2;3;0;0;1;3
"césar baldaccini expansion";1;1;1;4;1;1;1;4
"stephanie guglielmetti";1;0.5;2;7.5;1;1;1;8
"guyomard sylvie facebook";1;0.5;2;6;1;0.5;2;6
"artiste en vogue";1;0.33333333333333;3;2;1;0.33333333333333;3;2
"jef aerosol";1;0.016393442622951;61;6.5573770491803;1;0.023809523809524;42;7.1190476190476;0;0;10;5.1;0;0;9;5.5555555555556
"balloon dog";1;0.017543859649123;57;10.333333333333;1;0.029411764705882;34;10;0;0;16;10.75;0;0;7;11
"galerie roy";1;1;1;7;1;1;1;7
"eric peyret peintre";1;1;1;1;1;1;1;1
"françois morellet biographie";1;0.125;8;4.25;1;0.14285714285714;7;4.2857142857143;0;0;1;4
"romain semeteys";1;0.25;4;2.75;1;0.33333333333333;3;3;0;0;1;2
"paulette tavormina";1;0.33333333333333;3;10;1;1;1;10;0;0;2;10
"bob verschueren";1;0.2;5;5.6;1;0.25;4;5.5;0;0;1;6
"otto schade";1;0.33333333333333;3;4.6666666666667;0;0;1;6;1;0.5;2;4
"david gerstein prix";1;0.5;2;2;1;1;1;1;0;0;1;3
"bdsm fine art";1;1;1;32;1;1;1;32
"philipe pasqua";1;1;1;6;1;1;1;6
"tsuyu artiste";1;1;1;1;1;1;1;1
"peintre john one";1;1;1;1;1;1;1;1
"dominique grisor";1;1;1;1;1;1;1;1
"sculpture richard orlinski";1;0.33333333333333;3;7;1;1;1;7;0;0;2;7
"oeuvres jock sturges";1;1;1;5;1;1;1;5
"annette messager biographie";1;0.125;8;6;1;0.16666666666667;6;6;0;0;1;6;0;0;1;6
sgarra;1;0.5;2;4;1;1;1;4
"pius fox";1;1;1;6;1;1;1;6
"alain godon";1;0.125;8;2.75;0;0;1;1;1;0.25;4;1
"yoel benharrouche";1;0.11111111111111;9;7;1;0.33333333333333;3;7
"nil udo";1;1;1;7;1;1;1;7
moscona;1;0.25;4;2;1;0.25;4;2
"jacques borker";1;1;1;4;1;1;1;4
"oleg dou";1;0.083333333333333;12;5.8333333333333;0;0;6;4;1;1;1;10
"tiffany chung";1;1;1;13;1;1;1;13
"sara chelou";1;1;1;5;1;1;1;5
"galerie art";1;0.045454545454545;22;10.545454545455;0;0;18;10.166666666667;0;0;2;15.5;1;0.5;2;9
"bansky toile";1;0.5;2;10;1;0.5;2;10
"patrick moya";1;0.2;5;3.2;0;0;4;3;1;1;1;4
"oeuvre claude viallat";1;0.5;2;7.5;1;1;1;8
villeglé;1;0.026315789473684;38;4.3157894736842;1;0.027777777777778;36;4.2777777777778;0;0;2;5
"takashi murakami";1;0.11111111111111;9;10;1;0.125;8;10.5;0;0;1;6
gregos;1;0.125;8;6;1;0.2;5;5.8;0;0;3;6.3333333333333
"audoin desforges photographe";1;0.25;4;6;1;0.33333333333333;3;6
"biographie banksy";1;0.071428571428571;14;7.5;1;0.090909090909091;11;7.5454545454545;0;0;2;7;0;0;1;8
"isabelle de voldere";1;0.25;4;10;1;0.25;4;10
"rudolf hausner";1;0.25;4;2.5;1;0.25;4;2.5
"sonia delaunay oeuvres";1;0.5;2;16;1;0.5;2;16
"zed artiste";1;1;1;2;1;1;1;2
"veronique attia";1;1;1;11;1;1;1;11
"oeuvre de bernard buffet";1;0.5;2;5;1;0.5;2;5
"speedy graphito oeuvre";1;0.5;2;4;1;1;1;4;0;0;1;4
"takashi murakami oeuvre";1;0.5;2;2.5;1;0.5;2;2.5
"laurent dauptain";1;0.16666666666667;6;4.3333333333333;1;0.16666666666667;6;4.3333333333333
"philippe favier facebook";1;1;1;10;1;1;1;10
"emmanuelle bousquet photographe";1;0.16666666666667;6;4.1666666666667;0;0;3;4.3333333333333;1;0.33333333333333;3;4
"oeuvre de césar baldaccini";1;0.5;2;4;1;1;1;4;0;0;1;4
"jean michel basquiat oeuvres";1;0.058823529411765;17;7.2941176470588;1;0.071428571428571;14;7.1428571428571;0;0;3;8
brodlim;1;0.2;5;2.4;1;0.25;4;2.5;0;0;1;2
"dan gerbo";1;1;1;7;1;1;1;7
"sarah jacobs";1;1;1;7;1;1;1;7
"achat peinture aborigène";1;1;1;17;1;1;1;17
"izabeau jousse";1;0.066666666666667;15;3.1333333333333;1;0.1;10;3.2;0;0;1;3;0;0;4;3
"bernard fievre";1;0.33333333333333;3;5.6666666666667;0;0;1;5;1;1;1;6
"sculpture ours polaire";1;1;1;12;1;1;1;12
"philippe pradalié";1;1;1;2;1;1;1;2
"liu bolin biographie";1;0.14285714285714;7;2;1;0.16666666666667;6;2;0;0;1;2
"gilles verneret";1;0.5;2;3;1;1;1;3
"hicham gardaf";1;1;1;14;1;1;1;14
"valerie le merrer";1;0.25;4;3;1;0.33333333333333;3;3
"nicolas nicolini";1;0.5;2;4.5;1;0.5;2;4.5
"nathalie de frouville";1;0.33333333333333;3;18.333333333333;1;0.33333333333333;3;18.333333333333
"l'atlas artiste";1;0.083333333333333;12;6.4166666666667;1;0.14285714285714;7;6;0;0;5;7
"artiste ben";1;0.14285714285714;7;3.4285714285714;1;0.2;5;3.2
"sabine danze";1;1;1;1;1;1;1;1
"thierry valencin";1;0.5;2;4;1;0.5;2;4
"john one artiste";1;0.125;8;5;1;0.25;4;5;0;0;1;5
"galerie wagner";1;0.1;10;5.2;1;0.125;8;5;0;0;2;6
"street art galerie";1;0.5;2;11.5;1;0.5;2;11.5
"gerstein peintre";1;0.5;2;1;1;0.5;2;1
"patrick delaunay";1;0.14285714285714;7;3.7142857142857;1;0.2;5;3;0;0;1;4;0;0;1;7
"etienne gros peintre";1;0.33333333333333;3;5.3333333333333;1;0.33333333333333;3;5.3333333333333
"cécile plaisance";1;0.5;2;6.5;1;0.5;2;6.5
"combas robert";1;0.125;8;5;0;0;2;6;1;0.5;2;5
"richard orlinski prix";1;0.090909090909091;11;8.0909090909091;1;0.090909090909091;11;8.0909090909091
"guy denning";1;0.076923076923077;13;4.8461538461538;1;0.14285714285714;7;4.7142857142857
"blek le rat oeuvres";1;1;1;8;1;1;1;8
"peter klasen peintre";1;0.5;2;1;1;0.5;2;1
"chantal porras";1;0.5;2;2;1;1;1;2
"mimi the clown";1;0.33333333333333;3;3.3333333333333;1;0.33333333333333;3;3.3333333333333
"jean claude deutsch";1;0.2;5;4;1;1;1;4
dibbon;1;0.33333333333333;3;3;1;0.33333333333333;3;3
"eva jospin artiste";1;1;1;4;1;1;1;4
"m le chat";1;1;1;5;1;1;1;5
"jean dubuffet biographie";1;0.14285714285714;7;5;1;0.25;4;5
"chanoir artiste";1;0.33333333333333;3;2;1;1;1;2
"ernest pignon-ernest";1;0.25;4;9.5;1;0.25;4;9.5
"uche okpa-iroha";1;1;1;3;1;1;1;3
"arman oeuvres";1;0.33333333333333;3;4.3333333333333;1;0.33333333333333;3;4.3333333333333
"kiki picasso";1;0.03125;32;6.46875;0;0;7;7;1;1;1;7
"atelier morales";1;0.5;2;3;1;0.5;2;3
"julian opie";1;0.055555555555556;18;6.3333333333333;1;0.14285714285714;7;7;0;0;1;7
"pierrot men";1;0.2;5;19;1;0.2;5;19
"marc combas";1;0.33333333333333;3;2.6666666666667;1;1;1;2;0;0;2;3
"andré masson œuvres d'art";1;0.5;2;9;1;0.5;2;9
klasen;1;0.090909090909091;11;2.6363636363636;1;0.2;5;3;0;0;1;3
"francine van hove";1;0.25;4;7;1;0.25;4;7
"ernest pignon ernest oeuvres";1;0.052631578947368;19;6.6315789473684;1;0.071428571428571;14;6.5;0;0;3;7;0;0;2;7
"hugo laruelle";1;0.33333333333333;3;4;1;0.5;2;4
"le sacrifice tarkovsky";1;1;1;68;1;1;1;68
"vivian maier";1;0.125;8;20.125;1;0.2;5;21;0;0;3;18.666666666667
duytter;1;0.5;2;3.5;1;0.5;2;3.5
"thomas jorion";1;0.055555555555556;18;4.1666666666667;1;0.066666666666667;15;4.2;0;0;3;4
"john matos crash";1;0.5;2;4;1;0.5;2;4
"sylvie fleury oeuvres";1;0.5;2;2.5;1;0.5;2;2.5
"peter klasen oeuvres";1;0.5;2;1;1;1;1;1;0;0;1;1
durix;1;0.083333333333333;12;3.1666666666667;1;0.2;5;3.4
"lou ros";1;0.25;4;5.25;1;0.5;2;5
"denis christophel";1;0.25;4;3.25;1;0.25;4;3.25
"peinture jeanne lorioz";1;1;1;4;1;1;1;4
"artistes contemporains";1;0.028571428571429;35;8.9428571428571;1;0.03125;32;8.96875;0;0;1;8;0;0;2;9
"cecile plaisance";1;0.5;2;8.5;1;0.5;2;8.5
"toxic street art";1;0.16666666666667;6;3;1;0.25;4;3
"robert schad";1;0.5;2;5;1;1;1;5;0;0;1;5
"jonone marianne";1;0.5;2;8;1;1;1;9
"francois bard";1;1;1;1;1;1;1;1
"richard di rosa art contemporain";1;1;1;1;1;1;1;1
"césar baldaccini";1;0.041666666666667;24;4.875;1;0.058823529411765;17;4.7058823529412;0;0;7;5.2857142857143
"troy henriksen cote";1;1;1;2;1;1;1;2
seize;1;1;1;60;1;1;1;60
"dawit abebe";1;1;1;6;1;1;1;6
"pierre-marie brisson";1;0.5;2;3;1;0.5;2;3
"olivier catté";1;0.25;4;2.25;1;0.5;2;1.5;0;0;1;3
"beaufils peintre";1;0.5;2;6;1;0.5;2;6
"jean christophe ballot";1;0.2;5;8;1;0.33333333333333;3;7.3333333333333;0;0;2;9
"james mackeown";1;0.25;4;3.75;1;0.33333333333333;3;4;0;0;1;3
"keith haring oeuvre";1;0.125;8;5.75;1;0.16666666666667;6;6
"françoise danel peintre";1;1;1;2;1;1;1;2
"alain vaissiere";1;0.33333333333333;3;4;1;0.33333333333333;3;4
"julien raynaud";1;0.083333333333333;12;3.3333333333333;1;0.14285714285714;7;3;0;0;4;4;0;0;1;3
"galerie nuances et lumière lyon";1;0.25;4;3.25;1;1;1;4
"artiste dubuffet";1;0.5;2;2;1;0.5;2;2
"hako hankson";1;0.33333333333333;3;3;1;0.5;2;3
"sculpteur cesar";1;0.2;5;9.4;1;0.33333333333333;3;9;0;0;1;10;0;0;1;10
"biographie de george rousse";1;1;1;14;1;1;1;14
"olivier masmonteil";1;0.058823529411765;17;9.3529411764706;1;0.076923076923077;13;9.1538461538462;0;0;1;10;0;0;3;10
"bruno catalano prix sculptures";1;0.5;2;4;1;1;1;4
toma-l;1;0.5;2;4;1;0.5;2;4
"nils udo";1;0.0093457943925234;107;8.0934579439252;1;0.011904761904762;84;7.9761904761905;0;0;9;8.7777777777778;0;0;14;8.3571428571429
"jérôme mesnager";1;0.16666666666667;6;3.5;1;1;1;4
"jacques villeglé oeuvres";1;0.16666666666667;6;1.1666666666667;1;0.2;5;1;0;0;1;2
"bilal bahir";1;1;1;7;1;1;1;7
"tony soulie peintre";1;0.33333333333333;3;5;1;0.5;2;5
"renk artiste";1;1;1;6;1;1;1;6
levalet;1;0.055555555555556;18;7;1;0.066666666666667;15;6.8666666666667;0;0;1;11;0;0;2;6
"galerie d'art belgique";1;1;1;4;1;1;1;4
"bruno catalano prix";1;0.2;5;4;0;0;1;4;1;0.33333333333333;3;4
jmrobert;1;0.5;2;2;1;0.5;2;2
gzstore;1;0.25;4;3.5;1;0.25;4;3.5
triglia;1;0.14285714285714;7;6.1428571428571;1;0.25;4;6;0;0;3;6.3333333333333
"claire trotignon";1;0.066666666666667;15;4.2666666666667;1;0.071428571428571;14;4.2857142857143;0;0;1;4
"artsper gallery";1;1;1;1;1;1;1;1
"christy lee rogers";1;1;1;2;1;1;1;2
"gz store";1;1;1;1;1;1;1;1
"bambi artiste";1;0.14285714285714;7;1.8571428571429;1;0.25;4;1
"godon peintre";1;0.14285714285714;7;3;1;0.2;5;3
renonciat;1;0.33333333333333;3;4.6666666666667;1;0.33333333333333;3;4.6666666666667
"torrick ablack wikipedia";1;1;1;2;1;1;1;2
"ewan david eason";1;0.5;2;2;1;0.5;2;2
"bella easton";1;1;1;5;1;1;1;5
"jace gouzou prix";1;1;1;6;1;1;1;6
"arno elias";1;0.083333333333333;12;5.4166666666667;1;0.11111111111111;9;5.5555555555556;0;0;2;5;0;0;1;5
"as i opened fire";1;0.33333333333333;3;10.333333333333;1;1;1;14;0;0;1;6;0;0;1;11
"b buffet artist";1;1;1;4;1;1;1;4
"jean luc lacroix";1;0.33333333333333;3;1;1;0.33333333333333;3;1
"natalia rak";1;0.25;4;9;1;0.33333333333333;3;11;0;0;1;3
"charles fazzino";1;0.1;10;4.4;1;0.11111111111111;9;4.3333333333333;0;0;1;5
"ted nomad";1;1;1;3;1;1;1;3
"galerie d'art contemporain";1;0.25;4;5.75;1;0.25;4;5.75
"antoni muntadas";1;0.14285714285714;7;4;1;0.14285714285714;7;4
"chris morin-eitner";1;0.125;8;1.75;0;0;6;1.6666666666667;1;1;1;3;0;0;1;1
dubure;1;1;1;6;1;1;1;6
"kool koor";1;0.125;8;6.25;1;0.16666666666667;6;6
"delphine brochand";1;0.16666666666667;6;1;1;0.33333333333333;3;1;0;0;3;1
"jerome mesnager";1;0.043478260869565;23;4.1304347826087;1;0.1;10;4.9;0;0;4;4.5
"gabriel paris";1;1;1;23;1;1;1;23
"raynaud artiste";1;0.25;4;8.25;1;0.33333333333333;3;8.3333333333333;0;0;1;8
paxal;1;0.33333333333333;3;6;1;0.33333333333333;3;6
"banksy acheter";1;1;1;2;1;1;1;2
"jessica leguillon";1;0.2;5;5.2;0;0;2;5;1;0.5;2;5;0;0;1;6
"veronique masurel";1;0.5;2;2.5;0;0;1;1;1;1;1;4
"britto romero";1;0.25;4;8.5;1;0.5;2;8;0;0;2;9
"art aborigène australien";0;0;1;39;0;0;1;39
"desserle cecile";0;0;1;5;0;0;1;5
"panthere blanche";0;0;1;24;0;0;1;24
"nelson mandela peinture";0;0;1;6;0;0;1;6
"acheter un chat";0;0;3;44.333333333333;0;0;3;44.333333333333
"tof vanmarque";0;0;1;2
"sculpture à vendre";0;0;20;1;0;0;20;1
laveri;0;0;1;3;0;0;1;3
"max ernst biographie";0;0;1;29
"achat sculpture contemporaine";0;0;2;1;0;0;1;1;0;0;1;1
"eva jospin galerie";0;0;3;3;0;0;1;3;0;0;2;3
"luc dratwa";0;0;2;7.5;0;0;1;7
"keith haring";0;0;1;9
"benjamin laurent";0;0;1;12
voyeur;0;0;4;233;0;0;3;240.33333333333;0;0;1;211
"cricket fine art";0;0;2;3
chillida;0;0;1;36
"elsa guillaume";0;0;8;5.75;0;0;2;5.5;0;0;1;5
"robert bradford artiste";0;0;2;2
"bernard pras wiki";0;0;1;9
"jr artiste biographie";0;0;1;10
"oswaldo guayasamin oeuvres";0;0;1;2
"sculpture animaux";0;0;1;74
"dumont peintre";0;0;1;59
streetartgalerie;0;0;2;9;0;0;1;9
"vente d";0;0;1;22
"nani champy schott";0;0;1;10
"black stockings";0;0;1;61
"artiste deesse";0;0;1;4
henni;0;0;1;68
nasty;0;0;1;44
"tableau de keith haring";0;0;5;10;0;0;1;9;0;0;1;10
"photo suréaliste";0;0;1;10
"tableau d artiste";0;0;2;56.5
"kim de molenaer";0;0;1;17
"peinture elfe";0;0;1;45
"aboudia peintre ivoirien";0;0;1;9;0;0;1;9
"maxime boubekeur";0;0;1;28
kostadinova;0;0;2;10
"k roll";0;0;1;71
"perlin pinpin";0;0;1;36
"gérard clisson";0;0;1;4
"ses chelou";0;0;1;13
sirai;0;0;1;29
"achat art africain";0;0;1;29
"galerie d arts";0;0;1;4
"tableau technique mixte";0;0;4;22.25
"jonone oeuvre";0;0;1;1
"jean michel chesné";0;0;1;7
"galerie d'art brest";0;0;1;92
deret;0;0;1;29
"prix sculpture catalano";0;0;2;3
"crash 1";0;0;1;19
"christian bilger";0;0;1;3
"etienne cail";0;0;1;8;0;0;1;8
"fille en robe";0;0;1;40
"jean michel turpin";0;0;1;5
"chatte blonde";0;0;3;69.333333333333;0;0;3;69.333333333333
"haring oeuvres";0;0;1;7;0;0;1;7
"nathalie grall";0;0;4;6.5;0;0;4;6.5
voge;0;0;1;43
"la fascination du pire";0;0;2;24
"le violon bleu";0;0;1;21
"galerie black";0;0;1;9
"brack peintre";0;0;1;8;0;0;1;8
"cet art";0;0;1;10
"galerie du buisson";0;0;1;9;0;0;1;9
"cousinade forcalquier";0;0;4;42.25;0;0;4;42.25
"fernando costa cote";0;0;1;1;0;0;1;1
"folle du roi";0;0;1;8
"philippe hiquily";0;0;1;7;0;0;1;7
"jerry hall mick jagger";0;0;1;24;0;0;1;24
"ariele rozowy";0;0;1;2;0;0;1;2
"bert stern";0;0;2;27.5;0;0;2;27.5
"anne valérie dupond";0;0;3;10.333333333333;0;0;3;10.333333333333
"expositions galeries paris";0;0;1;37;0;0;1;37
"photographe d art";0;0;1;27;0;0;1;27
"eric de ville";0;0;3;3;0;0;3;3
"marylin monroe andy warhol";0;0;1;37;0;0;1;37
"bernard rancillac";0;0;11;9.4545454545455;0;0;9;9.3333333333333;0;0;2;10
"tanc street art";0;0;1;10;0;0;1;10
"munch cri";0;0;1;83;0;0;1;83
"jean françois lefranc";0;0;3;5;0;0;3;5
"photo surréaliste";0;0;7;9.4285714285714;0;0;5;9.6;0;0;2;9
"carreaux d'art";0;0;1;11;0;0;1;11
"nom artiste contemporain";0;0;1;3;0;0;1;3
"affiche jr";0;0;2;6;0;0;1;6;0;0;1;6
kn;0;0;1;92;0;0;1;92
"expansion cesar";0;0;3;4.3333333333333;0;0;2;3;0;0;1;7
"art asiatique";0;0;1;70;0;0;1;70
"artop gallery";0;0;1;4;0;0;1;4
"marie laure gerard becuwe";0;0;2;2;0;0;1;2;0;0;1;2
"street machine";0;0;2;51;0;0;2;51
"christine mathieu";0;0;3;9.3333333333333;0;0;2;9.5;0;0;1;9
"le tombeau vide";0;0;1;53;0;0;1;53
"galleries d'art";0;0;2;7;0;0;2;7
"peinture coccinelle";0;0;2;21.5;0;0;1;23;0;0;1;20
"carl andré";0;0;19;6.1578947368421;0;0;17;6.0588235294118;0;0;2;7
"l artiste peintre lily";0;0;1;3;0;0;1;3
"serge tchakhotine";0;0;1;119;0;0;1;119
"don mateo street art";0;0;1;60;0;0;1;60
nils-udo;0;0;5;8;0;0;5;8
"oeuvres de keith haring";0;0;4;6.5;0;0;1;8;0;0;3;6
"wilfred lang";0;0;1;3;0;0;1;3
"peinture scene";0;0;1;24;0;0;1;24
"hans christian schink";0;0;1;5;0;0;1;5
zevs;0;0;1;22;0;0;1;22
"andreas gursky";0;0;2;33;0;0;2;33
"atlas street art";0;0;1;10;0;0;1;10
"shirley jaffe";0;0;4;3;0;0;4;3
"poirier patrick";0;0;2;23.5;0;0;1;28;0;0;1;19
"rafael marquez";0;0;1;45;0;0;1;45
"jean pierre schneider";0;0;7;6.4285714285714;0;0;4;6;0;0;3;7
kacere;0;0;2;7;0;0;2;7
"richard caldicott";0;0;1;10;0;0;1;10
fautrier;0;0;2;30.5;0;0;2;30.5
kolb;0;0;1;70;0;0;1;70
"statue deesse";0;0;1;4;0;0;1;4
"achat de chat";0;0;1;18;0;0;1;18
dallanegra;0;0;3;5;0;0;2;5;0;0;1;5
"oeuvre de dali";0;0;1;54;0;0;1;54
"richard di rosa";0;0;1;3;0;0;1;3
"œuvres d'art à l'encre";0;0;1;9;0;0;1;9
"clément cogitore";0;0;3;11;0;0;3;11
cheval;0;0;1;277;0;0;1;277
"photographies d art";0;0;1;58;0;0;1;58
e-galleries;0;0;2;44.5;0;0;2;44.5
"jacque villeglé";0;0;1;5;0;0;1;5
"panthere orlinski";0;0;1;1;0;0;1;1
"di rosa herve";0;0;1;4;0;0;1;4
mulhem;0;0;1;2;0;0;1;2
"nadal art";0;0;1;5;0;0;1;5
"oeuvre braque";0;0;1;35;0;0;1;35
"ced vernay";0;0;2;5;0;0;2;5
"lucien murat";0;0;4;5.75;0;0;2;5.5;0;0;2;6
"skull jean michel basquiat";0;0;1;3;0;0;1;3
"rancinan gérard";0;0;1;5;0;0;1;5
"vera molnar";0;0;2;43.5;0;0;2;43.5
"koala photographie";0;0;11;9.8181818181818;0;0;8;9.75;0;0;2;10;0;0;1;10
"julien airault";0;0;6;2.6666666666667;0;0;6;2.6666666666667
"galerie street art";0;0;2;29;0;0;2;29
"lawrence weiner";0;0;31;9.9677419354839;0;0;26;9.8461538461538;0;0;3;10.333333333333;0;0;2;11
nouna;0;0;2;27;0;0;1;27;0;0;1;27
"tu di";0;0;1;15;0;0;1;15
"sa collection";0;0;1;7;0;0;1;7
"franck benoualid";0;0;1;4;0;0;1;4
"sculpture en ligne";0;0;1;1;0;0;1;1
"francky boy";0;0;3;8.3333333333333;0;0;2;7.5;0;0;1;10
"david tom";0;0;2;28;0;0;2;28
stripart;0;0;2;6.5;0;0;2;6.5
"apesanteur art";0;0;1;3;0;0;1;3
"bernard buffet peintre";0;0;3;7;0;0;3;7
piens;0;0;1;32;0;0;1;32
"flower puppy koons";0;0;2;6;0;0;1;6;0;0;1;6
"christophe charbonnel artiste";0;0;2;6;0;0;2;6
"envie dart";0;0;1;4;0;0;1;4
"homme endormi";0;0;1;29;0;0;1;29
rabus;0;0;4;9;0;0;3;8.6666666666667;0;0;1;10
"bastien cuenot";0;0;1;3;0;0;1;3
"sculpture oeuvre d'art";0;0;1;10;0;0;1;10
"tu tic";0;0;1;20;0;0;1;20
"gérard schlosser";0;0;18;4.3888888888889;0;0;15;4.2666666666667;0;0;1;5;0;0;2;5
"mario chichorro";0;0;1;6;0;0;1;6
"albane de st remy";0;0;2;7;0;0;2;7
"thomas canto";0;0;11;6.1818181818182;0;0;9;6.2222222222222;0;0;2;6
"coffret box";0;0;1;80;0;0;1;80
"oeuvre d'art unique";0;0;3;3.3333333333333;0;0;3;3.3333333333333
rancillac;0;0;2;32.5;0;0;2;32.5
"rosa peintre";0;0;3;9.6666666666667;0;0;2;9;0;0;1;11
"luc grateau";0;0;3;4;0;0;3;4
"jean-michel basquiat oeuvres";0;0;1;7;0;0;1;7
chevelure;0;0;1;96;0;0;1;96
"paul klimt";0;0;1;41;0;0;1;41
"peinture ange";0;0;2;56;0;0;2;56
"vente tzarina aucun";0;0;1;12;0;0;1;12
"manolo chretien";0;0;4;4;0;0;4;4
"hang achat";0;0;1;14;0;0;1;14
"patrick venet";0;0;1;119;0;0;1;119
"julien durix";0;0;24;1.7916666666667;0;0;16;1.75;0;0;8;1.875
kartonn;0;0;1;3;0;0;1;3
"peinture japonaise contemporaine";0;0;1;39
combass;0;0;3;6.6666666666667;0;0;1;8;0;0;2;6
"cédrix crespel";0;0;1;4;0;0;1;4
"erro biographie";0;0;1;8;0;0;1;8
"impression digitale";0;0;1;131
annina;0;0;1;29;0;0;1;29
"gerard schlosser";0;0;3;9.6666666666667;0;0;1;4
"oeuvres de miro";0;0;28;11.071428571429;0;0;1;1;0;0;3;1
ophelia;0;0;1;244;0;0;1;244
moriette;0;0;3;8
"malika mokadem";0;0;1;7;0;0;1;7
"this life loader";0;0;4;7;0;0;4;7
"antoine mercusot";0;0;4;7
noart;0;0;4;10.5;0;0;2;11
"achat d oeuvre d art";0;0;1;1
sinclair;0;0;1;143
"coccinelle artiste";0;0;1;55
"galerie collégiale lille";0;0;4;3.25;0;0;3;3;0;0;1;4
"vente sculpture";0;0;2;1;0;0;2;1
"sous bock";0;0;1;89;0;0;1;89
"art contemporain street art";0;0;1;8;0;0;1;8
"artiste peintre yo";0;0;4;5
"jean-pierre attal";0;0;3;6
"louis nicolas";0;0;1;17
horkan;0;0;1;9
youmin;0;0;2;8.5
"galerie du sud";0;0;1;38
obey;0;0;11;85.090909090909
"technique pop art";0;0;1;23
"remy pagart";0;0;1;3
"expansion césar";0;0;1;5
"nathalie deshairs artist";0;0;1;1;0;0;1;1
"stephane jacob";0;0;2;10.5;0;0;1;11
"murano lampe";0;0;1;58
"jimmy ruf";0;0;1;3;0;0;1;3
"suck fuck";0;0;1;19
"x kamasutra";0;0;1;61
"caroline veith";0;0;1;2
"arden quin";0;0;1;14
"jo le taxi";0;0;1;64
cmbas;0;0;1;5
"peintre animalier vaches";0;0;11;21.454545454545
"galeries art contemporain";0;0;1;8;0;0;1;8
"paris iii";0;0;1;90
"eric ceccarini";0;0;2;9
"chat samourai";0;0;1;26
"oeuvre monochrome";0;0;3;10;0;0;3;10
"vente tableau contemporain";0;0;1;2
"zenoy graffiti";0;0;3;5;0;0;3;5
"leo galamez";0;0;1;2
"alain huet";0;0;10;6.8;0;0;1;8
"willy ronis le petit parisien";0;0;1;5;0;0;1;5
"galerie homme nu";0;0;1;50
viallat;0;0;2;32.5;0;0;1;20
"art no nude";0;0;1;44
"kate barry photographe";0;0;1;36
"olivier courty";0;0;2;6.5
"annette massager";0;0;2;8;0;0;1;8
"office tourisme dinard";0;0;1;17
canata;0;0;1;10;0;0;1;10
xxxx;0;0;1;136;0;0;1;136
"oeuvres antoni tapies";0;0;1;16
"oeuvre d'art coca cola";0;0;1;9
"john one peintre";0;0;3;3;0;0;3;3
"galerie bettina";0;0;6;6.8333333333333
"spark artiste";0;0;2;7;0;0;2;7
guybert;0;0;1;9
"sculpteur de jambes";0;0;1;25;0;0;1;25
"gautier stephane";0;0;2;7;0;0;2;7
btoy;0;0;4;7;0;0;2;7;0;0;2;7
"jeu de lumieres";0;0;1;53;0;0;1;53
"oeuvre sur papier";0;0;4;5;0;0;4;5
claas;0;0;2;70.5;0;0;2;70.5
"smiley sur toile";0;0;1;54;0;0;1;54
fulcrand;0;0;3;4;0;0;3;4
"michel dubois";0;0;2;14;0;0;1;17;0;0;1;11
"michelle maurin";0;0;1;6;0;0;1;6
"troy henriksen";0;0;11;3;0;0;8;3;0;0;1;3
"galeries d'art bruxelles";0;0;3;8;0;0;3;8
"bob verschueren oeuvres";0;0;5;6.4;0;0;5;6.4
medinakids;0;0;1;7;0;0;1;7
"vente ligne sculpture africaine";0;0;1;19;0;0;1;19
"mr brainwash love is the answer";0;0;2;6;0;0;2;6
"fantastique art";0;0;1;35;0;0;1;35
"cruz diez";0;0;1;11;0;0;1;11
"jacques villéglé";0;0;1;5;0;0;1;5
"lawrence weiner art conceptuel";0;0;1;6;0;0;1;6
taki;0;0;1;42;0;0;1;42
"priska lorane";0;0;2;3;0;0;2;3
"nicolas touron";0;0;1;7;0;0;1;7
"sculptures abstraites";0;0;1;44;0;0;1;44
"julien raynaud artiste";0;0;1;3;0;0;1;3
"oeuvre d'art coeur";0;0;1;10;0;0;1;10
"street art en france";0;0;1;67;0;0;1;67
"steve hickok";0;0;1;6;0;0;1;6
"aillaud peintre";0;0;1;8;0;0;1;8
"shen jingdong";0;0;4;3.5;0;0;4;3.5
"emmanuel barcilon";0;0;2;5;0;0;2;5
guayasamin;0;0;7;8;0;0;7;8
"mr brainwash art";0;0;1;25;0;0;1;25
"jacques trovic";0;0;2;8.5;0;0;1;9;0;0;1;8
"art en entreprise";0;0;1;23;0;0;1;23
"galerie bertrand";0;0;1;10;0;0;1;10
"homère est morte";0;0;1;9;0;0;1;9
télémaque;0;0;2;35;0;0;2;35
"laforet orange";0;0;1;9;0;0;1;9
"hyber fabrice";0;0;1;6;0;0;1;6
"superman andy warhol";0;0;2;4;0;0;2;4
bremermann;0;0;1;8;0;0;1;8
"keith haring biographie";0;0;6;11.666666666667;0;0;6;11.666666666667
"artiste murakami";0;0;1;2;0;0;1;2
"james aldridge";0;0;2;6;0;0;2;6
"jean françois rauzier";0;0;4;6.25;0;0;3;6;0;0;1;7
"kowit wattanarach";0;0;1;6;0;0;1;6
"eric lapierre facebook";0;0;1;8;0;0;1;8
"galerie d'art contemporain belgique";0;0;1;3;0;0;1;3
hains;0;0;2;44;0;0;2;44
"peintre britto";0;0;1;5;0;0;1;5
"galerie brugier rigail";0;0;4;6;0;0;4;6
"anna taxi";0;0;1;4;0;0;1;4
"georges braque sculpture";0;0;1;7;0;0;1;7
"christophe dugied";0;0;1;3;0;0;1;3
"solene x";0;0;2;7;0;0;2;7
"tag banksy";0;0;6;9.1666666666667;0;0;3;9.3333333333333;0;0;3;9
"tal coat prix";0;0;2;10
"wallpapers d";0;0;1;54;0;0;1;54
"photo d'art contemporain";0;0;1;2;0;0;1;2
"speedy graphito prix";0;0;2;1;0;0;2;1
"sculpture murale";0;0;2;40.5;0;0;2;40.5
"formes et couleurs";0;0;1;89;0;0;1;89
"biographie de eduardo kac";0;0;3;6.3333333333333;0;0;3;6.3333333333333
"deesse statue";0;0;2;4;0;0;2;4
"catherine klein";0;0;1;12;0;0;1;12
bondary;0;0;1;7;0;0;1;7
"ayline olukman";0;0;1;22;0;0;1;22
"biographie de jean dubuffet";0;0;3;4;0;0;3;4
"philippe berry sculpteur";0;0;2;5;0;0;1;4;0;0;1;6
"la souris sur le gateau";0;0;11;7.6363636363636;0;0;11;7.6363636363636
"griffon bruxelois";0;0;1;44;0;0;1;44
guilleme;0;0;3;6.3333333333333;0;0;3;6.3333333333333
"lithographie miro";0;0;1;49;0;0;1;49
"planète série";0;0;15;4;0;0;14;4.0714285714286;0;0;1;3
"richard orlinski king kong";0;0;1;4;0;0;1;4
"dub art";0;0;1;7;0;0;1;7
"artiste arman";0;0;6;9.3333333333333;0;0;4;9;0;0;2;10
"galerie onega";0;0;1;5;0;0;1;5
"gwenael billaud";0;0;1;4;0;0;1;4
"kamasutra nu";0;0;1;40;0;0;1;40
braoudé;0;0;1;10;0;0;1;10
"severine boutry";0;0;2;3
"monsieur chat street art";0;0;1;6;0;0;1;6
"galerie bruno massa";0;0;2;9;0;0;2;9
"jacques pellegrin artiste peintre";0;0;2;9.5;0;0;2;9.5
"bijoux nature";0;0;2;365;0;0;2;365
"elise oudin gilles";0;0;4;3;0;0;4;3
josseau;0;0;1;2;0;0;1;2
"picasso suites ma¡laga";0;0;1;158;0;0;1;158
"leila rose";0;0;2;11;0;0;2;11
"mains tendues vers le ciel";0;0;1;4;0;0;1;4
"marchal mithouard";0;0;3;7.6666666666667;0;0;3;7.6666666666667
"photographe art contemporain";0;0;2;1;0;0;2;1
"sculpture galet";0;0;1;41;0;0;1;41
"berry philippe";0;0;1;8;0;0;1;8
"oeuvre de bansky";0;0;7;7.8571428571429;0;0;7;7.8571428571429
"sculpture totem";0;0;1;48;0;0;1;48
"oeuvres de jr";0;0;1;6;0;0;1;6
krief;0;0;1;63;0;0;1;63
"tableau miss tic";0;0;2;3
houri;0;0;1;30
tuxon;0;0;1;19;0;0;1;19
"britto love";0;0;1;10;0;0;1;10
"marylin cavin";0;0;1;7;0;0;1;7
"vente oeuvre d'art en ligne";0;0;1;1;0;0;1;1
"jean francois gambino";0;0;1;9;0;0;1;9
"andy warhol oeuvres";0;0;6;16.5;0;0;5;16;0;0;1;19
"3 cerises sur une étagère";0;0;2;2.5;0;0;2;2.5
ritter;0;0;1;224;0;0;1;224
"samuel levy";0;0;7;6.7142857142857;0;0;6;6.6666666666667;0;0;1;7
"françois bard";0;0;3;1.3333333333333;0;0;3;1.3333333333333
"petits prix";0;0;2;59.5;0;0;2;59.5
"art peinture contemporaine";0;0;3;3.3333333333333;0;0;2;3.5;0;0;1;3
"biographie christian boltanski";0;0;2;12;0;0;2;12
fazzino;0;0;11;7.8181818181818;0;0;5;7.2;0;0;5;8.4;0;0;1;8
"jasmine black";0;0;9;23.777777777778;0;0;3;31;0;0;5;20.2;0;0;1;20
"galerie olivier waltman";0;0;1;5;0;0;1;5
"pasqua philippe";0;0;6;6.3333333333333;0;0;4;6;0;0;2;7
"la valse brel";0;0;1;50;0;0;1;50
moelo;0;0;1;18;0;0;1;18
"sculpture de pomme";0;0;1;19;0;0;1;19
"otto shade";0;0;1;6;0;0;1;6
"pascale cayla art en direct";0;0;1;14;0;0;1;14
"valse à 1000 temps";0;0;1;53;0;0;1;53
"i am a man";0;0;1;43;0;0;1;43
"peinture de coq";0;0;1;32;0;0;1;32
"photo art contemporain";0;0;3;2.3333333333333;0;0;3;2.3333333333333
sandforms;0;0;1;9;0;0;1;9
"kong orlinski";0;0;2;3;0;0;1;3;0;0;1;3
"jean charles pigeau";0;0;1;4;0;0;1;4
"panthere rouge";0;0;2;9.5;0;0;1;10;0;0;1;9
"remi delaplace";0;0;2;3;0;0;2;3
"y warhol";0;0;1;35;0;0;1;35
"oeuvre de jean michel basquiat";0;0;4;8.75;0;0;4;8.75
"jean-francois rauzier";0;0;1;7;0;0;1;7
"claude leveque biographie";0;0;3;2;0;0;3;2
"benoit averly";0;0;1;10;0;0;1;10
"porcelaine bleu";0;0;1;60;0;0;1;60
"vente magnolia";0;0;1;36;0;0;1;36
"nathalie grall gravure";0;0;3;6;0;0;2;6;0;0;1;6
"laetitia x";0;0;4;20.5;0;0;4;20.5
lecourt;0;0;2;31.5;0;0;2;31.5
"la galerie b&b";0;0;1;186;0;0;1;186
"toxic artiste peintre";0;0;4;1;0;0;1;1;0;0;1;1;0;0;2;1
"envie d'art london";0;0;1;7;0;0;1;7
shuck2;0;0;2;8;0;0;2;8
"sculpture art";0;0;7;3.4285714285714;0;0;5;3.2;0;0;1;4;0;0;1;4
"oeuvres art";0;0;2;2;0;0;2;2
"françois malingrëy";0;0;3;5.3333333333333;0;0;3;5.3333333333333
"ben l'artiste français";0;0;1;4;0;0;1;4
"arts et peinture";0;0;1;47;0;0;1;47
"miguel ortiz berrocal";0;0;1;7;0;0;1;7
"st-art strasbourg";0;0;1;54;0;0;1;54
"violon arman";0;0;2;6;0;0;1;6;0;0;1;6
"olivier leroy photographe";0;0;1;5;0;0;1;5
"art des lèvres";0;0;1;31;0;0;1;31
"étienne rey";0;0;2;8.5;0;0;2;8.5
"toile cirée contemporaine";0;0;2;75;0;0;2;75
desailly;0;0;1;77;0;0;1;77
"grisor peintre";0;0;1;1;0;0;1;1
"arts photographie";0;0;1;48;0;0;1;48
"gilles aillaud oeuvres";0;0;1;5;0;0;1;5
"statue éléphant";0;0;1;73;0;0;1;73
"hotel artiste lyon";0;0;1;192;0;0;1;192
"antoine geiger";0;0;7;6.8571428571429;0;0;7;6.8571428571429
"martin boyle";0;0;1;6;0;0;1;6
zhenjun;0;0;1;10;0;0;1;10
"bouillon d'art";0;0;6;3.8333333333333;0;0;5;3.6;0;0;1;5
"biographie de banksy";0;0;13;9;0;0;11;9;0;0;1;9;0;0;1;9
"requin tigre";0;0;1;88;0;0;1;88
"jiri kolar oeuvres";0;0;1;10;0;0;1;10
"mer de nuages";0;0;1;53;0;0;1;53
"art de la rue";0;0;1;37;0;0;1;37
"raimond hains";0;0;18;9.4444444444444;0;0;18;9.4444444444444
"orlan oeuvre";0;0;4;3.25;0;0;3;3;0;0;1;4
phallus;0;0;1;309;0;0;1;309
"pascale barret";0;0;4;7.5;0;0;1;9;0;0;3;7
"9e concept";0;0;6;7.5;0;0;6;7.5
"auto portrait peinture";0;0;1;83;0;0;1;83
"étienne gros";0;0;1;5;0;0;1;5
"oeuvre d'art pas cher";0;0;5;1.8;0;0;2;2;0;0;2;1.5;0;0;1;2
"costa sculpteur";0;0;2;3.5;0;0;2;3.5
"allan mccollum";0;0;1;6;0;0;1;6
"l'homme de san carlos";0;0;1;53;0;0;1;53
kerbidi;0;0;2;8.5;0;0;2;8.5
"jeff koons";0;0;1;64;0;0;1;64
"jacques de la villeglé";0;0;3;4;0;0;2;4.5;0;0;1;3
"elodie gregoire photographe";0;0;1;6;0;0;1;6
artacat;0;0;1;2;0;0;1;2
"annette messager oeuvres";0;0;11;7.3636363636364;0;0;9;7.4444444444444;0;0;1;6;0;0;1;8
"keith haring et andy warhol";0;0;1;7;0;0;1;7
"david hemming";0;0;1;9;0;0;1;9
haguai;0;0;1;10;0;0;1;10
"lawrence wiener";0;0;1;10;0;0;1;10
"walasse ting";0;0;2;43;0;0;2;43
takala;0;0;3;4;0;0;2;3;0;0;1;6
"paris match galerie";0;0;1;10;0;0;1;10
"tatouage chinoise";0;0;1;49;0;0;1;49
"claude lévêque artiste";0;0;1;5;0;0;1;5
"art elysees";0;0;1;22;0;0;1;22
"valerie hadida";0;0;1;2;0;0;1;2
"jean paul agosti";0;0;1;10;0;0;1;10
"oeuvre d'art contemporaine";0;0;9;1;0;0;7;1;0;0;1;1;0;0;1;1
"louis pons";0;0;2;19;0;0;2;19
"charles bataille";0;0;1;13;0;0;1;13
"hank china prix";0;0;6;1;0;0;6;1
"arnaud rabier";0;0;1;14;0;0;1;14
aboudia;0;0;3;3;0;0;2;3;0;0;1;3
"panthere des neige";0;0;1;55;0;0;1;55
"biographie jeff koons";0;0;1;8;0;0;1;8
anodines;0;0;1;329;0;0;1;329
"duo 7";0;0;1;7;0;0;1;7
"les 3 garces";0;0;2;9.5;0;0;2;9.5
"prix jeunes artistes";0;0;1;48;0;0;1;48
"henri matisse cirque";0;0;1;5;0;0;1;5
"galeries nue";0;0;1;24;0;0;1;24
amorales;0;0;1;135;0;0;1;135
"art acheter";0;0;2;1;0;0;2;1
gambare;0;0;2;9;0;0;2;9
art-new-life;0;0;1;29;0;0;1;29
lussigny;0;0;3;4.6666666666667;0;0;2;4.5;0;0;1;5
"elodie gregoire";0;0;1;9;0;0;1;9
"bernar venet oeuvres";0;0;1;3;0;0;1;3
"jacques villeglé";0;0;33;5.030303030303;0;0;32;5.03125;0;0;1;5
"charlotte champion";0;0;1;3;0;0;1;3
"artiste belge contemporain";0;0;2;8.5;0;0;2;8.5
"david maheo";0;0;1;3;0;0;1;3
"l'apanage des faibles";0;0;1;7;0;0;1;7
"clément denis";0;0;3;3;0;0;2;3;0;0;1;3
bargues;0;0;1;2;0;0;1;2
"levalet artist";0;0;1;7;0;0;1;7
"galerie contemporain";0;0;2;4;0;0;2;4
"train bischwiller strasbourg";0;0;1;60;0;0;1;60
"la java bleue";0;0;1;70;0;0;1;70
"galerie art jingle";0;0;2;6;0;0;2;6
sumi;0;0;1;75;0;0;1;75
"pez artiste";0;0;1;10;0;0;1;10
"jean luc beaufils";0;0;2;6.5;0;0;2;6.5
"ange basso";0;0;1;3;0;0;1;3
"chat a acheter";0;0;2;25.5;0;0;2;25.5
"flowers d andy warhol";0;0;1;8;0;0;1;8
"galerie bruxelles art contemporain";0;0;1;5;0;0;1;5
"photographie d\'art";0;0;2;26;0;0;2;26
"vente peinture";0;0;4;27.5;0;0;4;27.5
"art photographique contemporain";0;0;1;2;0;0;1;2
"jonone peintre";0;0;1;3;0;0;1;3
"kouka artiste";0;0;3;4;0;0;3;4
"sol lewitt untitled";0;0;1;1;0;0;1;1
"victoria mann";0;0;4;6;0;0;4;6
"guy boyer";0;0;8;7.625;0;0;8;7.625
"joseph chiaramonte";0;0;3;6;0;0;3;6
scultures;0;0;3;6;0;0;1;5;0;0;1;5;0;0;1;8
"jacques damez";0;0;2;4;0;0;2;4
"grands artistes";0;0;1;32;0;0;1;32
youngboy;0;0;1;59;0;0;1;59
"sculpture éléphant";0;0;1;14;0;0;1;14
"michel dubois photographe";0;0;2;3;0;0;2;3
"olivier waltman";0;0;1;7;0;0;1;7
saudeck;0;0;1;9;0;0;1;9
"knut berlin";0;0;1;49;0;0;1;49
"nue feminin";0;0;2;36;0;0;2;36
"fabrice hyber";0;0;26;5.9230769230769;0;0;19;5.8421052631579;0;0;5;6.2;0;0;2;6
"oeuvre de henri matisse";0;0;2;60;0;0;2;60
"sumi e";0;0;2;30;0;0;2;30
"art vente";0;0;3;1;0;0;1;1;0;0;1;1;0;0;1;1
"x clash x";0;0;1;30;0;0;1;30
"galerie en ligne";0;0;11;1.2727272727273;0;0;8;1;0;0;3;2
"anne brégeaut";0;0;1;7;0;0;1;7
herbaut;0;0;2;54;0;0;1;58;0;0;1;50
moyoshi;0;0;2;4;0;0;1;4;0;0;1;4
"etienne buraud";0;0;2;2.5;0;0;1;3;0;0;1;2
"gerstein david";0;0;2;3.5;0;0;1;3;0;0;1;4
"couleur papier peint";0;0;1;80;0;0;1;80
"myriam baudin";0;0;2;3.5;0;0;1;4;0;0;1;3
"bernard pras installation";0;0;1;5;0;0;1;5
"girls nu";0;0;1;30;0;0;1;30
"adele moreau";0;0;1;5;0;0;1;5
"historique photographie";0;0;1;87;0;0;1;87
"art contemporain vente";0;0;1;1;0;0;1;1
"fragment 47";0;0;2;9;0;0;2;9
"tableau collioure";0;0;1;88;0;0;1;88
"play the";0;0;2;29;0;0;1;32;0;0;1;26
"bernard plossu";0;0;1;71;0;0;1;71
bahareh;0;0;1;11;0;0;1;11
"blue gun france";0;0;1;8;0;0;1;8
"oeuvre ionesco";0;0;1;58;0;0;1;58
"brisson pierre";0;0;2;10.5;0;0;2;10.5
"grands noms";0;0;1;43;0;0;1;43
c215;0;0;2;36;0;0;2;36
"vente d'art contemporain";0;0;1;1;0;0;1;1
"jean pierre pincemin";0;0;2;28;0;0;2;28
"bernard buffet";0;0;6;26.5;0;0;5;30.6;0;0;1;6
"olivier vincent";0;0;2;11.5;0;0;1;13;0;0;1;10
"mensing artistes";0;0;17;8.0588235294118;0;0;17;8.0588235294118
"caro light";0;0;1;38;0;0;1;38
"toutes les oeuvres de dali";0;0;1;44;0;0;1;44
"peinture tulipes";0;0;1;22;0;0;1;22
"galerie collégiale";0;0;1;3;0;0;1;3
"peinture julien";0;0;3;26;0;0;2;27;0;0;1;24
"artistes colombiens";0;0;1;6;0;0;1;6
"fetish pieds";0;0;2;63;0;0;2;63
"la notte la notte";0;0;1;25;0;0;1;25
"charlotte lelong";0;0;1;10;0;0;1;10
fourbe;0;0;1;168;0;0;1;168
"bete rouge";0;0;1;48;0;0;1;48
"doinel gallery";0;0;1;4;0;0;1;4
mulliez;0;0;1;60;0;0;1;60
arman;0;0;2;43.5;0;0;2;43.5
"guy mansuy";0;0;3;2.3333333333333;0;0;3;2.3333333333333
"yan pei ming survivants";0;0;3;8;0;0;3;8
"jonone cote";0;0;3;6.3333333333333;0;0;3;6.3333333333333
"olivier sultan";0;0;4;2;0;0;4;2
"acheter peinture biot";0;0;1;48;0;0;1;48
"l'art en ligne";0;0;6;1;0;0;6;1
"peinture dieu";0;0;1;48;0;0;1;48
"cat soubbotnik";0;0;2;7.5;0;0;2;7.5
"richard orlinski tarif";0;0;2;10;0;0;2;10
"galerie jousse";0;0;1;39;0;0;1;39
"corto maltes";0;0;1;45;0;0;1;45
"art miroir";0;0;1;29;0;0;1;29
mitrofanoff;0;0;1;15;0;0;1;15
"romera britto";0;0;1;10;0;0;1;10
"villéglé oeuvres";0;0;3;1;0;0;2;1;0;0;1;1
fuck;0;0;1;177;0;0;1;177
"peinture art africain";0;0;1;25;0;0;1;25
"philippe timmermans";0;0;1;1;0;0;1;1
"victoria klotz";0;0;1;4;0;0;1;4
"musées d'art à chattanooga";0;0;6;49.166666666667;0;0;6;49.166666666667
"antoni clavé";0;0;1;26;0;0;1;26
"liquid i";0;0;1;6;0;0;1;6
"galerie carla magna";0;0;1;42;0;0;1;42
"l'art fantastique";0;0;2;44.5;0;0;2;44.5
"sylvie guilleme";0;0;2;6;0;0;1;6;0;0;1;6
"serge labegorre";0;0;1;9;0;0;1;9
"laure krug";0;0;3;6.6666666666667;0;0;1;6;0;0;2;7
"dubuffet oeuvres";0;0;6;6;0;0;3;5.3333333333333;0;0;2;7;0;0;1;6
"brian nissen";0;0;1;8;0;0;1;8
"galerie 3 cerises sur une étagère";0;0;1;2;0;0;1;2
"gilles aillaud";0;0;3;18.666666666667;0;0;3;18.666666666667
"bertrand desprez";0;0;5;6.4;0;0;5;6.4
sober;0;0;1;63;0;0;1;63
"grand pinguoin";0;0;2;26;0;0;2;26
"parfum sculpture";0;0;1;26;0;0;1;26
alshat;0;0;1;5
"vente fence";0;0;1;16;0;0;1;16
"damien hirst oeuvres";0;0;1;6;0;0;1;6
"thierry michelet";0;0;2;9.5;0;0;2;9.5
"oeuvres basquiat";0;0;2;7.5;0;0;2;7.5
"sculpture terre cuite";0;0;1;19;0;0;1;19
"ivan messac";0;0;2;4;0;0;2;4
"anti artiste";0;0;1;1;0;0;1;1
"alexandre durand";0;0;1;10;0;0;1;10
"basquiat untitled skull";0;0;2;6;0;0;2;6
"peintre peter";0;0;1;5;0;0;1;5
"alain bonnefoit";0;0;1;16;0;0;1;16
"herve di rosa";0;0;14;4.3571428571429;0;0;11;4.1818181818182;0;0;2;5;0;0;1;5
"women are heroes";0;0;1;43;0;0;1;43
wesselman;0;0;7;8.4285714285714;0;0;5;8;0;0;2;9.5
moustafa;0;0;1;47;0;0;1;47
"les oeuvres d'art";0;0;2;7;0;0;2;7
"torrick ablack";0;0;2;5
"robert barry closed gallery";0;0;1;5;0;0;1;5
"jeanne lorioz";0;0;4;4;0;0;4;4
"de naturel";0;0;1;41;0;0;1;41
"stephanie slama";0;0;2;5.5;0;0;2;5.5
"jeff aerosol";0;0;5;5.2;0;0;5;5.2
"sculpture art contemporain";0;0;6;1.8333333333333;0;0;4;1.75;0;0;1;2;0;0;1;2
biasutti;0;0;1;279;0;0;1;279
"trudy good";0;0;2;5;0;0;2;5
"butz et fouque";0;0;7;1.4285714285714;0;0;4;1;0;0;3;2
araki;0;0;2;46;0;0;2;46
"lampe en verre de murano";0;0;2;42;0;0;2;42
"annabelle guetatra";0;0;1;8;0;0;1;8
"rouge ming";0;0;1;66;0;0;1;66
"la jolie fille";0;0;1;34;0;0;1;34
"galerie des petits carreaux";0;0;1;3;0;0;1;3
"peinture absurde";0;0;1;27;0;0;1;27
"sun hyuk kim";0;0;1;5;0;0;1;5
"montreux art gallery 2015";0;0;1;6;0;0;1;6
"deux amies";0;0;1;52;0;0;1;52
"alex katz paysage";0;0;1;7;0;0;1;7
"résistance en vente";0;0;1;50;0;0;1;50
"franck k";0;0;1;2;0;0;1;2
"galerie zimmerling & jungfleisch";0;0;2;4.5;0;0;2;4.5
"jace artiste";0;0;1;6;0;0;1;6
"gregoire leon guillemin";0;0;2;3;0;0;1;3;0;0;1;3
"geisha nu";0;0;1;36;0;0;1;36
"sandrine paumelle";0;0;1;5;0;0;1;5
"sculpture acier";0;0;2;23.5;0;0;2;23.5
"tableau de chat";0;0;1;18;0;0;1;18
"artistes cubains";0;0;6;19.166666666667;0;0;6;19.166666666667
"paul van hoeydonck";0;0;1;10;0;0;1;10
"alb galerie";0;0;1;8;0;0;1;8
"christian courrèges";0;0;1;2;0;0;1;2
"pignon ernest oeuvre";0;0;6;6;0;0;2;6;0;0;3;6;0;0;1;6
"crocodile rouge";0;0;1;28;0;0;1;28
"magic summer";0;0;1;61;0;0;1;61
"le cha noir";0;0;1;6;0;0;1;6
mrsex;0;0;4;16.5;0;0;3;16.333333333333
traffik;0;0;1;4;0;0;1;4
"jean dubuffet biographie courte";0;0;2;3.5;0;0;1;3;0;0;1;4
"bru animal";0;0;1;9;0;0;1;9
"achat art en ligne";0;0;9;1;0;0;8;1;0;0;1;1
"art jingle";0;0;2;5;0;0;1;3;0;0;1;7
"camen camen";0;0;1;10;0;0;1;10
layral;0;0;3;4.3333333333333;0;0;2;4;0;0;1;5
"galerie audet";0;0;1;7;0;0;1;7
"banksy biographie";0;0;21;9.1904761904762;0;0;16;9.125;0;0;3;9.6666666666667;0;0;2;9
"nobuyoshi araki galerie";0;0;2;6;0;0;2;6
"keith haring crack down";0;0;2;2.5;0;0;1;2;0;0;1;3
"david guiraud";0;0;3;9;0;0;3;9
"bill bate";0;0;1;8;0;0;1;8
"bossa talents";0;0;2;3;0;0;2;3
"oeuvre d'art moderne";0;0;13;1.1538461538462;0;0;6;1;0;0;5;1.4;0;0;2;1
"biographie bansky";0;0;3;7.3333333333333;0;0;3;7.3333333333333
villéglé;0;0;1;5;0;0;1;5
"intime art";0;0;2;5.5;0;0;1;5;0;0;1;6
"art et miroir";0;0;1;25;0;0;1;25
"déesse statue";0;0;2;4;0;0;2;4
"gérard alary";0;0;1;4;0;0;1;4
"aurelie nemours";0;0;2;44;0;0;2;44
"oeuvre en papier";0;0;1;5;0;0;1;5
"uwe ommer photographe";0;0;1;10;0;0;1;10
"lolita galerie";0;0;1;48;0;0;1;48
"shirly jaffe";0;0;1;3;0;0;1;3
"photo d'art en ligne";0;0;1;4
"photo d art";0;0;3;38
"portrait miroir";0;0;3;5
"danseuse peinture";0;0;2;16
"le guinio";0;0;2;4
"hotel des artistes en roma";0;0;1;184
"evelyne thoma nue";0;0;1;52
"roman klonek";0;0;8;4
abcgallery;0;0;1;4
"yan pei ming";0;0;2;32
"alechinsky oeuvre";0;0;1;28
"mont de vénus";0;0;1;45
"mark jenkins";0;0;25;9.52;0;0;7;9.4285714285714;0;0;2;10.5
"vente pignon";0;0;1;60
britto;0;0;2;140.5
"jr photographie";0;0;1;11
"levalet artiste";0;0;1;4
"philippe pasqua prix";0;0;2;2
"herve lewis photography";0;0;2;5.5
"banksy oeuvre";0;0;11;8.9090909090909;0;0;4;9.25;0;0;1;9
"xin art";0;0;1;4
"robert barry";0;0;6;3
"art et entreprise";0;0;2;8.5
"mesnager artiste";0;0;1;4
ommer;0;0;3;8.6666666666667
"peinture en noir et blanc";0;0;1;41
"superman warhol";0;0;1;6
"secret life of heroes";0;0;1;15
"deesse gaia";0;0;1;26
"mb factory chamonix";0;0;1;6;0;0;1;7
"doudou design";0;0;1;24
nowart;0;0;2;3
"galerie art moderne";0;0;3;3.6666666666667
"aquagirl occasion";0;0;1;13
michou;0;0;1;82
"faux billet banksy";0;0;3;10
"alexandra blanc nue";0;0;1;44
"tableau artiste contemporain";0;0;2;4;0;0;2;4
"ondine x";0;0;1;47
"patrick cornillet";0;0;1;3
"fille chien";0;0;1;99
"apple or";0;0;3;6.6666666666667
"live in art";0;0;1;4
"pierre cornette de saint cyr";0;0;1;16
"galerie sbk";0;0;2;4
"sam szafran oeuvres";0;0;1;10
kaws;0;0;7;65.857142857143
"tristan alexandre";0;0;2;3
"scorpion mulhouse";0;0;1;54
"x kama sutra";0;0;1;59
"jean francois rauzier";0;0;2;7
"murakami peintre";0;0;2;4;0;0;3;3.6666666666667;0;0;1;3
burqua;0;0;1;44
"blue panorama";0;0;1;48
"jana & js";0;0;1;9
"christophe barthes de ruyter";0;0;1;6
"isabelle bonzom";0;0;1;4
"""fabrice hyber""";0;0;1;8
"eric lapierre";0;0;2;6.5;0;0;2;6
"cassius clay";0;0;1;11;0;0;1;11
"œuvre médias mixtes";0;0;2;15.5
"juliette choné";0;0;1;4
"sculpture pingouin";0;0;1;34
"500 idees cadeaux";0;0;1;31
"shepard farey";0;0;1;11
sumi-e;0;0;1;39
"jacques verdier";0;0;1;29
vol%;0;0;1;3
"nemours aurelie";0;0;1;31
"johnny friedlaender";0;0;1;14
"thierry feuz";0;0;1;19
"artistes torino";0;0;1;98
"bansky oeuvres";0;0;1;7
"thomas gromas";0;0;1;6
"achat tableau artiste peintre";0;0;1;3
"jacques de villegle";0;0;1;3
nilsudo;0;0;1;7
truc-anh;0;0;1;6
"peinture animaux";0;0;2;28
"oeuvre keith haring";0;0;4;5
antonf;0;0;1;9
"fausto marci";0;0;1;7
"juliette schwartz";0;0;1;7
correia;0;0;1;53
speedygraphito;0;0;14;7
saudek;0;0;4;10.25;0;0;1;7
"justine smith";0;0;1;8;0;0;1;8
"rubens oeuvres";0;0;1;20
"jean michel basquiat oeuvre";0;0;1;8
"foire salon artisanat stage bibliographie";0;0;1;36
"art moderne sculpture";0;0;2;2
"miro oeuvres";0;0;9;11
galeries;0;0;20;7.65;0;0;7;9.5714285714286;0;0;7;8
"henry lamy";0;0;1;3
"e pignon ernest";0;0;3;6
"georges braque biographie";0;0;1;49
"galerie mecanica";0;0;2;4
"franck bernhard";0;0;1;8
"joan mitchell trees";0;0;1;4
"oeuvre ben";0;0;1;6
"nu féminin";0;0;2;43.5
"peintre milo";0;0;1;4
"ipso france";0;0;2;32
"alison wilding";0;0;2;10
eppelé;0;0;1;5
"francis apesteguy";0;0;1;1;0;0;3;4
"ikon ltd. contemporary art";0;0;1;57
"jeff koons blue dog";0;0;1;1
"petits bonhomme blanc";0;0;1;8
"alain clement artiste peintre";0;0;3;3.6666666666667
"monsieur le chat";0;0;3;5;0;0;2;7
"big blonde";0;0;1;63
"oeuvres de dubuffet";0;0;1;9;0;0;1;6
titus-carmel;0;0;1;14
"peinture tango";0;0;1;21
"lithographie andy warhol";0;0;1;15
"francois morellet";0;0;15;8.6666666666667
"john william waterhouse œuvres d'art";0;0;1;8;0;0;1;10
"le chaperon rouge 2";0;0;1;17
galilã©e;0;0;1;9
"phillipe pasqua";0;0;1;6
bailart;0;0;5;6.2
"nuits blanches saint petersbourg";0;0;1;91
"jacques ibert oeuvre";0;0;1;8
"mist art";0;0;2;8
mr.chat;0;0;1;5
"chase school of fine and applied arts";0;0;1;7
"mimo rotella";0;0;1;29
"lithographie art";0;0;1;40
"galerie d'art contemporain en ligne";0;0;3;1;0;0;1;1
"zeeland 1953";0;0;1;9
rivieras;0;0;1;167
"shirley jaffe artiste";0;0;2;2
"marilyn andy warhol";0;0;1;48
wesselmann;0;0;6;8;0;0;1;10
"dent michel";0;0;1;29
"thierry carrier";0;0;5;3.8;0;0;1;10
envoutante;0;0;1;134
"foire salon artisanat bois stage formation bibliographie";0;0;1;59
"james coignard";0;0;6;25;0;0;1;10
"cavaliere magazine";0;0;1;108
"peur art";0;0;1;1
"jerome mesnager prix";0;0;1;1
"artiste arabe nu";0;0;1;43
"banksy toile";0;0;3;10.333333333333
"miss coco";0;0;1;9
"artiste atlas";0;0;1;6;0;0;1;7
youssoufi;0;0;1;72
"jeanne susplugas";0;0;8;4.125;0;0;1;5
"jeunes artistes contemporains";0;0;1;7
"herve telemaque";0;0;10;4.6;0;0;2;5
"séquence 7";0;0;1;39
"roch vandromme";0;0;1;5;0;0;3;6
"livraison africain paris";0;0;1;88
"koons puppy";0;0;2;20
"fritz the cat";0;0;1;61
"gambino jean francois";0;0;1;9
"femme de tête";0;0;1;58
"aslan pin up";0;0;1;26
"combas peintre cote";0;0;3;3.6666666666667
"galerie claire corcia";0;0;2;6.5
"martine poppe";0;0;1;5
"jan voss";0;0;1;48
"césar expansion";0;0;4;5
simone;0;0;1;275
camen;0;0;5;7.4
"œuvres d'art";0;0;1;7
opalka;0;0;3;30.666666666667
"compression cesar";0;0;3;21.666666666667
velicovic;0;0;1;43
"jacques poli";0;0;3;10
"raul diaz";0;0;1;3
jakè;0;0;3;4
"oeuvres de andy warhol";0;0;1;28
benarosh;0;0;1;5
"peinture vente";0;0;1;27
"oeuvre de norman rockwell";0;0;1;14
"art fessee";0;0;1;49
"monica bellucci x";0;0;1;44
"dialogue nord sud";0;0;1;30
"eduardo arroyo";0;0;1;28
carbonel;0;0;1;55
"cornette de saint cyr";0;0;3;24.333333333333;0;0;1;15
"oeuvre miro";0;0;1;11
"jed voras gallery";0;0;1;7
"leila amat ortega";0;0;1;9;0;0;1;6
"art folie";0;0;1;77
"biographie nils udo";0;0;1;6
"morgan rennes";0;0;1;39
"bonhomme blanc argent";0;0;4;8.25
"art conceptuel disney";0;0;2;30.5
"banksy achat";0;0;1;2
"artiste benjamin";0;0;2;5.5
"vente photographie";0;0;1;13
"jef aérosol";0;0;8;4.125
"nobuyoshi araki";0;0;4;30.5;0;0;2;21.5;0;0;1;32
descabello;0;0;1;29
"galerie d'art internet";0;0;2;1
"philippe croq";0;0;1;3
"dessin keith haring";0;0;1;32
"laurence dreyfus";0;0;3;8;0;0;3;8.3333333333333;0;0;1;9
"anne vignal";0;0;1;4
"miss van";0;0;6;8.6666666666667;0;0;10;7.9;0;0;1;10
"galerie art france";0;0;1;27
"street girl";0;0;1;64
"deesse artiste";0;0;2;5;0;0;1;6
"my an";0;0;2;7.5
"galerie art contemporain paris";0;0;1;67
"jacques benaroch";0;0;2;2
souillard;0;0;1;52
"galerie roy sfeir";0;0;3;3.6666666666667;0;0;1;4
"site galerie d'art";0;0;1;1
"chez rosa amiens";0;0;1;50
"artistes togolais";0;0;1;22
"schott allemagne";0;0;1;37
"peinture grenouille";0;0;1;26
"duster art";0;0;1;2
"torse sculpture";0;0;1;30
colombo;0;0;1;266
"michael aaron williams art";0;0;1;3
"le belhomme";0;0;1;4
"orlinski crocodile";0;0;1;7;0;0;1;7
"vente buste";0;0;1;41
"raphael denis";0;0;5;5.6;0;0;1;6;0;0;1;4
"motif art";0;0;1;19
"galerie d artiste";0;0;1;6
"takashi murakami biographie";0;0;1;3
"benjamin carbonne peintre";0;0;2;2
"petit rouge";0;0;2;37.5
"bagage homme blanc";0;0;1;33
"femme et chien";0;0;2;45.5
"claude mollard photographe";0;0;2;2
bansky;0;0;3;22
"francois cellier";0;0;2;10
"tableau ray charles";0;0;1;5
"imagerie médicale marcq en baroeul";0;0;1;73
"françois benoit";0;0;1;17
"basquiat oeuvre";0;0;1;12
merienne;0;0;2;8.5
"achat sculpture";0;0;4;1;0;0;1;1;0;0;1;1
"caroline poulet";0;0;3;4
"oeuvres d";0;0;1;4
"fuck a wall";0;0;1;10
"jeans dubuffet";0;0;1;36
"david gerstein wikipedia";0;0;1;5
brusadelli;0;0;3;9;0;0;1;10
"jean helion";0;0;7;5.4285714285714;0;0;1;5
"venet sculpteur";0;0;1;9
milkywood;0;0;1;7
"liu bolin oeuvre";0;0;2;3.5;0;0;1;4
"stephane gautier";0;0;1;7;0;0;1;4
"kate barry";0;0;1;34
"artefact art";0;0;1;9
assalit;0;0;5;6.2
hako;0;0;1;28
"catalano sculpteur prix";0;0;1;2
"arman artiste";0;0;1;10;0;0;1;10
"ben vautier acheter";0;0;1;3
"laurence weiner";0;0;1;11
"grand pingouin";0;0;1;26
lebenson;0;0;1;10
"photographie jr";0;0;1;11
"pierre et gilles biographie";0;0;1;6
cedrix;0;0;1;7
"jr oeuvre";0;0;1;5
"levrette art";0;0;1;9
"oeuvres jr";0;0;1;5
"anne brunet";0;0;1;8;0;0;2;7
"biographie de ben";0;0;1;4
enviedart;0;0;2;3.5
"geraldine morin";0;0;1;11
"takashi murakami oeuvres";0;0;1;3
"galerie perahia";0;0;1;4
"mathieu mercier";0;0;2;7.5;0;0;1;9
"ben artiste";0;0;1;9
"william holman gallery";0;0;1;6
"kathleen petyarre";0;0;2;5
"jacques villegle";0;0;3;4.6666666666667
"jerome lagarrigue";0;0;5;4
fubiz;0;0;1;13
"di rosa sete";0;0;1;4
"séverine bernard";0;0;2;10
danze;0;0;1;11
"manuel cohen";0;0;1;6
erro;0;0;1;10;0;0;1;9
"tom wesselmann";0;0;8;6.375;0;0;2;8
dtone;0;0;3;6.3333333333333
"sui jianguo";0;0;2;9
"nuances et lumiere";0;0;1;3
"atlas artiste";0;0;2;6.5
"sculpture orlinski";0;0;1;4
"site art contemporain";0;0;1;2
"tapis boccara";0;0;1;7
"annette messager oeuvre";0;0;1;8;0;0;3;8
"maxime frairot";0;0;1;4;0;0;2;4
"jean denis walter";0;0;2;8
"herve lewis photographe";0;0;1;8
"le diamantaire artiste";0;0;3;7.3333333333333
johnone;0;0;1;6
"solene ballesta";0;0;1;4
"oeuvre de jean dubuffet";0;0;1;6;0;0;1;8
"peinture clair de lune";0;0;1;10
"carl andre";0;0;2;7
"laurent allory";0;0;1;4
"photographie d'art contemporain";0;0;3;2;0;0;1;2
"gaelle villedary";0;0;1;3
"henri lamy";0;0;1;3
"m chat";0;0;4;9;0;0;3;8.6666666666667
"puzzle mickey";0;0;1;27
"francois giraudeau";0;0;1;10
"benjamin spark";0;0;1;9
tieri;0;0;1;11
"thierry dussac";0;0;2;5
"jean marc dallanegra";0;0;1;5
"faune et nymphe";0;0;1;8
"tony soulié";0;0;1;4;0;0;1;3
"sculpture crane papillon";0;0;1;2
"francis latreille";0;0;1;7
muckensturm;0;0;1;10
"galerie schwab beaubourg";0;0;1;8
"artiste mist";0;0;1;5
"dubuffet oeuvre";0;0;1;8
"mel ramos sculpture";0;0;1;4
vilegle;0;0;1;5
"kamel yahiaoui";0;0;1;7
"andy warhol superman";0;0;1;5
"street art miss tic";0;0;2;6
"guillaume collignon";0;0;1;8
mackeown;0;0;1;5;0;0;1;5
"vente d'oeuvre d'art";0;0;1;1
mygalo;0;0;2;3
"artiste costa";0;0;1;5
"photographie art";0;0;1;25
"alexandre mulliez";0;0;1;1;0;0;1;1
"coq multicolore";0;0;1;6
"helder batista";0;0;2;8
"photomontage art contemporain";0;0;1;3
"balloon dog prix";0;0;1;9
"takala photo";0;0;1;1
"justyna adamczyk";0;0;1;4
"romero britto oeuvre";0;0;1;6
graphito;0;0;1;13
damez;0;0;2;8
"miss tic street art";0;0;3;6
"pascal jacquot";0;0;1;11
"philippe buil";0;0;1;2
"basquiat oeuvres";0;0;1;8;0;0;1;7
"artsper societe";0;0;1;2
"micky clement";0;0;1;18
"romain lardanchet";0;0;4;8
"jean pierre attal";0;0;1;6
"pignon ernest";0;0;1;11
"ahn sun mi";0;0;6;6
"cesar le sculpteur";0;0;2;10
"robert sgarra";0;0;2;2.5
"gaelle jourdan";0;0;1;3
"dude company";0;0;1;9
"miss tick";0;0;1;16
"claude charlier";0;0;1;8
"quentin carnaille";0;0;2;11
"sears cobleskill ny";0;0;1;59
"xavier blondeau";0;0;4;5
"art en ligne";0;0;2;1;0;0;2;1.5
scholtes;0;0;1;27
"le turk";0;0;2;10
"escalier oeuvre d'art";0;0;1;1
floch;0;0;1;25
"couture peintre";0;0;1;8
"ernest pignon ernest biographie";0;0;2;7
"odile decq";0;0;1;26
"cap ton";0;0;1;3
"hervé di rosa";0;0;11;5.0909090909091;0;0;1;5
"mel ramos";0;0;3;4.3333333333333
"eliane larus";0;0;1;8
"coco fes";0;0;1;4
"alain godon reproduction";0;0;2;4
"taki 183";0;0;1;7
"galerie w paris";0;0;1;6
orlan;0;0;2;10
"christine muller peintre";0;0;1;5
e-gallery;0;0;1;10
"leopold rabus";0;0;2;6;0;0;3;5.3333333333333
"skull basquiat";0;0;1;3
"leslie meme";0;0;23;9.695652173913;0;0;1;10
kooj;0;0;1;12
"love oeuvre d'art";0;0;2;8;0;0;1;6
"oeuvre de jr";0;0;1;6
"oeuvre d'art en ligne";0;0;1;1;0;0;3;1
"combas peintre";0;0;6;5.3333333333333;0;0;1;6
"orland artiste";0;0;1;11
krm;0;0;7;2.8571428571429
"ramzi adek";0;0;1;5
"ralph gibson";0;0;2;11
"christoff debusschere";0;0;1;9
"frederic prat";0;0;1;10
"marre des études";0;0;1;133
"dani olivier";0;0;1;9
"pascaline marre";0;0;1;8
"oksana x";0;0;2;13.5
"oeuvre d'art sur l'amour";0;0;1;3
"pignon ernest pignon";0;0;1;6
kokekoko;0;0;1;5
"arbre robuste";0;0;1;10
"fondation colas";0;0;1;80
"sculpture monumentale";0;0;1;3
"your love is my";0;0;1;25
"antonio segui";0;0;3;10
"guillaume guerin biographie";0;0;1;7;0;0;1;7
"male nude";0;0;1;25
combasse;0;0;1;6
"prix des sculptures de bruno catalano";0;0;1;6
labegorre;0;0;1;8
"galerie martine ehmer";0;0;4;5.25
"peinture martin luther king";0;0;2;5
"peter blake artiste";0;0;1;4
"nu feminin";0;0;1;24
"marc josse";0;0;2;10.5
sculptures;0;0;5;6.2;0;0;2;7
"cesar baldaccini";0;0;1;5
"leo caillard";0;0;2;10
"prix tableau bernard buffet";0;0;1;15
"johanna heeg";0;0;1;1
streichenberger;0;0;1;7
"marc felten";0;0;1;11
"corinne dalle";0;0;2;6
"olivier ribardiere";0;0;1;4
"joel hubaut";0;0;1;5;0;0;1;6
"emma vidal";0;0;1;22
torrick;0;0;1;2
demsky;0;0;1;10
"yang yongliang";0;0;1;6;0;0;1;6
myfinbec;0;0;1;8
"jean fautrier";0;0;1;20
"labégorre peintre";0;0;1;8
suculture;0;0;1;6
"hervé télémaque";0;0;3;5
"eduardo kac";0;0;3;11
"pierre marie brisson";0;0;1;4;0;0;2;3
jiji;0;0;2;24
"thomas jorion photographe";0;0;2;5
matryochka;0;0;1;4
"galerie schwab";0;0;2;4
"open art galerie";0;0;1;4
"gordon hopkins";0;0;2;3
"di rosa sculpteur";0;0;1;5
"rob van hoek";0;0;1;5
"mélanie peduzzi";0;0;1;6
"eduardo chillida";0;0;4;11
"shaka art";0;0;1;6
"franck mercky";0;0;2;3
"robert longo";0;0;1;21
"adela burdujanu";0;0;1;5
"tanc artiste";0;0;1;4
"ben heine oeuvres";0;0;1;5;0;0;1;5
"sandro giordano";0;0;7;6
"jace graffeur";0;0;1;10
"galerie d'arts contemporains";0;0;1;4
"balloon dog koons";0;0;1;15
"scholtes france";0;0;1;25
"david oeuvres";0;0;1;8
"massimo vitali";0;0;2;7
"déesse sculpture";0;0;1;3
"oeuvre art";0;0;1;3;0;0;1;3
"oeuvre de eduardo kac";0;0;1;10
"thierry gueta";0;0;1;10
"combas artiste peintre";0;0;1;4
"umbrella girl";0;0;1;24
"argentic galerie";0;0;1;6
jonwon;0;0;1;4
"banksy oeuvres";0;0;26;8.2307692307692;0;0;9;8.8888888888889
"artiste petit bonhomme";0;0;1;7
"oeuvre d'art contemporain";0;0;1;1
"biographie jr";0;0;1;6
"tilt toulouse";0;0;1;9
"philippe charpentier";0;0;1;1;0;0;1;2
"peter klasen";0;0;28;4
"ou est ma part";0;0;2;7.5
"eric michel artiste";0;0;1;5
"richard olinski";0;0;2;7
aerosol;0;0;2;15
"virginie soubeiroux";0;0;2;1
"pierre fava";0;0;2;4;0;0;1;3
"photographie art contemporain";0;0;1;2
goet;0;0;1;10
"hiro ando";0;0;2;2
"photographe surréaliste";0;0;2;10
"achat art contemporain";0;0;1;1
"carlos cruz";0;0;1;11
"pop is not dead";0;0;1;3
"olivier delobel";0;0;1;5
"ann grim";0;0;2;6.5
"galerie leadouze";0;0;2;4
"oeuvres banksy";0;0;2;8;0;0;1;8
picasso;0;0;1;7
"thierry guetta";0;0;2;17
"julien durix prix";0;0;1;1
"david gerstein";0;0;6;3;0;0;1;4
"oeuvre banksy";0;0;5;9
"marilyn bon saban";0;0;1;9
"marie drouet";0;0;2;10
"fernando garcia";0;0;5;11.2
"philippe croix";0;0;1;7
"simon procter";0;0;1;9
"ren hang";0;0;1;10
"césar baldaccini oeuvre";0;0;3;4
"jean michel voge photographe";0;0;1;6
"galerie urbaine";0;0;1;5;0;0;1;5
"louis blanc photographie";0;0;2;7;0;0;1;7
"cecile desserle";0;0;4;5;0;0;1;5
"sculpture gorille";0;0;3;8.3333333333333
"robert longo oeuvres";0;0;1;8
"la chapelle artiste";0;0;2;6
"jacque renoir";0;0;3;8
"galerie hus";0;0;9;10.666666666667
"eric bourguignon";0;0;1;8
"galerie w";0;0;6;4;0;0;1;4
"michel delamarre";0;0;1;4;0;0;3;9.3333333333333
"art oeuvre";0;0;1;3
"orlinski panthere";0;0;2;4
"césar baldaccini compression";0;0;2;9
"kenneth noland oeuvres";0;0;1;8
"noe two";0;0;1;10;0;0;1;10
"m. chat";0;0;1;8
lokiss;0;0;1;9
"francois malingrey";0;0;1;5
orlinski;0;0;12;7;0;0;3;7
"anette messager";0;0;1;9
"pop zelda";0;0;1;10
"compression art";0;0;4;6
"germain plouvier";0;0;1;4
misstic;0;0;20;7.35;0;0;4;7
"vitali massimo";0;0;1;11
ferreira;0;0;4;11.75
"guernica grand format";0;0;1;8
"art x";0;0;1;29
"sculpture panda";0;0;1;5
"tony soulié prix";0;0;2;3;0;0;3;3
petrovitch;0;0;1;10
"sandy skoglund";0;0;14;8.7857142857143;0;0;2;10
"shepard obey";0;0;1;9
kintgen;0;0;1;5
"sculpture déesse";0;0;1;6;0;0;1;6
"di rosa prix";0;0;1;4
"jaffe shirley";0;0;1;5
"hedva ser";0;0;2;6.5
quik;0;0;85;2.1882352941176;0;0;9;4.2222222222222
"mahjoub ben bella prix";0;0;2;2.5
catte;0;0;10;3;0;0;3;3
"hanna sidorowicz";0;0;1;7
"hermann nitsch";0;0;3;7
mchat;0;0;2;11
"photographer david lachapelle";0;0;1;6
"thomas muller";0;0;1;24
"photos d'art contemporain";0;0;3;3
"shepard fairey";0;0;3;11.333333333333
"dubuffet peinture";0;0;2;6
"clement denis";0;0;1;9
"nurcan giz";0;0;1;5
"le printemps botticelli";0;0;1;29
sculptute;0;0;1;4
"sculpture panthere";0;0;1;7
"miss tic paris";0;0;1;9
"eomero brito";0;0;1;7
"mc lane";0;0;1;10
"dominique clerc";0;0;2;9;0;0;1;9
"murakami oeuvres";0;0;1;6
baillon;0;0;2;58
"takashi murakami pop art";0;0;1;7
"alain clement";0;0;1;6
"raymond moretti";0;0;1;11
"foot fetish";0;0;1;10;0;0;2;10
breleur;0;0;1;5
"jean michel vador";0;0;3;1;0;0;1;1
"herb ritts";0;0;1;20
"moya artiste";0;0;1;7
ahavana;0;0;1;9
"jacques lacroix";0;0;1;9;0;0;1;8
"jean pierre schneider peintre";0;0;1;8
"combas peintre prix";0;0;1;6
"allegro fortissimo";0;0;1;17
bouro;0;0;5;5.8
villegle;0;0;1;4
"paysage fantastique";0;0;1;29
"bernard quentin";0;0;1;10
"fanny ferry";0;0;2;5;0;0;1;9
"buffet artiste peintre";0;0;1;6
"galerie corcia";0;0;1;8
"funny art";0;0;1;8
"tom wasselman";0;0;1;7
"elisabeth taylor";0;0;1;29
"hermann amann";0;0;1;7
"valerie marty";0;0;1;8
"affiche basquiat";0;0;1;18
"biographie de christian boltanski";0;0;1;10;0;0;1;10
"fred calmets";0;0;1;4;0;0;1;4
"photos art moderne";0;0;1;2
"green wood gallery";0;0;1;10
"charles guyot";0;0;3;1
"richeux vincent";0;0;1;4
"hamish fulton land art";0;0;2;8
"john caroll";0;0;1;6;0;0;1;10
"francis martel";0;0;1;10
"david lachapelle";0;0;1;13
"royal college of art prix";0;0;1;20
"marie pascale engelmann";0;0;2;4
"laure andré";0;0;2;7
"stephane ducatteau";0;0;1;7
"oeuvre de miro";0;0;2;1
"mesnager jerome";0;0;1;4
"oeuvre de banksy";0;0;7;8.7142857142857;0;0;4;9
"king of freedom";0;0;2;10
"galerie grand rue poitiers";0;0;1;8
"franck muracciole";0;0;1;6
"david mesguich";0;0;2;7;0;0;1;8
"art contemporain pas cher";0;0;1;4
"francois mendras";0;0;1;8
"capton peintre";0;0;1;6
hyber;0;0;3;7.3333333333333
"chris morin";0;0;4;3
"dani oliver";0;0;1;10
"yann houry";0;0;1;183
glineur;0;0;1;4
"judith guion";0;0;1;4
"chudamani clowes";0;0;1;4
"artiste romain";0;0;1;9
"toma l";0;0;1;5
"lgr 150 paris";0;0;1;7
"concert keith jarrett";0;0;1;3
"topolino artiste";0;0;1;1
"jerome revon";0;0;15;10.933333333333
"les oeuvres de keith haring";0;0;1;7
"raymond hains";0;0;3;8.6666666666667
"artistes egyptiens";0;0;2;10
lisman;0;0;1;4
"speedy graphito cote prix";0;0;1;6
"keith haring lucky strike";0;0;1;2
"gérard rancinan";0;0;4;7
"aki kuroda";0;0;1;5;0;0;1;5
"cesar oeuvre";0;0;1;6
"for the love of god";0;0;1;23
"elie melloul biographie";0;0;1;23
"mb factory";0;0;1;10
"laurent bouro";0;0;1;3
"jean philippe berger";0;0;1;7
polic;0;0;3;10.666666666667
"francoise nielly technique";0;0;1;21
"thierry guetta artiste";0;0;1;3
"henri de quatrebarbes";0;0;1;7
"priscilla moore";0;0;1;9
"galerie d'art en ligne";0;0;1;1;0;0;5;1
"galeries d'art";0;0;2;5.5
"claude leveque";0;0;5;9.6;0;0;1;11
"buffet peintre";0;0;3;8.6666666666667;0;0;1;11
"richard orlinski";0;0;26;7.3076923076923;0;0;1;7
"galerie nuances et lumieres";0;0;1;4
dan23;0;0;2;6.5;0;0;1;8
"annina roescheisen";0;0;1;6
sun7;0;0;3;10
"dire 132";0;0;1;6
"jef aerosol vente";0;0;2;1
fkdl;0;0;4;6.5
"tableau jeune artiste";0;0;1;9
"bernard chauveau";0;0;4;6.5;0;0;1;6
"artiste cesar";0;0;2;11
"boccara design";0;0;1;5
"oeuvre mixte";0;0;1;9
"e galeries";0;0;1;9
"colorfield gallery";0;0;1;8
aizee;0;0;1;6
"galerie duret paris";0;0;1;4;0;0;1;4
"roger schall paris";0;0;1;1
"jean pierre tissier";0;0;2;3.5
"erro artiste";0;0;1;5;0;0;1;5
"roberto greco";0;0;3;7;0;0;1;9
"aaron artiste";0;0;1;2
scluptures;0;0;2;6
"arroyo eduardo";0;0;2;8.5
"baptiste dumont";0;0;1;6
"john kacere";0;0;1;9
"vente oeuvre d'art";0;0;1;1
"galerie bouillon d'art";0;0;1;5
"oeuvre d'art noir et blanc";0;0;1;7
"sculpture dubuffet";0;0;1;10
"portrait oeuvre d'art";0;0;1;8
"jacqueline kennedy";0;0;1;7
"wild kong";0;0;1;2
"alain buyse";0;0;2;10.5
"sculpture rouge";0;0;2;6
"galerie brugier";0;0;2;6;0;0;1;6
"richard orlinski panthere prix";0;0;2;5.5;0;0;1;7
"tilt graffeur";0;0;1;6
"li wei";0;0;2;5
"peinture pop";0;0;1;9
"les artistes indiens";0;0;1;10
"herve lewis";0;0;12;5;0;0;2;5
"véronique bourgeois";0;0;1;8
"paysage couple";0;0;1;7
"ernest pignon ernest portrait";0;0;1;8
stoul;0;0;3;5.3333333333333;0;0;1;8
"la chapelle photographe";0;0;1;8
"nicolas laugero";0;0;1;11
"chanoir graffiti";0;0;2;3
"philippe vasseur";0;0;1;19
"brigitte perrier";0;0;1;7
"oeuvres d'arts";0;0;1;7
"philippe berry";0;0;52;6.6538461538462;0;0;16;6.5
"jerry zeniuk";0;0;1;10
"de carpentier";0;0;1;7
"toile jonone";0;0;1;1
"césar artiste";0;0;1;6
"sculpture gorille rouge";0;0;4;6
"michel le belhomme";0;0;3;4.6666666666667
"akiza la galerie";0;0;1;9
"25 rue jean jacques rousseau";0;0;1;11
"miguel chevalier";0;0;4;9.25
benaroch;0;0;3;10.333333333333
"jim kazanjian";0;0;1;6
"patrick poirier";0;0;1;6
"aurelie bauer";0;0;1;9
"chat street art";0;0;1;4
"feng hatat";0;0;1;5
"jérome revon";0;0;1;11
mapplethorpe;0;0;2;11
"peinture dark vador";0;0;1;4;0;0;1;4
"karl lagasse";0;0;1;4;0;0;2;4
"sylvie le page";0;0;1;11
"jean georges inca";0;0;1;1
"peintre buffet";0;0;2;8
"xavier veilhan";0;0;1;18
"cynthia nu";0;0;2;10
"planete serie";0;0;6;7.8333333333333
artop;0;0;1;9;0;0;2;5
"cyprien clement delmas";0;0;1;5
"cesar artiste";0;0;3;7
"jana et js";0;0;1;8
"alva bernadine wikipedia";0;0;1;10
"richard orlinski prix panthere";0;0;1;8
allory;0;0;1;1
"mr brainwash";0;0;1;25
"guillaume piechaud";0;0;1;3
"panthère rouge";0;0;1;10
"peter blake";0;0;1;23
"vente art en ligne";0;0;2;1;0;0;2;1
apesteguy;0;0;2;7
"oeuvre en noir et blanc";0;0;1;6
"fussli cauchemar";0;0;1;1
"bruly bouabré";0;0;1;20
"nils udo biographie";0;0;1;5
"ernest pignon";0;0;7;10.714285714286
"richard orlinsky";0;0;2;7
"christophe goutal";0;0;2;3
"sebastien mehal";0;0;1;8
"tableau jean dubuffet";0;0;1;8
"bernard venet";0;0;3;8
"debusschere peinture";0;0;1;9
"couple dans la mer";0;0;1;20
destarac;0;0;1;1
"galerie sylvie lepage";0;0;3;8
"galerie artiane";0;0;1;4
"caroline maurel";0;0;1;4
"maxime frairot peintre";0;0;1;4
"sgarra robert";0;0;1;2;0;0;1;1
"peinture monochrome";0;0;1;10
"david lachapelle photos";0;0;1;8
miistic;0;0;1;6
"john perello";0;0;1;4
"oeuvre de ernest pignon ernest";0;0;2;7
"lourdes da silva";0;0;2;9
"philippe jarrigeon";0;0;1;14
"truc anh";0;0;1;7
"ballon dog";0;0;3;11
"couple paysage";0;0;1;8
"le diamantaire";0;0;12;9.4166666666667;0;0;2;10
"oeuvres de banksy";0;0;6;8.3333333333333
"françois grimaldi";0;0;4;10;0;0;1;12
susplugas;0;0;2;5
"helene de saint lager";0;0;1;11
artyou;0;0;1;8
"gregory watin";0;0;1;3
cappoci;0;0;2;5
"yaacov agam";0;0;1;16
"oeuvre monumentale";0;0;3;6
risote;0;0;1;7
"galerie dorval lille";0;0;4;8
"andy warhol marilyn";0;0;1;24
"triptyque skate";0;0;1;6
"greenwood gallery paris";0;0;1;6
"costa fernando";0;0;1;7
"girl with ball lichtenstein";0;0;1;10;0;0;1;10
"tony frank";0;0;3;8.6666666666667
"macadam gallery";0;0;2;6
"cesar santos";0;0;3;7.6666666666667
"tiphaine popesco";0;0;1;2
"keith haring oeuvres";0;0;9;6.1111111111111;0;0;3;6.3333333333333
"hom nguyen";0;0;3;9
"wesselmann oeuvres";0;0;1;5
rakel;0;0;1;10
"david lachapelle photographer";0;0;1;10
francton;0;0;1;8
"peinture clint";0;0;2;9
"anne patrick poirier";0;0;3;9.6666666666667
"petit bonhomme en noir et blanc";0;0;1;10
"césar baldaccini oeuvres";0;0;1;4
"opalka biographie";0;0;4;9;0;0;2;9.5
"orlinda lavergne";0;0;2;4.5
"achat art contemporain en ligne";0;0;2;1;0;0;1;1
"sculpture panthere noire";0;0;1;6
"philippe huart";0;0;1;2
"banksy tag";0;0;1;9
"art toy story";0;0;1;9
"anthony knapik-bridenne";0;0;1;5
dauptain;0;0;1;4
"jean michel basquiat in italian";0;0;1;9;0;0;2;9
"mr chat graffiti";0;0;1;10
poes;0;0;2;4.5
"vincent richeux peintre";0;0;2;2
"photo surealiste";0;0;1;9
"god dog";0;0;4;5.75
buil;0;0;1;11
"marie pierre fontaine";0;0;1;3
"nicolas tourte";0;0;1;10;0;0;1;10
"yves azeroual wikipedia";0;0;1;48
"pauline dufour";0;0;1;7;0;0;1;6
"pierre pignon";0;0;1;3
"galerie alb";0;0;1;11
"sylvie guyomard";0;0;1;4
"peinture batman";0;0;1;11
"marie laure gerard";0;0;1;5
"galerie collin";0;0;2;4;0;0;1;6
chamizo;0;0;5;8
"sculptures monumentales";0;0;1;8;0;0;1;9
"galerie gilbert dufois";0;0;1;4
"rené botti";0;0;1;4
"monsieur chat";0;0;7;8;0;0;3;7
"gregos artiste";0;0;1;3
"galerie envie d'art";0;0;1;3
"le chat";0;0;1;7
rancinan;0;0;3;6;0;0;1;7
"sculpteur césar";0;0;3;10.333333333333
"jm robert prix";0;0;1;1
"galerie ariel sibony";0;0;1;8
ioye;0;0;1;4
"fabrizio corneli";0;0;4;3
"edition flowers";0;0;1;20
"albane de saint remy";0;0;1;6
"bezt etam cru";0;0;1;10
"valérie hadida sculpture";0;0;1;2
"hans withoos";0;0;1;6
"mark demsteader";0;0;2;7.5
oeuvres;0;0;3;12
"olivia clavel";0;0;2;5;0;0;2;5
"sun mi ahn";0;0;3;6
"carole benichou";0;0;1;11
"under construction gallery";0;0;2;5;0;0;2;7
"françoise pétrovitch";0;0;1;9
"benjamin artiste";0;0;5;7
"sculpture d'art";0;0;2;2
flipo;0;0;6;6
"galerie loft";0;0;1;6
"oeuvre d art contemporain";0;0;1;1
"cadeaux rigolos";0;0;1;23
"oeuvre arts";0;0;1;6
"atila biro";0;0;1;5
"peintre dubuffet";0;0;3;5.3333333333333
"didier avril";0;0;1;6
"wang yan cheng";0;0;3;7.3333333333333;0;0;2;9
"joe colombo";0;0;1;23
"loan nguyen";0;0;2;10
"oeuvre de berg ou de gainsbourg";0;0;1;10;0;0;4;9.75
"ben artiste nice";0;0;3;6.3333333333333
"hervé telemaque peintre";0;0;1;5
"bear galerie";0;0;3;5
"agnes baillon";0;0;1;4
jadikan;0;0;1;5
"france bruno catalano";0;0;1;9
"julien calot";0;0;1;2
"charlelie couture gallery new york";0;0;1;5
"thomas bossard";0;0;6;3.3333333333333
"roy lichtenstein biographie";0;0;1;11
"galerie charlot";0;0;1;5
"panthere sculpture";0;0;1;5;0;0;2;8.5
missitic;0;0;2;6
"easy sacha";0;0;2;10
"luke newton";0;0;1;7;0;0;1;7
"patrick gonzales";0;0;1;10
"sourire requin";0;0;1;10
verschaere;0;0;1;3
"armand scholtes";0;0;1;3
"di rosa";0;0;8;4
sculture;0;0;9;5.8888888888889;0;0;4;7
"valérie marty";0;0;1;9;0;0;1;10
"pierre tal coat";0;0;2;10
kouka;0;0;4;9.75;0;0;1;7
miss.tic;0;0;3;6.6666666666667;0;0;1;6
"peter mc";0;0;1;3
"jonas sunset";0;0;1;3
"oeuvre de keith haring";0;0;2;6
"clement denis peintre";0;0;1;1
"oksana france";0;0;1;10
"robert combas biographie";0;0;1;4
"philippe binder";0;0;1;10
"ernest pignon ernest hiroshima";0;0;1;6
"jonone prix toile";0;0;1;1
senz;0;0;1;18
sfeir;0;0;1;1
"galerie carole kvasnevski";0;0;1;6
koor;0;0;2;9.5;0;0;1;10
"oeuvre d'art noel";0;0;1;6
"peter hoffer";0;0;1;7
"blek le rat";0;0;1;16
helsen;0;0;1;11
"orlinski prix";0;0;1;6
"wesselmann tom";0;0;1;5
"angelique boudet";0;0;1;6
"audoin desforges";0;0;1;6
"cyril paglino";0;0;1;26
catelain;0;0;1;6
"tilt graffiti";0;0;3;7;0;0;2;8
"christian boltanski art";0;0;1;9
tierri;0;0;1;7
"dan 23";0;0;2;8;0;0;1;8
"sculpture bronze contemporain";0;0;1;48
bodnariu;0;0;4;5
"jerome mesnager street art";0;0;1;3
"marie oger";0;0;1;10
"louis nicolas darbon";0;0;1;5
leyto;0;0;1;6
"alain clément";0;0;1;4
hiro;0;0;1;14
"boom art";0;0;2;6;0;0;1;6
"mesnager peintre";0;0;2;2
"kiss the wookie";0;0;2;5
"arnaud paillard";0;0;1;5
"sarah schmidt";0;0;1;10
"fabienne claesen";0;0;1;8
"pascale cayla";0;0;2;9
"soly cissé";0;0;2;10
"jeff koons puppy flower";0;0;1;6
"peinture nelson mandela";0;0;3;7
"mr sex";0;0;2;19.5
"roberto matta";0;0;1;153
"lucien murat artiste";0;0;2;4
"cesar baldaccini sculptures";0;0;1;5
"amaury mulliez";0;0;1;10
"vente de tableaux contemporains";0;0;1;3
"jo di bona";0;0;1;16
"illy jeff koons";0;0;1;7
"cecile colombo";0;0;6;4.5
"icones rock";0;0;1;9
"biographie jean dubuffet";0;0;1;5
"alain boullet";0;0;1;4
"barbier christian";0;0;1;23
"pretty portal";0;0;1;4
"zelda peinture";0;0;1;5
"roy sfeir";0;0;2;4
"dok artiste";0;0;1;1
"li an wei";0;0;1;7
jef;0;0;1;16
"miss tic oeuvres";0;0;1;4
"art contemporain sculpture";0;0;1;2
"vanité papillon";0;0;1;5
"elder batista";0;0;1;10
"oeuvres de benjamin vautier";0;0;1;8
"artiste chinois liu bolin";0;0;1;4
"galerie d art";0;0;1;11
"acheter morphine en ligne";0;0;2;62
"telemaque peintre";0;0;1;6
"photomontage artiste contemporain";0;0;2;3
"robert combas oeuvres";0;0;2;6
"daniel authouart";0;0;5;9.2
"christophe monnin peintre";0;0;1;14
"gottfried salzmann";0;0;4;5
"christian croset";0;0;1;8
"philippe charpentier artiste peintre";0;0;1;10
aroa;0;0;2;6
"arroyo peintre";0;0;1;5
"tal coat oeuvres";0;0;1;9
"miro oeuvre";0;0;1;1
"jon one";0;0;2;5.5
"spark peinture";0;0;1;9
"sculpture resine rouge";0;0;1;9
"bernard pras exposition";0;0;1;5
"nuance et lumière";0;0;1;3
elferink;0;0;4;8
"perrine butz";0;0;1;3
"julien airault peintre";0;0;1;2
"loane nguyen";0;0;1;10
"brugier rigail";0;0;2;7
"patrick villas sculpteur";0;0;1;5
"françoise besson";0;0;1;11
"bob carlos clarke";0;0;1;11
"araki nobuyoshi";0;0;1;29
"pierre tissier";0;0;1;11
"benharrouche yoel peintre";0;0;1;8
"rose monochrome";0;0;1;5
"achat tableau art contemporain";0;0;1;2
"sex ski";0;0;1;9
"cadre 80x70";0;0;1;17
"mr. dob";0;0;1;9
"gerard mortier peintre";0;0;1;1
"cedrix crespel";0;0;2;4
m.chat;0;0;2;7
"artiste peintre julien";0;0;1;8
"arnaud liard";0;0;1;2
"jace gouzou vente";0;0;1;5
"jieun park";0;0;1;10
"vente art contemporain en ligne";0;0;5;1
"galerie numero 1";0;0;1;8
"christine barres peintre";0;0;1;3
"christophe charbonnel";0;0;3;7
lustman;0;0;1;15
"chris morin eitner";0;0;2;3
"fairey shepard";0;0;1;11
"envie d'art";0;0;1;4
"oeuvre de robert combas";0;0;2;2
"peintre artiste contemporain";0;0;1;5
"artiste peintre ben";0;0;1;6
"gustave singier";0;0;3;8
"pierre budet";0;0;2;4
"l'art de la rue";0;0;1;9
"acheter art contemporain en ligne";0;0;2;1
"statue d'art";0;0;1;6
"marcel reynaud";0;0;1;5
"peinture de dubuffet";0;0;1;5
"jeff koons play doh plate";0;0;2;4
"peinture street art";0;0;2;10
"galerie art contemporain";0;0;1;5
"mercier mathieu";0;0;1;10
"ben bella artiste";0;0;1;1
"champion charlotte";0;0;1;2
"tableau de jean dubuffet";0;0;1;10
"murakami takashi";0;0;1;11
"michel turpin";0;0;1;8
"sculpture facette";0;0;2;36
benetou;0;0;1;4
"maxime acker";0;0;5;2
"gabriel barthelemy";0;0;1;10
"ski sex";0;0;2;9.5
"liu bolin oeuvres";0;0;4;4
"alva bernadine";0;0;1;8
"christophe fischer";0;0;2;17.5
stani;0;0;3;1
"guillaume moschini";0;0;1;4
klazen;0;0;1;3
"cote bruno catalano";0;0;1;7
"eric marrian";0;0;1;12
"yoel benharrouche prix";0;0;1;10
"eduardo kac biographie";0;0;1;8
"peintre leo galamez";0;0;1;2
guyodo;0;0;1;11
"louis stettner photos";0;0;1;9
"galeries d'art paris";0;0;1;146
"kurt cobain peinture";0;0;1;9
"jola sidi gallery";0;0;3;6
"vincent peters";0;0;1;10
"adrianna karembeu";0;0;1;10
"salon art contemporain montreux";0;0;1;7
ideelart;0;0;1;3
"art sculpture";0;0;1;3
"zenoy artiste";0;0;1;2
"peinture audrey hepburn";0;0;1;8
"oeuvre de connaisseur";0;0;1;7
olanier;0;0;1;10
"guy dening";0;0;1;5
zambeaux;0;0;2;23
"acheter sculpture";0;0;2;1
"sculpture catalano prix";0;0;1;4
"bernard langenstein";0;0;4;4
"bernard chauveau editeur";0;0;1;9
meetic.comfr;0;0;1;17
"philippe pasqua tete de mort";0;0;1;4
"ye xing qian";0;0;1;2
"claire bianchi";0;0;1;5
"umberto toselli";0;0;1;2
"jericho peinture";0;0;1;7
"guy de rougemont";0;0;1;8
"charbonnel sculpteur";0;0;1;7
fillini;0;0;1;7
"zhang xiaogang artiste peintre";0;0;1;7
"delphine couturier";0;0;1;3
synecdocque;0;0;1;5
"art diffusion";0;0;2;10
bluegun;0;0;1;20
"vente art";0;0;1;1
"orlinski sculpteur";0;0;2;6
"achat oeuvre d'art en ligne";0;0;1;1
morisse;0;0;1;11
"armand artiste contemporain";0;0;1;7
"marcus egli";0;0;2;3
"françois morellet";0;0;2;9.5
"caresses x";0;0;1;20
"flexo zed";0;0;1;3
"jasmie black";0;0;1;5
"guillaumette duplaix";0;0;5;3.8
"patrick naggar";0;0;1;10
"tableau britto";0;0;2;9
lemoduledezeer;0;0;1;4
"nuance et lumiere";0;0;1;3
"oeuvres art contemporain";0;0;1;2
"ours polaire sculpture";0;0;1;10
"mackeown peintre";0;0;1;5
"robert peintre";0;0;1;10
"christophe charbonnel sculpteur";0;0;1;7
"stéphane gautier";0;0;1;4
"collectionneur averti";0;0;1;5
"greg leon guillemin";0;0;1;7
"alfredo lopez";0;0;1;4
"galerie double s";0;0;1;7
"silvana solivella";0;0;1;7
"gwen marseille";0;0;2;5
"vente d'art en ligne";0;0;1;1
"galerie waltman";0;0;1;7
"sayed haider raza";0;0;1;10
valentin_caro;0;0;1;7
"michele maurin";0;0;1;4
bastardoz;0;0;1;7
"christophe barthes";0;0;3;5
"sculpture palette";0;0;1;9
"sculpture japonaise contemporaine";0;0;1;7
"lucky strike filtre creux";0;0;1;19
artjingle;0;0;1;6
plouvier;0;0;1;24
starkowski;0;0;1;9
"hans hartung farandole";0;0;1;2
jisbar;0;0;1;5
artper;0;0;1;1
"catalano bruno prix des oeuvres";0;0;2;3
"benjamin deroche";0;0;1;6
"galerie giraudeau";0;0;9;9
"patrick s. naggar artiste peintre";0;0;2;4
"peinture charlie chaplin";0;0;1;9
"peintre costa";0;0;1;9
"jerry hall jeune";0;0;1;1
"jeremy lenoir";0;0;1;11
"murielle belin";0;0;1;10
"yutao ge";0;0;4;1.25
"serie the revenants";0;0;1;11
"nuances et lumieres";0;0;1;3
"wilfred peintre";0;0;1;3
"love forever together";0;0;1;6
"lucile callegari";0;0;2;6
"henri iglesis";0;0;2;3
"bastardoz patrick";0;0;4;6.5
"yan pei ming oeuvre";0;0;1;10
"france mitrofanoff";0;0;2;3
"takashi murakami sculpture";0;0;1;4
dirosa;0;0;1;5
"art to be gallery lille";0;0;1;9
"françois xavier trancart";0;0;1;5
"isabelle cochereau";0;0;1;8
"klasen peter";0;0;1;4
"zed flexo";0;0;1;4
