artsper;20;0.125;160;1;13;0.104;125;1;5;0.20833333333333;24;1;2;0.18181818181818;11;1
nojnoma;13;0.38235294117647;34;1.0588235294118;3;0.33333333333333;9;1;10;0.4;25;1.08
"bernard pras";10;0.086206896551724;116;4.0258620689655;9;0.094736842105263;95;3.8947368421053;1;0.090909090909091;11;4.7272727272727;0;0;10;4.5
jonone;6;0.02510460251046;239;4.7489539748954;4;0.023255813953488;172;4.4825581395349;1;0.020408163265306;49;5.8775510204082;1;0.055555555555556;18;4.2222222222222
"troy henriksen prix";3;1;3;1;2;1;2;1;1;1;1;1
"laurence dreyfus art";3;0.42857142857143;7;3;3;0.6;5;3;0;0;2;3
"murielle vanhove";3;0.2;15;5.4666666666667;2;0.2;10;5.1;0;0;1;5;1;0.25;4;6.5
"raphael denis";2;0.18181818181818;11;4.5454545454545;1;0.125;8;4.625;1;0.33333333333333;3;4.3333333333333
"cedrix crespel";2;0.1;20;4;2;0.13333333333333;15;4;0;0;1;4;0;0;4;4
"aki kuroda";2;0.22222222222222;9;1.6666666666667;2;0.28571428571429;7;1
"dominique piveteaud";2;0.66666666666667;3;7;1;0.5;2;7;1;1;1;7
"speedy graphito";2;0.038461538461538;52;4.5769230769231;2;0.057142857142857;35;4.3428571428571;0;0;11;5;0;0;6;5.1666666666667
"bruno mallart";2;0.4;5;6.4;2;0.5;4;6.25;0;0;1;7
"claude mollard";2;0.28571428571429;7;4;2;0.28571428571429;7;4
"chris morin eitner";2;0.25;8;2.75;1;0.33333333333333;3;2.3333333333333;1;0.25;4;3
"jonone prix toile";2;0.4;5;1;1;0.33333333333333;3;1;1;0.5;2;1
"thierry alet";2;0.4;5;3.6;2;0.4;5;3.6
"topolino artiste";2;1;2;1;2;1;2;1
"john matos crash";2;0.18181818181818;11;2;2;0.2;10;2;0;0;1;2
"laurent allory";2;0.5;4;1.25;2;0.5;4;1.25
"oeuvre d'art jaune";2;0.4;5;2;2;0.4;5;2
"robert combas";2;0.028985507246377;69;3.3913043478261;2;0.033333333333333;60;3.2833333333333;0;0;6;4;0;0;3;4.3333333333333
"pierre riba";2;0.25;8;3.25;2;0.28571428571429;7;3.2857142857143;0;0;1;3
"galerie d'art";2;0.044444444444444;45;7.4888888888889;1;0.037037037037037;27;6.7037037037037;1;0.0625;16;8.5;0;0;2;10
"miss tic";2;0.018867924528302;106;5.6981132075472;2;0.031746031746032;63;5.2063492063492;0;0;36;6.4444444444444;0;0;7;6.2857142857143
"philippe huart";2;0.5;4;3;2;0.5;4;3
"jef aerosol prix";2;0.5;4;1;1;1;1;1;1;0.5;2;1;0;0;1;1
"jeanne lorioz";2;0.11764705882353;17;7.3529411764706;2;0.14285714285714;14;7.3571428571429;0;0;1;9;0;0;2;6.5
"di rosa peintre";2;0.5;4;2.75;0;0;1;2;2;0.66666666666667;3;3
"francky boy";2;0.33333333333333;6;4.1666666666667;0;0;1;5;2;0.4;5;4
"keith haring oeuvres";2;0.05;40;8.075;2;0.060606060606061;33;7.9090909090909;0;0;6;8.8333333333333;0;0;1;9
"julien airault";2;0.5;4;5.25;1;0.33333333333333;3;5.3333333333333;1;1;1;5
"shepard fairey biographie";2;0.5;4;4;2;0.5;4;4
"françois bard";2;0.13333333333333;15;2.4;2;0.15384615384615;13;2;0;0;2;5
"etienne gros";2;0.25;8;4.5;2;0.33333333333333;6;4.5;0;0;2;4.5
"filip mirazovic";2;0.25;8;7;1;0.16666666666667;6;7;1;0.5;2;7
"the skateroom";1;1;1;11;1;1;1;11
freisa;1;0.33333333333333;3;9;1;1;1;10
"didier chamizo";1;1;1;26;1;1;1;26
"roch vandromme";1;0.33333333333333;3;5;1;1;1;5;0;0;1;5
"fabien verschaere";1;0.25;4;2.25;1;0.25;4;2.25
"herve lewis";1;0.1;10;7.3;1;0.11111111111111;9;8
"genevieve claisse";1;0.33333333333333;3;6;1;0.33333333333333;3;6
"ben artiste";1;0.043478260869565;23;4.1304347826087;1;0.1;10;3.4;0;0;10;4.9;0;0;3;4
"claude viallat prix";1;1;1;15;1;1;1;15
"césar oeuvres";1;0.5;2;6;1;0.5;2;6
"art contemporain galerie";1;1;1;6;1;1;1;6
"cecile colombo";1;0.11111111111111;9;4.7777777777778;0;0;3;4.3333333333333;0;0;2;5;1;0.25;4;5
oehm;1;0.5;2;4;1;0.5;2;4
"jérémie lenoir";1;0.33333333333333;3;3;1;0.33333333333333;3;3
"sculpture panthere noire";1;1;1;10;1;1;1;10
"mathieu nozieres";1;0.5;2;3;1;1;1;3;0;0;1;3
"peintre combas";1;0.16666666666667;6;3.8333333333333;0;0;1;3;1;1;1;4;0;0;4;4
"nathalie d'henaut";1;0.5;2;7;1;0.5;2;7
"oleg dou";1;0.125;8;3.375;1;0.14285714285714;7;3;0;0;1;6
"lawrence artiste";1;0.33333333333333;3;5;1;0.33333333333333;3;5
"etienne cail";1;0.14285714285714;7;6.4285714285714;1;0.16666666666667;6;5.8333333333333;0;0;1;10
"jerome mesnager cote";1;1;1;3;1;1;1;3
"artiste contemporain en vogue";1;0.5;2;2;1;0.5;2;2
"benjamin carbonne peintre";1;1;1;2;1;1;1;2
"marie laure gerard";1;0.5;2;7;1;0.5;2;7
"massimo vitali";1;0.066666666666667;15;5.7333333333333;1;0.16666666666667;6;6.3333333333333
"charles guyot";1;0.16666666666667;6;1;1;0.25;4;1;0;0;2;1
"corine pagny";1;0.5;2;5;1;0.5;2;5
"pascale morin";1;0.16666666666667;6;9.5;1;0.25;4;9
"beatrice terra peinture";1;1;1;1;1;1;1;1
quik;1;0.0060240963855422;166;1.289156626506;1;0.016129032258065;62;1.4193548387097;0;0;22;1.2272727272727
"dominique jousseaume";1;0.2;5;7.2;1;1;1;6
"tom wesselmann";1;0.052631578947368;19;5;1;0.076923076923077;13;4.6923076923077;0;0;2;6;0;0;4;5.5
"lawrence weiner oeuvres";1;0.5;2;3.5;1;1;1;3;0;0;1;4
"luc chopplet";1;0.5;2;1;1;0.5;2;1
"nils udo";1;0.0079365079365079;126;5.6825396825397;1;0.0095238095238095;105;5.4666666666667;0;0;17;6.7058823529412;0;0;4;7
"galerie linz";1;0.1;10;5.6;1;0.1;10;5.6
"pierre fava";1;0.125;8;3;1;0.2;5;3;0;0;2;3;0;0;1;3
mesnager;1;0.11111111111111;9;2.7777777777778;0;0;4;3.5;1;1;1;3
chanoir;1;0.2;5;2;1;0.33333333333333;3;2;0;0;2;2
"gustave singier";1;0.2;5;4.4;1;0.25;4;4;0;0;1;6
"photographe italien plage";1;1;1;6;1;1;1;6
"philippe berry";1;0.01;100;4.4;1;0.016666666666667;60;6.6166666666667;0;0;30;1.0666666666667;0;0;10;1.1
"juliette vivier";1;1;1;9;1;1;1;9
"charles fazzino";1;0.076923076923077;13;4.7692307692308;1;0.2;5;4.6;0;0;3;4
"alfredo lopez";1;0.25;4;5.5;0;0;3;5.3333333333333;1;1;1;6
"oeuvre unique";1;0.5;2;1;0;0;1;1;1;1;1;1
"la fratrie artiste";1;0.33333333333333;3;3;1;0.33333333333333;3;3
"jonone art";1;1;1;3;1;1;1;3
"jacques borker";1;1;1;4;1;1;1;4
"fkdl street art";1;1;1;6;1;1;1;6
"herve perdriel";1;0.33333333333333;3;1.3333333333333;1;0.5;2;1
"romero britto oeuvres";1;1;1;7;1;1;1;7
"etienne buraud";1;0.5;2;3;1;1;1;3;0;0;1;3
"armand scholtès";1;0.25;4;6;1;0.25;4;6
"did dontzoff";1;0.16666666666667;6;3;1;0.16666666666667;6;3
"galerie art";1;0.2;5;16;1;0.33333333333333;3;20;0;0;2;10
"solène ballesta";1;0.33333333333333;3;6;1;0.33333333333333;3;6
zenoy;1;1;1;2;1;1;1;2
"pascale lander";1;0.2;5;1.2;1;0.25;4;1;0;0;1;2
"speedy graphito prix";1;0.33333333333333;3;1;0;0;2;1;1;1;1;1
"annette messager";1;0.010752688172043;93;9.6666666666667;1;0.013333333333333;75;9.5866666666667;0;0;16;10;0;0;2;10
"oeuvre ernest pignon ernest";1;1;1;8;1;1;1;8
"catherine klein peintre";1;0.5;2;5;1;0.5;2;5
"tanc artiste";1;1;1;4;1;1;1;4
"robert bradford";1;0.090909090909091;11;2.5454545454545;1;0.1;10;2.6;0;0;1;2
"sandra krasker";1;0.2;5;5.2;1;0.2;5;5.2
"kiddy citny";1;0.14285714285714;7;6;1;0.16666666666667;6;6;0;0;1;6
"andre nadal";1;0.5;2;5;1;0.5;2;5
"contemporary art club";1;0.2;5;3;0;0;4;3;1;1;1;3
"artiste jonone";1;1;1;2;1;1;1;2
"mélanie peduzzi";1;0.25;4;4;1;0.25;4;4
"cedrix crespel prix";1;1;1;2;1;1;1;2
"jean paul moscovino";1;0.25;4;3;1;0.25;4;3
"evelyne postic";1;1;1;6;1;1;1;6
"cat soubbotnik";1;0.33333333333333;3;6.6666666666667;1;1;1;6;0;0;2;7
"mr leos carax";1;1;1;13;1;1;1;13
brodlim;1;0.33333333333333;3;2;1;0.33333333333333;3;2
"quentin garel sculpteur";1;0.33333333333333;3;3.3333333333333;1;0.5;2;3;0;0;1;4
"thierry trives";1;1;1;43;1;1;1;43
"gordon peintre";1;1;1;3;1;1;1;3
"philippe buil";1;0.16666666666667;6;5.5;1;0.33333333333333;3;6;0;0;2;5;0;0;1;5
"leo galamez";1;0.25;4;2;1;0.33333333333333;3;2;0;0;1;2
"lydie calloud";1;0.33333333333333;3;6.3333333333333;1;0.33333333333333;3;6.3333333333333
"lagarrigue jerome";1;1;1;5;1;1;1;5
villegle;1;0.33333333333333;3;3;1;0.33333333333333;3;3
bastardoz;1;1;1;4;1;1;1;4
"nils udo oeuvre";1;0.5;2;7;1;0.5;2;7
"gordon hopkins prix";1;0.33333333333333;3;1;1;0.33333333333333;3;1
"capton peintre";1;0.5;2;5.5;1;1;1;5;0;0;1;6
"françois boisrond";1;0.083333333333333;12;3.8333333333333;1;0.083333333333333;12;3.8333333333333
"olivier sultan";1;0.25;4;2.5;1;0.5;2;3;0;0;2;2
takala;1;0.1;10;4.2;1;0.16666666666667;6;3.5;0;0;3;5.6666666666667;0;0;1;4
"georges bru";1;1;1;2;1;1;1;2
rancinan;1;0.05;20;5.85;1;0.083333333333333;12;5.6666666666667;0;0;6;6;0;0;2;6.5
"troy henriksen";1;0.0625;16;3;1;0.125;8;3;0;0;7;3;0;0;1;3
"sylvie fleury";1;0.1;10;4.8;1;0.125;8;4.75;0;0;2;5
"yann houri prix";1;1;1;1;1;1;1;1
"philippe pasqua crane";1;0.33333333333333;3;3;1;0.5;2;3;0;0;1;3
"alain louiset";1;1;1;2;1;1;1;2
"jean louis audibert";1;1;1;3;1;1;1;3
"jef aerosol";1;0.029411764705882;34;6.7941176470588;1;0.041666666666667;24;7.5;0;0;8;5.125;0;0;2;5
"correia antoine";1;0.5;2;4;1;0.5;2;4
"elise oudin gilles";1;0.25;4;4;1;1;1;4;0;0;2;4;0;0;1;4
"kiki picasso";1;0.032258064516129;31;5.6129032258065;1;0.11111111111111;9;6.3333333333333;0;0;5;6
mygalo;1;0.5;2;4;1;0.5;2;4
"buffet artiste";1;0.5;2;2.5;1;0.5;2;2.5
"romain tichit";1;0.14285714285714;7;8.8571428571429;1;0.2;5;8.8;0;0;2;9
"victoria klotz";1;0.33333333333333;3;3.3333333333333;1;0.5;2;3;0;0;1;4
"benjamin carbonne";1;0.16666666666667;6;1.6666666666667;1;0.16666666666667;6;1.6666666666667
aranthell;1;0.25;4;4;1;0.25;4;4
"brno del zou";1;0.16666666666667;6;3;1;0.16666666666667;6;3
mapplethorpe;1;0.016129032258065;62;10.806451612903;1;0.090909090909091;11;10.181818181818;0;0;51;10.941176470588
"vuk vidor";1;0.33333333333333;3;1;1;0.33333333333333;3;1
combas;1;0.014492753623188;69;6.0579710144928;0;0;40;5.35;1;0.038461538461538;26;7.0384615384615;0;0;3;7
"triglia peintre";1;0.5;2;5;1;0.5;2;5
"sophie morisse peintre";1;1;1;2;1;1;1;2
"beaufils peintre";1;0.5;2;5;1;0.5;2;5
"verney carron france";1;1;1;12;1;1;1;12
"elodie wysocki";1;0.33333333333333;3;5.3333333333333;1;0.33333333333333;3;5.3333333333333
"arroyo eduardo";1;0.5;2;5.5;1;0.5;2;5.5
"artiste en vogue";1;0.5;2;2;1;1;1;2;0;0;1;2
"jean pierre schneider";1;0.5;2;5.5;1;0.5;2;5.5
"seen artiste";1;1;1;2;1;1;1;2
"ad galerie";1;0.071428571428571;14;3.7142857142857;1;0.2;5;3.2;0;0;6;4;0;0;3;4
"gottfried salzmann aquarelliste";1;0.5;2;12;0;0;1;12;1;1;1;12
"annette messager sculpture";1;1;1;2;1;1;1;2
"nurcan giz";1;0.5;2;5;1;0.5;2;5
"robert combas oeuvres";1;0.33333333333333;3;2;1;0.5;2;1.5;0;0;1;3
"hank china";1;1;1;7;1;1;1;7
"françois malingrey";1;1;1;15;1;1;1;15
"helene goddyn";1;1;1;1;1;1;1;1
"thoma ryse";1;0.16666666666667;6;4;1;0.16666666666667;6;4
"ron english";1;0.066666666666667;15;4.2666666666667;1;0.076923076923077;13;4.2307692307692;0;0;2;4.5
"ivan messac";1;0.33333333333333;3;4;1;0.33333333333333;3;4
"nathalie macquet";1;0.5;2;10;1;0.5;2;10
"bertrand noël";1;0.5;2;4;1;0.5;2;4
dysform;1;0.33333333333333;3;3;1;0.5;2;3
"thomas verny";1;0.5;2;1.5;1;1;1;1;0;0;1;2
artigasplanas;1;1;1;1;1;1;1;1
"roland cat wikipedia";1;0.5;2;1;1;0.5;2;1
"jacques villeglé";1;0.035714285714286;28;4.3928571428571;1;0.04;25;4.36;0;0;2;4;0;0;1;6
"philippe heurtaux";1;1;1;2;1;1;1;2
"envie d art";1;1;1;3;1;1;1;3
"kathleen petyarre";1;0.25;4;4.25;1;1;1;5
kyliss;1;0.33333333333333;3;1;0;0;1;1;1;0.5;2;1
"code barre art";1;0.5;2;6;1;0.5;2;6
"guillaumette duplaix";1;1;1;1;1;1;1;1
"gaspard mitz";1;0.2;5;3.6;1;0.2;5;3.6
"nick walker";1;0.125;8;5.125;1;0.25;4;5.25;0;0;3;5;0;0;1;5
"sergio moscona";1;0.25;4;4;1;0.33333333333333;3;4;0;0;1;4
"jeremy chabaud";1;0.33333333333333;3;4;1;1;1;4
"galerie olivier waltman";1;0.25;4;4.5;1;0.33333333333333;3;4;0;0;1;6
"alain godon peintre";1;1;1;1;1;1;1;1
"peinture skieur";1;1;1;9;1;1;1;9
"cyril olanier";1;1;1;3;1;1;1;3
"françois morellet oeuvres";1;1;1;6;1;1;1;6
"charlelie couture peinture";1;1;1;3;1;1;1;3
"murakami artiste";1;0.090909090909091;11;2.1818181818182;1;0.11111111111111;9;2;0;0;1;3;0;0;1;3
"troy henriksen prix tableau";1;0.5;2;1;1;0.5;2;1
"isabelle cochereau";1;0.25;4;5.5;0;0;2;6;1;0.5;2;5
"erró oeuvres";1;0.5;2;6.5;1;0.5;2;6.5
"philippe brosse";1;0.5;2;3;1;0.5;2;3
levalet;1;0.045454545454545;22;6;0;0;17;5.7058823529412;0;0;3;8.3333333333333;1;0.5;2;5
"marie laure gerard becuwe";1;0.5;2;4;1;0.5;2;4
"leon guillemin";1;0.125;8;5;0;0;6;5;1;0.5;2;5
"stephanie nava";1;1;1;3;1;1;1;3
"art nue";1;0.5;2;18.5;0;0;1;15;1;1;1;22
"arnaud liard";1;0.14285714285714;7;4.1428571428571;0;0;3;4.3333333333333;0;0;1;4;1;0.33333333333333;3;4
"flipo artist";1;0.5;2;2;1;0.5;2;2
"theo haggai";1;0.16666666666667;6;1;1;0.16666666666667;6;1
"jonas sun7";1;0.5;2;2;1;0.5;2;2
"oeuvre d'art amour";1;0.5;2;7.5;1;1;1;7;0;0;1;8
"claire trotignon";1;0.14285714285714;7;5.2857142857143;1;0.14285714285714;7;5.2857142857143
"chantal porras";1;1;1;2;1;1;1;2
"roman opalka biographie";1;0.5;2;7;1;1;1;7;0;0;1;7
"galerie gilbert dufois";1;0.125;8;3.875;1;0.2;5;4;0;0;2;4
"claire fahys";1;1;1;2;1;1;1;2
"veronique rischard";1;1;1;3;1;1;1;3
"philippe jarrigeon";1;0.071428571428571;14;9.9285714285714;1;0.071428571428571;14;9.9285714285714
"antonio segui";1;0.043478260869565;23;9.3913043478261;1;0.076923076923077;13;8.5384615384615;0;0;9;10.555555555556;0;0;1;10
"thomas bossard";1;0.0625;16;6;1;0.090909090909091;11;6;0;0;1;6;0;0;4;6
"wang yan cheng";1;0.16666666666667;6;9;1;0.33333333333333;3;8
"jean francois jonvelle photographe";1;1;1;13;1;1;1;13
"guy denning";1;0.083333333333333;12;4.3333333333333;1;0.14285714285714;7;4.4285714285714;0;0;5;4.2
"damien hirst biographie";1;0.25;4;5.25;1;0.25;4;5.25
"caroline maurel";1;0.33333333333333;3;4.3333333333333;1;0.5;2;4.5;0;0;1;4
"jeff koons biographie";1;0.25;4;9.5;1;0.25;4;9.5
"kami voituriez";1;1;1;1;1;1;1;1
nowart;1;0.33333333333333;3;3;1;0.33333333333333;3;3
"france art diffusion";1;0.16666666666667;6;2.5;1;0.16666666666667;6;2.5
"philippe vasseur peintre";1;1;1;1;1;1;1;1
"ted nomad";1;0.5;2;4;1;0.5;2;4
"guy dening";0;0;1;4;0;0;1;4
"oeuvre d'art en ligne";0;0;2;1;0;0;2;1
"shaka art";0;0;2;5;0;0;2;5
"vente mundos";0;0;1;2;0;0;1;2
"achat oeuvre d'art en ligne";0;0;4;1;0;0;4;1
"audoin desforges";0;0;8;5.375;0;0;8;5.375
"frédéric garnier";0;0;1;30;0;0;1;30
atsper;0;0;1;1;0;0;1;1
"aillaud gilles";0;0;1;9;0;0;1;9
"kongo artiste";0;0;1;10;0;0;1;10
"art pomme";0;0;1;19;0;0;1;19
"philippe favier";0;0;12;7.4166666666667;0;0;10;7.1;0;0;1;10;0;0;1;8
"hans christian schink";0;0;1;6;0;0;1;6
"nathalie tacheau";0;0;1;5;0;0;1;5
osaka;0;0;1;24;0;0;1;24
"crash john matos";0;0;2;4;0;0;2;4
"alexandre poplavsky";0;0;1;10;0;0;1;10
"zanders papier";0;0;1;12;0;0;1;12
"art to be";0;0;2;5;0;0;1;6;0;0;1;4
"étienne rey";0;0;1;8;0;0;1;8
"ten art";0;0;5;2;0;0;3;2;0;0;2;2
"karl lagasse";0;0;6;4;0;0;2;4;0;0;4;4
"artistes en vogue";0;0;1;3;0;0;1;3
pigeau;0;0;1;5;0;0;1;5
"galerie art france";0;0;1;29;0;0;1;29
"tony franck";0;0;1;9;0;0;1;9
"peinture art contemporain";0;0;5;2.2;0;0;3;2.3333333333333;0;0;1;2;0;0;1;2
"jeff koons œuvres d'art";0;0;7;6.1428571428571;0;0;6;6;0;0;1;7
"aline robin";0;0;2;5;0;0;2;5
"jingdong france";0;0;1;7;0;0;1;7
"mist artiste";0;0;2;10;0;0;1;10;0;0;1;10
"wide painting";0;0;4;5.75;0;0;1;5;0;0;3;6
"galerie oneiro";0;0;8;3.625;0;0;8;3.625
"pablito zago";0;0;2;7;0;0;2;7
"wesselman tom";0;0;1;3;0;0;1;3
"9ème art";0;0;1;18;0;0;1;18
"anaïs boudot";0;0;1;5;0;0;1;5
"georges poncet";0;0;1;7;0;0;1;7
"hervé di rosa sculpture";0;0;1;4;0;0;1;4
"cecile decorniquet";0;0;1;7;0;0;1;7
mappletorphe;0;0;1;11;0;0;1;11
"jean-michel basquiat œuvres d'art";0;0;1;11;0;0;1;11
"jm robert";0;0;14;1.8571428571429;0;0;6;1.6666666666667;0;0;7;2;0;0;1;2
"yan pei ming";0;0;1;44
"clarisse rebotier";0;0;8;4.5;0;0;5;4.6;0;0;3;4.3333333333333
"achat photos d'art en ligne";0;0;1;2;0;0;1;2
stammegna;0;0;2;6;0;0;2;6
"christophe ronel";0;0;1;10
"b campbell";0;0;2;381;0;0;2;381
"guillemette schlumberger";0;0;3;3.6666666666667;0;0;2;4;0;0;1;3
"galerie d art en ligne";0;0;4;1
"peinture de bernard buffet";0;0;2;8
perdriel;0;0;1;44;0;0;1;44
"jonone facebook";0;0;1;18;0;0;1;18
"nuances et lumiere";0;0;1;3;0;0;1;3
"bernard buffet nues";0;0;1;9
"füssli le cauchemar";0;0;1;33
"foire d art contemporain";0;0;1;36;0;0;1;36
"artistes belges";0;0;1;13;0;0;1;13
"le cri van gogh prix";0;0;1;21;0;0;1;21
kartonn;0;0;1;3
"shepard fairey bio";0;0;1;5
boissel;0;0;1;52
"ayline olukman";0;0;2;4
"herve telemaque";0;0;2;6.5
"antoine de la boulaye";0;0;1;5
"julie hauer";0;0;1;5
"lampe traditionnelle oeuvre d'art";0;0;1;12
"sang dans l oeil";0;0;1;44
"gwen marseille";0;0;2;5;0;0;2;5
"hiquily sculpteur";0;0;1;7;0;0;1;7
"galerie dx";0;0;2;3
"albert chubac";0;0;1;4
infinissable;0;0;3;9.3333333333333;0;0;1;10
"christian marclay oeuvre";0;0;1;10
"marco barbon";0;0;5;7.4;0;0;3;7.6666666666667;0;0;2;7
"peinture du 21ème siècle";0;0;1;8
"lucile callegari";0;0;2;5.5;0;0;1;5
"michael jackson deutsch";0;0;1;10
"natalia rak";0;0;1;3;0;0;1;3
"obey vote";0;0;1;6
"bagage homme blanc";0;0;1;42
"mark jenkins";0;0;5;10;0;0;3;9.6666666666667;0;0;2;10.5
"noelle koning";0;0;1;3;0;0;1;3
tithonos;0;0;2;7;0;0;2;7
"andy warhol marilyn original";0;0;2;18
"tal coat artist";0;0;1;8;0;0;1;8
"jeune artiste";0;0;1;41
"raisons pour investir";0;0;2;45.5
tirilly;0;0;3;10
"julien calot";0;0;2;2;0;0;1;2
"jean dubuffet œuvres d'art";0;0;10;5.5;0;0;5;5;0;0;4;6;0;0;1;6
"puzzle batman";0;0;1;28;0;0;1;28
"mel ramos";0;0;7;5.7142857142857;0;0;5;5.6;0;0;2;6
"virginie barrou planquart";0;0;2;9;0;0;2;9
"galerie bayart";0;0;4;4.25;0;0;2;3.5;0;0;2;5
malysse;0;0;2;8;0;0;2;8
"miss tic pochoir";0;0;1;8;0;0;1;8
"martine ehmer";0;0;1;7;0;0;1;7
letovsky;0;0;1;1;0;0;1;1
"punky pink";0;0;1;10;0;0;1;10
moschini;0;0;1;5;0;0;1;5
"zed artiste";0;0;2;3;0;0;2;3
"bernard pras artiste";0;0;2;2;0;0;2;2
"galerie duret";0;0;3;5.6666666666667;0;0;2;5;0;0;1;7
"andy warhol famous art";0;0;1;18;0;0;1;18
"tom wesselmann pop art";0;0;1;7;0;0;1;7
"combas peintre";0;0;4;4.25;0;0;1;3;0;0;3;4.6666666666667
"peintre japonaise contemporaine";0;0;1;10;0;0;1;10
"schwab france";0;0;1;26;0;0;1;26
diamantaire;0;0;1;30;0;0;1;30
"césar baldaccini";0;0;9;8.5555555555556;0;0;5;8;0;0;3;9.3333333333333;0;0;1;9
"x bruno";0;0;6;214.83333333333;0;0;6;214.83333333333
najean;0;0;1;17;0;0;1;17
mrsex;0;0;6;11.666666666667;0;0;3;17.333333333333;0;0;3;6
"stephane gautier";0;0;10;4.8;0;0;5;4.6;0;0;4;5;0;0;1;5
"ernest pignon ernest biographie";0;0;5;9.8;0;0;4;10;0;0;1;9
"eva jospin biographie";0;0;1;7;0;0;1;7
"lucie bennett";0;0;1;6;0;0;1;6
"x obama";0;0;3;228.66666666667;0;0;3;228.66666666667
"kenny hunter sculpture";0;0;1;5;0;0;1;5
"isabel espinoza";0;0;3;5;0;0;3;5
"vente collioure le seris 2002";0;0;1;43;0;0;1;43
"q était";0;0;8;317.125;0;0;8;317.125
"""zelda bomba""";0;0;4;2;0;0;4;2
"michel le belhomme";0;0;17;5.4117647058824;0;0;13;5.0769230769231;0;0;4;6.5
besher;0;0;1;7;0;0;1;7
"pierre-marie brisson";0;0;2;1.5;0;0;2;1.5
"bugs bunny art";0;0;1;10;0;0;1;10
"oeuvre de joan miro";0;0;4;8.5;0;0;3;11;0;0;1;1
"oeuvres max ernst";0;0;1;8;0;0;1;8
"andy warhol bilder";0;0;1;1;0;0;1;1
"patrick naggar";0;0;3;7;0;0;3;7
"hains raymond";0;0;3;7.6666666666667;0;0;1;8;0;0;2;7.5
pixart;0;0;155;3.5677419354839;0;0;149;3.496644295302;0;0;4;5.25;0;0;2;5.5
"oeuvres banksy";0;0;4;9.5;0;0;4;9.5
"murielle belin";0;0;7;8;0;0;4;7.75;0;0;2;7.5;0;0;1;10
"karel de gendre";0;0;3;5;0;0;3;5
"atelier a quatre";0;0;1;8;0;0;1;8
"nathalie deshairs";0;0;2;3;0;0;2;3
"oeuvre d'art unique";0;0;2;1;0;0;2;1
"institut geisha bourges";0;0;1;9;0;0;1;9
"femme en bas de soie";0;0;1;52;0;0;1;52
"henni alftan";0;0;4;5;0;0;1;5;0;0;3;5
boirond;0;0;1;4;0;0;1;4
"art mystique";0;0;2;47;0;0;2;47
"isabelle bonzom";0;0;1;3;0;0;1;3
"espace verney carron";0;0;2;8.5;0;0;2;8.5
"thomas ruff substrat";0;0;1;10;0;0;1;10
"honegger gottfried";0;0;1;7;0;0;1;7
"cesar art";0;0;1;8;0;0;1;8
"galerie brugier rigail";0;0;6;6.1666666666667;0;0;4;6;0;0;1;6;0;0;1;7
bacqueville;0;0;1;6;0;0;1;6
"oeuvre de henri cartier bresson";0;0;3;11;0;0;3;11
lelong;0;0;1;73;0;0;1;73
"mesnager street art";0;0;2;4;0;0;1;5;0;0;1;3
guayasamin;0;0;2;10;0;0;2;10
"jr oeuvre";0;0;3;5.6666666666667;0;0;3;5.6666666666667
"robert mapplethorpe biographie";0;0;9;2.5555555555556;0;0;7;2.4285714285714;0;0;2;3
"aude carre";0;0;2;5;0;0;2;5
"troussier joelle";0;0;2;5;0;0;2;5
"jonone paris";0;0;1;5;0;0;1;5
"cogitore clement";0;0;7;9.8571428571429;0;0;1;9;0;0;4;10;0;0;2;10
"jonone cote";0;0;1;5;0;0;1;5
matryochka;0;0;3;5.3333333333333;0;0;2;5;0;0;1;6
"françois houtin";0;0;5;5.6;0;0;2;11;0;0;3;2
"oeuvres de keith haring";0;0;7;8.4285714285714;0;0;4;8;0;0;3;9
arrivèrent;0;0;1;5;0;0;1;5
"acheter art contemporain";0;0;4;1;0;0;4;1
"acheter art moderne";0;0;2;1;0;0;2;1
"richard orlinski prix";0;0;4;6.5;0;0;4;6.5
"albane de saint remy";0;0;2;10;0;0;2;10
"damien hirst oeuvre";0;0;1;6;0;0;1;6
"joan saló";0;0;1;3;0;0;1;3
"bernard prass";0;0;2;4;0;0;1;4;0;0;1;4
"10 marilyn andy warhol";0;0;1;23;0;0;1;23
"oneiro gallery";0;0;1;3;0;0;1;3
"spark artiste";0;0;1;6;0;0;1;6
"sebastien layral";0;0;4;5.75;0;0;4;5.75
"willy ronis";0;0;1;51;0;0;1;51
"jaké artiste";0;0;2;3;0;0;2;3
"aurélie deplus";0;0;1;5;0;0;1;5
"amaury mulliez";0;0;5;7.2;0;0;4;7.25;0;0;1;7
"claire corcia";0;0;4;6.75;0;0;1;6;0;0;3;7
"anne lacouture";0;0;1;3;0;0;1;3
borker;0;0;1;4;0;0;1;4
"vente art internet";0;0;1;1;0;0;1;1
"lolita nude art";0;0;1;11;0;0;1;11
dirosa;0;0;3;5;0;0;3;5
"julien cresp";0;0;3;5;0;0;1;3;0;0;2;6
"aurelie tomas";0;0;4;4;0;0;4;4
"jacques lacroix";0;0;9;8;0;0;4;8;0;0;5;8
zalez;0;0;3;5;0;0;3;5
"vente art en ligne";0;0;4;1;0;0;2;1;0;0;2;1
"sylvie fleury biographie";0;0;1;5;0;0;1;5
"oeuvre d'art colorée";0;0;2;9.5;0;0;1;9;0;0;1;10
"alistair taylor young";0;0;2;7;0;0;2;7
"peter blake artiste";0;0;6;5.3333333333333;0;0;4;5;0;0;1;6;0;0;1;6
"truc anh";0;0;2;2;0;0;1;2;0;0;1;2
"cécile desserle";0;0;3;5;0;0;3;5
"acheter de l art en ligne";0;0;2;1;0;0;2;1
"rudolf hausner";0;0;2;3.5;0;0;1;3;0;0;1;4
"andy warhol painting";0;0;1;6;0;0;1;6
"oksana france";0;0;2;9.5;0;0;2;9.5
"lampe verre de murano";0;0;1;22;0;0;1;22
camen;0;0;1;12;0;0;1;12
"marie pascale engelmann";0;0;2;4;0;0;1;4;0;0;1;4
"jacky tsai";0;0;1;7;0;0;1;7
"melanie peduzzi";0;0;4;2;0;0;4;2
"denis rouvre biographie";0;0;1;3;0;0;1;3
"jean dubuffet oeuvre";0;0;1;5;0;0;1;5
"obey artiste";0;0;1;3;0;0;1;3
sbk;0;0;1;47;0;0;1;47
"lisbeth delisle";0;0;1;5;0;0;1;5
"banksy billet de banque";0;0;1;3;0;0;1;3
faiveley;0;0;1;144;0;0;1;144
"déesse sculpture";0;0;2;8.5;0;0;1;7;0;0;1;10
"nathan chantob artiste peintre";0;0;4;3;0;0;4;3
"art angleterre";0;0;2;8;0;0;2;8
"artefact romain";0;0;1;16;0;0;1;16
"oeuvre d'art à vendre";0;0;1;1;0;0;1;1
"elisabeth lecourt";0;0;7;10.714285714286;0;0;2;12.5;0;0;5;10
"bernard pras oeuvre";0;0;1;1;0;0;1;1
"robert combasse";0;0;3;3;0;0;3;3
"jeff koons flower puppy";0;0;1;7;0;0;1;7
"peter klasen";0;0;13;3.4615384615385;0;0;7;3;0;0;5;4;0;0;1;4
"yo marchand";0;0;3;3;0;0;3;3
"christy lee";0;0;1;5;0;0;1;5
"statue deesse";0;0;1;10;0;0;1;10
"sophie lanoe";0;0;1;5;0;0;1;5
"artwork of andy warhol";0;0;1;8;0;0;1;8
"biographie keith haring";0;0;4;9;0;0;3;9;0;0;1;9
fessée;0;0;3;224.33333333333;0;0;3;224.33333333333
"galerie argentic";0;0;28;5.5357142857143;0;0;15;5.1333333333333;0;0;9;6;0;0;4;6
"damien hirst œuvres d'art";0;0;1;7;0;0;1;7
"nude cynthia";0;0;1;9;0;0;1;9
"dan flavin fluored";0;0;1;10;0;0;1;10
"christophe goutal";0;0;2;4;0;0;2;4
"andy warhol b";0;0;1;3;0;0;1;3
"laetitia giraud";0;0;4;5;0;0;4;5
"gerstein david";0;0;4;3;0;0;3;3;0;0;1;3
"jean du buffet";0;0;1;10;0;0;1;10
"nature morte poire";0;0;1;9;0;0;1;9
"photo d'art pas cher";0;0;2;3;0;0;1;3;0;0;1;3
"puzzle mickey";0;0;2;29;0;0;1;30;0;0;1;28
"carles valverde";0;0;1;2;0;0;1;2
"dr thomas verny";0;0;1;7;0;0;1;7
banq;0;0;2;42;0;0;2;42
"pauline dufour";0;0;5;7.2;0;0;4;7.5;0;0;1;6
"francois mendras";0;0;2;7;0;0;2;7
"raison d'art";0;0;2;6.5;0;0;1;6;0;0;1;7
"le sourire du jour";0;0;1;23;0;0;1;23
"delphine couturier";0;0;2;1;0;0;1;1;0;0;1;1
popesco;0;0;1;31;0;0;1;31
belie;0;0;2;11;0;0;2;11
"bernard chauveau";0;0;12;8.5833333333333;0;0;7;7.5714285714286;0;0;3;11.333333333333;0;0;2;8
"little black gallery";0;0;1;5;0;0;1;5
"cecile desserle";0;0;13;5;0;0;9;5;0;0;2;5;0;0;2;5
"galeries d'art";0;0;3;5.3333333333333;0;0;2;5;0;0;1;6
"gottfried salzmann";0;0;8;8.875;0;0;2;8.5;0;0;4;9;0;0;2;9
"comhghall casey";0;0;1;5;0;0;1;5
"eric deville";0;0;1;5;0;0;1;5
"alain josseau";0;0;2;5;0;0;1;5;0;0;1;5
"monsieur le chat";0;0;2;5.5;0;0;1;5;0;0;1;6
"roberto greco";0;0;1;8;0;0;1;8
"shaka artiste";0;0;1;4;0;0;1;4
"dorval peintre";0;0;1;9;0;0;1;9
"hervé télémaque";0;0;6;5.1666666666667;0;0;5;5.2;0;0;1;5
"martin reyna";0;0;3;3;0;0;3;3
zmalez;0;0;1;5;0;0;1;5
"audouin desforges";0;0;1;5;0;0;1;5
"mr sex";0;0;441;6.8367346938776;0;0;46;8.4130434782609;0;0;380;6.65;0;0;15;6.7333333333333
"patrick villas";0;0;2;2;0;0;1;2;0;0;1;2
"jerome menager";0;0;3;6.3333333333333;0;0;1;6;0;0;1;6;0;0;1;7
dugied;0;0;1;6;0;0;1;6
"galerie d'art en ligne";0;0;17;1.1176470588235;0;0;9;1.2222222222222;0;0;4;1;0;0;4;1
"jone one";0;0;3;5;0;0;2;4.5;0;0;1;6
cortade;0;0;1;34;0;0;1;34
"gallerie nue";0;0;1;4;0;0;1;4
"galerie lhoste";0;0;1;9;0;0;1;9
"galerie street art lyon";0;0;1;85;0;0;1;85
assalit;0;0;12;6.6666666666667;0;0;5;6.2;0;0;4;7.75;0;0;3;6
"marc stammegna";0;0;2;8;0;0;2;8
"maurice renoma";0;0;3;2;0;0;3;2
"david mesguich";0;0;3;10;0;0;1;10;0;0;2;10
"jacqueline roberts";0;0;1;6;0;0;1;6
"france mitrofanoff";0;0;3;3;0;0;3;3
"andy warhol silkscreen technique";0;0;1;21;0;0;1;21
"puzzles acheter paris france";0;0;1;91;0;0;1;91
oksana;0;0;5;28.8;0;0;3;30;0;0;1;24;0;0;1;30
"jef aérosol street art";0;0;1;5;0;0;1;5
"leveque claude";0;0;1;9;0;0;1;9
lavictoire;0;0;1;10;0;0;1;10
"bernard chauveau éditeur";0;0;1;9;0;0;1;9
"oeuvre banksy";0;0;9;7.7777777777778;0;0;7;7.4285714285714;0;0;2;9
"sophie morisse";0;0;5;1;0;0;4;1;0;0;1;1
"toshinobu sugimoto";0;0;1;96;0;0;1;96
"vincent richeux";0;0;9;6;0;0;5;6;0;0;3;6;0;0;1;6
"art sur internet";0;0;1;1;0;0;1;1
"bernard pras anamorphose";0;0;20;6;0;0;19;6;0;0;1;6
"orlan œuvres d'art";0;0;1;7;0;0;1;7
"nathalie grenier peintre";0;0;3;5.6666666666667;0;0;1;3;0;0;2;7
"tof vanmarque";0;0;1;6;0;0;1;6
"22 gallery";0;0;1;9;0;0;1;9
"oeuvre de max ernst";0;0;1;7;0;0;1;7
"oeuvre d'art sur l'automne";0;0;2;10;0;0;2;10
"arman artiste";0;0;1;12;0;0;1;12
mitrofanoff;0;0;9;9.2222222222222;0;0;3;9.3333333333333;0;0;4;9;0;0;2;9.5
"hervé perdriel";0;0;1;3;0;0;1;3
"anne-catherine becker-echivard";0;0;3;7;0;0;3;7
"x martine";0;0;2;135.5;0;0;2;135.5
"léopold rabus";0;0;2;7;0;0;2;7
"bahareh navabi";0;0;2;3;0;0;2;3
"johanne 8";0;0;4;6;0;0;2;6;0;0;2;6
"claire fanjul";0;0;1;3;0;0;1;3
"el koor";0;0;2;7;0;0;1;6;0;0;1;8
"déesse statue";0;0;1;10;0;0;1;10
priska;0;0;1;42;0;0;1;42
"guillaume bourquin";0;0;3;8.3333333333333;0;0;1;9;0;0;2;8
"agnès baillon";0;0;2;5.5;0;0;2;5.5
"tete de poire";0;0;2;8;0;0;2;8
"angel ortiz";0;0;1;3;0;0;1;3
"oeuvre d'art originale";0;0;2;2;0;0;2;2
ideelart;0;0;1;2;0;0;1;2
"andy warhol knives";0;0;1;25;0;0;1;25
paxal;0;0;1;9
dominot;0;0;1;11;0;0;1;11
"nani champy schott";0;0;2;6.5;0;0;1;10
"ren hang";0;0;1;13;0;0;1;13
"schlosser gerard";0;0;1;5;0;0;1;5
"cédric arnold";0;0;1;2;0;0;1;2
"artiste sculpteur contemporain";0;0;1;5
"x claude";0;0;1;237
"dendura ""cape""";0;0;1;17
"charlotte champion";0;0;3;1.6666666666667
"fernando costa";0;0;5;5.6;0;0;2;6.5
"clement denis";0;0;2;10;0;0;2;10
"x charme";0;0;1;220
"laurent durrey prix";0;0;2;7
"pierre schuster";0;0;3;6
"sous les jupes des filles x";0;0;1;69
dauptain;0;0;1;9;0;0;1;9
"the art of nasty";0;0;1;8
"carl andré oeuvres";0;0;1;2
"laetitia x";0;0;1;15
"pez artiste";0;0;1;5;0;0;1;5
"oeuvre d'art portrait";0;0;1;8
"aykaz arzumanyan";0;0;1;9;0;0;1;9
"en attendant l'amour";0;0;1;5;0;0;1;5
"galerie de nue";0;0;1;33
"bernard pras exposition";0;0;5;6.6;0;0;3;7;0;0;2;6
"petit bonhomme blanc";0;0;4;9.25;0;0;4;9.25
"jason keeley";0;0;1;1;0;0;1;1
"jonone street art";0;0;3;3
"saudek photographe";0;0;1;5;0;0;1;5
"jadikan light painting";0;0;1;6;0;0;1;6
"robert barry";0;0;9;4.6666666666667;0;0;1;4;0;0;2;6
klasen;0;0;3;3;0;0;1;3;0;0;2;3
"rêve - ville reims";0;0;1;9
"carl andré";0;0;19;6.9473684210526;0;0;2;7.5;0;0;1;8
"clement denis peintre";0;0;1;5;0;0;1;5
"bruno fontana";0;0;3;4;0;0;3;4
"bertrand meunier";0;0;3;8;0;0;1;2
"serge roux";0;0;1;18;0;0;1;18
"peintre brésilien contemporain";0;0;1;10
"have not";0;0;1;65;0;0;1;65
"be gallery";0;0;1;8;0;0;1;8
"pin up 70s";0;0;1;8;0;0;1;8
"valérie vaubourg";0;0;3;2;0;0;3;2
"andy warhol 10 marilyn";0;0;2;24.5;0;0;2;24.5
"hervé di rosa";0;0;46;3.3913043478261;0;0;40;3.3;0;0;4;4;0;0;2;4
"galerie urbaine";0;0;2;2.5;0;0;2;2.5
"la micro galerie";0;0;2;6;0;0;2;6
"veronique catanzaro nue";0;0;1;23;0;0;1;23
"claudine legrand";0;0;5;7;0;0;5;7
"young pink lips";0;0;1;4;0;0;1;4
"robe verte";0;0;1;63;0;0;1;63
"jean-pierre nadau";0;0;6;1;0;0;6;1
"oeuvre d'art lignes verticales";0;0;1;1;0;0;1;1
"jacques villeglé oeuvres";0;0;1;3;0;0;1;3
"fabrice hyber";0;0;63;5.6825396825397;0;0;59;5.5932203389831;0;0;2;7.5;0;0;2;6.5
arsper;0;0;3;1;0;0;3;1
"hiro ando";0;0;1;1;0;0;1;1
"marie anne thieffry";0;0;2;2.5;0;0;1;3
"galerie numero 1";0;0;4;3;0;0;4;3
"oeuvre art banksy";0;0;2;10;0;0;2;10
"fernando costa prix";0;0;1;1;0;0;1;1
ioye;0;0;1;4;0;0;1;4
"achat oeuvre d'art";0;0;2;1;0;0;2;1
"sunset at sea";0;0;2;10;0;0;2;10
"smr sex";0;0;1;6;0;0;1;6
"razvan stanciu";0;0;1;3;0;0;1;3
"oeuvre d'art automne";0;0;1;6;0;0;1;6
"michèle destarac peintre";0;0;2;2;0;0;2;2
"assaf matarasso";0;0;1;2;0;0;1;2
"viveca koh";0;0;1;6;0;0;1;6
"polin italie";0;0;1;8;0;0;1;8
"didier avril";0;0;2;1;0;0;2;1
"olivier borst";0;0;1;7;0;0;1;7
"mathilde le cabellec";0;0;1;6;0;0;1;6
"jacques renoir";0;0;11;8.7272727272727;0;0;9;8.6666666666667;0;0;2;9
"photographie d'art en ligne";0;0;1;2;0;0;1;2
graphito;0;0;24;9.4166666666667
"oeuvres d'art";0;0;2;7;0;0;2;7
"r os";0;0;1;113;0;0;1;113
"vente art contemporain";0;0;3;1;0;0;3;1
"fur girls dutch";0;0;1;5;0;0;1;5
"zhou hongbin";0;0;1;6;0;0;1;6
"anti street art";0;0;1;4;0;0;1;4
"galerie garnier delaporte";0;0;3;3;0;0;3;3
"la p'tite famille";0;0;1;20;0;0;1;20
"andy warhol y el pop art";0;0;1;28;0;0;1;28
"oeuvre d'art drole";0;0;1;4;0;0;1;4
"signature andy warhol";0;0;1;9;0;0;1;9
"soulages oeuvres";0;0;1;30;0;0;1;30
"jean-luc lacroix";0;0;3;2.3333333333333;0;0;3;2.3333333333333
"banksy oeuvre";0;0;11;8.2727272727273;0;0;5;7.6;0;0;4;9.25;0;0;2;8
"galeries d'art en ligne";0;0;1;1;0;0;1;1
"emmanuel pons";0;0;2;8;0;0;2;8
"anne haugmard";0;0;1;24;0;0;1;24
"dubuffet jean oeuvres";0;0;1;6;0;0;1;6
"""presse"" + ""contact"" ~rudiments";0;0;1;374;0;0;1;374
"oeuvre d'art sculpture";0;0;1;7;0;0;1;7
"yan houri";0;0;1;3;0;0;1;3
"vivian maier";0;0;2;39;0;0;2;39
"yutao ge";0;0;1;7;0;0;1;7
"peintre buffet";0;0;11;9;0;0;5;9.2;0;0;4;8.75;0;0;2;9
"eric ceccarini";0;0;1;17;0;0;1;17
"shirley jaffe nude";0;0;1;121;0;0;1;121
"franck mercky";0;0;1;3;0;0;1;3
"henri cartier bresson oeuvre";0;0;1;11;0;0;1;11
"""carl andre""";0;0;1;6
"laurent martinez facebook";0;0;1;9;0;0;1;9
maertens;0;0;1;39;0;0;1;39
"grise mine";0;0;1;99;0;0;1;99
"robert mapplethorpe";0;0;5;26.4;0;0;5;26.4
heerkens;0;0;2;20;0;0;2;20
"c215 acheter";0;0;1;9;0;0;1;9
"andy warhol lithograph";0;0;1;25;0;0;1;25
"gautier deblonde";0;0;1;2;0;0;1;2
"victor richardson";0;0;3;10.666666666667;0;0;3;10.666666666667
"antoine correia";0;0;3;4;0;0;2;4;0;0;1;4
"begramoff gallery";0;0;1;7;0;0;1;7
flipo;0;0;7;7.7142857142857;0;0;1;3;0;0;6;8.5
shigong;0;0;2;3;0;0;1;3;0;0;1;3
"gille aillaud";0;0;1;7;0;0;1;7
"dubuffet peinture";0;0;1;6;0;0;1;6
"peter keizer";0;0;1;3;0;0;1;3
"andy warhol superman";0;0;3;11.333333333333;0;0;3;11.333333333333
"germain plouvier";0;0;2;4.5;0;0;2;4.5
"jean-michel basquiat oeuvres";0;0;2;8;0;0;2;8
"cesar oeuvre";0;0;1;6;0;0;1;6
"ilona kiss";0;0;2;9;0;0;1;9;0;0;1;9
"max ernst oeuvre";0;0;5;8.8;0;0;5;8.8
"tête de poire";0;0;1;10;0;0;1;10
"no art";0;0;1;9;0;0;1;9
"guyomard sylvie facebook";0;0;1;6;0;0;1;6
"vincent corpet";0;0;16;6.375;0;0;16;6.375
"françoise danel peintre";0;0;1;3;0;0;1;3
"nicolas nicolini";0;0;1;6;0;0;1;6
"rené botti";0;0;1;5;0;0;1;5
"pierre tal-coat";0;0;1;10;0;0;1;10
"flor garduno";0;0;1;17;0;0;1;17
"jeff aerosol";0;0;6;4.5
"rubbish artiste";0;0;1;8;0;0;1;8
gorodine;0;0;4;5;0;0;2;5;0;0;2;5
"chelsea artistes";0;0;1;435;0;0;1;435
"christophe monnin peintre";0;0;1;43;0;0;1;43
"françois harray";0;0;1;7;0;0;1;7
"nick carter";0;0;2;19;0;0;2;19
"jérôme mesnager";0;0;7;3.4285714285714;0;0;4;3;0;0;3;4
"jerome btesh";0;0;1;5;0;0;1;5
"li hong li";0;0;1;9;0;0;1;9
"christophe catelain";0;0;1;2;0;0;1;2
"jeunes artistes peintres";0;0;2;9.5;0;0;1;10;0;0;1;9
"pascale barret";0;0;1;9;0;0;1;9
"andy warhol artworks";0;0;1;20;0;0;1;20
"vente bronze";0;0;1;37;0;0;1;37
"envie d'art";0;0;9;3.6666666666667;0;0;7;3.7142857142857;0;0;2;3.5
"oeuvre miro";0;0;3;1.6666666666667;0;0;2;2;0;0;1;1
fubiz;0;0;7;30.142857142857;0;0;7;30.142857142857
"isabelle vayron";0;0;2;6.5;0;0;2;6.5
"sandy skoglund oeuvres";0;0;4;4;0;0;3;4;0;0;1;4
"michael bastow";0;0;3;7.3333333333333;0;0;2;7;0;0;1;8
lebelhomme;0;0;2;3.5;0;0;2;3.5
"vente tableau contemporain";0;0;1;2;0;0;1;2
"oeuvres art contemporain";0;0;2;1;0;0;1;1;0;0;1;1
"mb factory";0;0;3;8;0;0;2;7;0;0;1;10
"andy warhol photography artwork";0;0;1;12;0;0;1;12
"stephanie de rouge";0;0;1;8;0;0;1;8
"jacque villeglé";0;0;1;4;0;0;1;4
"wiesmann mf5";0;0;1;39;0;0;1;39
"alice lebredonchel";0;0;1;9;0;0;1;9
"adrian buba";0;0;1;8;0;0;1;8
"lolita nue";0;0;2;19.5;0;0;2;19.5
hayuk;0;0;1;7;0;0;1;7
"murakami peintre";0;0;4;7.25;0;0;2;7;0;0;2;7.5
"andy warhol photographs";0;0;1;25;0;0;1;25
petrovitch;0;0;1;11;0;0;1;11
"art cubique";0;0;1;6;0;0;1;6
proteiforme;0;0;1;44;0;0;1;44
"costa peintre";0;0;1;5;0;0;1;5
"oeuvre de takashi murakami";0;0;1;3;0;0;1;3
"guy de rougemont";0;0;5;7.4;0;0;3;7;0;0;2;8
"lolita art";0;0;2;22;0;0;1;19;0;0;1;25
"composition in blue";0;0;3;10.666666666667;0;0;1;10;0;0;2;11
keza;0;0;1;9;0;0;1;9
"david gerstein elegance";0;0;1;53;0;0;1;53
"puzzle d art cène";0;0;1;40;0;0;1;40
"klasen peintre";0;0;1;2;0;0;1;2
"jerome mesnager";0;0;15;3.6;0;0;6;3;0;0;7;4;0;0;2;4
"daniel authouart";0;0;1;15;0;0;1;15
"alain crocq";0;0;1;15;0;0;1;15
"prix sculpture";0;0;2;6;0;0;2;6
"helder batista";0;0;1;5;0;0;1;5
"galerie besson";0;0;1;10;0;0;1;10
"adela burdujanu";0;0;3;5;0;0;2;5;0;0;1;5
"dark vador artwork";0;0;1;4;0;0;1;4
"kouka artiste";0;0;1;4;0;0;1;4
"galerie depardieu";0;0;1;12;0;0;1;12
"gérard schlosser";0;0;5;4.6;0;0;3;4.3333333333333;0;0;2;5
"jean michel basquiat";0;0;2;12;0;0;2;12
"art et scalp";0;0;1;15;0;0;1;15
"michel gueranger";0;0;1;2;0;0;1;2
"lithographie art contemporain";0;0;1;30;0;0;1;30
"orlan biographie";0;0;1;10;0;0;1;10
poes;0;0;4;3;0;0;2;3;0;0;2;3
"continuum tabouret vente";0;0;1;22;0;0;1;22
"milo peintre";0;0;1;5;0;0;1;5
"naked portrait";0;0;1;8;0;0;1;8
"carlo nason";0;0;3;10;0;0;2;10;0;0;1;10
"severine bernard";0;0;4;7;0;0;2;7;0;0;2;7
totomobile;0;0;1;32;0;0;1;32
"bernard buffet images";0;0;1;6;0;0;1;6
"peinture dark vador";0;0;1;4;0;0;1;4
"monica bellucci x";0;0;2;9;0;0;2;9
"clément cogitore";0;0;4;17.25;0;0;4;17.25
"elisabeth frering";0;0;1;10;0;0;1;10
"tony soulie artist";0;0;1;6;0;0;1;6
"jean helion";0;0;4;8;0;0;4;8
cédrix;0;0;1;6;0;0;1;6
"acheter banksy";0;0;1;4;0;0;1;4
"palladium dalva femme";0;0;1;95;0;0;1;95
"andy warhol work";0;0;1;5;0;0;1;5
"oeuvre d'artiste";0;0;1;6;0;0;1;6
"photo d'art contemporain";0;0;2;2;0;0;1;2;0;0;1;2
"art sculpture";0;0;1;20;0;0;1;20
"tableau jonone";0;0;2;1;0;0;2;1
"achat sculpture";0;0;7;1;0;0;4;1;0;0;3;1
cepf.bnpparibas.fr;0;0;1;65;0;0;1;65
"pierre alechinsky";0;0;1;181;0;0;1;181
arstper;0;0;2;1;0;0;1;1;0;0;1;1
"huart philippe";0;0;1;4;0;0;1;4
"jean georges inca";0;0;1;2;0;0;1;2
"chen yidan";0;0;1;1;0;0;1;1
"massimo vitali photographe";0;0;3;2;0;0;3;2
"patrick guidot";0;0;1;4;0;0;1;4
"canapé jaune";0;0;1;30;0;0;1;30
"vente art contemporain en ligne";0;0;1;1;0;0;1;1
"eliane larus";0;0;1;3;0;0;1;3
"claude champy";0;0;1;7;0;0;1;7
"god dog";0;0;2;4;0;0;1;4;0;0;1;4
"tribu carnivore";0;0;6;7;0;0;2;7;0;0;4;7
"armand artiste contemporain";0;0;3;5;0;0;2;5;0;0;1;5
"helion peintre";0;0;1;9;0;0;1;9
"alain clément";0;0;8;4.375;0;0;6;4.1666666666667;0;0;1;5;0;0;1;5
"roy sfeir";0;0;1;5;0;0;1;5
"pierre de fenoyl photographe";0;0;1;9;0;0;1;9
"oeuvre d'art moderne";0;0;4;1.75;0;0;2;2;0;0;1;2;0;0;1;1
"galerie loft";0;0;8;6.125;0;0;5;6;0;0;2;6;0;0;1;7
"oeuvres de dubuffet";0;0;1;5;0;0;1;5
"stephane dauthuille";0;0;1;10;0;0;1;10
"galleries d'art";0;0;2;7;0;0;1;9;0;0;1;5
"jm robert prix";0;0;1;1;0;0;1;1
"aharon gluska";0;0;1;2;0;0;1;2
lachize;0;0;1;10;0;0;1;10
"jean michel turpin";0;0;2;6;0;0;2;6
"dubuffet oeuvres";0;0;6;4.1666666666667;0;0;5;4;0;0;1;5
speedygraphito;0;0;7;5;0;0;7;5
gourier;0;0;1;32;0;0;1;32
"claisse geneviève";0;0;1;9;0;0;1;9
"jonvelle photos";0;0;1;1;0;0;1;1
"herve di rosa artiste peintre";0;0;4;3.5;0;0;1;2;0;0;3;4
"christoff debusschere";0;0;4;6.75;0;0;3;6.3333333333333;0;0;1;8
"langlands & bell";0;0;1;8;0;0;1;8
"time to sign off";0;0;1;20;0;0;1;20
"takala photo";0;0;1;9;0;0;1;9
"roland topor art";0;0;1;4;0;0;1;4
"hervé di rosa peinture";0;0;1;3;0;0;1;3
"georges buffet peintre";0;0;1;8;0;0;1;8
"x rivière";0;0;1;197;0;0;1;197
jorion;0;0;2;14.5;0;0;2;14.5
"christine bares";0;0;1;3;0;0;1;3
"julien raynaud";0;0;4;4.5;0;0;2;4;0;0;1;4;0;0;1;6
"achat peinture";0;0;1;58;0;0;1;58
"portrait oeuvre d'art";0;0;2;9;0;0;1;10;0;0;1;8
"patricia camet";0;0;1;6;0;0;1;6
"edmée delsol";0;0;2;4;0;0;2;4
"flowers andy warhol";0;0;2;15.5;0;0;2;15.5
"pasqua philippe";0;0;1;4;0;0;1;4
"guy boyer peintre";0;0;2;1;0;0;2;1
"flexo zed";0;0;1;9;0;0;1;9
"art contemporain vente";0;0;1;1;0;0;1;1
"philippe pasqua";0;0;4;5;0;0;2;4.5;0;0;1;6;0;0;1;5
"herve di rosa";0;0;6;3.6666666666667;0;0;3;3.3333333333333;0;0;3;4
"sandy skoglund";0;0;6;7.1666666666667;0;0;5;7;0;0;1;8
"gauthier deblonde";0;0;3;2;0;0;3;2
"nuance et lumière";0;0;3;3;0;0;2;3;0;0;1;3
"bloomfield hills mi venus freeze";0;0;1;86;0;0;1;86
"peinture potiron";0;0;1;9;0;0;1;9
"pinceau d'art";0;0;1;86;0;0;1;86
"art jingle";0;0;3;4.3333333333333;0;0;2;4;0;0;1;5
"john levee artist";0;0;1;4;0;0;1;4
"bruno catalano biographie";0;0;1;5;0;0;1;5
"peter mc lane";0;0;2;4.5;0;0;2;4.5
"françois morrelet";0;0;2;8;0;0;2;8
"antoine mercusot";0;0;2;3;0;0;2;3
"duong le thai";0;0;1;5;0;0;1;5
"arnaud elias";0;0;1;8;0;0;1;8
"biographie de jeff koons";0;0;2;9.5;0;0;2;9.5
"guillaume requin";0;0;1;16;0;0;1;16
"andy warhol artwork list";0;0;1;21;0;0;1;21
"galerie gilbert dufois senlis";0;0;1;4;0;0;1;4
"nicolas puyjalon";0;0;1;6;0;0;1;6
"jonone graffiti";0;0;1;9;0;0;1;9
"galerie de mars";0;0;4;10.25;0;0;2;9.5;0;0;1;11;0;0;1;11
noart;0;0;4;10.25;0;0;3;10;0;0;1;11
"arnaud paillard";0;0;1;7;0;0;1;7
"ipso france";0;0;3;31;0;0;3;31
"george platt lynes";0;0;3;8;0;0;3;8
"philippe berry sculpteur";0;0;3;6;0;0;3;6
"carl andre";0;0;18;6.3333333333333;0;0;12;6;0;0;5;7;0;0;1;7
"galerie art en ligne";0;0;7;1;0;0;6;1;0;0;1;1
"jana & js";0;0;1;9;0;0;1;9
"narcose serie";0;0;4;7.25;0;0;4;7.25
"nils udo art";0;0;1;6;0;0;1;6
"bruno timmermans";0;0;2;1;0;0;2;1
"romero britto";0;0;1;38;0;0;1;38
"quentin carnaille";0;0;2;10.5;0;0;2;10.5
"roys people";0;0;2;6.5;0;0;2;6.5
"gwenael billaud";0;0;3;2;0;0;3;2
"artiste erro";0;0;1;10;0;0;1;10
"philippe baudelocque facebook";0;0;1;10;0;0;1;10
morisse;0;0;1;10;0;0;1;10
"alain clement";0;0;2;4.5;0;0;1;4;0;0;1;5
"photo d'art noir et blanc";0;0;1;29;0;0;1;29
athur;0;0;6;9.6666666666667;0;0;4;9.75;0;0;2;9.5
"objets design";0;0;1;57;0;0;1;57
"einstein pop art";0;0;1;27;0;0;1;27
deplyd;0;0;1;13;0;0;1;13
"achat oeuvres d'art";0;0;2;1;0;0;2;1
"galeries d art contemporain";0;0;1;1;0;0;1;1
"bici fluorescente";0;0;1;15;0;0;1;15
"maison couteron";0;0;1;49;0;0;1;49
jingdong;0;0;1;22;0;0;1;22
"sylvie koechlin";0;0;4;8;0;0;1;8;0;0;3;8
"e galleries";0;0;7;9.8571428571429;0;0;1;11;0;0;6;9.6666666666667
"benjamin deroche";0;0;8;7;0;0;8;7
"lionel sourisseau";0;0;1;1;0;0;1;1
"laurence nicola";0;0;1;3;0;0;1;3
"bernard pras biographie";0;0;2;2;0;0;2;2
eppele;0;0;4;7.25;0;0;1;9;0;0;3;6.6666666666667
"street art jonone";0;0;3;2.3333333333333;0;0;2;2.5;0;0;1;2
"mr patate";0;0;1;74;0;0;1;74
"philippe assalit";0;0;5;3;0;0;5;3
"tabouret devlin";0;0;1;40;0;0;1;40
akader;0;0;2;7;0;0;2;7
"galerie unik";0;0;1;4;0;0;1;4
"françoise pétrovitch";0;0;5;6.2;0;0;5;6.2
"vente en ligne durex";0;0;1;66;0;0;1;66
"vente d'oeuvre d'art en ligne";0;0;4;1;0;0;4;1
"vincent peters";0;0;4;10;0;0;4;10
artelysees;0;0;1;5;0;0;1;5
d'ambra;0;0;1;3;0;0;1;3
"erro artiste";0;0;1;10;0;0;1;10
"acheter une oeuvre d art contemporain";0;0;2;1;0;0;2;1
"elias artiste";0;0;1;9;0;0;1;9
"lorioz jeanne";0;0;2;6;0;0;2;6
"jean philippe berger";0;0;1;10;0;0;1;10
"che bella";0;0;1;43;0;0;1;43
"alexandre de poplavsky";0;0;1;7;0;0;1;7
"nicolas moreau peintre";0;0;1;5;0;0;1;5
"m-city street art";0;0;1;6;0;0;1;6
"joseph beuys oeuvres";0;0;1;10;0;0;1;10
"amsterdam paysage";0;0;1;68;0;0;1;68
"patrick kawaii";0;0;1;3;0;0;1;3
"artiste peintre israelien";0;0;1;1;0;0;1;1
be-love;0;0;1;37;0;0;1;37
"galerie w";0;0;15;5.2666666666667;0;0;11;5;0;0;4;6
"david lachapelle oeuvre";0;0;4;5;0;0;3;5;0;0;1;5
"andy warhol works";0;0;1;5;0;0;1;5
chakra;0;0;1;293;0;0;1;293
"galerie filles nues noir et blancs";0;0;1;40;0;0;1;40
"jef aerosol beaubourg";0;0;1;7;0;0;1;7
"galerie mondapart";0;0;1;6;0;0;1;6
soubrette;0;0;1;110;0;0;1;110
"oeuvres de bansky";0;0;1;9;0;0;1;9
"olivia clavel";0;0;4;5;0;0;4;5
"x liu";0;0;6;253.83333333333;0;0;6;253.83333333333
"marvin aillaud";0;0;1;4;0;0;1;4
"françois morellet";0;0;57;8.0175438596491;0;0;47;7.8085106382979;0;0;6;9;0;0;4;9
"galerie bettina von arnim";0;0;1;4;0;0;1;4
"jola sidi gallery";0;0;2;6.5;0;0;1;7;0;0;1;6
"serie narcose";0;0;1;5;0;0;1;5
"fanny dubois";0;0;4;8.75;0;0;1;10;0;0;3;8.3333333333333
"andy warhol oeuvres";0;0;2;17;0;0;2;17
"site vente art";0;0;3;1;0;0;1;1;0;0;2;1
"romero britto love";0;0;1;9;0;0;1;9
"andy warhol art gallery";0;0;1;30;0;0;1;30
"jef aerosol chut";0;0;1;5;0;0;1;5
"fulton hamish";0;0;1;9;0;0;1;9
"cornette de saint cyr";0;0;1;21;0;0;1;21
"pierre francois grimaldi";0;0;2;3;0;0;2;3
"greg gorman";0;0;1;9;0;0;1;9
"photographe d'art";0;0;1;51;0;0;1;51
graphem;0;0;1;4;0;0;1;4
"isabelle levistre";0;0;3;4;0;0;1;2;0;0;2;5
"isabelle bartoli";0;0;1;2;0;0;1;2
"artyou galerie";0;0;1;3;0;0;1;3
"jonone biographie";0;0;1;2;0;0;1;2
"jean pierre nadau";0;0;1;1;0;0;1;1
"tribute renaud";0;0;1;17;0;0;1;17
"easy sacha";0;0;6;9;0;0;5;9;0;0;1;9
grisor;0;0;1;5;0;0;1;5
"miro oeuvres";0;0;3;11;0;0;3;11
pierre&gilles;0;0;1;10;0;0;1;10
"mes coloriages";0;0;1;28;0;0;1;28
"françoise petrovitch";0;0;18;6.3333333333333;0;0;13;6;0;0;3;7;0;0;2;7.5
"acheter lithographie alain bonnefoit";0;0;1;22;0;0;1;22
"aurore de sousa";0;0;3;7;0;0;3;7
"francois bard";0;0;3;4;0;0;2;5;0;0;1;2
"eva navarro";0;0;1;7;0;0;1;7
"bonhomme art";0;0;1;8;0;0;1;8
"romain cadilhon";0;0;1;5;0;0;1;5
"lolita nude beach";0;0;1;8;0;0;1;8
"slick art fair 2015";0;0;1;40;0;0;1;40
"guy dennings";0;0;1;5;0;0;1;5
"massimo vitali prints for sale";0;0;1;56;0;0;1;56
doppeldenk;0;0;1;4;0;0;1;4
"olivier courty";0;0;5;8.6;0;0;4;8.75;0;0;1;8
"catherine lopes";0;0;1;9;0;0;1;9
ppixart;0;0;1;3;0;0;1;3
merienne;0;0;1;7;0;0;1;7
"hermann nitsch oeuvres";0;0;1;3;0;0;1;3
"léa chauvel-lévy";0;0;1;3;0;0;1;3
"rakel wajnberg";0;0;1;2;0;0;1;2
"bruce lee pop art";0;0;2;21;0;0;2;21
"galerie vivendi";0;0;1;3;0;0;1;3
mr.dob;0;0;1;9;0;0;1;9
selectiona;0;0;1;3;0;0;1;3
"dingo art";0;0;1;6;0;0;1;6
"""drapery"" -china -b2b -forum -blog -wikipedia -.cn -.gov -alibaba -.jp -.tw -.hk";0;0;1;34;0;0;1;34
"vendre oeuvre d'art";0;0;5;1;0;0;5;1
"andy warhol flowers information";0;0;1;16;0;0;1;16
"barriã¨re de sã©curitã© bã©bã©";0;0;2;30;0;0;2;30
"anti artiste";0;0;3;2;0;0;2;2;0;0;1;2
"oeuvre d'art a vendre";0;0;2;1;0;0;2;1
"gianni colosimo";0;0;5;1;0;0;5;1
"art achat";0;0;1;1;0;0;1;1
"annina roescheisen";0;0;8;6.375;0;0;8;6.375
"lisa sartorio";0;0;1;3;0;0;1;3
"turpin michel";0;0;2;8;0;0;2;8
"izabeau jousse";0;0;5;3.6;0;0;2;4.5;0;0;2;2.5;0;0;1;4
"florent chopin";0;0;2;4;0;0;2;4
"acheter de l art";0;0;2;3;0;0;2;3
"oeuvre de cesar";0;0;1;5;0;0;1;5
"anne vignal";0;0;2;8;0;0;2;8
"project art beat";0;0;1;8;0;0;1;8
"pierre dubrunquez";0;0;2;1.5;0;0;2;1.5
"atila biro";0;0;1;5;0;0;1;5
"expo street art lyon";0;0;1;98;0;0;1;98
"tableau spark";0;0;1;7
"ben bella mahjoub";0;0;1;2
"oeuvre de banksy";0;0;23;7.2173913043478;0;0;3;8
"les parties en plastique contact artois -";0;0;1;108
"gerard boudon";0;0;1;4
"gallery black";0;0;1;2
"keith haring wikipedia";0;0;2;6;0;0;1;6
"lolita galeries";0;0;1;14
"bernard langenstein";0;0;1;5;0;0;2;6
"jon one";0;0;15;5;0;0;3;6;0;0;1;6
"atlas blue";0;0;2;32
"jean pierre attal";0;0;7;2.8571428571429;0;0;1;2
"peintre costa";0;0;2;8
tattu;0;0;1;21
"peintre ben bella";0;0;1;1;0;0;2;1
"charbonnel sculpteur";0;0;2;4.5;0;0;1;6
"laurence dreyfus";0;0;1;10;0;0;1;11
iglesis;0;0;1;7;0;0;1;4
"villeglé jacques";0;0;1;4;0;0;2;5
"galerie grand rue";0;0;1;5
"brigitte penicaud ceramiste";0;0;1;6
"valérie lefebvre";0;0;4;7.25;0;0;5;8
"thierry carrier";0;0;4;5.75
"statue art moderne";0;0;1;2;0;0;2;2
"vente tzarina aucun";0;0;1;10
"galerie d'art contemporain en ligne";0;0;2;1
slideme;0;0;1;207
"touche d'espoir";0;0;1;43
trichom;0;0;1;8
"takashi murakami prix";0;0;1;1
"antonio segui peintre";0;0;2;9.5
"envie dart";0;0;2;3;0;0;2;4
"max ernst œuvres d'art";0;0;6;6.8333333333333;0;0;1;9
"dussac peintre";0;0;1;3;0;0;1;2
"pascale dauptain";0;0;1;2
"art vitam";0;0;2;3
"commande bitumes";0;0;1;56
"vanessa paradis be my baby";0;0;3;3;0;0;1;3
"art life gallery";0;0;2;5.5;0;0;2;5
"richard orlinsky";0;0;3;10
"thierry dussac peintre";0;0;1;3
"combas prix";0;0;1;5;0;0;2;4
"profil geisha";0;0;1;5
face10;0;0;1;10
"fabrizio corneli";0;0;3;4
"sun hyuk kim";0;0;2;7
"cedric bacqueville";0;0;2;4.5
"flowers warhol";0;0;2;14.5
"jacques roch";0;0;1;4
"maxime ansiau";0;0;1;6
"sam szafran";0;0;1;10
"nain porte quoi";0;0;1;14
"toto e";0;0;1;100
"timothée talard";0;0;1;3;0;0;2;3;0;0;1;3
"tiphaine gilson";0;0;1;16
"gérard clisson";0;0;2;2
quadriptyque;0;0;1;43
"x conversation";0;0;4;441.5
christoff;0;0;2;10
"vivienne maun";0;0;1;10
"richard di rosa";0;0;5;11;0;0;1;4
"bonhomme blanc risque";0;0;1;7
"andy warhol paintings";0;0;1;7
"no taxis";0;0;2;464
"ralph gibson";0;0;8;9.875
eppelé;0;0;1;3
"debusschere christoff";0;0;1;8
lemoduledezeer;0;0;1;2
"didier triglia facebook";0;0;1;5
"oeuvre de keith haring";0;0;1;9
"la collégiale";0;0;1;6;0;0;1;6
"""papier"" + ""contact"" ~rudiments";0;0;2;306
"galerie vidal";0;0;1;8
"lettonie girl";0;0;1;13
vivid.com;0;0;1;138
"art moderne sculpture";0;0;1;2
"movie maker";0;0;1;74
"gastineau massamba";0;0;1;5
"andy marilyn";0;0;2;17.5
"jimmy de bock";0;0;1;5
"puzzle captain america";0;0;1;63
"bernard moninot";0;0;14;6.7142857142857;0;0;4;6.5;0;0;6;7
"contemporary art gallery";0;0;1;19
"joan miro oeuvre";0;0;2;11
"andy warhol marilyn monroe";0;0;1;27
jonnbone;0;0;1;4
"s signées";0;0;1;157
"pascale cayla";0;0;2;10
"nicolas ducatteau";0;0;1;29
"thomas müller";0;0;1;41
"tatiana plotnikova";0;0;1;6
"andy warhol biographie";0;0;1;31
"samhart gallery";0;0;3;10.666666666667;0;0;2;10.5
"peinture douche";0;0;1;69
"nues feminin";0;0;3;15
"vincent ruffin";0;0;1;8;0;0;2;6.5
"stew street art";0;0;2;8;0;0;2;7
"whichever word";0;0;1;26
"hervé dirosa";0;0;2;3.5
francton;0;0;1;5
"marie maertens";0;0;6;6
"photographe lachapelle";0;0;1;9
"famous paintings by andy warhol";0;0;1;27
"luc dratwa";0;0;5;5.4;0;0;1;6
"oeuvres de banksy";0;0;9;9.1111111111111;0;0;1;11
"dollar blue";0;0;1;10
"keith haring œuvres d'art";0;0;4;9;0;0;3;10
"obey shepard fairey biographie";0;0;2;4;0;0;1;4
"awena cozannet";0;0;4;5.25
"eric lapierre artiste";0;0;1;1;0;0;1;2
"thierry diers";0;0;3;7
"chat peintre";0;0;1;9
"ford gt 40";0;0;1;69
"lucien gilson";0;0;1;4
"bob verschueren";0;0;3;6.3333333333333;0;0;1;5
"yayoi kusama oeuvre";0;0;3;10
"composants plastiques contact arles -";0;0;1;62
fkdl;0;0;4;4;0;0;3;5
"l signées";0;0;2;283.5
"orlan oeuvre";0;0;6;5.6666666666667;0;0;1;10
"jacques villéglé";0;0;1;4
"eduardo arroyo oeuvres";0;0;1;4
"retomber en enfance";0;0;2;22
"x d'aujourd'hui";0;0;2;284
"toile jonone";0;0;2;1
"raymond hains";0;0;15;6;0;0;2;8
"italiennes x";0;0;1;35
"9e concept";0;0;5;7
"thierry dussac";0;0;3;4.6666666666667
"ron english mcdonalds";0;0;1;5
"edouard buzon";0;0;1;2;0;0;1;2
"oeuvres jean dubuffet";0;0;1;6
"florence d'elle";0;0;1;2
"julie navarro";0;0;1;14
"antoine veron";0;0;1;9
"lolo x";0;0;1;22
"combas robert";0;0;1;3;0;0;1;4;0;0;2;4
"anne brunet";0;0;6;4.8333333333333;0;0;2;7.5
"voyeur x";0;0;1;60
mona;0;0;1;255
"daniel besseiche";0;0;1;15
keymi;0;0;4;7.5;0;0;2;9
"claude leveque";0;0;36;9.1666666666667;0;0;5;10;0;0;2;10.5
"gerard schlosser";0;0;1;5;0;0;1;5
"lou ros";0;0;5;5.8
"flower puppy koons";0;0;1;6
nadau;0;0;1;20;0;0;1;17
"christian zeimert";0;0;2;5
"batman pop art";0;0;1;25
"galerie argentic paris";0;0;1;5;0;0;1;9
"oeuvre d art asiatique";0;0;2;11
"alain godon";0;0;6;4.1666666666667;0;0;1;1
jef;0;0;1;15;0;0;1;17
stoul;0;0;2;7.5
"les galeries d'art";0;0;3;9.6666666666667
jefaerosol;0;0;1;5
"galerie bettina";0;0;3;7
"galerie street art en ligne";0;0;1;7;0;0;1;6
obam;0;0;1;79
"jeune artiste peintre contemporain";0;0;1;6
"isabelle espinoza";0;0;1;34
"art fessee";0;0;1;21
"tableau dubuffet";0;0;1;8
"pierre et gilles oeuvres";0;0;2;9;0;0;2;8
"bonhomme blanc équipe";0;0;1;9
"f martine";0;0;1;205
"damien gard";0;0;1;10
"andy warhol campbells";0;0;2;23
"warhol beans";0;0;2;9
"bubble shooter";0;0;2;148.5
"sabine danzé";0;0;1;5
artop;0;0;13;9;0;0;6;9.3333333333333;0;0;1;10
"galerie charron";0;0;1;4;0;0;1;5
hyber;0;0;3;5.3333333333333;0;0;1;7;0;0;1;7
"tapis boccara";0;0;1;7
"marty de montereau";0;0;1;1
braoudé;0;0;2;8;0;0;1;8;0;0;1;9
catte;0;0;5;2.2;0;0;10;4;0;0;1;8
"andrea michaelsson";0;0;1;2
"pierre alex";0;0;1;5;0;0;1;6;0;0;1;6
"marie taittinger";0;0;1;1
"quentin garel";0;0;4;4.25;0;0;2;5
"francisco sepulveda";0;0;1;9
cadeo;0;0;3;6.6666666666667;0;0;1;10
"hermann amann";0;0;3;3
monumentale;0;0;3;8
dan23;0;0;7;6.8571428571429;0;0;2;7
"gz store";0;0;4;3;0;0;2;3
"maxime frairot";0;0;1;4;0;0;3;4
"cesar le sculpteur";0;0;1;9
"aris messinis";0;0;5;8;0;0;1;7
zokatos;0;0;2;3
"tout compte fait vente en ligne";0;0;1;44
"unique gallery dubai";0;0;1;3
e-gallery;0;0;1;10
moya;0;0;1;24
"biographie dubuffet";0;0;1;4;0;0;1;3
"galerie nuances et lumière lyon";0;0;4;2
"mr dob";0;0;5;8;0;0;1;9
"hamish fulton";0;0;6;7;0;0;1;8
"charlelie couture peintre";0;0;1;2
"fred calmets";0;0;1;4
ebami;0;0;1;6
"manolo chretien";0;0;1;5;0;0;1;5
"pascal jacquot";0;0;1;2
ando;0;0;12;8.9166666666667;0;0;3;11.333333333333;0;0;1;11
"giulio parini";0;0;1;8
rivieras;0;0;3;96.666666666667
"guy boyer";0;0;4;7;0;0;2;6
"peintre couture";0;0;1;7
"philippe bonan";0;0;3;5;0;0;2;5;0;0;1;5
cieu;0;0;2;7.5;0;0;1;7
"rent a car";0;0;1;337
"eduardo kac";0;0;5;10;0;0;1;11
"aaron williams";0;0;3;15
"planette serie";0;0;5;3
"sabyl ghoussoub";0;0;1;22
"jérome mesnager";0;0;1;3
"murano lampe";0;0;1;26
"claude viallat";0;0;1;91
"andy warhol campbell";0;0;2;23
"bouquet d amour";0;0;1;24
"sunday b morning";0;0;3;26.333333333333
"banksy prix";0;0;1;5;0;0;4;7
"gallerie w";0;0;1;5
johnone;0;0;1;5;0;0;1;6
wildlike;0;0;1;14
"pierre de fenoyl";0;0;15;9.1333333333333;0;0;1;11;0;0;2;10
triglia;0;0;2;7
"oeuvre art";0;0;2;3
lazaky;0;0;1;1
"françois mendras";0;0;1;5
goet;0;0;1;11;0;0;1;11
guilleme;0;0;4;6.25
"arnold cedric";0;0;1;3
"emmanuelle bousquet photographe";0;0;1;1
misstic;0;0;20;9.1;0;0;5;9
"eduardo arroyo";0;0;3;9;0;0;2;8
"guy ferrer";0;0;1;9
"jr photos";0;0;1;1;0;0;1;1
"gregory berben";0;0;2;10;0;0;3;8
"sébastien bayet artiste peintre";0;0;1;1
"armand artiste";0;0;4;7
"philippe binder";0;0;1;11
"ki to la gloire";0;0;2;4.5;0;0;1;6
"achat photo d'art en ligne";0;0;1;1
"galerie claire corcia";0;0;2;6
"tilt graffiti";0;0;2;8
"artiste japonais contemporain";0;0;1;10
leyto;0;0;1;3
"guillaume piechaud";0;0;2;2.5
"art to be gallery";0;0;4;3
"peintre moya";0;0;1;11
"john levee";0;0;1;6
"luke newton artist";0;0;1;4
"soly cissé";0;0;1;7
"jeanne susplugas";0;0;1;3
boisrond;0;0;1;6
"tableau combas";0;0;1;2
"emmanuelle bousquet";0;0;3;8.6666666666667
"adeline spengler";0;0;3;3
"rita hayworth gilda";0;0;6;11.5
sarla;0;0;2;9
"galerie raison d'art";0;0;1;5
"jr artiste";0;0;8;2.5
"pierre marie brisson";0;0;1;1
"cyril paglino nu";0;0;3;9.3333333333333
"rob van hoek";0;0;4;2.75
"joelle troussier";0;0;1;4
"frederic blaimont";0;0;1;4
xintao;0;0;1;2
"galerie artiane";0;0;1;3
"laurence venet";0;0;1;1
"balloon dog prix";0;0;1;7
"laurent durrey";0;0;3;9.6666666666667
"clara poupel";0;0;1;1
"phillipe berry";0;0;1;1
"billet banksy";0;0;1;2
"cedric lollia";0;0;1;5
"cap ton";0;0;1;3
"galerie en ligne";0;0;1;2;0;0;1;2
"monsieur chat";0;0;9;8.4444444444444;0;0;1;6
"under construction gallery";0;0;1;5
orlinski;0;0;8;9.125
"jerry hall jeune";0;0;1;1
"e gallerues";0;0;1;10
"acheter une oeuvre d'art";0;0;1;1
"chat oreille ronde";0;0;1;8
"bernard rancillac";0;0;1;10;0;0;1;11
moscovino;0;0;2;4
"jacques ibert œuvres";0;0;1;6
"galerie sbk lyon";0;0;1;7
oxana;0;0;1;14
"jean michel basquiat oeuvres";0;0;6;9
"julien durix";0;0;6;6.3333333333333;0;0;3;1
"peter klasen artist";0;0;2;1.5
shuck2;0;0;1;7
"hervé lewis";0;0;1;3
"leila willis";0;0;1;4
"chenaux gallery";0;0;1;3
"romero britto sculpture";0;0;1;6
"thomas jorion";0;0;2;2
"sculpture jean dubuffet";0;0;3;8
"l'atlas street art";0;0;2;8;0;0;1;7
joneone;0;0;1;6;0;0;2;3
"art contemporain pas cher";0;0;1;3
inneart;0;0;1;3
"leopold rabus";0;0;3;6.6666666666667
glineur;0;0;1;11
"miro oeuvre";0;0;1;1
"sylvie guilleme";0;0;2;2.5
"tristan alexandre";0;0;3;2.6666666666667
"lokiss graffiti";0;0;2;10
"tableau on a vole la pomme d'adam";0;0;2;8
"oeuvre bansky";0;0;3;8
capton;0;0;8;5;0;0;4;5
"galerie nuances et lumière";0;0;3;3
"mira maodus";0;0;1;6;0;0;1;6
aboudia;0;0;1;5
"gérard rancinan";0;0;2;6.5
"artiste dubuffet";0;0;1;5
maodus;0;0;2;6
"klaus guingand";0;0;1;2
"jm artiste";0;0;1;2
"livre jr artiste";0;0;1;7
"x femme chien";0;0;1;21
"galerie martine ehmer";0;0;2;6
"sculpture monumentale";0;0;1;3
"francois boisrond";0;0;1;5
"oeuvres monumentales";0;0;1;6
"ramzi adek";0;0;1;5
"yazid oulab";0;0;2;4
"julia mangold";0;0;1;4
"peinture jimi hendrix";0;0;1;10
"peinture go on";0;0;2;10
labegorre;0;0;1;7
"crash artiste";0;0;1;1
"nicolas hugo";0;0;7;4.8571428571429;0;0;2;5
"brugier rigail";0;0;3;7
"di rosa sete";0;0;1;5
"willy ronis biographie";0;0;2;10;0;0;1;10
"artiste buffet";0;0;2;3.5
peinture;0;0;1;9
"galerie d'art contemporain";0;0;2;4;0;0;1;4
"tom wesselmann still life";0;0;2;10
"oeuvres de miro";0;0;1;1
osite;0;0;1;10
mapplethrope;0;0;1;11
qitete;0;0;1;8
"richard heeps";0;0;1;5
"peur art";0;0;2;1
"jean denis walter";0;0;1;10
"alexandra mercusot";0;0;1;25
"antoine cadeo";0;0;1;2
"thomas agrinier";0;0;1;4
"patrick bastardoz";0;0;2;4
"achat art";0;0;2;1
houtin;0;0;1;3
"banksy biographie";0;0;3;9.3333333333333
artyou;0;0;1;4
"galerie claudine legrand";0;0;1;5
"nolwenn samson";0;0;1;3
"tony frank";0;0;2;9
"galerie lacroix";0;0;11;9.0909090909091
"toma jankowski";0;0;1;3
"sculpture art moderne";0;0;1;2
"pierre budet";0;0;2;4
"oeuvres jock sturges";0;0;1;2
"anne catherine becker echivard";0;0;6;6.3333333333333
"james coignard";0;0;1;11
jr;0;0;4;1
"elodie lachaud";0;0;2;4;0;0;1;4
"yann houri";0;0;1;3
"tom wesselman";0;0;4;6;0;0;1;4
"zhang wei artist";0;0;1;3
"mendjisky peintre";0;0;1;4;0;0;1;4
"artistes turques";0;0;1;7
"oeuvre d'art geometrique";0;0;1;9
"philippe berry photo";0;0;1;1
"jean dubuffet peintre";0;0;4;4
"peinture jean dubuffet";0;0;1;6;0;0;1;6
"serge mendjisky";0;0;1;6
"claude l'eveque";0;0;1;7
triosur;0;0;1;17
"artiste contemporain belge";0;0;1;8
"momat paris";0;0;1;6
"didier hamey";0;0;1;7
"rose deep purple";0;0;1;7
"roland cat peintre";0;0;3;2
"sandra luv";0;0;1;8
"foot fetish";0;0;2;29
"peintre irlandais";0;0;1;7
"galerie ad montpellier";0;0;1;7
"bruno catalano prix sculptures";0;0;1;8
"jeunes artistes français";0;0;1;10
poés;0;0;1;2
mappeltorpe;0;0;1;11
"sarah maple";0;0;2;5.5;0;0;1;5
"dan 23";0;0;2;9
"site d'art contemporain";0;0;1;2
"boom art";0;0;3;4
"ad galerie montpellier";0;0;1;4
"guy de france";0;0;1;27
"john one street art";0;0;3;3
"hideki yoshida";0;0;1;8
"artistes allemands contemporains";0;0;1;10
"sultan gang";0;0;5;6
"cali rezo";0;0;2;9.5
"angel l ortiz";0;0;1;8
"sandra david";0;0;2;7
chamizo;0;0;3;10.333333333333
tanc;0;0;1;9;0;0;1;7
"planète serie";0;0;2;4
"oeuvres noir et blanc";0;0;1;12
"max charvolen";0;0;1;6
"banksy acheter";0;0;1;3
"alexandre joly artiste";0;0;1;5
argentic;0;0;4;8
"valerie le merrer";0;0;1;2
"messager annette";0;0;2;7
"les bons souvenirs";0;0;2;31
"romain semeteys";0;0;2;9
tudi;0;0;1;9
"thomas canto";0;0;2;7.5
grateau;0;0;1;10
"olivier masmonteil";0;0;1;7;0;0;2;7
"christophe fischer";0;0;1;8
ecloz;0;0;1;6
"hugo laruelle";0;0;1;5;0;0;1;5
"nadine vergues";0;0;1;7
krm;0;0;3;4.6666666666667;0;0;1;4
"hazuka jacek";0;0;1;2
"galerie laure roynette";0;0;2;7
"bastien cuenot";0;0;1;3
"jean faucheur";0;0;5;7
"vente sculpture";0;0;1;1
"bansky oeuvre";0;0;1;10
"le bel homme";0;0;3;2.3333333333333
"richard orlinski";0;0;19;10.052631578947;0;0;1;10
polic;0;0;1;10
"m le chat";0;0;2;9
"marcel dumont";0;0;1;7
"oeuvre dali";0;0;2;26
"voile orange";0;0;1;10
"colorfield gallery";0;0;2;5.5;0;0;1;6
"gilles candelier";0;0;1;9
galeries;0;0;2;8;0;0;5;7.6
iemza;0;0;1;6
"christophe charbonel";0;0;1;6
"des sardines";0;0;1;138
"keep calm and believe";0;0;1;8
"artlife gallery";0;0;1;9
"laure andre";0;0;6;8
"garel quentin";0;0;1;4
"marie brisson";0;0;1;3
"cesar oeuvres";0;0;1;5
"ar top";0;0;1;10
"grégoire léon guillemin";0;0;2;6
"marie laure vareilles";0;0;1;8
"cesar baldaccini";0;0;3;7.6666666666667
"clement alain";0;0;1;6
"trio sur";0;0;1;23
"ernest pignon ernest oeuvres";0;0;2;7.5;0;0;1;7
"murakami sculpture";0;0;3;4;0;0;1;4
"unik galerie";0;0;1;1
"laetitia merle";0;0;2;5
"djinane alsuwayeh";0;0;1;7
"oeuvre erro";0;0;3;8
"benjamin spark";0;0;3;6.6666666666667
"dire 132";0;0;2;6
durix;0;0;2;10
"toxic street art";0;0;1;4
gnidzaz;0;0;2;6
"galerie art contemporain en ligne";0;0;1;1
"shepard fairey obey";0;0;1;4
"shirley jaffe";0;0;3;6
"dali don";0;0;1;7
"street art galerie en ligne";0;0;1;6
"gerard fournier";0;0;1;20
"takashi murakami oeuvres";0;0;1;4
"jérémy chabaud";0;0;2;6.5
arietti;0;0;1;4
"open art galerie";0;0;1;6
"gerard escougnou";0;0;3;5
"christian chapiron";0;0;1;5;0;0;1;6
dtone;0;0;1;10
"galerie 22";0;0;1;10
"in italian basquiat";0;0;1;8
"planete serie";0;0;39;3.0769230769231;0;0;15;3
"abeille pixel art";0;0;1;1
"prix van hove";0;0;1;10
"cesar artiste";0;0;5;6
"louis blanc photographe";0;0;1;7
"nyaba leon ouedraogo";0;0;1;7
"galerie sylvie le page";0;0;2;3
"oeuvre monochrome";0;0;1;9
"christy lee rogers";0;0;1;3
"singier peintre";0;0;1;5
"orlan oeuvres";0;0;2;5.5
chubac;0;0;1;1
wunderlich;0;0;1;38
"banksy oeuvres";0;0;1;11
"peinture brisson";0;0;1;1
"photo surréaliste";0;0;1;10
"cesare callegari";0;0;1;1
"galerie catherine houard";0;0;3;5.6666666666667
"philippe charpentier";0;0;1;16
"salzmann gottfried";0;0;1;6
aroa;0;0;4;7;0;0;5;7
"kosta kulundzic";0;0;1;67
"francoise petrovitch";0;0;1;6;0;0;1;7
artvizor;0;0;1;2
"la souris sur le gateau";0;0;2;7.5
"étienne gros";0;0;2;4
"anne brégeaut";0;0;1;6
"galerie wagner";0;0;1;4
"peintre jean dubuffet";0;0;1;4
"matisse le cirque";0;0;1;9
"the dude company";0;0;1;2
"jean michel basquiat œuvres d'art";0;0;3;1
"ben bella artiste";0;0;1;8
"juliette montier";0;0;1;4
benetou;0;0;1;2
"galerie geraldine banier";0;0;3;8
"stéphane joannes";0;0;1;5
"bob verschueren land art";0;0;1;5
"olivier delobel";0;0;1;7
"rue 45";0;0;1;8
"césar sculpteur";0;0;3;11
"arno elias";0;0;1;7;0;0;1;5
tafeta;0;0;1;9
hatat;0;0;1;11
"antoine rose";0;0;3;4.3333333333333
bernardinism;0;0;1;8
"christophe charbonnel";0;0;3;6.3333333333333;0;0;4;6.25
"le chat street art";0;0;1;7
"cesar sculpteur";0;0;9;11;0;0;1;11
misstie;0;0;1;6
"marie drouet";0;0;1;9
"lindsay garreau";0;0;1;1
"catherine houard";0;0;2;6.5;0;0;1;7
"jean marie drouet";0;0;1;7;0;0;2;5
"andoche praudel";0;0;1;4
"galerie cédric bacqueville";0;0;2;4
"french art studio";0;0;1;7;0;0;1;8
jadikan;0;0;1;5
"guy oberson";0;0;1;10
"troy henriksen cote";0;0;3;3.6666666666667
nils-udo;0;0;2;6
chabiron;0;0;1;18
"dob murakami";0;0;1;7
"anette messager";0;0;2;9
"mahjoub ben bella";0;0;1;2
"noe two";0;0;1;3
"yayoi kusama œuvres d'art";0;0;1;9
laveri;0;0;1;7
"artistes ivoiriens";0;0;1;10
"bertrand desprez";0;0;1;9
"flipo pezenas";0;0;1;1
"galerie bacqueville";0;0;1;7;0;0;1;7
"peintre dubuffet";0;0;2;4;0;0;1;4
"painters project";0;0;1;9
"raynaud artiste";0;0;1;8
"sans titre 01";0;0;1;6
miss.tic;0;0;2;6.5
"luke newton";0;0;1;4
"maelle de coux";0;0;1;3
"di rosa";0;0;5;5;0;0;2;3
"arthur dorval";0;0;1;2
"hans withoos";0;0;1;6
"wilfred lang";0;0;2;6
"oeuvre en papier";0;0;1;7
"robert mapplethorpe oeuvres";0;0;1;5
"alexis gorodine";0;0;1;5
trovic;0;0;1;5
"jonas sunset";0;0;1;3
"michael aaron williams";0;0;3;5.6666666666667
koor;0;0;2;10
"galerie roy sfeir";0;0;1;5
"nathalie grall";0;0;1;7
conbas;0;0;2;6
"massimo vittali";0;0;1;6
"patrick delaunay";0;0;2;6
"bard artiste peintre";0;0;1;2
"ronald dupont";0;0;1;4;0;0;1;2
"miss tik";0;0;2;6.5;0;0;1;6
"schneider jean pierre";0;0;2;9
"oeuvre dubuffet";0;0;1;6
"art monochrome";0;0;2;7
"gottfried honegger";0;0;2;8
"oeuvre d'art rouge";0;0;1;6
"li wei";0;0;1;5
"dubuffet biographie";0;0;1;3
"crane papillon";0;0;1;3
"sculpture art contemporain";0;0;1;2;0;0;1;2
stani;0;0;2;7;0;0;3;7.3333333333333
"armand scholtes";0;0;1;2
"peintre japonais contemporain";0;0;2;9
"maelle nue";0;0;1;39
"mr chat";0;0;8;6.625;0;0;2;7
"thomas subtil";0;0;2;6.5
"miss tic artiste";0;0;1;5
"olivier lelong";0;0;1;3
"peter lippmann";0;0;1;4
"thierry bamas";0;0;2;18
"artiste ben";0;0;5;4.2
"nathalie grenier";0;0;3;6
"jean hélion";0;0;1;8
"lucien murat artiste";0;0;1;1
"ced vernay";0;0;1;4
"galerie chenaux";0;0;1;3
"galerie be";0;0;1;10
"herve lewis photo";0;0;3;5
"galerie ange basso";0;0;3;4
"biographie banksy";0;0;3;7.3333333333333
"galerie binome";0;0;2;6
"louis stettner";0;0;2;6;0;0;1;6
pornografie;0;0;1;20
"diane arbus œuvres d'art";0;0;1;7
"benjamin carbone";0;0;3;2
"francois morellet";0;0;2;8.5;0;0;3;9.6666666666667
"j'irai decrocher la lune";0;0;1;9
"kool koor";0;0;1;5;0;0;1;5
"amish fulton";0;0;1;8
"thomas verny peintre";0;0;1;1
"galerie urbaine uzes";0;0;2;5
"galerie vidal st phalle";0;0;1;5
"billet de banque banksy";0;0;2;3
"myriam baudin";0;0;1;5
"solene ballesta";0;0;1;5
"tony soulie";0;0;2;4;0;0;1;4
"banksy œuvres d'art";0;0;5;8.2
"anne cindric";0;0;1;10
"oxana x";0;0;1;15
"freud oeuvre";0;0;1;9
"claude lévêque";0;0;1;11
"anthony murphy";0;0;1;8
"christian croset";0;0;2;10
miistic;0;0;2;7;0;0;1;7
"john matos";0;0;1;6
"francois houtin";0;0;2;2
"richard avedon techniques";0;0;1;34
"seize happywallmaker";0;0;2;5
"vente d'art";0;0;1;2
"guillaume moschini";0;0;1;5
"murakami takashi oeuvres";0;0;3;5
"manu adam";0;0;1;10
"laurent dauptain";0;0;2;4
"nathalia rak";0;0;1;3
"sandro giordano";0;0;1;7
"oeuvres dubuffet";0;0;1;6
taran;0;0;1;19
"nu feminin";0;0;3;19.666666666667
"prix des sculptures de bruno catalano";0;0;1;8
"abie loy kemarre";0;0;1;7
"street art miss tic";0;0;1;8
"l'artiste ben";0;0;2;4
"""eva jospin""";0;0;3;10
"artiste cesar";0;0;1;9
baldaccini;0;0;1;9
"troy peintre";0;0;1;3
"didier hoffmann";0;0;1;9
"dumont marcel";0;0;1;6
"vente oeuvre d'art";0;0;1;1
"xin art";0;0;1;5
"photographie d'art contemporain";0;0;1;2
"john caroll";0;0;1;4
"kate barry";0;0;1;36
chenaux;0;0;1;88
"jacques de la villeglé";0;0;1;6
"richard levine";0;0;1;8
"oeuvre jean dubuffet";0;0;1;6
"hawkins and blue";0;0;1;4
"david gerstein";0;0;3;3.3333333333333
"annette messager oeuvres";0;0;2;7
"oswaldo guayasamin oeuvres";0;0;1;7
"henri de quatrebarbes";0;0;2;5
"aaron artiste";0;0;3;9.3333333333333
"christian renonciat";0;0;1;6
"michel bas";0;0;1;17
"kamel yahiaoui";0;0;1;10
"nieves mingueza";0;0;2;5
"peinture jeanne lorioz";0;0;1;7
"alain clément peintre";0;0;1;4
"hyber fabrice";0;0;1;8
"mesnager jerome";0;0;1;5
godon;0;0;1;4
"guy ferrer sculpteur";0;0;3;9
"dubuffet oeuvre";0;0;1;6
"lucien murat";0;0;1;3
"francois morellet oeuvre";0;0;1;6
"little pussy .";0;0;1;32
"artiste costa";0;0;1;4
"galerie 127";0;0;1;7
"catelain christophe";0;0;1;2
"artiste peintre julien";0;0;2;7
"mengzhi zheng";0;0;1;7
"francis latreille";0;0;2;4
villeglé;0;0;2;4
badri;0;0;1;64
"bilal bahir";0;0;1;1
"artiste chinois liu bolin";0;0;1;5
"michèle destarac";0;0;1;2
chirea;0;0;1;4
"stephane pencréac'h";0;0;1;8
"julien airault peintre";0;0;3;5
artsper.com;0;0;1;1
stuer;0;0;1;10
"jean michel basquiat in italian";0;0;1;8
"artiste keith haring";0;0;1;11
"olivier vincent artiste";0;0;1;3
"tete de panthere";0;0;1;9
"henri lamy";0;0;1;4
"robert combas peintre";0;0;2;5
"alain buyse";0;0;1;10
streetartgalerie;0;0;1;7
"gilles aillaud";0;0;1;1
"jasmine black";0;0;1;20
"photo art contemporain";0;0;1;2
"romain lardanchet";0;0;2;8
"oeuvre d'art indienne";0;0;1;10
"christophe charbonnel sculpteur";0;0;1;6
"exit art contemporain";0;0;1;5
"gilles capton";0;0;1;3
destarac;0;0;1;1
"beaufils jean luc";0;0;2;4
"lachapelle photographe";0;0;1;10
"carole goujon";0;0;1;2
"kate barry artist";0;0;1;6
"oeuvre d'art en papier";0;0;1;6
artachat;0;0;2;3
authouart;0;0;1;15
"le turk";0;0;2;10
kyokou;0;0;1;7
"julie mechali";0;0;1;8
"galerie d'art sur internet";0;0;1;1
basquiat;0;0;1;31
"eva jospin";0;0;2;10
"susan shup";0;0;2;4
"galerie schwab";0;0;1;8
mendjisky;0;0;2;9.5
"la chapelle photographe";0;0;1;9
"orlinski richard";0;0;1;9
gregos;0;0;1;7
"patrick moya";0;0;1;5
"mb factory chamonix";0;0;1;9
"jean faucheur street art";0;0;2;5
"hakim mouhous";0;0;1;10
"geneviève claisse";0;0;2;7
"qui est jean dubuffet";0;0;1;4
"mickael doucet";0;0;1;2
"isabeau jousse";0;0;1;4
"tom wesselmann oeuvres";0;0;1;1
"swim 3";0;0;1;9
"patrick bailly maitre grand";0;0;1;10
"veronique bourgeois";0;0;2;11
"objet d'art contemporain";0;0;1;2
"poes artiste";0;0;1;1
"guy de lussigny";0;0;1;8
"mon bolide";0;0;1;9
"wilson fisher";0;0;1;6
fulcrand;0;0;1;4
mr.chat;0;0;1;8
"damien hirst oeuvres";0;0;2;8
"catalano artiste";0;0;1;7
hedva;0;0;1;9
"nature morte rose";0;0;1;5
"galerie audet";0;0;2;6
"fin dac";0;0;1;12
"loan nguyen";0;0;2;8
"florent chopin peintre";0;0;1;5
"villegle jacques";0;0;3;4
