2015-09-22;810;0.049671920034341;16307;9.563990924143;589;0.050337577984788;11701;10.600803350141;126;0.039301310043668;3206;7.1656269494697;95;0.067857142857143;1400;6.3907142857143
2015-09-23;777;0.048405183154747;16052;9.2491901320708;561;0.049038461538462;11440;10.070804195804;125;0.040180006428801;3111;6.8248151719704;91;0.060626249167222;1501;8.0119920053298
2015-09-24;785;0.04970241863999;15794;9.2954286437888;583;0.05157466383581;11304;10.304051663128;126;0.039710053577056;3173;6.6804286164513;76;0.057706909643128;1317;6.9384965831435
2015-09-25;737;0.050451807228916;14608;9.3841730558598;505;0.049990100970105;10102;10.71322510394;159;0.049271769445305;3227;6.4744344592501;73;0.057075840500391;1279;6.2283033620016
2015-09-26;831;0.0528659583943;15719;8.2396462879318;462;0.04931682322801;9368;9.7429547395389;235;0.052608014327289;4467;5.837698679203;134;0.071125265392781;1884;6.4596602972399
2015-09-27;835;0.052158161034418;16009;9.2551065025923;521;0.051456790123457;10125;10.842666666667;177;0.044798785117692;3951;6.5446722348772;137;0.07087428867046;1933;6.4795654423176
2015-09-28;910;0.050173678116557;18137;8.7330319236919;669;0.050662627792503;13205;9.5547141234381;160;0.046043165467626;3475;6.543309352518;81;0.055593685655456;1457;6.5085792724777
2015-09-29;873;0.048871969993842;17863;8.7121983989252;625;0.04891602097519;12777;9.6818501995774;154;0.044728434504792;3443;6.5573627650305;94;0.057212416311625;1643;5.6871576384662
2015-09-30;922;0.05218178731111;17669;8.8126096553285;647;0.051069539821612;12669;9.6702975767622;159;0.045821325648415;3470;6.4907780979827;116;0.075816993464052;1530;6.9764705882353
2015-10-01;793;0.046379693531407;17098;9.3734354895309;571;0.046324841797826;12326;10.407918221645;144;0.042265923099501;3407;6.6530672145583;78;0.057142857142857;1365;6.821978021978
2015-10-02;735;0.04956169925826;14830;9.437963587323;525;0.051400039161935;10214;10.763168200509;127;0.038695917123705;3282;6.3842169408897;83;0.062218890554723;1334;6.804347826087
2015-10-03;762;0.052342354719055;14558;11.875463662591;452;0.050255726039582;8994;15.169001556593;186;0.0484375;3840;6.30859375;124;0.071925754060325;1724;7.092807424594
2015-10-04;907;0.051428895441143;17636;10.818949875255;566;0.049191726055971;11506;13.139753172258;199;0.048942449581899;4066;6.4640924741761;142;0.068798449612403;2064;6.4602713178295
2015-10-05;965;0.050044080277965;19283;16.537986827776;670;0.047143259217563;14212;20.015620602308;183;0.05187074829932;3528;6.6323696145125;112;0.072585871678548;1543;7.1555411535969
2015-10-06;831;0.044199776607627;18801;19.707781500984;620;0.044882003764297;13814;24.288692630665;146;0.041231290595877;3541;6.9909630048009;65;0.044951590594744;1446;7.0864453665284
2015-10-07;889;0.045101719851859;19711;17.721373852164;651;0.044276678228933;14703;21.427735836224;165;0.047291487532244;3489;6.8317569504156;73;0.04805793285056;1519;6.8584595128374
2015-10-08;793;0.040479836651353;19590;23.351403777437;563;0.038851701055828;14491;29.194327513629;136;0.037342119714443;3642;6.6235584843493;94;0.064516129032258;1457;7.0528483184626
2015-10-09;697;0.038973384030418;17884;23.988257660479;472;0.036725801431684;12852;30.900248988484;145;0.037997903563941;3816;6.331498951782;80;0.065789473684211;1216;6.3445723684211
2015-10-10;783;0.048925268682829;16004;22.04792551862;482;0.048456821152106;9947;31.595154317885;183;0.042847108405526;4271;6.2624678061344;118;0.066069428891377;1786;6.6243001119821
2015-10-11;943;0.052696283878178;17895;9.8445375803297;550;0.049688318727979;11069;11.927816424248;242;0.053303964757709;4540;6.3940528634361;151;0.066054243219598;2286;6.6097987751531
2015-10-12;915;0.04640430063901;19718;9.2080839841769;678;0.047011510192761;14422;10.136250173346;156;0.042003231017771;3714;6.7477113624125;81;0.051201011378003;1582;6.5227560050569
2015-10-13;843;0.042524213075061;19824;9.7826372074253;632;0.043526170798898;14520;10.797658402204;134;0.036011824778285;3721;6.8540714861596;77;0.048641819330385;1583;7.3562855337966
2015-10-14;748;0.041071820777509;18212;9.9511311223369;534;0.041533794819942;12857;11.289258769542;135;0.035695399259651;3782;6.6451612903226;79;0.050222504767959;1573;6.9624920534011
2015-10-15;810;0.047027403622852;17224;11.388759869949;568;0.045461821674404;12494;13.128301584761;159;0.046778464254192;3399;6.666372462489;83;0.062359128474831;1331;7.1194590533434
2015-10-16;728;0.04688003090991;15529;10.83192736171;502;0.046305691356886;10841;12.696153491375;139;0.040798356325213;3407;6.4464338127385;87;0.067915690866511;1281;6.7189695550351
2015-10-17;773;0.055567536481921;13911;10.834591330602;460;0.057001239157373;8070;13.959727385378;188;0.046731295053443;4023;6.5689783743475;125;0.068756875687569;1818;6.4015401540154
2015-10-18;835;0.05798208457746;14401;10.586417609888;471;0.055327146716786;8513;13.444379184776;214;0.055454781031355;3859;6.6149261466701;150;0.073928043371119;2029;6.1488417939872
2015-10-19;813;0.045663895753763;17804;11.460514491126;562;0.04395776300352;12785;13.201486116543;165;0.046400449943757;3556;7.0022497187852;86;0.058783321941217;1463;7.0827067669173
2015-10-20;877;0.04975039709553;17628;12.30043113229;573;0.044772620721988;12798;14.327551179872;186;0.053571428571429;3472;7.0097926267281;118;0.086892488954345;1358;6.7231222385862
2015-10-21;861;0.050916617386162;16910;10.013542282673;570;0.047923322683706;11894;11.444425760888;190;0.053355798932884;3561;6.6060095478798;101;0.069415807560137;1455;6.6563573883162
2015-10-22;917;0.052191235059761;17570;15.673249857712;612;0.04923572003218;12430;19.500160901046;199;0.052981895633653;3756;6.4483493077742;106;0.076589595375723;1384;6.3381502890173
2015-10-23;899;0.052919708029197;16988;15.13309394867;570;0.049492055222714;11517;19.261700095511;237;0.059727822580645;3968;6.2726814516129;92;0.061210911510313;1503;6.8888888888889
2015-10-24;876;0.05692007797271;15390;12.448797920728;469;0.052053274139845;9010;17.042619311876;289;0.062392055267703;4632;5.8911917098446;118;0.067505720823799;1748;6.1470251716247
2015-10-25;1019;0.06062228568029;16809;10.076982568862;556;0.056144602645663;9903;12.82954660204;304;0.06369159857532;4773;5.9983239053006;159;0.074542897327707;2133;6.4242850445382
2015-10-26;1073;0.056260486577181;19072;9.4138527684564;755;0.055608750092067;13577;10.469838697798;191;0.050104931794334;3812;6.7001573976915;127;0.075460487225193;1683;7.0415923945336
2015-10-27;972;0.050812901876732;19129;15.396204715354;689;0.050314006134073;13694;18.822184898496;176;0.046560846560847;3780;6.7092592592593;107;0.064652567975831;1655;6.8894259818731
2015-10-28;993;0.050988446726573;19475;17.886161745828;672;0.047859839042803;14041;22.288084894238;196;0.053030303030303;3696;6.5416666666667;125;0.071921749136939;1738;6.4487917146145
2015-10-29;952;0.047719298245614;19950;23.314536340852;642;0.043278953754887;14834;29.105298638263;210;0.057851239669421;3630;6.1909090909091;100;0.067294751009421;1486;7.3378196500673
2015-10-30;850;0.04705231109881;18065;13.17165790202;591;0.046627218934911;12675;15.911952662722;152;0.040511727078891;3752;6.6399253731343;107;0.065323565323565;1638;6.9285714285714
2015-10-31;806;0.053949129852744;14940;14.573293172691;466;0.050613663516889;9207;19.359400456175;213;0.053733602421796;3964;6.5764379414733;127;0.071791972866026;1769;7.5828151498021
2015-11-01;1081;0.053303747534517;20280;14.028303747535;628;0.048550444530344;12935;18.245071511403;264;0.054477919933966;4846;6.5761452744532;189;0.07563025210084;2499;6.6530612244898
2015-11-02;1017;0.051629607066707;19698;15.135800588892;741;0.050418452745458;14697;17.754984010342;156;0.044995673492933;3467;7.6988751081627;120;0.078226857887875;1534;6.8500651890482
2015-11-03;949;0.045168967158496;21010;13.738172298905;700;0.04433747149734;15788;15.881365594122;158;0.043347050754458;3645;7.1687242798354;91;0.057704502219404;1577;7.4660748256183
2015-11-04;1039;0.04626207756356;22459;14.798788904225;724;0.044194848003907;16382;17.80118422659;183;0.043633762517883;4194;6.7000476871722;132;0.070100902814657;1883;6.716409984068
2015-11-05;998;0.050812076778168;19641;11.339646657502;738;0.051666199943993;14284;12.971716605993;162;0.043724696356275;3705;6.6834008097166;98;0.059322033898305;1652;7.6707021791768
2015-11-06;907;0.051539947721332;17598;11.09989771565;621;0.050307841866494;12344;13.131075826312;164;0.046080359651588;3559;6.3298679404327;122;0.071976401179941;1695;6.3233038348083
2015-11-07;987;0.059887142770463;16481;9.2860263333536;564;0.05705037426664;9886;11.212320453166;256;0.056813138038171;4506;6.4345317354638;167;0.079942556247008;2089;6.3207276208712
2015-11-08;1098;0.054499429195414;20147;8.956867027349;715;0.053614277144571;13336;10.330608878224;215;0.04971098265896;4325;6.4242774566474;168;0.067578439259855;2486;5.9935639581657
2015-11-09;1005;0.049271951757611;20397;8.4070696671079;755;0.049749604638904;15176;8.9599367422246;149;0.041331484049931;3605;6.8443828016644;101;0.0625;1616;6.7011138613861
2015-11-10;882;0.046587787872385;18932;9.5874181280372;614;0.044752186588921;13720;10.67944606414;167;0.045591045591046;3663;6.7182637182637;101;0.065203357004519;1549;6.6998063266624
2015-11-11;1089;0.050370027752081;21620;9.8224791859389;703;0.049233139575601;14279;11.713775474473;226;0.049528818759588;4563;6.3833004602235;160;0.057595392368611;2778;5.7501799856012
2015-11-12;1099;0.05047767775124;21772;9.250413374977;795;0.049965432719502;15911;10.380240085475;191;0.04775;4000;6.1815;113;0.060720042987641;1861;6.1869962385814
2015-11-13;806;0.043699848189113;18444;11.187594881804;544;0.041212121212121;13200;13.069696969697;164;0.044686648501362;3670;6.5133514986376;98;0.062261753494282;1574;6.3024142312579
2015-11-14;631;0.044190769661741;14279;13.77442397927;385;0.042706600110926;9015;18.169495285635;154;0.042122538293217;3656;6.3339715536105;92;0.057213930348259;1608;6.0509950248756
2015-11-15;767;0.0454061094009;16892;10.933400426237;473;0.042755129711651;11063;13.237638976769;177;0.046371495939219;3817;6.4144616190726;117;0.058151093439364;2012;6.8364811133201
2015-11-16;816;0.04698836807555;17366;10.222734078084;599;0.046925186055621;12765;11.333490011751;129;0.041043588927776;3143;7.2052179446389;88;0.060356652949246;1458;7.002743484225
2015-11-17;882;0.045073589533933;19568;10.59985690924;650;0.04388037534598;14813;11.735502599068;146;0.043699491170308;3341;7.2571086501048;86;0.060820367751061;1414;6.6011315417256
2015-11-18;938;0.041272495269943;22727;40.387072644872;689;0.039324239484048;17521;50.486501911991;161;0.046197991391679;3485;6.4682926829268;88;0.051133062173155;1721;6.2527600232423
2015-11-19;866;0.036991158002648;23411;44.480073469736;611;0.034059869557946;17939;55.992195774569;156;0.040731070496084;3830;7.0169712793734;99;0.060292326431181;1642;6.0925700365408
2015-11-20;828;0.037173386010595;22274;45.062090329532;609;0.037440059018812;16266;58.355957211361;150;0.0335495414896;4471;9.8642361887721;69;0.044892648015615;1537;6.7612231620039
2015-11-21;930;0.044044518115084;21115;35.615060383614;552;0.039173940813285;14091;50.042296501313;215;0.046892039258451;4585;6.7121046892039;163;0.066830668306683;2439;6.5973759737597
2015-11-22;1138;0.049047495905525;23202;29.354840099991;699;0.044596146484624;15674;40.136021436774;268;0.055042103101253;4869;7.1836105976587;171;0.064309890936442;2659;6.4016547574276
2015-11-23;1055;0.041190020692617;25613;30.661734275563;764;0.038554703270085;19816;37.465684295519;165;0.041106128550075;4014;7.7306925759841;126;0.070667414469994;1783;6.6674144699944
2015-11-24;964;0.03818275438666;25247;25.554996633263;710;0.036458868234569;19474;31.057461230358;150;0.035945363048167;4173;7.3735921399473;104;0.065;1600;6.0025
2015-11-25;1217;0.03958109734283;30747;22.154096334602;853;0.038800946142649;21984;28.295305676856;207;0.033895529719993;6107;6.7889307352219;157;0.059111445783133;2656;6.6521084337349
2015-11-26;1036;0.043646781260533;23736;25.74085776879;736;0.042073972446121;17493;32.551191905334;176;0.039470733348284;4459;6.8154294684907;124;0.069506726457399;1784;6.265134529148
2015-11-27;845;0.036436548661119;23191;30.108447242465;611;0.035070600390311;17422;37.873435885662;164;0.039356851451884;4167;6.8132949364051;70;0.043695380774032;1602;6.2565543071161
2015-11-28;905;0.045268107242897;19992;28.886804721889;546;0.042233910891089;12928;41.256497524752;221;0.045389196960361;4869;6.3719449578969;138;0.062870159453303;2195;5.9753986332574
2015-11-29;1263;0.054789172306091;23052;16.598473017526;757;0.051381252969524;14733;22.277404466164;302;0.057370820668693;5264;6.5898556231003;204;0.066775777414075;3055;6.4569558101473
2015-11-30;1153;0.046491935483871;24800;11.790362903226;841;0.048015986297459;17515;11.400399657436;181;0.033506108848575;5402;14.895594224361;131;0.069569835369092;1883;6.5092936802974
2015-12-01;975;0.043839928057554;22240;9.7554856115108;708;0.044178210408087;16026;10.851304130787;171;0.038863636363636;4400;6.9797727272727;96;0.052921719955899;1814;6.8070562293275
2015-12-02;1039;0.043521970426842;23873;11.98089892347;755;0.044214101663153;17076;14.002869524479;184;0.03818219547624;4819;6.9230130732517;100;0.050556117290192;1978;6.8478260869565
2015-12-03;976;0.044283121597096;22040;12.18221415608;714;0.044485981308411;16050;14.097943925234;172;0.039768786127168;4325;7.0517919075145;90;0.054054054054054;1665;7.042042042042
2015-12-04;889;0.041451018790507;21447;12.970765141978;620;0.040810953133228;15192;15.468931016324;178;0.040408626560726;4405;6.9153234960272;91;0.049189189189189;1850;6.8745945945946
2015-12-05;1014;0.055057827007656;18417;9.4366074822175;602;0.05652051450568;10651;11.384846493287;247;0.04703865930299;5251;6.8007998476481;165;0.065606361829026;2515;6.6890656063618
2015-12-06;1183;0.055223601904584;21422;8.9378209317524;690;0.054223968565815;12725;10.471669941061;292;0.05182818601349;5634;6.8004969826056;201;0.06562193927522;3063;6.4968984655566
2015-12-07;1109;0.045965101338749;24127;14.836780370539;774;0.044188170815255;17516;16.890500114181;224;0.046501972181856;4817;10.305791986714;111;0.061872909698997;1794;6.9509476031215
2015-12-08;1085;0.045350052246604;23925;14.258641588297;811;0.045643854119766;17768;16.766377757767;165;0.037482962289868;4402;7.0799636528851;109;0.062108262108262;1755;6.8757834757835
2015-12-09;1052;0.047122060470325;22325;13.71444568869;753;0.046281499692686;16270;16.277135832821;185;0.042943361188487;4308;6.8688486536676;114;0.065254722381225;1747;6.728677733257
2015-12-10;1055;0.047356136098393;22278;11.417317532992;729;0.046142160896259;15799;13.409203114121;192;0.042421564295183;4526;6.6579761378701;134;0.068612391193036;1953;6.3333333333333
2015-12-11;957;0.04244655371241;22546;18.465891954227;655;0.040132344831812;16321;22.918693707493;178;0.039406685853443;4517;6.7808279831747;124;0.072599531615925;1708;6.8190866510539
2015-12-12;947;0.045645153516171;20747;18.255506820263;543;0.041402973694243;13115;24.983072817385;261;0.050019164430816;5218;6.7144499808356;143;0.05923777961889;2414;6.6520298260149
2015-12-13;1066;0.051569832131972;20671;11.05229548643;641;0.04989103362391;12848;13.670765877958;253;0.049881703470032;5072;6.9132492113565;172;0.062522719011269;2751;6.4543802253726
2015-12-14;1024;0.042812944226106;23918;14.997533238565;768;0.043129106531139;17807;17.724995788173;163;0.037951105937136;4295;7.0109429569267;93;0.051211453744493;1816;7.1420704845815
2015-12-15;1004;0.044578634224314;22522;12.836870615398;698;0.042300466638386;16501;15.024422762257;190;0.043869776033249;4331;6.8513045486031;116;0.068639053254438;1690;6.8171597633136
2015-12-16;901;0.04350135187331;20712;10.728804557744;598;0.041332596074095;14468;12.38422726016;196;0.043574922187639;4498;6.8799466429524;107;0.061282932416953;1746;6.9266895761741
2015-12-17;868;0.044668587896254;19432;11.97977562783;586;0.04301233118027;13624;14.298517322372;179;0.042710570269625;4191;6.4607492245288;103;0.063698206555349;1617;6.747680890538
2015-12-18;756;0.046491605682307;16261;12.319107065986;514;0.046974958874063;10942;15.141656004387;145;0.037672122629254;3849;6.5071447129124;97;0.065986394557823;1470;6.5272108843537
2015-12-19;724;0.0476880516401;15182;16.007772362008;377;0.043268678985424;8713;22.975209457133;199;0.04454891426013;4467;6.7951645399597;148;0.073926073926074;2002;6.2402597402597
2015-12-20;774;0.049450549450549;15652;10.884551495017;386;0.043346434587311;8905;14.120044918585;249;0.054402447017697;4577;6.537906925934;139;0.064055299539171;2170;6.7751152073733
2015-12-21;764;0.04142493086808;18443;12.751992625929;519;0.041121939624435;12621;15.505031297045;156;0.037347378501317;4177;6.8436677040938;89;0.054103343465046;1645;6.6322188449848
2015-12-22;739;0.041025925720313;18013;20.298340087714;477;0.038532999434526;12379;25.763955085225;159;0.039172209903917;4059;8.8940625769894;103;0.065396825396825;1575;6.7307936507937
2015-12-23;628;0.036991223419921;16977;28.535783707369;397;0.034387180597661;11545;38.688263317453;152;0.039256198347107;3872;6.8613119834711;79;0.050641025641026;1560;7.1980769230769
2015-12-24;469;0.03734076433121;12560;19.926831210191;254;0.034338245234555;7397;29.156549952684;144;0.03672532517215;3921;6.7929099719459;71;0.057165861513688;1242;6.4210950080515
2015-12-25;592;0.043748152527343;13532;13.082027785989;272;0.041087613293051;6620;19.816012084592;207;0.040406012102284;5123;6.6398594573492;113;0.063163778647289;1789;6.6115148127446
