2015-09-21;155;0.030808984297356;5031;22.022460743391
2015-09-28;202;0.043989547038328;4592;27.58362369338
2015-10-05;167;0.033853638759376;4933;32.523008311372
2015-10-12;187;0.031418010752688;5952;47.798051075269
2015-10-19;200;0.029980512666767;6671;58.88082746215
2015-10-26;147;0.024114173228346;6096;52.521817585302
2015-11-02;199;0.032231940395206;6174;48.347424684159
2015-11-09;209;0.03468304015931;6026;27.934118818453
2015-11-16;169;0.030599311968133;5523;34.381314502988
2015-11-23;188;0.028169014084507;6674;43.54839676356
2015-11-30;189;0.025009924573243;7557;46.324467381236
2015-12-07;213;0.031076743507441;6854;38.587248322148
2015-12-14;192;0.029357798165138;6540;41.430122324159
2015-12-21;145;0.026435733819508;5485;54.29644484959
